Ep: 1   EpTime: 169.1293 	 Trainloss: 4.5564   Testloss: 4.2281  trainAcc 4.74 top1 8.3810   top5 25.6491
Ep: 2   EpTime: 137.5364 	 Trainloss: 4.0803   Testloss: 3.8224  trainAcc 9.93 top1 13.1178   top5 35.7845
Ep: 3   EpTime: 152.7483 	 Trainloss: 3.6962   Testloss: 3.4581  trainAcc 15.69 top1 19.4286   top5 46.0000
Ep: 4   EpTime: 144.4924 	 Trainloss: 3.4035   Testloss: 3.0338  trainAcc 20.50 top1 27.0927   top5 56.5063
Ep: 5   EpTime: 143.5893 	 Trainloss: 3.1742   Testloss: 3.0618  trainAcc 25.10 top1 28.4311   top5 56.6767
Ep: 6   EpTime: 151.8193 	 Trainloss: 2.9863   Testloss: 2.6117  trainAcc 28.65 top1 36.4962   top5 65.3434
Ep: 7   EpTime: 137.6804 	 Trainloss: 2.8260   Testloss: 2.4843  trainAcc 31.95 top1 38.8772   top5 67.9449
Ep: 8   EpTime: 148.5428 	 Trainloss: 2.6796   Testloss: 2.4303  trainAcc 34.98 top1 40.2005   top5 69.0226
Ep: 9   EpTime: 143.9393 	 Trainloss: 2.5605   Testloss: 2.3427  trainAcc 37.46 top1 42.0200   top5 71.2782
Ep: 10   EpTime: 145.6208 	 Trainloss: 2.4615   Testloss: 2.3354  trainAcc 39.90 top1 43.6140   top5 71.4236
Ep: 11   EpTime: 148.9058 	 Trainloss: 2.3887   Testloss: 2.1099  trainAcc 41.56 top1 47.3534   top5 74.9825
Ep: 12   EpTime: 137.9099 	 Trainloss: 2.3176   Testloss: 2.0738  trainAcc 43.03 top1 48.6115   top5 76.0601
Ep: 13   EpTime: 150.8260 	 Trainloss: 2.2536   Testloss: 2.0666  trainAcc 44.64 top1 48.2506   top5 76.4912
Ep: 14   EpTime: 141.8354 	 Trainloss: 2.1897   Testloss: 1.9920  trainAcc 46.15 top1 50.3910   top5 77.5539
Ep: 15   EpTime: 145.6732 	 Trainloss: 2.1280   Testloss: 1.9161  trainAcc 47.23 top1 52.1955   top5 79.0576
Ep: 16   EpTime: 150.4138 	 Trainloss: 2.0849   Testloss: 1.8770  trainAcc 48.22 top1 52.5815   top5 79.1980
Ep: 17   EpTime: 136.5275 	 Trainloss: 2.0287   Testloss: 1.8215  trainAcc 49.68 top1 54.0000   top5 80.0702
Ep: 18   EpTime: 150.4359 	 Trainloss: 1.9945   Testloss: 1.8588  trainAcc 50.18 top1 53.2080   top5 79.4637
Ep: 19   EpTime: 144.6607 	 Trainloss: 1.9582   Testloss: 1.8334  trainAcc 51.22 top1 54.7769   top5 79.8296
Ep: 20   EpTime: 147.5022 	 Trainloss: 1.6955   Testloss: 1.5320  trainAcc 57.58 top1 60.8521   top5 84.1103
Ep: 21   EpTime: 150.3314 	 Trainloss: 1.6166   Testloss: 1.5425  trainAcc 59.52 top1 60.5313   top5 84.0401
Ep: 22   EpTime: 137.7600 	 Trainloss: 1.5876   Testloss: 1.4848  trainAcc 60.18 top1 61.9950   top5 84.7569
Ep: 23   EpTime: 150.9945 	 Trainloss: 1.5687   Testloss: 1.4552  trainAcc 60.55 top1 62.6015   top5 85.4035
Ep: 24   EpTime: 143.1998 	 Trainloss: 1.5511   Testloss: 1.4597  trainAcc 60.84 top1 62.6115   top5 84.9073
Ep: 25   EpTime: 144.8482 	 Trainloss: 1.5277   Testloss: 1.4748  trainAcc 61.41 top1 62.3709   top5 85.1378
Ep: 26   EpTime: 153.5858 	 Trainloss: 1.5202   Testloss: 1.4737  trainAcc 61.68 top1 62.3459   top5 85.2281
Ep: 27   EpTime: 136.2714 	 Trainloss: 1.5040   Testloss: 1.4515  trainAcc 61.91 top1 62.8120   top5 85.2932
Ep: 28   EpTime: 151.2254 	 Trainloss: 1.4919   Testloss: 1.4631  trainAcc 62.30 top1 63.1128   top5 85.5038
Ep: 29   EpTime: 141.5941 	 Trainloss: 1.4731   Testloss: 1.4133  trainAcc 62.62 top1 64.1103   top5 85.9148
Ep: 30   EpTime: 147.1953 	 Trainloss: 1.4606   Testloss: 1.3702  trainAcc 62.92 top1 64.5013   top5 86.5915
Ep: 31   EpTime: 152.8162 	 Trainloss: 1.4540   Testloss: 1.4659  trainAcc 63.13 top1 62.6767   top5 85.2882
Ep: 32   EpTime: 136.8361 	 Trainloss: 1.4521   Testloss: 1.3984  trainAcc 63.11 top1 63.9749   top5 86.2206
Ep: 33   EpTime: 148.8575 	 Trainloss: 1.4372   Testloss: 1.3511  trainAcc 63.36 top1 65.4486   top5 86.8321
Ep: 34   EpTime: 148.4124 	 Trainloss: 1.4250   Testloss: 1.5007  trainAcc 63.92 top1 62.9173   top5 85.2331
Ep: 35   EpTime: 143.6771 	 Trainloss: 1.4064   Testloss: 1.4197  trainAcc 64.00 top1 64.3459   top5 86.0702
Ep: 36   EpTime: 149.5014 	 Trainloss: 1.4053   Testloss: 1.4335  trainAcc 64.41 top1 63.7544   top5 85.3734
Ep: 37   EpTime: 134.5616 	 Trainloss: 1.4025   Testloss: 1.3641  trainAcc 64.37 top1 64.9624   top5 86.3058
Ep: 38   EpTime: 147.2968 	 Trainloss: 1.3872   Testloss: 1.3556  trainAcc 64.58 top1 65.4937   top5 86.7068
Ep: 39   EpTime: 145.4476 	 Trainloss: 1.3806   Testloss: 1.4244  trainAcc 64.83 top1 64.4662   top5 85.9348
Ep: 40   EpTime: 142.4590 	 Trainloss: 1.3355   Testloss: 1.3174  trainAcc 65.75 top1 66.3659   top5 87.1529
Ep: 41   EpTime: 153.6362 	 Trainloss: 1.3229   Testloss: 1.3312  trainAcc 66.47 top1 66.0952   top5 87.0326
Ep: 42   EpTime: 135.0652 	 Trainloss: 1.3170   Testloss: 1.4149  trainAcc 66.56 top1 64.4612   top5 85.7494
Ep: 43   EpTime: 147.7175 	 Trainloss: 1.3112   Testloss: 1.3200  trainAcc 66.62 top1 65.9499   top5 87.2331
Ep: 44   EpTime: 146.7822 	 Trainloss: 1.3084   Testloss: 1.3829  trainAcc 66.73 top1 64.4712   top5 86.3659
Ep: 45   EpTime: 143.7604 	 Trainloss: 1.3027   Testloss: 1.3294  trainAcc 66.87 top1 66.3559   top5 87.0175
Ep: 46   EpTime: 145.9550 	 Trainloss: 1.3057   Testloss: 1.3915  trainAcc 66.65 top1 64.7569   top5 86.1454
Ep: 47   EpTime: 135.1528 	 Trainloss: 1.3080   Testloss: 1.3294  trainAcc 66.67 top1 65.8396   top5 86.9424
Ep: 48   EpTime: 151.3052 	 Trainloss: 1.2969   Testloss: 1.3633  trainAcc 66.98 top1 65.1429   top5 86.7218
Ep: 49   EpTime: 142.2881 	 Trainloss: 1.2960   Testloss: 1.3473  trainAcc 66.97 top1 65.4236   top5 86.7569
Ep: 50   EpTime: 147.2373 	 Trainloss: 1.2979   Testloss: 1.3027  trainAcc 66.99 top1 66.5664   top5 87.3634
Ep: 51   EpTime: 151.2294 	 Trainloss: 1.2832   Testloss: 1.2974  trainAcc 67.26 top1 66.6416   top5 87.6190
Ep: 52   EpTime: 135.3088 	 Trainloss: 1.2928   Testloss: 1.3108  trainAcc 67.00 top1 66.3910   top5 87.3985
Ep: 53   EpTime: 150.3620 	 Trainloss: 1.2868   Testloss: 1.3316  trainAcc 67.00 top1 66.0952   top5 87.2080
Ep: 54   EpTime: 146.3106 	 Trainloss: 1.2910   Testloss: 1.3252  trainAcc 67.16 top1 66.2707   top5 87.2180
Ep: 55   EpTime: 147.1302 	 Trainloss: 1.2853   Testloss: 1.3671  trainAcc 67.38 top1 65.3233   top5 86.5063
Ep: 56   EpTime: 151.5379 	 Trainloss: 1.2842   Testloss: 1.4138  trainAcc 67.37 top1 64.2757   top5 86.1704
Ep: 57   EpTime: 134.7283 	 Trainloss: 1.2862   Testloss: 1.3140  trainAcc 67.07 top1 66.6115   top5 87.3784
Ep: 58   EpTime: 152.2071 	 Trainloss: 1.2813   Testloss: 1.3781  trainAcc 67.37 top1 65.4236   top5 86.4561
Ep: 59   EpTime: 145.1754 	 Trainloss: 1.2779   Testloss: 1.3436  trainAcc 67.44 top1 65.4436   top5 86.9875
Ep: 60   EpTime: 147.8050 	 Trainloss: 1.2751   Testloss: 1.3822  trainAcc 67.61 top1 65.5990   top5 86.7970
Ep: 61   EpTime: 153.1882 	 Trainloss: 1.2745   Testloss: 1.4126  trainAcc 67.53 top1 64.8371   top5 85.9950
Ep: 62   EpTime: 135.2752 	 Trainloss: 1.2703   Testloss: 1.3361  trainAcc 67.45 top1 65.8697   top5 86.8221
Ep: 63   EpTime: 148.6338 	 Trainloss: 1.2778   Testloss: 1.3321  trainAcc 67.34 top1 65.5890   top5 87.0376
Ep: 64   EpTime: 148.7013 	 Trainloss: 1.2740   Testloss: 1.2684  trainAcc 67.48 top1 67.2732   top5 87.7494
Ep: 65   EpTime: 143.8298 	 Trainloss: 1.2741   Testloss: 1.3059  trainAcc 67.43 top1 66.4311   top5 87.3734
Ep: 66   EpTime: 151.7878 	 Trainloss: 1.2688   Testloss: 1.3826  trainAcc 67.63 top1 64.5564   top5 86.2306
Ep: 67   EpTime: 130.4101 	 Trainloss: 1.2656   Testloss: 1.3294  trainAcc 67.70 top1 66.1353   top5 87.1930
Ep: 68   EpTime: 143.9479 	 Trainloss: 1.2770   Testloss: 1.3512  trainAcc 67.53 top1 65.6892   top5 86.8271
Ep: 69   EpTime: 144.5112 	 Trainloss: 1.2784   Testloss: 1.3219  trainAcc 67.37 top1 66.2306   top5 86.8571
Ep: 70   EpTime: 138.7637 	 Trainloss: 1.2727   Testloss: 1.4325  trainAcc 67.44 top1 64.3860   top5 85.6241
Ep: 71   EpTime: 148.0644 	 Trainloss: 1.2688   Testloss: 1.3518  trainAcc 67.65 top1 66.2506   top5 86.7870
Ep: 72   EpTime: 134.3929 	 Trainloss: 1.2727   Testloss: 1.4167  trainAcc 67.48 top1 64.9123   top5 85.9148
Ep: 73   EpTime: 145.1091 	 Trainloss: 1.2722   Testloss: 1.4456  trainAcc 67.48 top1 63.0476   top5 85.3083
Ep: 74   EpTime: 143.4832 	 Trainloss: 1.2771   Testloss: 1.3435  trainAcc 67.64 top1 65.7794   top5 86.6566
Ep: 75   EpTime: 138.0374 	 Trainloss: 1.2638   Testloss: 1.3358  trainAcc 67.91 top1 66.2506   top5 87.1078
Ep: 76   EpTime: 149.6638 	 Trainloss: 1.2721   Testloss: 1.2962  trainAcc 67.50 top1 66.5263   top5 87.2982
Ep: 77   EpTime: 133.7803 	 Trainloss: 1.2724   Testloss: 1.3641  trainAcc 67.64 top1 65.3333   top5 86.3058
Ep: 78   EpTime: 143.2763 	 Trainloss: 1.2670   Testloss: 1.4821  trainAcc 67.61 top1 63.2080   top5 85.2080
Ep: 79   EpTime: 144.6922 	 Trainloss: 1.2743   Testloss: 1.3470  trainAcc 67.51 top1 65.5639   top5 86.8371
Ep: 80   EpTime: 139.1709 	 Trainloss: 1.2637   Testloss: 1.2874  trainAcc 67.60 top1 66.9574   top5 87.8797
Ep: 81   EpTime: 146.7732 	 Trainloss: 1.2669   Testloss: 1.3221  trainAcc 67.56 top1 66.3960   top5 87.1529
Ep: 82   EpTime: 131.5889 	 Trainloss: 1.2697   Testloss: 1.3664  trainAcc 67.64 top1 64.8672   top5 86.4311
Ep: 83   EpTime: 145.4439 	 Trainloss: 1.2762   Testloss: 1.3027  trainAcc 67.51 top1 66.4712   top5 87.2431
Ep: 84   EpTime: 141.0535 	 Trainloss: 1.2612   Testloss: 1.3425  trainAcc 67.87 top1 65.7343   top5 86.9023
Ep: 85   EpTime: 139.1160 	 Trainloss: 1.2679   Testloss: 1.3814  trainAcc 67.70 top1 65.0827   top5 86.3709
Ep: 86   EpTime: 148.4914 	 Trainloss: 1.2707   Testloss: 1.3536  trainAcc 67.60 top1 65.5689   top5 86.6115
Ep: 87   EpTime: 132.5310 	 Trainloss: 1.2709   Testloss: 1.2938  trainAcc 67.88 top1 66.7168   top5 87.3283
Ep: 88   EpTime: 144.4273 	 Trainloss: 1.2757   Testloss: 1.3119  trainAcc 67.39 top1 66.7769   top5 87.3083
Ep: 89   EpTime: 144.3093 	 Trainloss: 1.2718   Testloss: 1.3139  trainAcc 67.68 top1 66.2807   top5 87.2732
Ep: 90   EpTime: 139.3567 	 Trainloss: 1.2674   Testloss: 1.2846  trainAcc 67.68 top1 66.9574   top5 87.6140
Ep: 91   EpTime: 149.6489 	 Trainloss: 1.2679   Testloss: 1.3765  trainAcc 67.69 top1 65.7293   top5 86.4311
Ep: 92   EpTime: 134.0236 	 Trainloss: 1.2676   Testloss: 1.3329  trainAcc 67.65 top1 66.4060   top5 87.1178
Ep: 93   EpTime: 141.9569 	 Trainloss: 1.2628   Testloss: 1.3270  trainAcc 67.83 top1 65.9449   top5 86.8772
Ep: 94   EpTime: 146.8038 	 Trainloss: 1.2660   Testloss: 1.3517  trainAcc 67.50 top1 65.6090   top5 86.4662
Ep: 95   EpTime: 137.4410 	 Trainloss: 1.2671   Testloss: 1.3340  trainAcc 67.76 top1 66.5163   top5 87.0576
Ep: 96   EpTime: 146.8791 	 Trainloss: 1.2685   Testloss: 1.3157  trainAcc 67.80 top1 66.5514   top5 87.2932
Ep: 97   EpTime: 130.7358 	 Trainloss: 1.2697   Testloss: 1.3275  trainAcc 67.72 top1 66.0652   top5 87.2331
Ep: 98   EpTime: 147.9606 	 Trainloss: 1.2722   Testloss: 1.3425  trainAcc 67.54 top1 65.6792   top5 86.9674
Ep: 99   EpTime: 142.9246 	 Trainloss: 1.2684   Testloss: 1.3039  trainAcc 67.71 top1 66.8020   top5 87.3283
Ep: 100   EpTime: 137.6908 	 Trainloss: 1.2660   Testloss: 1.3116  trainAcc 67.73 top1 66.4612   top5 87.2531
Ep: 101   EpTime: 146.5223 	 Trainloss: 1.2726   Testloss: 1.3790  trainAcc 67.69 top1 65.1980   top5 86.4762
Ep: 102   EpTime: 129.4817 	 Trainloss: 1.2595   Testloss: 1.3400  trainAcc 67.81 top1 66.0451   top5 87.0727
Ep: 103   EpTime: 145.8189 	 Trainloss: 1.2701   Testloss: 1.2855  trainAcc 67.67 top1 67.2932   top5 87.5789
Ep: 104   EpTime: 140.9535 	 Trainloss: 1.2646   Testloss: 1.3610  trainAcc 67.76 top1 65.8897   top5 86.6717
Ep: 105   EpTime: 140.3830 	 Trainloss: 1.2692   Testloss: 1.3112  trainAcc 67.62 top1 66.3860   top5 87.2632
Ep: 106   EpTime: 145.0580 	 Trainloss: 1.2684   Testloss: 1.3244  trainAcc 67.62 top1 66.3609   top5 87.0827
Ep: 107   EpTime: 132.4861 	 Trainloss: 1.2714   Testloss: 1.3857  trainAcc 67.62 top1 65.2080   top5 85.9850
Ep: 108   EpTime: 148.1861 	 Trainloss: 1.2697   Testloss: 1.3346  trainAcc 67.58 top1 66.3459   top5 86.9424
Ep: 109   EpTime: 140.1698 	 Trainloss: 1.2696   Testloss: 1.5166  trainAcc 67.54 top1 63.2531   top5 85.0827
Ep: 110   EpTime: 144.1014 	 Trainloss: 1.2656   Testloss: 1.3422  trainAcc 67.67 top1 65.6792   top5 86.7920
Ep: 111   EpTime: 147.1646 	 Trainloss: 1.2749   Testloss: 1.3372  trainAcc 67.57 top1 66.0702   top5 87.1128
Ep: 112   EpTime: 131.5266 	 Trainloss: 1.2751   Testloss: 1.3198  trainAcc 67.52 top1 66.2356   top5 87.1328
Ep: 113   EpTime: 146.2172 	 Trainloss: 1.2775   Testloss: 1.3488  trainAcc 67.43 top1 65.6291   top5 86.6767
Ep: 114   EpTime: 141.8377 	 Trainloss: 1.2754   Testloss: 1.2937  trainAcc 67.56 top1 66.6867   top5 87.3133
Ep: 115   EpTime: 140.1306 	 Trainloss: 1.2697   Testloss: 1.3173  trainAcc 67.54 top1 66.2005   top5 87.3584
Ep: 116   EpTime: 149.0561 	 Trainloss: 1.2708   Testloss: 1.3069  trainAcc 67.38 top1 66.6266   top5 87.1980
Ep: 117   EpTime: 131.2503 	 Trainloss: 1.2700   Testloss: 1.3831  trainAcc 67.52 top1 64.9774   top5 86.3108
Ep: 118   EpTime: 145.5811 	 Trainloss: 1.2696   Testloss: 1.3238  trainAcc 67.70 top1 66.1955   top5 87.0075
Ep: 119   EpTime: 141.6376 	 Trainloss: 1.2731   Testloss: 1.3341  trainAcc 67.75 top1 66.2005   top5 87.2180
Ep: 120   EpTime: 142.2288 	 Trainloss: 1.2639   Testloss: 1.4007  trainAcc 67.73 top1 64.3158   top5 86.0251
Ep: 121   EpTime: 145.7596 	 Trainloss: 1.2649   Testloss: 1.3493  trainAcc 67.81 top1 65.3033   top5 87.0075
Ep: 122   EpTime: 133.1807 	 Trainloss: 1.2679   Testloss: 1.3333  trainAcc 67.82 top1 65.9549   top5 86.7368
Ep: 123   EpTime: 149.2307 	 Trainloss: 1.2624   Testloss: 1.3930  trainAcc 67.73 top1 64.2957   top5 86.1002
Ep: 124   EpTime: 138.2948 	 Trainloss: 1.2631   Testloss: 1.3170  trainAcc 67.85 top1 66.1805   top5 87.1178
Ep: 125   EpTime: 144.2766 	 Trainloss: 1.2734   Testloss: 1.3902  trainAcc 67.53 top1 64.9073   top5 86.0551
Ep: 126   EpTime: 125.5749 	 Trainloss: 1.2670   Testloss: 1.3329  trainAcc 67.73 top1 65.9649   top5 86.9474
Ep: 127   EpTime: 122.4625 	 Trainloss: 1.2743   Testloss: 1.3189  trainAcc 67.54 top1 66.5915   top5 87.2030
Ep: 128   EpTime: 120.9738 	 Trainloss: 1.2680   Testloss: 1.3780  trainAcc 67.56 top1 65.4236   top5 86.6516
Ep: 129   EpTime: 121.7070 	 Trainloss: 1.2618   Testloss: 1.3345  trainAcc 67.81 top1 65.9098   top5 86.7870
Ep: 130   EpTime: 121.6902 	 Trainloss: 1.2721   Testloss: 1.3356  trainAcc 67.48 top1 65.9499   top5 87.1679
Ep: 131   EpTime: 122.6645 	 Trainloss: 1.2616   Testloss: 1.3897  trainAcc 67.80 top1 64.7569   top5 86.0200
Ep: 132   EpTime: 121.5061 	 Trainloss: 1.2659   Testloss: 1.3714  trainAcc 67.81 top1 65.6190   top5 86.7820
Ep: 133   EpTime: 122.3884 	 Trainloss: 1.2669   Testloss: 1.3631  trainAcc 67.52 top1 65.1880   top5 86.4361
Ep: 134   EpTime: 123.0804 	 Trainloss: 1.2704   Testloss: 1.4488  trainAcc 67.56 top1 63.8947   top5 85.4035
Ep: 135   EpTime: 121.8101 	 Trainloss: 1.2618   Testloss: 1.3345  trainAcc 67.81 top1 65.6942   top5 86.9574
Ep: 136   EpTime: 121.3412 	 Trainloss: 1.2682   Testloss: 1.4126  trainAcc 67.74 top1 63.8095   top5 85.8897
Ep: 137   EpTime: 122.3044 	 Trainloss: 1.2695   Testloss: 1.3251  trainAcc 67.63 top1 66.4762   top5 87.2632
Ep: 138   EpTime: 123.6244 	 Trainloss: 1.2690   Testloss: 1.3912  trainAcc 67.76 top1 65.2982   top5 86.4612
Ep: 139   EpTime: 122.3505 	 Trainloss: 1.2651   Testloss: 1.3316  trainAcc 67.99 top1 66.2857   top5 86.7569
Ep: 140   EpTime: 120.8820 	 Trainloss: 1.2707   Testloss: 1.3532  trainAcc 67.52 top1 65.1529   top5 86.6867
Ep: 141   EpTime: 121.7410 	 Trainloss: 1.2711   Testloss: 1.3193  trainAcc 67.60 top1 66.2957   top5 87.1479
Ep: 142   EpTime: 122.5946 	 Trainloss: 1.2694   Testloss: 1.3150  trainAcc 67.67 top1 66.1654   top5 87.0476
Ep: 143   EpTime: 123.6425 	 Trainloss: 1.2740   Testloss: 1.2896  trainAcc 67.55 top1 67.1980   top5 87.6942
Ep: 144   EpTime: 121.0676 	 Trainloss: 1.2664   Testloss: 1.3016  trainAcc 67.83 top1 66.8170   top5 87.4687
Ep: 145   EpTime: 122.2989 	 Trainloss: 1.2656   Testloss: 1.3218  trainAcc 67.69 top1 66.2306   top5 86.8321
Ep: 146   EpTime: 124.6224 	 Trainloss: 1.2719   Testloss: 1.3896  trainAcc 67.68 top1 64.8020   top5 86.3308
Ep: 147   EpTime: 120.6577 	 Trainloss: 1.2651   Testloss: 1.3136  trainAcc 67.76 top1 66.5163   top5 87.2882
Ep: 148   EpTime: 123.7840 	 Trainloss: 1.2654   Testloss: 1.3217  trainAcc 67.80 top1 66.2657   top5 86.7118
Ep: 149   EpTime: 122.7823 	 Trainloss: 1.2685   Testloss: 1.3076  trainAcc 67.81 top1 66.4912   top5 87.0526
Ep: 150   EpTime: 121.5347 	 Trainloss: 1.2697   Testloss: 1.4138  trainAcc 67.62 top1 65.1128   top5 85.9749
Ep: 151   EpTime: 121.4748 	 Trainloss: 1.2709   Testloss: 1.3751  trainAcc 67.64 top1 65.4586   top5 86.5113
Ep: 152   EpTime: 118.4830 	 Trainloss: 1.2705   Testloss: 1.3104  trainAcc 67.68 top1 66.6817   top5 87.2381
Ep: 153   EpTime: 122.3074 	 Trainloss: 1.2598   Testloss: 1.3722  trainAcc 67.88 top1 65.3584   top5 86.2757
Ep: 154   EpTime: 121.7459 	 Trainloss: 1.2698   Testloss: 1.4211  trainAcc 67.53 top1 64.0351   top5 85.9850
Ep: 155   EpTime: 122.2695 	 Trainloss: 1.2695   Testloss: 1.3804  trainAcc 67.76 top1 64.9674   top5 86.1203
Ep: 156   EpTime: 122.3549 	 Trainloss: 1.2734   Testloss: 1.3882  trainAcc 67.56 top1 65.1028   top5 86.7168
Ep: 157   EpTime: 116.9512 	 Trainloss: 1.2622   Testloss: 1.3228  trainAcc 67.78 top1 66.3709   top5 86.9273
Ep: 158   EpTime: 121.7240 	 Trainloss: 1.2721   Testloss: 1.3178  trainAcc 67.57 top1 66.2556   top5 87.2682
Ep: 159   EpTime: 123.1317 	 Trainloss: 1.2696   Testloss: 1.3292  trainAcc 67.64 top1 66.7719   top5 87.2531
Ep: 160   EpTime: 122.7683 	 Trainloss: 1.2717   Testloss: 1.3857  trainAcc 67.67 top1 65.0777   top5 86.2005
Ep: 161   EpTime: 120.7484 	 Trainloss: 1.2636   Testloss: 1.3970  trainAcc 67.65 top1 64.9624   top5 86.2406
Ep: 162   EpTime: 122.6053 	 Trainloss: 1.2701   Testloss: 1.3652  trainAcc 67.59 top1 65.3484   top5 86.5464
Ep: 163   EpTime: 122.4056 	 Trainloss: 1.2659   Testloss: 1.3486  trainAcc 67.77 top1 65.6541   top5 87.0877
Ep: 164   EpTime: 121.7401 	 Trainloss: 1.2705   Testloss: 1.3780  trainAcc 67.54 top1 64.9925   top5 86.3058
Ep: 165   EpTime: 122.2998 	 Trainloss: 1.2701   Testloss: 1.3701  trainAcc 67.59 top1 65.3534   top5 86.9123
Ep: 166   EpTime: 119.8470 	 Trainloss: 1.2697   Testloss: 1.3234  trainAcc 67.46 top1 66.3258   top5 87.1328
Ep: 167   EpTime: 121.6688 	 Trainloss: 1.2659   Testloss: 1.3235  trainAcc 67.67 top1 66.2356   top5 87.0175
Ep: 168   EpTime: 123.0652 	 Trainloss: 1.2644   Testloss: 1.2962  trainAcc 67.73 top1 66.9323   top5 87.4336
Ep: 169   EpTime: 122.6582 	 Trainloss: 1.2634   Testloss: 1.2978  trainAcc 67.83 top1 66.7068   top5 87.2381
Ep: 170   EpTime: 122.0913 	 Trainloss: 1.2685   Testloss: 1.3311  trainAcc 67.59 top1 66.1905   top5 87.2882
Ep: 171   EpTime: 122.1909 	 Trainloss: 1.2707   Testloss: 1.2790  trainAcc 67.59 top1 67.2682   top5 87.6692
Ep: 172   EpTime: 121.5967 	 Trainloss: 1.2690   Testloss: 1.3509  trainAcc 67.60 top1 65.7794   top5 86.9373
Ep: 173   EpTime: 121.2194 	 Trainloss: 1.2703   Testloss: 1.3730  trainAcc 67.43 top1 64.8722   top5 86.3258
Ep: 174   EpTime: 122.0469 	 Trainloss: 1.2668   Testloss: 1.3639  trainAcc 67.85 top1 65.1178   top5 86.4311
Ep: 175   EpTime: 123.4014 	 Trainloss: 1.2721   Testloss: 1.3309  trainAcc 67.73 top1 66.3008   top5 86.9524
Ep: 176   EpTime: 123.1238 	 Trainloss: 1.2672   Testloss: 1.3634  trainAcc 67.84 top1 65.7544   top5 86.5414
Ep: 177   EpTime: 121.9764 	 Trainloss: 1.2660   Testloss: 1.3518  trainAcc 67.55 top1 65.5789   top5 86.9073
Ep: 178   EpTime: 122.0649 	 Trainloss: 1.2695   Testloss: 1.2948  trainAcc 67.49 top1 66.6316   top5 87.2832
Ep: 179   EpTime: 123.0247 	 Trainloss: 1.2623   Testloss: 1.3464  trainAcc 67.77 top1 65.8997   top5 86.7168
Ep: 180   EpTime: 123.5640 	 Trainloss: 1.2605   Testloss: 1.3083  trainAcc 67.90 top1 66.9323   top5 87.4386
Ep: 181   EpTime: 122.9326 	 Trainloss: 1.2686   Testloss: 1.3869  trainAcc 67.60 top1 65.0927   top5 86.6366
Ep: 182   EpTime: 121.7304 	 Trainloss: 1.2676   Testloss: 1.3776  trainAcc 67.63 top1 64.9474   top5 86.4361
Ep: 183   EpTime: 121.3296 	 Trainloss: 1.2718   Testloss: 1.3830  trainAcc 67.56 top1 64.8321   top5 86.2155
Ep: 184   EpTime: 123.4925 	 Trainloss: 1.2645   Testloss: 1.3768  trainAcc 67.74 top1 64.5564   top5 86.6566
Ep: 185   EpTime: 123.8348 	 Trainloss: 1.2663   Testloss: 1.3550  trainAcc 67.74 top1 65.5038   top5 86.8421
Ep: 186   EpTime: 121.8934 	 Trainloss: 1.2660   Testloss: 1.3055  trainAcc 67.54 top1 66.4962   top5 87.2732
Ep: 187   EpTime: 121.9426 	 Trainloss: 1.2644   Testloss: 1.3326  trainAcc 67.81 top1 65.9048   top5 86.8622
Ep: 188   EpTime: 121.7780 	 Trainloss: 1.2744   Testloss: 1.3176  trainAcc 67.54 top1 66.1905   top5 87.2531
Ep: 189   EpTime: 122.8891 	 Trainloss: 1.2694   Testloss: 1.3481  trainAcc 67.69 top1 65.9248   top5 86.4912
Ep: 190   EpTime: 122.0297 	 Trainloss: 1.2656   Testloss: 1.3451  trainAcc 67.66 top1 65.7093   top5 86.9123
Ep: 191   EpTime: 121.1224 	 Trainloss: 1.2683   Testloss: 1.3649  trainAcc 67.68 top1 65.6541   top5 86.9023
Ep: 192   EpTime: 121.6626 	 Trainloss: 1.2707   Testloss: 1.2928  trainAcc 67.61 top1 66.7569   top5 87.3935
Ep: 193   EpTime: 123.1879 	 Trainloss: 1.2701   Testloss: 1.3196  trainAcc 67.62 top1 66.5764   top5 87.0677
Ep: 194   EpTime: 122.7440 	 Trainloss: 1.2673   Testloss: 1.3064  trainAcc 67.66 top1 66.3559   top5 87.3935
Ep: 195   EpTime: 123.0052 	 Trainloss: 1.2696   Testloss: 1.2992  trainAcc 67.77 top1 66.8822   top5 87.3183
Ep: 196   EpTime: 121.2288 	 Trainloss: 1.2657   Testloss: 1.3027  trainAcc 67.70 top1 66.6767   top5 87.5088
Ep: 197   EpTime: 123.1401 	 Trainloss: 1.2707   Testloss: 1.3003  trainAcc 67.71 top1 66.8421   top5 87.4637
Ep: 198   EpTime: 122.5211 	 Trainloss: 1.2646   Testloss: 1.3199  trainAcc 67.83 top1 66.6366   top5 87.0877
Ep: 199   EpTime: 121.3687 	 Trainloss: 1.2627   Testloss: 1.4008  trainAcc 67.88 top1 64.5664   top5 86.6667
Ep: 200   EpTime: 122.7909 	 Trainloss: 1.2694   Testloss: 1.3896  trainAcc 67.60 top1 64.7619   top5 86.1504
Ep: 201   EpTime: 121.9277 	 Trainloss: 1.2604   Testloss: 1.3135  trainAcc 67.84 top1 66.4060   top5 87.4286
Ep: 202   EpTime: 122.5333 	 Trainloss: 1.2640   Testloss: 1.2995  trainAcc 67.77 top1 67.0526   top5 87.5038
Ep: 203   EpTime: 121.3993 	 Trainloss: 1.2730   Testloss: 1.3295  trainAcc 67.43 top1 66.1303   top5 87.0677
Ep: 204   EpTime: 122.5633 	 Trainloss: 1.2689   Testloss: 1.4736  trainAcc 67.56 top1 63.6341   top5 85.1328
Ep: 205   EpTime: 124.0044 	 Trainloss: 1.2720   Testloss: 1.3652  trainAcc 67.57 top1 65.3985   top5 86.7419
Ep: 206   EpTime: 123.4188 	 Trainloss: 1.2750   Testloss: 1.4110  trainAcc 67.50 top1 64.7018   top5 85.9298
Ep: 207   EpTime: 123.4683 	 Trainloss: 1.2621   Testloss: 1.3386  trainAcc 67.66 top1 65.8747   top5 86.9023
Ep: 208   EpTime: 121.0495 	 Trainloss: 1.2644   Testloss: 1.3952  trainAcc 67.76 top1 64.9975   top5 86.2105
Ep: 209   EpTime: 122.6475 	 Trainloss: 1.2646   Testloss: 1.4192  trainAcc 67.76 top1 64.3659   top5 86.1203
Ep: 210   EpTime: 121.5172 	 Trainloss: 1.2642   Testloss: 1.3701  trainAcc 67.78 top1 65.3534   top5 86.6817
Ep: 211   EpTime: 124.0202 	 Trainloss: 1.2714   Testloss: 1.3297  trainAcc 67.64 top1 66.3108   top5 86.8321
Ep: 212   EpTime: 121.4986 	 Trainloss: 1.2695   Testloss: 1.3405  trainAcc 67.58 top1 65.8747   top5 86.9574
Ep: 213   EpTime: 119.8043 	 Trainloss: 1.2708   Testloss: 1.3743  trainAcc 67.56 top1 65.1328   top5 86.4461
Ep: 214   EpTime: 121.1133 	 Trainloss: 1.2719   Testloss: 1.3110  trainAcc 67.71 top1 66.3759   top5 87.2231
Ep: 215   EpTime: 120.9219 	 Trainloss: 1.2704   Testloss: 1.3048  trainAcc 67.70 top1 66.4662   top5 87.3634
Ep: 216   EpTime: 122.1479 	 Trainloss: 1.2634   Testloss: 1.3007  trainAcc 67.88 top1 66.4211   top5 87.3233
Ep: 217   EpTime: 121.1120 	 Trainloss: 1.2650   Testloss: 1.3545  trainAcc 67.74 top1 65.6491   top5 86.7368
Ep: 218   EpTime: 122.5011 	 Trainloss: 1.2661   Testloss: 1.3460  trainAcc 67.79 top1 66.1754   top5 86.9474
Ep: 219   EpTime: 121.3817 	 Trainloss: 1.2699   Testloss: 1.3675  trainAcc 67.71 top1 65.1479   top5 86.1654
Ep: 220   EpTime: 120.5912 	 Trainloss: 1.2712   Testloss: 1.3918  trainAcc 67.71 top1 65.0476   top5 86.3659
Ep: 221   EpTime: 120.8565 	 Trainloss: 1.2822   Testloss: 1.3312  trainAcc 67.33 top1 66.3659   top5 87.0276
Ep: 222   EpTime: 121.6520 	 Trainloss: 1.2628   Testloss: 1.3195  trainAcc 67.83 top1 66.4361   top5 87.2030
Ep: 223   EpTime: 122.6345 	 Trainloss: 1.2683   Testloss: 1.3865  trainAcc 67.70 top1 65.2381   top5 86.3008
Ep: 224   EpTime: 122.0593 	 Trainloss: 1.2551   Testloss: 1.3674  trainAcc 67.85 top1 65.6341   top5 86.3659
Ep: 225   EpTime: 122.8648 	 Trainloss: 1.2721   Testloss: 1.3092  trainAcc 67.41 top1 65.9749   top5 87.3233
Ep: 226   EpTime: 121.6916 	 Trainloss: 1.2702   Testloss: 1.3871  trainAcc 67.59 top1 65.3985   top5 86.5414
Ep: 227   EpTime: 122.2900 	 Trainloss: 1.2589   Testloss: 1.3801  trainAcc 67.85 top1 65.2982   top5 86.5013
Ep: 228   EpTime: 121.6068 	 Trainloss: 1.2642   Testloss: 1.2925  trainAcc 67.84 top1 66.8321   top5 87.4386
Ep: 229   EpTime: 121.8717 	 Trainloss: 1.2620   Testloss: 1.3901  trainAcc 67.71 top1 64.8321   top5 85.8747
Ep: 230   EpTime: 122.1327 	 Trainloss: 1.2615   Testloss: 1.4192  trainAcc 67.78 top1 64.1003   top5 85.9449
Ep: 231   EpTime: 122.6030 	 Trainloss: 1.2610   Testloss: 1.3400  trainAcc 68.00 top1 65.4536   top5 86.9975
Ep: 232   EpTime: 121.8527 	 Trainloss: 1.2643   Testloss: 1.3585  trainAcc 67.68 top1 65.2381   top5 86.5714
Ep: 233   EpTime: 121.5145 	 Trainloss: 1.2657   Testloss: 1.3169  trainAcc 67.50 top1 66.4110   top5 87.1779
Ep: 234   EpTime: 121.8293 	 Trainloss: 1.2716   Testloss: 1.4069  trainAcc 67.49 top1 64.1103   top5 85.8596
Ep: 235   EpTime: 123.6138 	 Trainloss: 1.2697   Testloss: 1.3105  trainAcc 67.61 top1 66.3409   top5 87.3784
Ep: 236   EpTime: 122.5690 	 Trainloss: 1.2641   Testloss: 1.3671  trainAcc 67.80 top1 65.5038   top5 86.5564
Ep: 237   EpTime: 120.7873 	 Trainloss: 1.2682   Testloss: 1.4397  trainAcc 67.55 top1 63.8045   top5 85.4486
Ep: 238   EpTime: 122.8128 	 Trainloss: 1.2697   Testloss: 1.3548  trainAcc 67.66 top1 65.7594   top5 86.7018
Ep: 239   EpTime: 123.0269 	 Trainloss: 1.2733   Testloss: 1.3461  trainAcc 67.46 top1 65.5890   top5 86.7168
Ep: 240   EpTime: 123.3706 	 Trainloss: 1.2664   Testloss: 1.3245  trainAcc 67.56 top1 66.2857   top5 87.0827
Ep: 241   EpTime: 125.3639 	 Trainloss: 1.2692   Testloss: 1.3828  trainAcc 67.63 top1 64.9424   top5 86.4762
Ep: 242   EpTime: 127.0625 	 Trainloss: 1.2662   Testloss: 1.3306  trainAcc 67.64 top1 66.0652   top5 87.1479
Ep: 243   EpTime: 126.2752 	 Trainloss: 1.2676   Testloss: 1.3181  trainAcc 67.56 top1 66.4612   top5 87.0576
Ep: 244   EpTime: 133.6447 	 Trainloss: 1.2725   Testloss: 1.4337  trainAcc 67.52 top1 64.2506   top5 85.2982
Ep: 245   EpTime: 129.9088 	 Trainloss: 1.2643   Testloss: 1.3912  trainAcc 67.69 top1 64.8521   top5 86.2005
Ep: 246   EpTime: 124.6136 	 Trainloss: 1.2707   Testloss: 1.2916  trainAcc 67.54 top1 67.0276   top5 87.4336
Ep: 247   EpTime: 123.7542 	 Trainloss: 1.2689   Testloss: 1.4243  trainAcc 67.69 top1 64.9223   top5 86.4561
Ep: 248   EpTime: 124.4122 	 Trainloss: 1.2699   Testloss: 1.3159  trainAcc 67.58 top1 66.5163   top5 87.3233
Ep: 249   EpTime: 121.5852 	 Trainloss: 1.2644   Testloss: 1.4234  trainAcc 67.64 top1 64.1002   top5 86.1203
Ep: 250   EpTime: 124.2839 	 Trainloss: 1.2724   Testloss: 1.3157  trainAcc 67.58 top1 66.5163   top5 87.0877
