mobilenetv1(
  (model): Sequential(
    (0): Sequential(
      (0): Conv2d(3, 32, kernel_size=(3, 3), stride=(2, 2), padding=(1, 1), bias=False)
      (1): BatchNorm2d(32, eps=1e-05, momentum=0.1, affine=True, track_running_stats=True)
      (2): ReLU(inplace)
    )
    (1): Sequential(
      (0): Conv2d(32, 32, kernel_size=(3, 3), stride=(1, 1), padding=(1, 1), groups=32, bias=False)
      (1): BatchNorm2d(32, eps=1e-05, momentum=0.1, affine=True, track_running_stats=True)
      (2): ReLU(inplace)
      (3): Conv2d(32, 64, kernel_size=(1, 1), stride=(1, 1), bias=False)
      (4): BatchNorm2d(64, eps=1e-05, momentum=0.1, affine=True, track_running_stats=True)
      (5): ReLU(inplace)
    )
    (2): Sequential(
      (0): Conv2d(64, 64, kernel_size=(3, 3), stride=(2, 2), padding=(1, 1), groups=64, bias=False)
      (1): BatchNorm2d(64, eps=1e-05, momentum=0.1, affine=True, track_running_stats=True)
      (2): ReLU(inplace)
      (3): Conv2d(64, 128, kernel_size=(1, 1), stride=(1, 1), bias=False)
      (4): BatchNorm2d(128, eps=1e-05, momentum=0.1, affine=True, track_running_stats=True)
      (5): ReLU(inplace)
    )
    (3): Sequential(
      (0): Conv2d(128, 128, kernel_size=(3, 3), stride=(1, 1), padding=(1, 1), groups=128, bias=False)
      (1): BatchNorm2d(128, eps=1e-05, momentum=0.1, affine=True, track_running_stats=True)
      (2): ReLU(inplace)
      (3): Conv2d(128, 128, kernel_size=(1, 1), stride=(1, 1), bias=False)
      (4): BatchNorm2d(128, eps=1e-05, momentum=0.1, affine=True, track_running_stats=True)
      (5): ReLU(inplace)
    )
    (4): Sequential(
      (0): Conv2d(128, 128, kernel_size=(3, 3), stride=(2, 2), padding=(1, 1), groups=128, bias=False)
      (1): BatchNorm2d(128, eps=1e-05, momentum=0.1, affine=True, track_running_stats=True)
      (2): ReLU(inplace)
      (3): Conv2d(128, 256, kernel_size=(1, 1), stride=(1, 1), bias=False)
      (4): BatchNorm2d(256, eps=1e-05, momentum=0.1, affine=True, track_running_stats=True)
      (5): ReLU(inplace)
    )
    (5): Sequential(
      (0): Conv2d(256, 256, kernel_size=(3, 3), stride=(1, 1), padding=(1, 1), groups=256, bias=False)
      (1): BatchNorm2d(256, eps=1e-05, momentum=0.1, affine=True, track_running_stats=True)
      (2): ReLU(inplace)
      (3): Conv2d(256, 256, kernel_size=(1, 1), stride=(1, 1), bias=False)
      (4): BatchNorm2d(256, eps=1e-05, momentum=0.1, affine=True, track_running_stats=True)
      (5): ReLU(inplace)
    )
    (6): Sequential(
      (0): Conv2d(256, 256, kernel_size=(3, 3), stride=(2, 2), padding=(1, 1), groups=256, bias=False)
      (1): BatchNorm2d(256, eps=1e-05, momentum=0.1, affine=True, track_running_stats=True)
      (2): ReLU(inplace)
      (3): Conv2d(256, 512, kernel_size=(1, 1), stride=(1, 1), bias=False)
      (4): BatchNorm2d(512, eps=1e-05, momentum=0.1, affine=True, track_running_stats=True)
      (5): ReLU(inplace)
    )
    (7): Sequential(
      (0): Conv2d(512, 512, kernel_size=(3, 3), stride=(1, 1), padding=(1, 1), groups=512, bias=False)
      (1): BatchNorm2d(512, eps=1e-05, momentum=0.1, affine=True, track_running_stats=True)
      (2): ReLU(inplace)
      (3): Conv2d(512, 512, kernel_size=(1, 1), stride=(1, 1), bias=False)
      (4): BatchNorm2d(512, eps=1e-05, momentum=0.1, affine=True, track_running_stats=True)
      (5): ReLU(inplace)
    )
    (8): Sequential(
      (0): Conv2d(512, 512, kernel_size=(3, 3), stride=(1, 1), padding=(1, 1), groups=512, bias=False)
      (1): BatchNorm2d(512, eps=1e-05, momentum=0.1, affine=True, track_running_stats=True)
      (2): ReLU(inplace)
      (3): Conv2d(512, 512, kernel_size=(1, 1), stride=(1, 1), bias=False)
      (4): BatchNorm2d(512, eps=1e-05, momentum=0.1, affine=True, track_running_stats=True)
      (5): ReLU(inplace)
    )
    (9): Sequential(
      (0): Conv2d(512, 512, kernel_size=(3, 3), stride=(1, 1), padding=(1, 1), groups=512, bias=False)
      (1): BatchNorm2d(512, eps=1e-05, momentum=0.1, affine=True, track_running_stats=True)
      (2): ReLU(inplace)
      (3): Conv2d(512, 512, kernel_size=(1, 1), stride=(1, 1), bias=False)
      (4): BatchNorm2d(512, eps=1e-05, momentum=0.1, affine=True, track_running_stats=True)
      (5): ReLU(inplace)
    )
    (10): Sequential(
      (0): Conv2d(512, 512, kernel_size=(3, 3), stride=(1, 1), padding=(1, 1), groups=512, bias=False)
      (1): BatchNorm2d(512, eps=1e-05, momentum=0.1, affine=True, track_running_stats=True)
      (2): ReLU(inplace)
      (3): Conv2d(512, 512, kernel_size=(1, 1), stride=(1, 1), bias=False)
      (4): BatchNorm2d(512, eps=1e-05, momentum=0.1, affine=True, track_running_stats=True)
      (5): ReLU(inplace)
    )
    (11): Sequential(
      (0): Conv2d(512, 512, kernel_size=(3, 3), stride=(1, 1), padding=(1, 1), groups=512, bias=False)
      (1): BatchNorm2d(512, eps=1e-05, momentum=0.1, affine=True, track_running_stats=True)
      (2): ReLU(inplace)
      (3): Conv2d(512, 512, kernel_size=(1, 1), stride=(1, 1), bias=False)
      (4): BatchNorm2d(512, eps=1e-05, momentum=0.1, affine=True, track_running_stats=True)
      (5): ReLU(inplace)
    )
    (12): Sequential(
      (0): Conv2d(512, 512, kernel_size=(3, 3), stride=(2, 2), padding=(1, 1), groups=512, bias=False)
      (1): BatchNorm2d(512, eps=1e-05, momentum=0.1, affine=True, track_running_stats=True)
      (2): ReLU(inplace)
      (3): Conv2d(512, 1024, kernel_size=(1, 1), stride=(1, 1), bias=False)
      (4): BatchNorm2d(1024, eps=1e-05, momentum=0.1, affine=True, track_running_stats=True)
      (5): ReLU(inplace)
    )
    (13): Sequential(
      (0): Conv2d(1024, 1024, kernel_size=(3, 3), stride=(1, 1), padding=(1, 1), groups=1024, bias=False)
      (1): BatchNorm2d(1024, eps=1e-05, momentum=0.1, affine=True, track_running_stats=True)
      (2): ReLU(inplace)
      (3): Conv2d(1024, 1024, kernel_size=(1, 1), stride=(1, 1), bias=False)
      (4): BatchNorm2d(1024, eps=1e-05, momentum=0.1, affine=True, track_running_stats=True)
      (5): ReLU(inplace)
    )
    (14): AvgPool2d(kernel_size=7, stride=7, padding=0)
  )
  (fc): Linear(in_features=1024, out_features=256, bias=True)
)
Ep: 1   EpTime: 40.1431  Trainloss: 5.4138   Testloss: 5.1583  TrainAcc: 1.64   Top1: 2.1982    Top5: 9.1811  lr: 0.100000
Ep: 2   EpTime: 37.2556  Trainloss: 5.0848   Testloss: 4.9853  TrainAcc: 3.67   Top1: 4.5975    Top5: 15.9074  lr: 0.100000
Ep: 3   EpTime: 39.1384  Trainloss: 4.8686   Testloss: 4.6856  TrainAcc: 5.54   Top1: 8.4044    Top5: 23.8818  lr: 0.100000
Ep: 4   EpTime: 37.8690  Trainloss: 4.6844   Testloss: 5.5510  TrainAcc: 7.08   Top1: 6.4212    Top5: 16.5037  lr: 0.100000
Ep: 5   EpTime: 38.7922  Trainloss: 4.4980   Testloss: 4.3871  TrainAcc: 9.60   Top1: 12.4402    Top5: 30.0465  lr: 0.100000
Ep: 6   EpTime: 37.7052  Trainloss: 4.3317   Testloss: 4.3110  TrainAcc: 11.42   Top1: 12.3778    Top5: 31.8702  lr: 0.100000
Ep: 7   EpTime: 37.9289  Trainloss: 4.1580   Testloss: 4.0372  TrainAcc: 13.58   Top1: 18.1471    Top5: 37.7921  lr: 0.100000
Ep: 8   EpTime: 37.9832  Trainloss: 3.9788   Testloss: 3.6016  TrainAcc: 16.09   Top1: 24.3187    Top5: 45.0454  lr: 0.100000
Ep: 9   EpTime: 38.2915  Trainloss: 3.8487   Testloss: 3.6566  TrainAcc: 18.06   Top1: 21.5380    Top5: 44.3867  lr: 0.100000
Ep: 10   EpTime: 37.9204  Trainloss: 3.7071   Testloss: 3.3945  TrainAcc: 21.04   Top1: 27.4600    Top5: 50.3432  lr: 0.100000
Ep: 11   EpTime: 38.0583  Trainloss: 3.5674   Testloss: 3.3536  TrainAcc: 22.77   Top1: 28.0632    Top5: 50.3016  lr: 0.100000
Ep: 12   EpTime: 37.7487  Trainloss: 3.4816   Testloss: 3.2876  TrainAcc: 23.99   Top1: 28.2574    Top5: 52.1808  lr: 0.100000
Ep: 13   EpTime: 38.1080  Trainloss: 3.3654   Testloss: 3.3876  TrainAcc: 26.90   Top1: 28.2851    Top5: 51.2724  lr: 0.100000
Ep: 14   EpTime: 37.7600  Trainloss: 3.2480   Testloss: 3.3254  TrainAcc: 28.24   Top1: 29.1866    Top5: 51.5429  lr: 0.100000
Ep: 15   EpTime: 39.2123  Trainloss: 3.1687   Testloss: 3.1380  TrainAcc: 29.53   Top1: 32.9173    Top5: 54.8228  lr: 0.100000
Ep: 16   EpTime: 37.9149  Trainloss: 3.0696   Testloss: 3.0581  TrainAcc: 30.90   Top1: 34.6925    Top5: 57.2221  lr: 0.100000
Ep: 17   EpTime: 40.9810  Trainloss: 3.0068   Testloss: 2.9915  TrainAcc: 32.73   Top1: 34.6023    Top5: 58.3385  lr: 0.100000
Ep: 18   EpTime: 37.7268  Trainloss: 2.9005   Testloss: 2.9081  TrainAcc: 34.49   Top1: 35.8297    Top5: 59.2955  lr: 0.100000
Ep: 19   EpTime: 38.4191  Trainloss: 2.8219   Testloss: 2.8399  TrainAcc: 35.91   Top1: 37.5147    Top5: 61.2163  lr: 0.100000
Ep: 20   EpTime: 38.6224  Trainloss: 2.7338   Testloss: 2.6767  TrainAcc: 37.37   Top1: 39.9764    Top5: 64.1911  lr: 0.100000
Ep: 21   EpTime: 39.8073  Trainloss: 2.6723   Testloss: 2.8987  TrainAcc: 38.20   Top1: 38.0140    Top5: 60.8418  lr: 0.100000
Ep: 22   EpTime: 37.4112  Trainloss: 2.6275   Testloss: 2.5870  TrainAcc: 39.71   Top1: 42.8334    Top5: 65.4462  lr: 0.100000
Ep: 23   EpTime: 40.0930  Trainloss: 2.5500   Testloss: 2.6110  TrainAcc: 41.23   Top1: 41.7031    Top5: 65.9108  lr: 0.100000
Ep: 24   EpTime: 38.7203  Trainloss: 2.4973   Testloss: 2.6864  TrainAcc: 42.39   Top1: 41.2246    Top5: 64.4130  lr: 0.100000
Ep: 25   EpTime: 38.1277  Trainloss: 2.4356   Testloss: 2.8539  TrainAcc: 43.11   Top1: 38.3815    Top5: 62.3882  lr: 0.100000
Ep: 26   EpTime: 38.9597  Trainloss: 2.3876   Testloss: 2.6136  TrainAcc: 44.22   Top1: 42.7224    Top5: 65.5225  lr: 0.100000
Ep: 27   EpTime: 39.4131  Trainloss: 2.3542   Testloss: 2.5064  TrainAcc: 45.11   Top1: 44.6294    Top5: 67.6236  lr: 0.100000
Ep: 28   EpTime: 39.0556  Trainloss: 2.2519   Testloss: 2.5212  TrainAcc: 47.20   Top1: 44.8166    Top5: 67.1105  lr: 0.100000
Ep: 29   EpTime: 39.2209  Trainloss: 2.2299   Testloss: 2.5450  TrainAcc: 47.05   Top1: 44.2272    Top5: 67.4225  lr: 0.100000
Ep: 30   EpTime: 40.8426  Trainloss: 2.1842   Testloss: 2.4182  TrainAcc: 48.14   Top1: 46.4878    Top5: 69.3780  lr: 0.010000
Ep: 31   EpTime: 38.9502  Trainloss: 1.8462   Testloss: 2.0356  TrainAcc: 56.90   Top1: 54.0947    Top5: 75.0087  lr: 0.010000
Ep: 32   EpTime: 39.6648  Trainloss: 1.6950   Testloss: 1.9993  TrainAcc: 60.01   Top1: 54.8159    Top5: 75.7368  lr: 0.010000
Ep: 33   EpTime: 40.7638  Trainloss: 1.6484   Testloss: 1.9874  TrainAcc: 61.21   Top1: 55.1279    Top5: 75.7229  lr: 0.010000
Ep: 34   EpTime: 38.2439  Trainloss: 1.6032   Testloss: 1.9845  TrainAcc: 62.17   Top1: 55.1695    Top5: 76.0141  lr: 0.010000
Ep: 35   EpTime: 40.4362  Trainloss: 1.5759   Testloss: 1.9702  TrainAcc: 62.80   Top1: 55.5648    Top5: 76.3123  lr: 0.010000
Ep: 36   EpTime: 37.9266  Trainloss: 1.5455   Testloss: 1.9709  TrainAcc: 62.98   Top1: 55.5856    Top5: 76.3539  lr: 0.010000
Ep: 37   EpTime: 38.5544  Trainloss: 1.5455   Testloss: 1.9885  TrainAcc: 63.52   Top1: 55.7451    Top5: 76.1182  lr: 0.010000
Ep: 38   EpTime: 38.5620  Trainloss: 1.5030   Testloss: 1.9827  TrainAcc: 63.89   Top1: 55.3082    Top5: 76.2430  lr: 0.010000
Ep: 39   EpTime: 39.3300  Trainloss: 1.4783   Testloss: 1.9811  TrainAcc: 64.69   Top1: 55.5232    Top5: 76.4025  lr: 0.010000
Ep: 40   EpTime: 38.8069  Trainloss: 1.4705   Testloss: 1.9694  TrainAcc: 64.98   Top1: 55.9947    Top5: 76.6452  lr: 0.010000
Ep: 41   EpTime: 39.0206  Trainloss: 1.4446   Testloss: 1.9606  TrainAcc: 65.30   Top1: 56.1542    Top5: 76.6868  lr: 0.010000
Ep: 42   EpTime: 38.7573  Trainloss: 1.4290   Testloss: 1.9941  TrainAcc: 65.97   Top1: 55.7312    Top5: 76.3054  lr: 0.010000
Ep: 43   EpTime: 38.4772  Trainloss: 1.4144   Testloss: 1.9700  TrainAcc: 65.67   Top1: 56.1473    Top5: 76.7145  lr: 0.010000
Ep: 44   EpTime: 39.6906  Trainloss: 1.3929   Testloss: 1.9737  TrainAcc: 66.79   Top1: 55.9046    Top5: 76.6452  lr: 0.010000
Ep: 45   EpTime: 39.1582  Trainloss: 1.3656   Testloss: 1.9772  TrainAcc: 67.26   Top1: 56.1750    Top5: 76.6382  lr: 0.010000
Ep: 46   EpTime: 40.1189  Trainloss: 1.3568   Testloss: 1.9812  TrainAcc: 67.51   Top1: 55.8422    Top5: 76.4441  lr: 0.010000
Ep: 47   EpTime: 38.4260  Trainloss: 1.3467   Testloss: 1.9687  TrainAcc: 67.89   Top1: 56.1889    Top5: 76.7631  lr: 0.010000
Ep: 48   EpTime: 38.4109  Trainloss: 1.3214   Testloss: 1.9699  TrainAcc: 68.46   Top1: 56.2721    Top5: 76.7284  lr: 0.010000
Ep: 49   EpTime: 39.4590  Trainloss: 1.3183   Testloss: 1.9764  TrainAcc: 68.53   Top1: 56.2028    Top5: 76.7145  lr: 0.010000
Ep: 50   EpTime: 38.6671  Trainloss: 1.3093   Testloss: 1.9708  TrainAcc: 68.55   Top1: 56.2374    Top5: 76.6729  lr: 0.010000
Ep: 51   EpTime: 40.5396  Trainloss: 1.3030   Testloss: 1.9659  TrainAcc: 68.54   Top1: 56.3345    Top5: 77.0612  lr: 0.010000
Ep: 52   EpTime: 39.6373  Trainloss: 1.2708   Testloss: 1.9750  TrainAcc: 69.59   Top1: 55.9531    Top5: 76.8116  lr: 0.010000
Ep: 53   EpTime: 39.3760  Trainloss: 1.2401   Testloss: 1.9990  TrainAcc: 70.13   Top1: 55.7936    Top5: 76.5065  lr: 0.010000
Ep: 54   EpTime: 37.8547  Trainloss: 1.2369   Testloss: 1.9908  TrainAcc: 70.51   Top1: 55.9670    Top5: 76.6590  lr: 0.010000
Ep: 55   EpTime: 37.5730  Trainloss: 1.2187   Testloss: 2.0022  TrainAcc: 70.86   Top1: 55.9670    Top5: 76.6036  lr: 0.010000
Ep: 56   EpTime: 40.1394  Trainloss: 1.2161   Testloss: 2.0041  TrainAcc: 71.42   Top1: 55.9878    Top5: 76.4926  lr: 0.010000
Ep: 57   EpTime: 38.1518  Trainloss: 1.1990   Testloss: 1.9794  TrainAcc: 71.65   Top1: 56.6674    Top5: 76.7839  lr: 0.010000
Ep: 58   EpTime: 40.5417  Trainloss: 1.1813   Testloss: 1.9994  TrainAcc: 71.81   Top1: 56.4247    Top5: 76.4163  lr: 0.010000
Ep: 59   EpTime: 39.6131  Trainloss: 1.1695   Testloss: 2.0048  TrainAcc: 72.08   Top1: 56.2929    Top5: 76.4649  lr: 0.010000
Ep: 60   EpTime: 39.9532  Trainloss: 1.1514   Testloss: 2.0105  TrainAcc: 72.44   Top1: 55.7659    Top5: 76.5134  lr: 0.001000
Ep: 61   EpTime: 39.3506  Trainloss: 1.1174   Testloss: 1.9866  TrainAcc: 73.85   Top1: 56.5356    Top5: 76.9433  lr: 0.001000
Ep: 62   EpTime: 39.4305  Trainloss: 1.0902   Testloss: 1.9825  TrainAcc: 74.34   Top1: 56.4732    Top5: 76.9711  lr: 0.001000
Ep: 63   EpTime: 38.7914  Trainloss: 1.0719   Testloss: 1.9763  TrainAcc: 74.85   Top1: 56.7783    Top5: 77.0890  lr: 0.001000
Ep: 64   EpTime: 38.6168  Trainloss: 1.0770   Testloss: 1.9719  TrainAcc: 74.52   Top1: 56.7506    Top5: 77.1514  lr: 0.001000
Ep: 65   EpTime: 38.3679  Trainloss: 1.0571   Testloss: 1.9749  TrainAcc: 75.19   Top1: 56.6050    Top5: 77.0682  lr: 0.001000
Ep: 66   EpTime: 38.5810  Trainloss: 1.0753   Testloss: 1.9797  TrainAcc: 74.79   Top1: 56.6743    Top5: 76.8948  lr: 0.001000
Ep: 67   EpTime: 39.0979  Trainloss: 1.0641   Testloss: 1.9726  TrainAcc: 75.20   Top1: 56.7159    Top5: 77.1444  lr: 0.001000
Ep: 68   EpTime: 38.7185  Trainloss: 1.0409   Testloss: 1.9751  TrainAcc: 75.43   Top1: 56.6327    Top5: 77.0959  lr: 0.001000
Ep: 69   EpTime: 39.1144  Trainloss: 1.0549   Testloss: 1.9782  TrainAcc: 75.20   Top1: 56.7922    Top5: 77.0404  lr: 0.001000
Ep: 70   EpTime: 38.8199  Trainloss: 1.0452   Testloss: 1.9732  TrainAcc: 75.41   Top1: 56.9378    Top5: 77.1028  lr: 0.001000
Ep: 71   EpTime: 39.5924  Trainloss: 1.0316   Testloss: 1.9763  TrainAcc: 75.56   Top1: 56.7436    Top5: 77.1098  lr: 0.001000
Ep: 72   EpTime: 39.1290  Trainloss: 1.0477   Testloss: 1.9728  TrainAcc: 75.78   Top1: 56.7852    Top5: 77.2831  lr: 0.001000
Ep: 73   EpTime: 38.6531  Trainloss: 1.0340   Testloss: 1.9781  TrainAcc: 75.63   Top1: 56.9309    Top5: 76.9988  lr: 0.001000
Ep: 74   EpTime: 39.5507  Trainloss: 1.0217   Testloss: 1.9817  TrainAcc: 76.15   Top1: 56.4871    Top5: 76.8601  lr: 0.001000
Ep: 75   EpTime: 39.1182  Trainloss: 1.0370   Testloss: 1.9728  TrainAcc: 75.80   Top1: 57.0696    Top5: 77.1583  lr: 0.001000
Ep: 76   EpTime: 40.3713  Trainloss: 1.0416   Testloss: 1.9793  TrainAcc: 75.40   Top1: 56.7367    Top5: 76.8255  lr: 0.001000
Ep: 77   EpTime: 39.4902  Trainloss: 1.0303   Testloss: 1.9755  TrainAcc: 75.78   Top1: 56.5911    Top5: 77.0266  lr: 0.001000
Ep: 78   EpTime: 39.1054  Trainloss: 1.0421   Testloss: 1.9718  TrainAcc: 75.57   Top1: 56.8962    Top5: 77.1167  lr: 0.001000
Ep: 79   EpTime: 39.4163  Trainloss: 1.0323   Testloss: 1.9748  TrainAcc: 76.22   Top1: 56.7575    Top5: 77.0196  lr: 0.001000
Ep: 80   EpTime: 40.0326  Trainloss: 1.0289   Testloss: 1.9802  TrainAcc: 75.77   Top1: 56.7228    Top5: 76.9919  lr: 0.001000
Ep: 81   EpTime: 39.1306  Trainloss: 1.0380   Testloss: 1.9727  TrainAcc: 75.75   Top1: 56.8754    Top5: 77.1930  lr: 0.001000
Ep: 82   EpTime: 39.8682  Trainloss: 1.0227   Testloss: 1.9798  TrainAcc: 76.19   Top1: 56.9517    Top5: 76.9087  lr: 0.001000
Ep: 83   EpTime: 39.6471  Trainloss: 1.0184   Testloss: 1.9796  TrainAcc: 76.46   Top1: 56.7506    Top5: 77.0335  lr: 0.001000
Ep: 84   EpTime: 39.1592  Trainloss: 1.0236   Testloss: 1.9776  TrainAcc: 75.85   Top1: 56.7159    Top5: 77.0820  lr: 0.001000
Ep: 85   EpTime: 38.9443  Trainloss: 1.0182   Testloss: 1.9796  TrainAcc: 76.38   Top1: 56.9239    Top5: 77.1028  lr: 0.001000
Ep: 86   EpTime: 40.2260  Trainloss: 0.9960   Testloss: 1.9762  TrainAcc: 76.54   Top1: 56.7783    Top5: 77.1860  lr: 0.001000
Ep: 87   EpTime: 39.8535  Trainloss: 1.0184   Testloss: 1.9745  TrainAcc: 76.43   Top1: 56.9378    Top5: 77.0682  lr: 0.001000
Ep: 88   EpTime: 38.9803  Trainloss: 1.0093   Testloss: 1.9726  TrainAcc: 76.60   Top1: 57.1042    Top5: 77.1306  lr: 0.001000
Ep: 89   EpTime: 38.6144  Trainloss: 1.0345   Testloss: 1.9795  TrainAcc: 76.05   Top1: 56.7644    Top5: 77.1167  lr: 0.001000
Ep: 90   EpTime: 38.6292  Trainloss: 1.0067   Testloss: 1.9841  TrainAcc: 76.69   Top1: 56.8199    Top5: 76.9572  lr: 0.000100
Ep: 91   EpTime: 38.9648  Trainloss: 0.9906   Testloss: 1.9843  TrainAcc: 77.18   Top1: 56.8199    Top5: 76.9503  lr: 0.000100
Ep: 92   EpTime: 39.4953  Trainloss: 0.9740   Testloss: 1.9809  TrainAcc: 77.19   Top1: 56.7644    Top5: 76.9156  lr: 0.000100
Ep: 93   EpTime: 38.3029  Trainloss: 0.9799   Testloss: 1.9825  TrainAcc: 76.98   Top1: 56.7298    Top5: 77.0058  lr: 0.000100
Ep: 94   EpTime: 39.0700  Trainloss: 1.0015   Testloss: 1.9798  TrainAcc: 76.70   Top1: 56.8685    Top5: 76.9988  lr: 0.000100
Ep: 95   EpTime: 37.5702  Trainloss: 0.9864   Testloss: 1.9820  TrainAcc: 76.83   Top1: 56.8338    Top5: 77.0751  lr: 0.000100
Ep: 96   EpTime: 38.8429  Trainloss: 1.0100   Testloss: 1.9867  TrainAcc: 76.35   Top1: 56.7298    Top5: 76.9503  lr: 0.000100
Ep: 97   EpTime: 38.3196  Trainloss: 0.9707   Testloss: 1.9827  TrainAcc: 77.27   Top1: 56.8685    Top5: 76.9225  lr: 0.000100
Ep: 98   EpTime: 39.3316  Trainloss: 0.9929   Testloss: 1.9798  TrainAcc: 77.24   Top1: 56.6951    Top5: 77.2138  lr: 0.000100
Ep: 99   EpTime: 38.9250  Trainloss: 0.9732   Testloss: 1.9789  TrainAcc: 77.18   Top1: 56.8962    Top5: 77.1306  lr: 0.000100
Ep: 100   EpTime: 37.9834  Trainloss: 1.0120   Testloss: 1.9793  TrainAcc: 76.60   Top1: 57.0141    Top5: 77.1930  lr: 0.000100
Ep: 101   EpTime: 38.6072  Trainloss: 0.9806   Testloss: 1.9730  TrainAcc: 77.38   Top1: 57.0002    Top5: 77.1028  lr: 0.000100
Ep: 102   EpTime: 37.8081  Trainloss: 0.9997   Testloss: 1.9761  TrainAcc: 76.65   Top1: 56.9794    Top5: 77.1375  lr: 0.000100
Ep: 103   EpTime: 38.9338  Trainloss: 1.0063   Testloss: 1.9797  TrainAcc: 77.04   Top1: 56.8893    Top5: 77.0959  lr: 0.000100
Ep: 104   EpTime: 37.8181  Trainloss: 0.9931   Testloss: 1.9766  TrainAcc: 76.78   Top1: 57.0765    Top5: 77.0682  lr: 0.000100
Ep: 105   EpTime: 39.1222  Trainloss: 0.9906   Testloss: 1.9869  TrainAcc: 76.75   Top1: 56.8130    Top5: 76.9295  lr: 0.000100
Ep: 106   EpTime: 38.5075  Trainloss: 1.0039   Testloss: 1.9774  TrainAcc: 76.16   Top1: 57.0418    Top5: 76.9988  lr: 0.000100
Ep: 107   EpTime: 38.6889  Trainloss: 0.9885   Testloss: 1.9844  TrainAcc: 77.07   Top1: 56.7506    Top5: 77.0127  lr: 0.000100
Ep: 108   EpTime: 38.5080  Trainloss: 0.9930   Testloss: 1.9771  TrainAcc: 77.20   Top1: 57.0557    Top5: 77.0335  lr: 0.000100
Ep: 109   EpTime: 38.1273  Trainloss: 1.0085   Testloss: 1.9802  TrainAcc: 76.72   Top1: 56.9309    Top5: 76.9988  lr: 0.000100
Ep: 110   EpTime: 39.3908  Trainloss: 1.0011   Testloss: 1.9805  TrainAcc: 76.80   Top1: 56.8823    Top5: 77.0127  lr: 0.000100
Ep: 111   EpTime: 38.0013  Trainloss: 0.9826   Testloss: 1.9831  TrainAcc: 77.19   Top1: 56.8754    Top5: 77.0543  lr: 0.000100
Ep: 112   EpTime: 38.1572  Trainloss: 0.9994   Testloss: 1.9760  TrainAcc: 76.63   Top1: 56.9378    Top5: 76.9919  lr: 0.000100
Ep: 113   EpTime: 39.1213  Trainloss: 0.9997   Testloss: 1.9814  TrainAcc: 76.68   Top1: 57.0349    Top5: 76.8463  lr: 0.000100
Ep: 114   EpTime: 38.6874  Trainloss: 1.0062   Testloss: 1.9800  TrainAcc: 76.72   Top1: 56.7852    Top5: 77.0820  lr: 0.000100
Ep: 115   EpTime: 39.3337  Trainloss: 0.9870   Testloss: 1.9765  TrainAcc: 76.75   Top1: 56.7991    Top5: 77.0890  lr: 0.000100
Ep: 116   EpTime: 38.0132  Trainloss: 0.9769   Testloss: 1.9763  TrainAcc: 76.97   Top1: 56.9933    Top5: 77.0612  lr: 0.000100
Ep: 117   EpTime: 38.3289  Trainloss: 0.9793   Testloss: 1.9794  TrainAcc: 77.12   Top1: 56.8268    Top5: 76.9988  lr: 0.000100
Ep: 118   EpTime: 38.9676  Trainloss: 0.9788   Testloss: 1.9841  TrainAcc: 77.08   Top1: 56.8893    Top5: 77.0058  lr: 0.000100
Ep: 119   EpTime: 39.3782  Trainloss: 0.9922   Testloss: 1.9752  TrainAcc: 76.93   Top1: 56.9863    Top5: 77.2623  lr: 0.000100
Ep: 120   EpTime: 39.0777  Trainloss: 0.9839   Testloss: 1.9732  TrainAcc: 77.36   Top1: 57.1458    Top5: 77.1098  lr: 0.000010
Ep: 121   EpTime: 40.7229  Trainloss: 1.0077   Testloss: 1.9815  TrainAcc: 76.35   Top1: 56.8546    Top5: 77.0820  lr: 0.000010
Ep: 122   EpTime: 38.6399  Trainloss: 0.9991   Testloss: 1.9846  TrainAcc: 76.63   Top1: 56.7020    Top5: 77.0335  lr: 0.000010
Ep: 123   EpTime: 38.2770  Trainloss: 0.9793   Testloss: 1.9762  TrainAcc: 77.08   Top1: 57.0765    Top5: 77.1098  lr: 0.000010
Ep: 124   EpTime: 38.2830  Trainloss: 0.9866   Testloss: 1.9779  TrainAcc: 77.00   Top1: 56.9655    Top5: 77.0127  lr: 0.000010
Ep: 125   EpTime: 39.6709  Trainloss: 0.9915   Testloss: 1.9879  TrainAcc: 76.93   Top1: 56.8546    Top5: 76.8393  lr: 0.000010
Ep: 126   EpTime: 38.5871  Trainloss: 0.9872   Testloss: 1.9816  TrainAcc: 76.66   Top1: 56.8268    Top5: 77.1167  lr: 0.000010
Ep: 127   EpTime: 39.7831  Trainloss: 1.0007   Testloss: 1.9749  TrainAcc: 76.72   Top1: 57.0210    Top5: 77.1444  lr: 0.000010
Ep: 128   EpTime: 38.3604  Trainloss: 0.9942   Testloss: 1.9771  TrainAcc: 76.62   Top1: 56.9378    Top5: 77.0127  lr: 0.000010
Ep: 129   EpTime: 39.7799  Trainloss: 0.9933   Testloss: 1.9800  TrainAcc: 76.20   Top1: 56.9101    Top5: 77.1514  lr: 0.000010
Ep: 130   EpTime: 38.3442  Trainloss: 0.9918   Testloss: 1.9846  TrainAcc: 76.82   Top1: 56.8546    Top5: 76.8948  lr: 0.000010
Ep: 131   EpTime: 40.7618  Trainloss: 0.9700   Testloss: 1.9799  TrainAcc: 77.26   Top1: 56.9170    Top5: 77.0751  lr: 0.000010
Ep: 132   EpTime: 39.5573  Trainloss: 0.9893   Testloss: 1.9705  TrainAcc: 77.01   Top1: 57.1389    Top5: 77.1514  lr: 0.000010
Ep: 133   EpTime: 39.6215  Trainloss: 0.9780   Testloss: 1.9780  TrainAcc: 77.08   Top1: 56.8477    Top5: 77.1306  lr: 0.000010
Ep: 134   EpTime: 39.0331  Trainloss: 0.9883   Testloss: 1.9734  TrainAcc: 76.92   Top1: 56.9655    Top5: 77.1444  lr: 0.000010
Ep: 135   EpTime: 39.7556  Trainloss: 0.9744   Testloss: 1.9718  TrainAcc: 77.32   Top1: 57.1181    Top5: 77.1028  lr: 0.000010
Ep: 136   EpTime: 37.8912  Trainloss: 0.9888   Testloss: 1.9762  TrainAcc: 77.06   Top1: 57.1112    Top5: 77.1167  lr: 0.000010
Ep: 137   EpTime: 40.0141  Trainloss: 0.9943   Testloss: 1.9724  TrainAcc: 76.61   Top1: 57.0002    Top5: 77.1583  lr: 0.000010
Ep: 138   EpTime: 39.6785  Trainloss: 0.9613   Testloss: 1.9868  TrainAcc: 77.69   Top1: 56.7228    Top5: 76.9156  lr: 0.000010
Ep: 139   EpTime: 39.3252  Trainloss: 0.9803   Testloss: 1.9806  TrainAcc: 76.95   Top1: 56.9031    Top5: 77.1791  lr: 0.000010
Ep: 140   EpTime: 39.0876  Trainloss: 0.9953   Testloss: 1.9805  TrainAcc: 76.72   Top1: 56.8754    Top5: 76.9433  lr: 0.000010
Ep: 141   EpTime: 38.5685  Trainloss: 0.9932   Testloss: 1.9814  TrainAcc: 76.74   Top1: 56.7991    Top5: 77.0474  lr: 0.000010
Ep: 142   EpTime: 39.2541  Trainloss: 0.9867   Testloss: 1.9804  TrainAcc: 77.09   Top1: 56.9655    Top5: 77.0820  lr: 0.000010
Ep: 143   EpTime: 39.6299  Trainloss: 0.9836   Testloss: 1.9804  TrainAcc: 76.94   Top1: 57.0973    Top5: 77.1028  lr: 0.000010
Ep: 144   EpTime: 37.9877  Trainloss: 0.9860   Testloss: 1.9771  TrainAcc: 77.00   Top1: 57.0487    Top5: 77.2138  lr: 0.000010
Ep: 145   EpTime: 40.4892  Trainloss: 0.9861   Testloss: 1.9767  TrainAcc: 76.98   Top1: 57.0418    Top5: 77.0404  lr: 0.000010
Ep: 146   EpTime: 38.7539  Trainloss: 0.9903   Testloss: 1.9711  TrainAcc: 76.86   Top1: 57.1736    Top5: 77.1514  lr: 0.000010
Ep: 147   EpTime: 38.8917  Trainloss: 0.9838   Testloss: 1.9764  TrainAcc: 77.08   Top1: 57.0418    Top5: 77.0682  lr: 0.000010
Ep: 148   EpTime: 38.9138  Trainloss: 0.9892   Testloss: 1.9731  TrainAcc: 76.85   Top1: 56.8893    Top5: 77.1652  lr: 0.000010
Ep: 149   EpTime: 38.9136  Trainloss: 0.9814   Testloss: 1.9825  TrainAcc: 76.82   Top1: 56.9031    Top5: 76.9780  lr: 0.000010
Ep: 150   EpTime: 39.1679  Trainloss: 0.9617   Testloss: 1.9738  TrainAcc: 77.34   Top1: 56.8962    Top5: 77.2485  lr: 0.000001
