[32, 16, 24, 32, 64, 96, 160, 320]
MobileNet2(
  (activation): ReLU6(inplace)
  (conv1): Conv2d(3, 32, kernel_size=(3, 3), stride=(2, 2), padding=(1, 1), bias=False)
  (bn1): BatchNorm2d(32, eps=1e-05, momentum=0.1, affine=True, track_running_stats=True)
  (bottlenecks): Sequential(
    (Bottlenecks_0): Sequential(
      (LinearBottleneck0_0): LinearBottleneck(
        (conv1): Conv2d(32, 32, kernel_size=(1, 1), stride=(1, 1), bias=False)
        (bn1): BatchNorm2d(32, eps=1e-05, momentum=0.1, affine=True, track_running_stats=True)
        (conv2): Conv2d(32, 32, kernel_size=(3, 3), stride=(1, 1), padding=(1, 1), groups=32, bias=False)
        (bn2): BatchNorm2d(32, eps=1e-05, momentum=0.1, affine=True, track_running_stats=True)
        (conv3): Conv2d(32, 16, kernel_size=(1, 1), stride=(1, 1), bias=False)
        (bn3): BatchNorm2d(16, eps=1e-05, momentum=0.1, affine=True, track_running_stats=True)
        (activation): ReLU6(inplace)
      )
    )
    (Bottlenecks_1): Sequential(
      (LinearBottleneck1_0): LinearBottleneck(
        (conv1): Conv2d(16, 96, kernel_size=(1, 1), stride=(1, 1), bias=False)
        (bn1): BatchNorm2d(96, eps=1e-05, momentum=0.1, affine=True, track_running_stats=True)
        (conv2): Conv2d(96, 96, kernel_size=(3, 3), stride=(2, 2), padding=(1, 1), groups=96, bias=False)
        (bn2): BatchNorm2d(96, eps=1e-05, momentum=0.1, affine=True, track_running_stats=True)
        (conv3): Conv2d(96, 24, kernel_size=(1, 1), stride=(1, 1), bias=False)
        (bn3): BatchNorm2d(24, eps=1e-05, momentum=0.1, affine=True, track_running_stats=True)
        (activation): ReLU6(inplace)
      )
      (LinearBottleneck1_1): LinearBottleneck(
        (conv1): Conv2d(24, 144, kernel_size=(1, 1), stride=(1, 1), bias=False)
        (bn1): BatchNorm2d(144, eps=1e-05, momentum=0.1, affine=True, track_running_stats=True)
        (conv2): Conv2d(144, 144, kernel_size=(3, 3), stride=(1, 1), padding=(1, 1), groups=144, bias=False)
        (bn2): BatchNorm2d(144, eps=1e-05, momentum=0.1, affine=True, track_running_stats=True)
        (conv3): Conv2d(144, 24, kernel_size=(1, 1), stride=(1, 1), bias=False)
        (bn3): BatchNorm2d(24, eps=1e-05, momentum=0.1, affine=True, track_running_stats=True)
        (activation): ReLU6(inplace)
      )
    )
    (Bottlenecks_2): Sequential(
      (LinearBottleneck2_0): LinearBottleneck(
        (conv1): Conv2d(24, 144, kernel_size=(1, 1), stride=(1, 1), bias=False)
        (bn1): BatchNorm2d(144, eps=1e-05, momentum=0.1, affine=True, track_running_stats=True)
        (conv2): Conv2d(144, 144, kernel_size=(3, 3), stride=(2, 2), padding=(1, 1), groups=144, bias=False)
        (bn2): BatchNorm2d(144, eps=1e-05, momentum=0.1, affine=True, track_running_stats=True)
        (conv3): Conv2d(144, 32, kernel_size=(1, 1), stride=(1, 1), bias=False)
        (bn3): BatchNorm2d(32, eps=1e-05, momentum=0.1, affine=True, track_running_stats=True)
        (activation): ReLU6(inplace)
      )
      (LinearBottleneck2_1): LinearBottleneck(
        (conv1): Conv2d(32, 192, kernel_size=(1, 1), stride=(1, 1), bias=False)
        (bn1): BatchNorm2d(192, eps=1e-05, momentum=0.1, affine=True, track_running_stats=True)
        (conv2): Conv2d(192, 192, kernel_size=(3, 3), stride=(1, 1), padding=(1, 1), groups=192, bias=False)
        (bn2): BatchNorm2d(192, eps=1e-05, momentum=0.1, affine=True, track_running_stats=True)
        (conv3): Conv2d(192, 32, kernel_size=(1, 1), stride=(1, 1), bias=False)
        (bn3): BatchNorm2d(32, eps=1e-05, momentum=0.1, affine=True, track_running_stats=True)
        (activation): ReLU6(inplace)
      )
      (LinearBottleneck2_2): LinearBottleneck(
        (conv1): Conv2d(32, 192, kernel_size=(1, 1), stride=(1, 1), bias=False)
        (bn1): BatchNorm2d(192, eps=1e-05, momentum=0.1, affine=True, track_running_stats=True)
        (conv2): Conv2d(192, 192, kernel_size=(3, 3), stride=(1, 1), padding=(1, 1), groups=192, bias=False)
        (bn2): BatchNorm2d(192, eps=1e-05, momentum=0.1, affine=True, track_running_stats=True)
        (conv3): Conv2d(192, 32, kernel_size=(1, 1), stride=(1, 1), bias=False)
        (bn3): BatchNorm2d(32, eps=1e-05, momentum=0.1, affine=True, track_running_stats=True)
        (activation): ReLU6(inplace)
      )
    )
    (Bottlenecks_3): Sequential(
      (LinearBottleneck3_0): LinearBottleneck(
        (conv1): Conv2d(32, 192, kernel_size=(1, 1), stride=(1, 1), bias=False)
        (bn1): BatchNorm2d(192, eps=1e-05, momentum=0.1, affine=True, track_running_stats=True)
        (conv2): Conv2d(192, 192, kernel_size=(3, 3), stride=(2, 2), padding=(1, 1), groups=192, bias=False)
        (bn2): BatchNorm2d(192, eps=1e-05, momentum=0.1, affine=True, track_running_stats=True)
        (conv3): Conv2d(192, 64, kernel_size=(1, 1), stride=(1, 1), bias=False)
        (bn3): BatchNorm2d(64, eps=1e-05, momentum=0.1, affine=True, track_running_stats=True)
        (activation): ReLU6(inplace)
      )
      (LinearBottleneck3_1): LinearBottleneck(
        (conv1): Conv2d(64, 384, kernel_size=(1, 1), stride=(1, 1), bias=False)
        (bn1): BatchNorm2d(384, eps=1e-05, momentum=0.1, affine=True, track_running_stats=True)
        (conv2): Conv2d(384, 384, kernel_size=(3, 3), stride=(1, 1), padding=(1, 1), groups=384, bias=False)
        (bn2): BatchNorm2d(384, eps=1e-05, momentum=0.1, affine=True, track_running_stats=True)
        (conv3): Conv2d(384, 64, kernel_size=(1, 1), stride=(1, 1), bias=False)
        (bn3): BatchNorm2d(64, eps=1e-05, momentum=0.1, affine=True, track_running_stats=True)
        (activation): ReLU6(inplace)
      )
      (LinearBottleneck3_2): LinearBottleneck(
        (conv1): Conv2d(64, 384, kernel_size=(1, 1), stride=(1, 1), bias=False)
        (bn1): BatchNorm2d(384, eps=1e-05, momentum=0.1, affine=True, track_running_stats=True)
        (conv2): Conv2d(384, 384, kernel_size=(3, 3), stride=(1, 1), padding=(1, 1), groups=384, bias=False)
        (bn2): BatchNorm2d(384, eps=1e-05, momentum=0.1, affine=True, track_running_stats=True)
        (conv3): Conv2d(384, 64, kernel_size=(1, 1), stride=(1, 1), bias=False)
        (bn3): BatchNorm2d(64, eps=1e-05, momentum=0.1, affine=True, track_running_stats=True)
        (activation): ReLU6(inplace)
      )
      (LinearBottleneck3_3): LinearBottleneck(
        (conv1): Conv2d(64, 384, kernel_size=(1, 1), stride=(1, 1), bias=False)
        (bn1): BatchNorm2d(384, eps=1e-05, momentum=0.1, affine=True, track_running_stats=True)
        (conv2): Conv2d(384, 384, kernel_size=(3, 3), stride=(1, 1), padding=(1, 1), groups=384, bias=False)
        (bn2): BatchNorm2d(384, eps=1e-05, momentum=0.1, affine=True, track_running_stats=True)
        (conv3): Conv2d(384, 64, kernel_size=(1, 1), stride=(1, 1), bias=False)
        (bn3): BatchNorm2d(64, eps=1e-05, momentum=0.1, affine=True, track_running_stats=True)
        (activation): ReLU6(inplace)
      )
    )
    (Bottlenecks_4): Sequential(
      (LinearBottleneck4_0): LinearBottleneck(
        (conv1): Conv2d(64, 384, kernel_size=(1, 1), stride=(1, 1), bias=False)
        (bn1): BatchNorm2d(384, eps=1e-05, momentum=0.1, affine=True, track_running_stats=True)
        (conv2): Conv2d(384, 384, kernel_size=(3, 3), stride=(1, 1), padding=(1, 1), groups=384, bias=False)
        (bn2): BatchNorm2d(384, eps=1e-05, momentum=0.1, affine=True, track_running_stats=True)
        (conv3): Conv2d(384, 96, kernel_size=(1, 1), stride=(1, 1), bias=False)
        (bn3): BatchNorm2d(96, eps=1e-05, momentum=0.1, affine=True, track_running_stats=True)
        (activation): ReLU6(inplace)
      )
      (LinearBottleneck4_1): LinearBottleneck(
        (conv1): Conv2d(96, 576, kernel_size=(1, 1), stride=(1, 1), bias=False)
        (bn1): BatchNorm2d(576, eps=1e-05, momentum=0.1, affine=True, track_running_stats=True)
        (conv2): Conv2d(576, 576, kernel_size=(3, 3), stride=(1, 1), padding=(1, 1), groups=576, bias=False)
        (bn2): BatchNorm2d(576, eps=1e-05, momentum=0.1, affine=True, track_running_stats=True)
        (conv3): Conv2d(576, 96, kernel_size=(1, 1), stride=(1, 1), bias=False)
        (bn3): BatchNorm2d(96, eps=1e-05, momentum=0.1, affine=True, track_running_stats=True)
        (activation): ReLU6(inplace)
      )
      (LinearBottleneck4_2): LinearBottleneck(
        (conv1): Conv2d(96, 576, kernel_size=(1, 1), stride=(1, 1), bias=False)
        (bn1): BatchNorm2d(576, eps=1e-05, momentum=0.1, affine=True, track_running_stats=True)
        (conv2): Conv2d(576, 576, kernel_size=(3, 3), stride=(1, 1), padding=(1, 1), groups=576, bias=False)
        (bn2): BatchNorm2d(576, eps=1e-05, momentum=0.1, affine=True, track_running_stats=True)
        (conv3): Conv2d(576, 96, kernel_size=(1, 1), stride=(1, 1), bias=False)
        (bn3): BatchNorm2d(96, eps=1e-05, momentum=0.1, affine=True, track_running_stats=True)
        (activation): ReLU6(inplace)
      )
    )
    (Bottlenecks_5): Sequential(
      (LinearBottleneck5_0): LinearBottleneck(
        (conv1): Conv2d(96, 576, kernel_size=(1, 1), stride=(1, 1), bias=False)
        (bn1): BatchNorm2d(576, eps=1e-05, momentum=0.1, affine=True, track_running_stats=True)
        (conv2): Conv2d(576, 576, kernel_size=(3, 3), stride=(2, 2), padding=(1, 1), groups=576, bias=False)
        (bn2): BatchNorm2d(576, eps=1e-05, momentum=0.1, affine=True, track_running_stats=True)
        (conv3): Conv2d(576, 160, kernel_size=(1, 1), stride=(1, 1), bias=False)
        (bn3): BatchNorm2d(160, eps=1e-05, momentum=0.1, affine=True, track_running_stats=True)
        (activation): ReLU6(inplace)
      )
      (LinearBottleneck5_1): LinearBottleneck(
        (conv1): Conv2d(160, 960, kernel_size=(1, 1), stride=(1, 1), bias=False)
        (bn1): BatchNorm2d(960, eps=1e-05, momentum=0.1, affine=True, track_running_stats=True)
        (conv2): Conv2d(960, 960, kernel_size=(3, 3), stride=(1, 1), padding=(1, 1), groups=960, bias=False)
        (bn2): BatchNorm2d(960, eps=1e-05, momentum=0.1, affine=True, track_running_stats=True)
        (conv3): Conv2d(960, 160, kernel_size=(1, 1), stride=(1, 1), bias=False)
        (bn3): BatchNorm2d(160, eps=1e-05, momentum=0.1, affine=True, track_running_stats=True)
        (activation): ReLU6(inplace)
      )
      (LinearBottleneck5_2): LinearBottleneck(
        (conv1): Conv2d(160, 960, kernel_size=(1, 1), stride=(1, 1), bias=False)
        (bn1): BatchNorm2d(960, eps=1e-05, momentum=0.1, affine=True, track_running_stats=True)
        (conv2): Conv2d(960, 960, kernel_size=(3, 3), stride=(1, 1), padding=(1, 1), groups=960, bias=False)
        (bn2): BatchNorm2d(960, eps=1e-05, momentum=0.1, affine=True, track_running_stats=True)
        (conv3): Conv2d(960, 160, kernel_size=(1, 1), stride=(1, 1), bias=False)
        (bn3): BatchNorm2d(160, eps=1e-05, momentum=0.1, affine=True, track_running_stats=True)
        (activation): ReLU6(inplace)
      )
    )
    (Bottlenecks_6): Sequential(
      (LinearBottleneck6_0): LinearBottleneck(
        (conv1): Conv2d(160, 960, kernel_size=(1, 1), stride=(1, 1), bias=False)
        (bn1): BatchNorm2d(960, eps=1e-05, momentum=0.1, affine=True, track_running_stats=True)
        (conv2): Conv2d(960, 960, kernel_size=(3, 3), stride=(1, 1), padding=(1, 1), groups=960, bias=False)
        (bn2): BatchNorm2d(960, eps=1e-05, momentum=0.1, affine=True, track_running_stats=True)
        (conv3): Conv2d(960, 320, kernel_size=(1, 1), stride=(1, 1), bias=False)
        (bn3): BatchNorm2d(320, eps=1e-05, momentum=0.1, affine=True, track_running_stats=True)
        (activation): ReLU6(inplace)
      )
    )
  )
  (conv_last): Conv2d(320, 1280, kernel_size=(1, 1), stride=(1, 1), bias=False)
  (bn_last): BatchNorm2d(1280, eps=1e-05, momentum=0.1, affine=True, track_running_stats=True)
  (avgpool): AdaptiveAvgPool2d(output_size=1)
  (dropout): Dropout(p=0.2, inplace)
  (fc): Linear(in_features=1280, out_features=1000, bias=True)
)
Ep: 1   EpTime: 940.5937  Trainloss: 4.9209   Testloss: 3.8169  TrainAcc: 10.96   Top1: 21.8060    Top5: 45.3840
Ep: 2   EpTime: 924.7526  Trainloss: 3.6218   Testloss: 2.9770  TrainAcc: 26.06   Top1: 35.0380    Top5: 61.7120
Ep: 3   EpTime: 940.5882  Trainloss: 3.1789   Testloss: 2.6382  TrainAcc: 33.08   Top1: 41.1340    Top5: 67.6380
Ep: 4   EpTime: 951.9172  Trainloss: 2.9428   Testloss: 2.4663  TrainAcc: 37.11   Top1: 44.3380    Top5: 70.7740
Ep: 5   EpTime: 941.7164  Trainloss: 2.7991   Testloss: 2.3759  TrainAcc: 39.62   Top1: 45.7640    Top5: 72.4740
Ep: 6   EpTime: 941.0756  Trainloss: 2.7023   Testloss: 2.2443  TrainAcc: 41.39   Top1: 48.7400    Top5: 74.1540
Ep: 7   EpTime: 943.0538  Trainloss: 2.6286   Testloss: 2.2414  TrainAcc: 42.70   Top1: 48.7720    Top5: 74.4360
Ep: 8   EpTime: 938.7587  Trainloss: 2.5729   Testloss: 2.2057  TrainAcc: 43.67   Top1: 49.1680    Top5: 75.0720
Ep: 9   EpTime: 949.3502  Trainloss: 2.5270   Testloss: 2.1597  TrainAcc: 44.54   Top1: 49.7940    Top5: 75.7020
Ep: 10   EpTime: 927.1029  Trainloss: 2.4911   Testloss: 2.1873  TrainAcc: 45.16   Top1: 49.5640    Top5: 75.3120
Ep: 11   EpTime: 938.0839  Trainloss: 2.4617   Testloss: 2.0873  TrainAcc: 45.73   Top1: 51.4140    Top5: 76.8640
Ep: 12   EpTime: 941.2364  Trainloss: 2.4348   Testloss: 2.0466  TrainAcc: 46.28   Top1: 52.3200    Top5: 77.4040
Ep: 13   EpTime: 944.4661  Trainloss: 2.4072   Testloss: 1.9902  TrainAcc: 46.74   Top1: 53.6720    Top5: 78.4880
Ep: 14   EpTime: 949.9158  Trainloss: 2.3833   Testloss: 1.9621  TrainAcc: 47.16   Top1: 53.8880    Top5: 78.8400
Ep: 15   EpTime: 937.6805  Trainloss: 2.3664   Testloss: 1.9689  TrainAcc: 47.55   Top1: 53.7080    Top5: 78.8560
Ep: 16   EpTime: 939.4246  Trainloss: 2.3431   Testloss: 1.9722  TrainAcc: 47.94   Top1: 53.3800    Top5: 78.6820
Ep: 17   EpTime: 939.2872  Trainloss: 2.3262   Testloss: 2.0075  TrainAcc: 48.25   Top1: 53.3220    Top5: 78.0000
Ep: 18   EpTime: 945.6492  Trainloss: 2.3133   Testloss: 1.9008  TrainAcc: 48.54   Top1: 55.0120    Top5: 79.7780
Ep: 19   EpTime: 933.9958  Trainloss: 2.2976   Testloss: 1.9024  TrainAcc: 48.81   Top1: 55.1640    Top5: 79.7720
Ep: 20   EpTime: 935.5528  Trainloss: 2.2824   Testloss: 1.8952  TrainAcc: 49.07   Top1: 55.2440    Top5: 79.9000
Ep: 21   EpTime: 940.3893  Trainloss: 2.2653   Testloss: 1.8670  TrainAcc: 49.42   Top1: 55.7320    Top5: 80.3340
Ep: 22   EpTime: 941.4756  Trainloss: 2.2576   Testloss: 1.9318  TrainAcc: 49.58   Top1: 54.4500    Top5: 79.2660
Ep: 23   EpTime: 946.5602  Trainloss: 2.2422   Testloss: 1.8557  TrainAcc: 49.81   Top1: 56.0660    Top5: 80.4720
Ep: 24   EpTime: 943.0348  Trainloss: 2.2299   Testloss: 1.8388  TrainAcc: 50.06   Top1: 56.4700    Top5: 80.8300
Ep: 25   EpTime: 943.6158  Trainloss: 2.2199   Testloss: 1.8215  TrainAcc: 50.26   Top1: 56.7400    Top5: 81.0720
Ep: 26   EpTime: 944.4010  Trainloss: 2.2068   Testloss: 1.8239  TrainAcc: 50.49   Top1: 57.0040    Top5: 80.7500
Ep: 27   EpTime: 942.2594  Trainloss: 2.1930   Testloss: 1.8227  TrainAcc: 50.80   Top1: 56.5400    Top5: 80.9820
Ep: 28   EpTime: 939.1188  Trainloss: 2.1832   Testloss: 1.8719  TrainAcc: 50.98   Top1: 55.7440    Top5: 80.2700
Ep: 29   EpTime: 942.5808  Trainloss: 2.1733   Testloss: 1.7979  TrainAcc: 51.13   Top1: 57.3420    Top5: 81.3620
Ep: 30   EpTime: 941.9002  Trainloss: 2.1633   Testloss: 1.7565  TrainAcc: 51.35   Top1: 58.2160    Top5: 81.8760
Ep: 31   EpTime: 942.6045  Trainloss: 2.1545   Testloss: 1.7519  TrainAcc: 51.52   Top1: 58.3740    Top5: 82.1200
Ep: 32   EpTime: 928.3106  Trainloss: 2.1440   Testloss: 1.7420  TrainAcc: 51.73   Top1: 58.2420    Top5: 82.2180
Ep: 33   EpTime: 950.3381  Trainloss: 2.1334   Testloss: 1.7169  TrainAcc: 51.90   Top1: 58.9600    Top5: 82.4160
Ep: 34   EpTime: 942.8158  Trainloss: 2.1225   Testloss: 1.7834  TrainAcc: 52.09   Top1: 57.6180    Top5: 81.5940
Ep: 35   EpTime: 942.9720  Trainloss: 2.1201   Testloss: 1.7360  TrainAcc: 52.22   Top1: 58.4800    Top5: 82.3260
Ep: 36   EpTime: 941.5306  Trainloss: 2.1093   Testloss: 1.7117  TrainAcc: 52.38   Top1: 59.0480    Top5: 82.6220
Ep: 37   EpTime: 929.9719  Trainloss: 2.0984   Testloss: 1.7155  TrainAcc: 52.58   Top1: 58.8820    Top5: 82.6640
Ep: 38   EpTime: 951.6891  Trainloss: 2.0880   Testloss: 1.7665  TrainAcc: 52.82   Top1: 57.8860    Top5: 81.7580
Ep: 39   EpTime: 941.3428  Trainloss: 2.0841   Testloss: 1.7060  TrainAcc: 52.89   Top1: 59.1520    Top5: 82.7560
Ep: 40   EpTime: 929.1060  Trainloss: 2.0758   Testloss: 1.7090  TrainAcc: 53.06   Top1: 59.2020    Top5: 82.6600
Ep: 41   EpTime: 940.8498  Trainloss: 2.0647   Testloss: 1.7387  TrainAcc: 53.21   Top1: 58.5400    Top5: 82.1280
Ep: 42   EpTime: 938.9683  Trainloss: 2.0587   Testloss: 1.6684  TrainAcc: 53.35   Top1: 59.9860    Top5: 83.3060
Ep: 43   EpTime: 953.0033  Trainloss: 2.0490   Testloss: 1.6709  TrainAcc: 53.53   Top1: 60.0360    Top5: 83.2760
Ep: 44   EpTime: 944.5589  Trainloss: 2.0452   Testloss: 1.6760  TrainAcc: 53.64   Top1: 60.1740    Top5: 83.2300
Ep: 45   EpTime: 942.2067  Trainloss: 2.0339   Testloss: 1.7618  TrainAcc: 53.87   Top1: 58.0300    Top5: 81.9080
Ep: 46   EpTime: 942.4587  Trainloss: 2.0277   Testloss: 1.6674  TrainAcc: 53.93   Top1: 59.9980    Top5: 83.5320
Ep: 47   EpTime: 939.6313  Trainloss: 2.0200   Testloss: 1.7493  TrainAcc: 54.10   Top1: 58.4020    Top5: 82.0660
Ep: 48   EpTime: 939.0247  Trainloss: 2.0124   Testloss: 1.6415  TrainAcc: 54.27   Top1: 60.5780    Top5: 83.4580
Ep: 49   EpTime: 939.5964  Trainloss: 2.0011   Testloss: 1.6492  TrainAcc: 54.46   Top1: 60.4500    Top5: 83.4940
Ep: 50   EpTime: 937.6267  Trainloss: 1.9951   Testloss: 1.6691  TrainAcc: 54.56   Top1: 60.2340    Top5: 83.1460
Ep: 51   EpTime: 936.3261  Trainloss: 1.9936   Testloss: 1.6312  TrainAcc: 54.62   Top1: 60.6400    Top5: 83.9260
Ep: 52   EpTime: 935.2076  Trainloss: 1.9816   Testloss: 1.5978  TrainAcc: 54.87   Top1: 61.6160    Top5: 84.3820
Ep: 53   EpTime: 940.6309  Trainloss: 1.9764   Testloss: 1.5999  TrainAcc: 54.93   Top1: 61.6180    Top5: 84.3220
Ep: 54   EpTime: 933.3031  Trainloss: 1.9707   Testloss: 1.6147  TrainAcc: 55.08   Top1: 61.1760    Top5: 84.1680
Ep: 55   EpTime: 930.1506  Trainloss: 1.9587   Testloss: 1.5969  TrainAcc: 55.37   Top1: 61.7040    Top5: 84.1820
Ep: 56   EpTime: 945.6634  Trainloss: 1.9515   Testloss: 1.5932  TrainAcc: 55.48   Top1: 61.6200    Top5: 84.3420
Ep: 57   EpTime: 937.0145  Trainloss: 1.9499   Testloss: 1.5919  TrainAcc: 55.54   Top1: 61.5600    Top5: 84.4560
Ep: 58   EpTime: 954.7421  Trainloss: 1.9428   Testloss: 1.5639  TrainAcc: 55.62   Top1: 62.1160    Top5: 84.8580
Ep: 59   EpTime: 945.3313  Trainloss: 1.9351   Testloss: 1.5600  TrainAcc: 55.80   Top1: 62.1960    Top5: 84.7860
Ep: 60   EpTime: 941.8736  Trainloss: 1.9307   Testloss: 1.5783  TrainAcc: 55.86   Top1: 61.9620    Top5: 84.5340
Ep: 61   EpTime: 929.8890  Trainloss: 1.9266   Testloss: 1.6213  TrainAcc: 56.00   Top1: 61.1860    Top5: 83.9380
Ep: 62   EpTime: 943.8451  Trainloss: 1.9144   Testloss: 1.5472  TrainAcc: 56.16   Top1: 62.8480    Top5: 85.0260
Ep: 63   EpTime: 948.1784  Trainloss: 1.9087   Testloss: 1.5471  TrainAcc: 56.33   Top1: 62.5620    Top5: 85.1240
Ep: 64   EpTime: 943.0765  Trainloss: 1.9005   Testloss: 1.5448  TrainAcc: 56.48   Top1: 62.6420    Top5: 85.0720
Ep: 65   EpTime: 942.2770  Trainloss: 1.8959   Testloss: 1.5275  TrainAcc: 56.53   Top1: 62.7640    Top5: 85.2040
Ep: 66   EpTime: 941.3066  Trainloss: 1.8873   Testloss: 1.5314  TrainAcc: 56.72   Top1: 62.9720    Top5: 85.2560
Ep: 67   EpTime: 931.7425  Trainloss: 1.8806   Testloss: 1.5219  TrainAcc: 56.85   Top1: 62.9500    Top5: 85.3500
Ep: 68   EpTime: 950.6905  Trainloss: 1.8778   Testloss: 1.5214  TrainAcc: 56.92   Top1: 63.1400    Top5: 85.4760
Ep: 69   EpTime: 942.0065  Trainloss: 1.8767   Testloss: 1.5303  TrainAcc: 56.98   Top1: 62.9580    Top5: 85.2620
Ep: 70   EpTime: 928.7803  Trainloss: 1.8716   Testloss: 1.5395  TrainAcc: 57.07   Top1: 62.6060    Top5: 85.1840
Ep: 71   EpTime: 944.2643  Trainloss: 1.8625   Testloss: 1.5836  TrainAcc: 57.27   Top1: 61.8280    Top5: 84.5340
Ep: 72   EpTime: 942.2452  Trainloss: 1.8603   Testloss: 1.5510  TrainAcc: 57.31   Top1: 62.5900    Top5: 84.9400
Ep: 73   EpTime: 953.1536  Trainloss: 1.8507   Testloss: 1.4955  TrainAcc: 57.48   Top1: 63.6260    Top5: 85.6720
Ep: 74   EpTime: 944.4553  Trainloss: 1.8429   Testloss: 1.5733  TrainAcc: 57.65   Top1: 62.2120    Top5: 84.5320
Ep: 75   EpTime: 928.8697  Trainloss: 1.8363   Testloss: 1.4913  TrainAcc: 57.77   Top1: 63.9060    Top5: 85.8360
Ep: 76   EpTime: 931.7152  Trainloss: 1.8379   Testloss: 1.4825  TrainAcc: 57.72   Top1: 64.1860    Top5: 85.9080
Ep: 77   EpTime: 944.8532  Trainloss: 1.8316   Testloss: 1.4914  TrainAcc: 57.80   Top1: 63.7280    Top5: 85.7560
Ep: 78   EpTime: 954.8656  Trainloss: 1.8248   Testloss: 1.4762  TrainAcc: 58.00   Top1: 64.3500    Top5: 86.0500
Ep: 79   EpTime: 936.3618  Trainloss: 1.8153   Testloss: 1.4848  TrainAcc: 58.19   Top1: 64.0560    Top5: 85.7280
Ep: 80   EpTime: 942.1603  Trainloss: 1.8087   Testloss: 1.4592  TrainAcc: 58.31   Top1: 64.5720    Top5: 86.2800
Ep: 81   EpTime: 942.8857  Trainloss: 1.8078   Testloss: 1.4872  TrainAcc: 58.32   Top1: 64.1940    Top5: 85.9180
Ep: 82   EpTime: 940.2272  Trainloss: 1.8031   Testloss: 1.4614  TrainAcc: 58.45   Top1: 64.4980    Top5: 86.0000
Ep: 83   EpTime: 955.4013  Trainloss: 1.7922   Testloss: 1.4566  TrainAcc: 58.64   Top1: 64.5780    Top5: 86.2040
Ep: 84   EpTime: 944.3409  Trainloss: 1.7939   Testloss: 1.4755  TrainAcc: 58.64   Top1: 64.1200    Top5: 85.9280
Ep: 85   EpTime: 943.6630  Trainloss: 1.7880   Testloss: 1.4423  TrainAcc: 58.77   Top1: 64.9740    Top5: 86.4520
Ep: 86   EpTime: 944.4072  Trainloss: 1.7784   Testloss: 1.4434  TrainAcc: 58.92   Top1: 64.7340    Top5: 86.4600
Ep: 87   EpTime: 941.2918  Trainloss: 1.7796   Testloss: 1.4451  TrainAcc: 58.91   Top1: 65.0880    Top5: 86.4040
Ep: 88   EpTime: 950.3599  Trainloss: 1.7715   Testloss: 1.4509  TrainAcc: 59.07   Top1: 64.7900    Top5: 86.2160
Ep: 89   EpTime: 928.4433  Trainloss: 1.7644   Testloss: 1.4292  TrainAcc: 59.22   Top1: 65.3180    Top5: 86.6180
Ep: 90   EpTime: 931.3123  Trainloss: 1.7634   Testloss: 1.4206  TrainAcc: 59.22   Top1: 65.3360    Top5: 86.7400
Ep: 91   EpTime: 944.9078  Trainloss: 1.7575   Testloss: 1.4256  TrainAcc: 59.38   Top1: 65.1900    Top5: 86.4540
Ep: 92   EpTime: 943.2376  Trainloss: 1.7562   Testloss: 1.4358  TrainAcc: 59.39   Top1: 64.8400    Top5: 86.3980
Ep: 93   EpTime: 951.8083  Trainloss: 1.7474   Testloss: 1.4070  TrainAcc: 59.55   Top1: 65.6300    Top5: 86.8920
Ep: 94   EpTime: 945.5394  Trainloss: 1.7378   Testloss: 1.4190  TrainAcc: 59.80   Top1: 65.5600    Top5: 86.7320
Ep: 95   EpTime: 942.9043  Trainloss: 1.7386   Testloss: 1.4212  TrainAcc: 59.75   Top1: 65.3760    Top5: 86.6800
Ep: 96   EpTime: 947.5874  Trainloss: 1.7293   Testloss: 1.4220  TrainAcc: 59.94   Top1: 65.3360    Top5: 86.5860
Ep: 97   EpTime: 939.7606  Trainloss: 1.7290   Testloss: 1.4004  TrainAcc: 59.92   Top1: 65.9720    Top5: 86.8240
Ep: 98   EpTime: 955.9185  Trainloss: 1.7217   Testloss: 1.4008  TrainAcc: 60.09   Top1: 65.8440    Top5: 86.8520
Ep: 99   EpTime: 931.0115  Trainloss: 1.7215   Testloss: 1.4020  TrainAcc: 60.15   Top1: 65.8620    Top5: 86.9540
Ep: 100   EpTime: 947.4721  Trainloss: 1.7126   Testloss: 1.3897  TrainAcc: 60.30   Top1: 65.9600    Top5: 87.1320
Ep: 101   EpTime: 945.1815  Trainloss: 1.7153   Testloss: 1.4006  TrainAcc: 60.27   Top1: 65.8180    Top5: 86.9120
Ep: 102   EpTime: 941.1820  Trainloss: 1.7016   Testloss: 1.3884  TrainAcc: 60.44   Top1: 65.9520    Top5: 87.2280
Ep: 103   EpTime: 953.4339  Trainloss: 1.7035   Testloss: 1.4102  TrainAcc: 60.44   Top1: 65.7340    Top5: 86.7660
Ep: 104   EpTime: 940.9594  Trainloss: 1.6944   Testloss: 1.3892  TrainAcc: 60.65   Top1: 66.0780    Top5: 87.1320
Ep: 105   EpTime: 935.1606  Trainloss: 1.6914   Testloss: 1.3907  TrainAcc: 60.71   Top1: 65.9220    Top5: 87.1380
Ep: 106   EpTime: 938.3884  Trainloss: 1.6946   Testloss: 1.3754  TrainAcc: 60.64   Top1: 66.1660    Top5: 87.3420
Ep: 107   EpTime: 935.1702  Trainloss: 1.6840   Testloss: 1.3702  TrainAcc: 60.86   Top1: 66.4580    Top5: 87.5480
Ep: 108   EpTime: 935.7804  Trainloss: 1.6809   Testloss: 1.3825  TrainAcc: 60.91   Top1: 66.2720    Top5: 87.1180
Ep: 109   EpTime: 901.1541  Trainloss: 1.6763   Testloss: 1.3531  TrainAcc: 61.04   Top1: 66.8000    Top5: 87.5220
Ep: 110   EpTime: 896.8684  Trainloss: 1.6744   Testloss: 1.4436  TrainAcc: 61.03   Top1: 65.0100    Top5: 86.4000
Ep: 111   EpTime: 898.0623  Trainloss: 1.6727   Testloss: 1.4565  TrainAcc: 61.08   Top1: 64.6820    Top5: 86.0980
Ep: 112   EpTime: 897.6449  Trainloss: 1.6619   Testloss: 1.3718  TrainAcc: 61.31   Top1: 66.4640    Top5: 87.3580
Ep: 113   EpTime: 897.9686  Trainloss: 1.6654   Testloss: 1.3837  TrainAcc: 61.25   Top1: 66.1120    Top5: 87.1600
Ep: 114   EpTime: 894.8454  Trainloss: 1.6515   Testloss: 1.3811  TrainAcc: 61.52   Top1: 66.1380    Top5: 87.1340
Ep: 115   EpTime: 917.1535  Trainloss: 1.6523   Testloss: 1.3621  TrainAcc: 61.49   Top1: 66.6200    Top5: 87.3560
Ep: 116   EpTime: 946.7143  Trainloss: 1.6528   Testloss: 1.3652  TrainAcc: 61.53   Top1: 66.5600    Top5: 87.4760
Ep: 117   EpTime: 954.6900  Trainloss: 1.6418   Testloss: 1.3619  TrainAcc: 61.74   Top1: 66.6920    Top5: 87.4340
Ep: 118   EpTime: 946.7927  Trainloss: 1.6418   Testloss: 1.3481  TrainAcc: 61.72   Top1: 67.0960    Top5: 87.6500
Ep: 119   EpTime: 928.3519  Trainloss: 1.6440   Testloss: 1.3363  TrainAcc: 61.72   Top1: 67.2920    Top5: 87.8340
Ep: 120   EpTime: 947.6824  Trainloss: 1.6288   Testloss: 1.3358  TrainAcc: 62.00   Top1: 66.9960    Top5: 87.8520
Ep: 121   EpTime: 942.3485  Trainloss: 1.6309   Testloss: 1.3339  TrainAcc: 61.96   Top1: 67.4580    Top5: 87.8440
Ep: 122   EpTime: 943.5562  Trainloss: 1.6313   Testloss: 1.3584  TrainAcc: 61.95   Top1: 66.6860    Top5: 87.5180
Ep: 123   EpTime: 939.2994  Trainloss: 1.6191   Testloss: 1.3237  TrainAcc: 62.24   Top1: 67.4820    Top5: 87.9460
Ep: 124   EpTime: 952.8997  Trainloss: 1.6176   Testloss: 1.3352  TrainAcc: 62.22   Top1: 67.2420    Top5: 87.9060
Ep: 125   EpTime: 944.9663  Trainloss: 1.6203   Testloss: 1.3354  TrainAcc: 62.12   Top1: 67.1200    Top5: 87.9280
Ep: 126   EpTime: 945.1519  Trainloss: 1.6059   Testloss: 1.3281  TrainAcc: 62.48   Top1: 67.5400    Top5: 87.9100
Ep: 127   EpTime: 956.3306  Trainloss: 1.6069   Testloss: 1.3258  TrainAcc: 62.44   Top1: 67.4020    Top5: 87.9680
Ep: 128   EpTime: 948.1823  Trainloss: 1.6057   Testloss: 1.3243  TrainAcc: 62.45   Top1: 67.6160    Top5: 87.9360
Ep: 129   EpTime: 945.4245  Trainloss: 1.6061   Testloss: 1.3230  TrainAcc: 62.47   Top1: 67.5380    Top5: 87.9760
Ep: 130   EpTime: 953.5216  Trainloss: 1.5922   Testloss: 1.3206  TrainAcc: 62.77   Top1: 67.7180    Top5: 87.9480
