mobilenetv1(
  (model): Sequential(
    (0): Sequential(
      (0): Conv2d(3, 32, kernel_size=(3, 3), stride=(2, 2), padding=(1, 1), bias=False)
      (1): BatchNorm2d(32, eps=1e-05, momentum=0.1, affine=True, track_running_stats=True)
      (2): ReLU(inplace)
    )
    (1): Sequential(
      (0): Conv2d(32, 32, kernel_size=(3, 3), stride=(1, 1), padding=(1, 1), groups=32, bias=False)
      (1): BatchNorm2d(32, eps=1e-05, momentum=0.1, affine=True, track_running_stats=True)
      (2): ReLU(inplace)
      (3): Conv2d(32, 64, kernel_size=(1, 1), stride=(1, 1), bias=False)
      (4): BatchNorm2d(64, eps=1e-05, momentum=0.1, affine=True, track_running_stats=True)
      (5): ReLU(inplace)
    )
    (2): Sequential(
      (0): Conv2d(64, 64, kernel_size=(3, 3), stride=(2, 2), padding=(1, 1), groups=64, bias=False)
      (1): BatchNorm2d(64, eps=1e-05, momentum=0.1, affine=True, track_running_stats=True)
      (2): ReLU(inplace)
      (3): Conv2d(64, 128, kernel_size=(1, 1), stride=(1, 1), bias=False)
      (4): BatchNorm2d(128, eps=1e-05, momentum=0.1, affine=True, track_running_stats=True)
      (5): ReLU(inplace)
    )
    (3): Sequential(
      (0): Conv2d(128, 128, kernel_size=(3, 3), stride=(1, 1), padding=(1, 1), groups=128, bias=False)
      (1): BatchNorm2d(128, eps=1e-05, momentum=0.1, affine=True, track_running_stats=True)
      (2): ReLU(inplace)
      (3): Conv2d(128, 128, kernel_size=(1, 1), stride=(1, 1), bias=False)
      (4): BatchNorm2d(128, eps=1e-05, momentum=0.1, affine=True, track_running_stats=True)
      (5): ReLU(inplace)
    )
    (4): Sequential(
      (0): Conv2d(128, 128, kernel_size=(3, 3), stride=(2, 2), padding=(1, 1), groups=128, bias=False)
      (1): BatchNorm2d(128, eps=1e-05, momentum=0.1, affine=True, track_running_stats=True)
      (2): ReLU(inplace)
      (3): Conv2d(128, 256, kernel_size=(1, 1), stride=(1, 1), bias=False)
      (4): BatchNorm2d(256, eps=1e-05, momentum=0.1, affine=True, track_running_stats=True)
      (5): ReLU(inplace)
    )
    (5): Sequential(
      (0): Conv2d(256, 256, kernel_size=(3, 3), stride=(1, 1), padding=(1, 1), groups=256, bias=False)
      (1): BatchNorm2d(256, eps=1e-05, momentum=0.1, affine=True, track_running_stats=True)
      (2): ReLU(inplace)
      (3): Conv2d(256, 256, kernel_size=(1, 1), stride=(1, 1), bias=False)
      (4): BatchNorm2d(256, eps=1e-05, momentum=0.1, affine=True, track_running_stats=True)
      (5): ReLU(inplace)
    )
    (6): Sequential(
      (0): Conv2d(256, 256, kernel_size=(3, 3), stride=(2, 2), padding=(1, 1), groups=256, bias=False)
      (1): BatchNorm2d(256, eps=1e-05, momentum=0.1, affine=True, track_running_stats=True)
      (2): ReLU(inplace)
      (3): Conv2d(256, 512, kernel_size=(1, 1), stride=(1, 1), bias=False)
      (4): BatchNorm2d(512, eps=1e-05, momentum=0.1, affine=True, track_running_stats=True)
      (5): ReLU(inplace)
    )
    (7): Sequential(
      (0): Conv2d(512, 512, kernel_size=(3, 3), stride=(1, 1), padding=(1, 1), groups=512, bias=False)
      (1): BatchNorm2d(512, eps=1e-05, momentum=0.1, affine=True, track_running_stats=True)
      (2): ReLU(inplace)
      (3): Conv2d(512, 512, kernel_size=(1, 1), stride=(1, 1), bias=False)
      (4): BatchNorm2d(512, eps=1e-05, momentum=0.1, affine=True, track_running_stats=True)
      (5): ReLU(inplace)
    )
    (8): AlphaBlock(
      (arm_1): SplitArm(
        (conv_dws): Conv2d(128, 128, kernel_size=(1, 1), stride=(1, 1), groups=128)
        (bn_dws): BatchNorm2d(128, eps=1e-05, momentum=0.9, affine=True, track_running_stats=True)
        (relu_dws): ReLU(inplace)
        (maxpool): MaxPool2d(kernel_size=3, stride=1, padding=1, dilation=1, ceil_mode=False)
        (conv_point): Conv2d(128, 1, kernel_size=(1, 1), stride=(1, 1))
        (bn_point): BatchNorm2d(1, eps=1e-05, momentum=0.9, affine=True, track_running_stats=True)
        (relu_point): ReLU(inplace)
        (softmax): Softmax()
      )
      (arm_2): SplitArm(
        (conv_dws): Conv2d(128, 128, kernel_size=(1, 1), stride=(1, 1), groups=128)
        (bn_dws): BatchNorm2d(128, eps=1e-05, momentum=0.9, affine=True, track_running_stats=True)
        (relu_dws): ReLU(inplace)
        (maxpool): MaxPool2d(kernel_size=3, stride=1, padding=1, dilation=1, ceil_mode=False)
        (conv_point): Conv2d(128, 1, kernel_size=(1, 1), stride=(1, 1))
        (bn_point): BatchNorm2d(1, eps=1e-05, momentum=0.9, affine=True, track_running_stats=True)
        (relu_point): ReLU(inplace)
        (softmax): Softmax()
      )
      (arm_3): SplitArm(
        (conv_dws): Conv2d(128, 128, kernel_size=(1, 1), stride=(1, 1), groups=128)
        (bn_dws): BatchNorm2d(128, eps=1e-05, momentum=0.9, affine=True, track_running_stats=True)
        (relu_dws): ReLU(inplace)
        (maxpool): MaxPool2d(kernel_size=3, stride=1, padding=1, dilation=1, ceil_mode=False)
        (conv_point): Conv2d(128, 1, kernel_size=(1, 1), stride=(1, 1))
        (bn_point): BatchNorm2d(1, eps=1e-05, momentum=0.9, affine=True, track_running_stats=True)
        (relu_point): ReLU(inplace)
        (softmax): Softmax()
      )
      (arm_4): SplitArm(
        (conv_dws): Conv2d(128, 128, kernel_size=(1, 1), stride=(1, 1), groups=128)
        (bn_dws): BatchNorm2d(128, eps=1e-05, momentum=0.9, affine=True, track_running_stats=True)
        (relu_dws): ReLU(inplace)
        (maxpool): MaxPool2d(kernel_size=3, stride=1, padding=1, dilation=1, ceil_mode=False)
        (conv_point): Conv2d(128, 1, kernel_size=(1, 1), stride=(1, 1))
        (bn_point): BatchNorm2d(1, eps=1e-05, momentum=0.9, affine=True, track_running_stats=True)
        (relu_point): ReLU(inplace)
        (softmax): Softmax()
      )
    )
    (9): Sequential(
      (0): Conv2d(512, 512, kernel_size=(3, 3), stride=(1, 1), padding=(1, 1), groups=512, bias=False)
      (1): BatchNorm2d(512, eps=1e-05, momentum=0.1, affine=True, track_running_stats=True)
      (2): ReLU(inplace)
      (3): Conv2d(512, 512, kernel_size=(1, 1), stride=(1, 1), bias=False)
      (4): BatchNorm2d(512, eps=1e-05, momentum=0.1, affine=True, track_running_stats=True)
      (5): ReLU(inplace)
    )
    (10): AlphaBlock(
      (arm_1): SplitArm(
        (conv_dws): Conv2d(128, 128, kernel_size=(1, 1), stride=(1, 1), groups=128)
        (bn_dws): BatchNorm2d(128, eps=1e-05, momentum=0.9, affine=True, track_running_stats=True)
        (relu_dws): ReLU(inplace)
        (maxpool): MaxPool2d(kernel_size=3, stride=1, padding=1, dilation=1, ceil_mode=False)
        (conv_point): Conv2d(128, 1, kernel_size=(1, 1), stride=(1, 1))
        (bn_point): BatchNorm2d(1, eps=1e-05, momentum=0.9, affine=True, track_running_stats=True)
        (relu_point): ReLU(inplace)
        (softmax): Softmax()
      )
      (arm_2): SplitArm(
        (conv_dws): Conv2d(128, 128, kernel_size=(1, 1), stride=(1, 1), groups=128)
        (bn_dws): BatchNorm2d(128, eps=1e-05, momentum=0.9, affine=True, track_running_stats=True)
        (relu_dws): ReLU(inplace)
        (maxpool): MaxPool2d(kernel_size=3, stride=1, padding=1, dilation=1, ceil_mode=False)
        (conv_point): Conv2d(128, 1, kernel_size=(1, 1), stride=(1, 1))
        (bn_point): BatchNorm2d(1, eps=1e-05, momentum=0.9, affine=True, track_running_stats=True)
        (relu_point): ReLU(inplace)
        (softmax): Softmax()
      )
      (arm_3): SplitArm(
        (conv_dws): Conv2d(128, 128, kernel_size=(1, 1), stride=(1, 1), groups=128)
        (bn_dws): BatchNorm2d(128, eps=1e-05, momentum=0.9, affine=True, track_running_stats=True)
        (relu_dws): ReLU(inplace)
        (maxpool): MaxPool2d(kernel_size=3, stride=1, padding=1, dilation=1, ceil_mode=False)
        (conv_point): Conv2d(128, 1, kernel_size=(1, 1), stride=(1, 1))
        (bn_point): BatchNorm2d(1, eps=1e-05, momentum=0.9, affine=True, track_running_stats=True)
        (relu_point): ReLU(inplace)
        (softmax): Softmax()
      )
      (arm_4): SplitArm(
        (conv_dws): Conv2d(128, 128, kernel_size=(1, 1), stride=(1, 1), groups=128)
        (bn_dws): BatchNorm2d(128, eps=1e-05, momentum=0.9, affine=True, track_running_stats=True)
        (relu_dws): ReLU(inplace)
        (maxpool): MaxPool2d(kernel_size=3, stride=1, padding=1, dilation=1, ceil_mode=False)
        (conv_point): Conv2d(128, 1, kernel_size=(1, 1), stride=(1, 1))
        (bn_point): BatchNorm2d(1, eps=1e-05, momentum=0.9, affine=True, track_running_stats=True)
        (relu_point): ReLU(inplace)
        (softmax): Softmax()
      )
    )
    (11): Sequential(
      (0): Conv2d(512, 512, kernel_size=(3, 3), stride=(1, 1), padding=(1, 1), groups=512, bias=False)
      (1): BatchNorm2d(512, eps=1e-05, momentum=0.1, affine=True, track_running_stats=True)
      (2): ReLU(inplace)
      (3): Conv2d(512, 512, kernel_size=(1, 1), stride=(1, 1), bias=False)
      (4): BatchNorm2d(512, eps=1e-05, momentum=0.1, affine=True, track_running_stats=True)
      (5): ReLU(inplace)
    )
    (12): AlphaBlock(
      (arm_1): SplitArm(
        (conv_dws): Conv2d(128, 128, kernel_size=(1, 1), stride=(1, 1), groups=128)
        (bn_dws): BatchNorm2d(128, eps=1e-05, momentum=0.9, affine=True, track_running_stats=True)
        (relu_dws): ReLU(inplace)
        (maxpool): MaxPool2d(kernel_size=3, stride=1, padding=1, dilation=1, ceil_mode=False)
        (conv_point): Conv2d(128, 1, kernel_size=(1, 1), stride=(1, 1))
        (bn_point): BatchNorm2d(1, eps=1e-05, momentum=0.9, affine=True, track_running_stats=True)
        (relu_point): ReLU(inplace)
        (softmax): Softmax()
      )
      (arm_2): SplitArm(
        (conv_dws): Conv2d(128, 128, kernel_size=(1, 1), stride=(1, 1), groups=128)
        (bn_dws): BatchNorm2d(128, eps=1e-05, momentum=0.9, affine=True, track_running_stats=True)
        (relu_dws): ReLU(inplace)
        (maxpool): MaxPool2d(kernel_size=3, stride=1, padding=1, dilation=1, ceil_mode=False)
        (conv_point): Conv2d(128, 1, kernel_size=(1, 1), stride=(1, 1))
        (bn_point): BatchNorm2d(1, eps=1e-05, momentum=0.9, affine=True, track_running_stats=True)
        (relu_point): ReLU(inplace)
        (softmax): Softmax()
      )
      (arm_3): SplitArm(
        (conv_dws): Conv2d(128, 128, kernel_size=(1, 1), stride=(1, 1), groups=128)
        (bn_dws): BatchNorm2d(128, eps=1e-05, momentum=0.9, affine=True, track_running_stats=True)
        (relu_dws): ReLU(inplace)
        (maxpool): MaxPool2d(kernel_size=3, stride=1, padding=1, dilation=1, ceil_mode=False)
        (conv_point): Conv2d(128, 1, kernel_size=(1, 1), stride=(1, 1))
        (bn_point): BatchNorm2d(1, eps=1e-05, momentum=0.9, affine=True, track_running_stats=True)
        (relu_point): ReLU(inplace)
        (softmax): Softmax()
      )
      (arm_4): SplitArm(
        (conv_dws): Conv2d(128, 128, kernel_size=(1, 1), stride=(1, 1), groups=128)
        (bn_dws): BatchNorm2d(128, eps=1e-05, momentum=0.9, affine=True, track_running_stats=True)
        (relu_dws): ReLU(inplace)
        (maxpool): MaxPool2d(kernel_size=3, stride=1, padding=1, dilation=1, ceil_mode=False)
        (conv_point): Conv2d(128, 1, kernel_size=(1, 1), stride=(1, 1))
        (bn_point): BatchNorm2d(1, eps=1e-05, momentum=0.9, affine=True, track_running_stats=True)
        (relu_point): ReLU(inplace)
        (softmax): Softmax()
      )
    )
    (13): Sequential(
      (0): Conv2d(512, 512, kernel_size=(3, 3), stride=(1, 1), padding=(1, 1), groups=512, bias=False)
      (1): BatchNorm2d(512, eps=1e-05, momentum=0.1, affine=True, track_running_stats=True)
      (2): ReLU(inplace)
      (3): Conv2d(512, 512, kernel_size=(1, 1), stride=(1, 1), bias=False)
      (4): BatchNorm2d(512, eps=1e-05, momentum=0.1, affine=True, track_running_stats=True)
      (5): ReLU(inplace)
    )
    (14): Sequential(
      (0): Conv2d(512, 512, kernel_size=(3, 3), stride=(2, 2), padding=(1, 1), groups=512, bias=False)
      (1): BatchNorm2d(512, eps=1e-05, momentum=0.1, affine=True, track_running_stats=True)
      (2): ReLU(inplace)
      (3): Conv2d(512, 1024, kernel_size=(1, 1), stride=(1, 1), bias=False)
      (4): BatchNorm2d(1024, eps=1e-05, momentum=0.1, affine=True, track_running_stats=True)
      (5): ReLU(inplace)
    )
    (15): Sequential(
      (0): Conv2d(1024, 1024, kernel_size=(3, 3), stride=(1, 1), padding=(1, 1), groups=1024, bias=False)
      (1): BatchNorm2d(1024, eps=1e-05, momentum=0.1, affine=True, track_running_stats=True)
      (2): ReLU(inplace)
      (3): Conv2d(1024, 1024, kernel_size=(1, 1), stride=(1, 1), bias=False)
      (4): BatchNorm2d(1024, eps=1e-05, momentum=0.1, affine=True, track_running_stats=True)
      (5): ReLU(inplace)
    )
    (16): AvgPool2d(kernel_size=7, stride=7, padding=0)
  )
  (fc): Linear(in_features=1024, out_features=1000, bias=True)
)
Ep: 1   EpTime: 1119.1969  Trainloss: 4.8998   Testloss: 3.8059  TrainAcc: 11.22   Top1: 21.6440    Top5: 45.7160
Ep: 2   EpTime: 1097.8817  Trainloss: 3.5588   Testloss: 3.4357  TrainAcc: 26.92   Top1: 28.1720    Top5: 53.3980
Ep: 3   EpTime: 1092.1614  Trainloss: 3.1172   Testloss: 2.9105  TrainAcc: 34.07   Top1: 36.3840    Top5: 63.1560
Ep: 4   EpTime: 1097.5931  Trainloss: 2.8826   Testloss: 2.5138  TrainAcc: 38.15   Top1: 43.4460    Top5: 70.0180
Ep: 5   EpTime: 1072.1472  Trainloss: 2.7300   Testloss: 2.6855  TrainAcc: 40.82   Top1: 40.1380    Top5: 66.8400
Ep: 6   EpTime: 1066.0375  Trainloss: 2.6233   Testloss: 2.4967  TrainAcc: 42.77   Top1: 43.9040    Top5: 70.2840
Ep: 7   EpTime: 1077.0373  Trainloss: 2.5489   Testloss: 2.4964  TrainAcc: 44.16   Top1: 43.7140    Top5: 69.9880
Ep: 8   EpTime: 1078.7966  Trainloss: 2.4913   Testloss: 2.4293  TrainAcc: 45.24   Top1: 46.5360    Top5: 72.5120
Ep: 9   EpTime: 1055.3511  Trainloss: 2.4436   Testloss: 2.4485  TrainAcc: 46.07   Top1: 46.1280    Top5: 72.4480
Ep: 10   EpTime: 944.1486  Trainloss: 2.4074   Testloss: 2.2224  TrainAcc: 46.75   Top1: 48.7920    Top5: 74.6960
Ep: 11   EpTime: 967.6304  Trainloss: 2.3787   Testloss: 3.0131  TrainAcc: 47.26   Top1: 37.9500    Top5: 63.6340
Ep: 12   EpTime: 944.3050  Trainloss: 2.3494   Testloss: 2.3217  TrainAcc: 47.92   Top1: 46.7880    Top5: 73.1460
Ep: 13   EpTime: 949.6407  Trainloss: 2.3319   Testloss: 2.5044  TrainAcc: 48.19   Top1: 46.4800    Top5: 72.7480
Ep: 14   EpTime: 983.1746  Trainloss: 2.3078   Testloss: 2.8078  TrainAcc: 48.64   Top1: 40.6680    Top5: 66.6800
Ep: 15   EpTime: 914.8262  Trainloss: 2.2882   Testloss: 2.4403  TrainAcc: 49.01   Top1: 45.0220    Top5: 71.0100
Ep: 16   EpTime: 961.9006  Trainloss: 2.2742   Testloss: 2.2442  TrainAcc: 49.29   Top1: 50.1660    Top5: 75.8240
Ep: 17   EpTime: 912.6120  Trainloss: 2.2604   Testloss: 2.5640  TrainAcc: 49.54   Top1: 45.1560    Top5: 71.5820
Ep: 18   EpTime: 960.6206  Trainloss: 2.2479   Testloss: 2.2712  TrainAcc: 49.75   Top1: 49.8960    Top5: 75.4540
Ep: 19   EpTime: 926.2894  Trainloss: 2.2367   Testloss: 5.6790  TrainAcc: 49.97   Top1: 32.7680    Top5: 57.9840
Ep: 20   EpTime: 915.6016  Trainloss: 2.2243   Testloss: 2.0741  TrainAcc: 50.22   Top1: 53.0280    Top5: 77.9500
Ep: 21   EpTime: 940.9950  Trainloss: 2.2179   Testloss: 2.2513  TrainAcc: 50.37   Top1: 48.7940    Top5: 74.0520
Ep: 22   EpTime: 940.5601  Trainloss: 2.2096   Testloss: 2.6029  TrainAcc: 50.52   Top1: 45.3260    Top5: 71.1020
Ep: 23   EpTime: 923.3633  Trainloss: 2.2045   Testloss: 2.1435  TrainAcc: 50.65   Top1: 51.0080    Top5: 76.6620
Ep: 24   EpTime: 928.4325  Trainloss: 2.1926   Testloss: 2.5429  TrainAcc: 50.77   Top1: 46.5040    Top5: 71.9900
Ep: 25   EpTime: 958.4243  Trainloss: 2.1887   Testloss: 2.9039  TrainAcc: 50.95   Top1: 46.3480    Top5: 72.5660
Ep: 26   EpTime: 958.7968  Trainloss: 2.1822   Testloss: 2.0260  TrainAcc: 51.06   Top1: 53.4080    Top5: 78.5400
Ep: 27   EpTime: 917.3289  Trainloss: 2.1763   Testloss: 2.3377  TrainAcc: 51.13   Top1: 50.3300    Top5: 75.7440
Ep: 28   EpTime: 1042.0438  Trainloss: 2.1748   Testloss: 2.3241  TrainAcc: 51.14   Top1: 49.8320    Top5: 75.0580
Ep: 29   EpTime: 1077.2449  Trainloss: 2.1685   Testloss: 2.3076  TrainAcc: 51.30   Top1: 48.6540    Top5: 73.7580
Ep: 30   EpTime: 1070.2942  Trainloss: 1.7934   Testloss: 1.4641  TrainAcc: 59.13   Top1: 64.6780    Top5: 86.1780
Ep: 31   EpTime: 1066.2159  Trainloss: 1.7020   Testloss: 1.4255  TrainAcc: 61.01   Top1: 65.5320    Top5: 86.5020
Ep: 32   EpTime: 1026.9796  Trainloss: 1.6710   Testloss: 1.5890  TrainAcc: 61.65   Top1: 64.1740    Top5: 85.6060
Ep: 33   EpTime: 946.8706  Trainloss: 1.6477   Testloss: 1.4309  TrainAcc: 62.07   Top1: 65.8400    Top5: 86.7740
Ep: 34   EpTime: 909.6902  Trainloss: 1.6290   Testloss: 1.4066  TrainAcc: 62.51   Top1: 66.1900    Top5: 86.9700
Ep: 35   EpTime: 958.4808  Trainloss: 1.6154   Testloss: 1.4302  TrainAcc: 62.76   Top1: 65.6740    Top5: 86.7940
Ep: 36   EpTime: 969.4836  Trainloss: 1.6041   Testloss: 1.3720  TrainAcc: 62.96   Top1: 66.6320    Top5: 87.2580
Ep: 37   EpTime: 959.3182  Trainloss: 1.5945   Testloss: 1.3988  TrainAcc: 63.10   Top1: 66.4100    Top5: 86.9400
Ep: 38   EpTime: 911.1519  Trainloss: 1.5887   Testloss: 1.5521  TrainAcc: 63.28   Top1: 65.0720    Top5: 86.2940
Ep: 39   EpTime: 930.1385  Trainloss: 1.5834   Testloss: 1.3732  TrainAcc: 63.39   Top1: 66.5940    Top5: 87.2140
Ep: 40   EpTime: 938.5940  Trainloss: 1.5774   Testloss: 1.3949  TrainAcc: 63.48   Top1: 66.4860    Top5: 87.1460
Ep: 41   EpTime: 913.9342  Trainloss: 1.5753   Testloss: 1.3800  TrainAcc: 63.52   Top1: 66.3760    Top5: 87.1900
Ep: 42   EpTime: 963.5689  Trainloss: 1.5727   Testloss: 1.3688  TrainAcc: 63.57   Top1: 66.5400    Top5: 87.4060
Ep: 43   EpTime: 933.9965  Trainloss: 1.5687   Testloss: 1.4848  TrainAcc: 63.64   Top1: 65.3780    Top5: 86.4500
Ep: 44   EpTime: 971.0227  Trainloss: 1.5669   Testloss: 1.4046  TrainAcc: 63.70   Top1: 66.2640    Top5: 87.1280
Ep: 45   EpTime: 956.0526  Trainloss: 1.5645   Testloss: 1.3687  TrainAcc: 63.69   Top1: 66.4940    Top5: 87.3140
Ep: 46   EpTime: 937.5806  Trainloss: 1.5637   Testloss: 1.5840  TrainAcc: 63.77   Top1: 64.5600    Top5: 85.8920
Ep: 47   EpTime: 925.1240  Trainloss: 1.5633   Testloss: 1.4041  TrainAcc: 63.70   Top1: 65.8340    Top5: 86.8840
Ep: 48   EpTime: 917.6053  Trainloss: 1.5623   Testloss: 1.4440  TrainAcc: 63.76   Top1: 65.9660    Top5: 86.8500
Ep: 49   EpTime: 921.8957  Trainloss: 1.5629   Testloss: 1.3699  TrainAcc: 63.72   Top1: 66.5920    Top5: 87.3380
Ep: 50   EpTime: 938.9609  Trainloss: 1.5595   Testloss: 1.4551  TrainAcc: 63.82   Top1: 65.4960    Top5: 86.7520
Ep: 51   EpTime: 947.7905  Trainloss: 1.5604   Testloss: 1.4625  TrainAcc: 63.74   Top1: 65.6960    Top5: 86.6540
Ep: 52   EpTime: 943.8739  Trainloss: 1.5583   Testloss: 1.5442  TrainAcc: 63.84   Top1: 64.7180    Top5: 86.2480
Ep: 53   EpTime: 897.2714  Trainloss: 1.5596   Testloss: 1.6990  TrainAcc: 63.79   Top1: 63.2640    Top5: 85.1800
Ep: 54   EpTime: 959.2219  Trainloss: 1.5596   Testloss: 1.3867  TrainAcc: 63.79   Top1: 66.1340    Top5: 87.0300
Ep: 55   EpTime: 910.8553  Trainloss: 1.5572   Testloss: 1.4804  TrainAcc: 63.84   Top1: 65.2820    Top5: 86.4600
Ep: 56   EpTime: 848.3758  Trainloss: 1.5582   Testloss: 1.4227  TrainAcc: 63.79   Top1: 65.8140    Top5: 86.8880
Ep: 57   EpTime: 832.7211  Trainloss: 1.5587   Testloss: 1.8586  TrainAcc: 63.79   Top1: 61.0080    Top5: 83.6980
Ep: 58   EpTime: 831.2535  Trainloss: 1.5573   Testloss: 1.5250  TrainAcc: 63.82   Top1: 64.0340    Top5: 85.6400
Ep: 59   EpTime: 829.7004  Trainloss: 1.5564   Testloss: 1.9752  TrainAcc: 63.86   Top1: 59.9760    Top5: 82.9020
Ep: 60   EpTime: 833.9905  Trainloss: 1.4370   Testloss: 1.2684  TrainAcc: 66.56   Top1: 68.9820    Top5: 88.6200
Ep: 61   EpTime: 832.4788  Trainloss: 1.4075   Testloss: 1.2555  TrainAcc: 67.21   Top1: 69.3060    Top5: 88.6700
Ep: 62   EpTime: 834.8227  Trainloss: 1.3979   Testloss: 1.2586  TrainAcc: 67.44   Top1: 69.2000    Top5: 88.7920
Ep: 63   EpTime: 830.8961  Trainloss: 1.3908   Testloss: 1.2478  TrainAcc: 67.57   Top1: 69.2940    Top5: 88.8420
Ep: 64   EpTime: 834.9830  Trainloss: 1.3849   Testloss: 1.2472  TrainAcc: 67.69   Top1: 69.3440    Top5: 88.8460
Ep: 65   EpTime: 830.8420  Trainloss: 1.3802   Testloss: 1.2481  TrainAcc: 67.81   Top1: 69.4280    Top5: 88.8380
Ep: 66   EpTime: 835.2660  Trainloss: 1.3774   Testloss: 1.2399  TrainAcc: 67.83   Top1: 69.5100    Top5: 88.8760
Ep: 67   EpTime: 831.2637  Trainloss: 1.3735   Testloss: 1.2895  TrainAcc: 67.89   Top1: 68.9440    Top5: 88.7700
Ep: 68   EpTime: 835.7694  Trainloss: 1.3696   Testloss: 1.2383  TrainAcc: 67.99   Top1: 69.5460    Top5: 88.9860
Ep: 69   EpTime: 835.3902  Trainloss: 1.3662   Testloss: 1.2356  TrainAcc: 68.07   Top1: 69.5640    Top5: 89.0680
Ep: 70   EpTime: 838.5309  Trainloss: 1.3673   Testloss: 1.2666  TrainAcc: 68.08   Top1: 69.1300    Top5: 88.7960
Ep: 71   EpTime: 837.1479  Trainloss: 1.3626   Testloss: 1.2343  TrainAcc: 68.16   Top1: 69.6340    Top5: 89.0520
Ep: 72   EpTime: 833.7893  Trainloss: 1.3607   Testloss: 1.2369  TrainAcc: 68.21   Top1: 69.5300    Top5: 89.0040
Ep: 73   EpTime: 830.6218  Trainloss: 1.3589   Testloss: 1.2409  TrainAcc: 68.26   Top1: 69.5580    Top5: 89.0020
Ep: 74   EpTime: 833.1479  Trainloss: 1.3567   Testloss: 1.2577  TrainAcc: 68.23   Top1: 69.2740    Top5: 88.9380
Ep: 75   EpTime: 834.4362  Trainloss: 1.3532   Testloss: 1.2356  TrainAcc: 68.35   Top1: 69.5600    Top5: 89.0700
Ep: 76   EpTime: 838.1095  Trainloss: 1.3521   Testloss: 1.2293  TrainAcc: 68.38   Top1: 69.7940    Top5: 89.0900
Ep: 77   EpTime: 831.4851  Trainloss: 1.3525   Testloss: 1.2304  TrainAcc: 68.34   Top1: 69.7540    Top5: 89.0320
Ep: 78   EpTime: 833.9145  Trainloss: 1.3504   Testloss: 1.2360  TrainAcc: 68.42   Top1: 69.7500    Top5: 89.0580
Ep: 79   EpTime: 837.6671  Trainloss: 1.3496   Testloss: 1.2325  TrainAcc: 68.42   Top1: 69.7060    Top5: 89.0300
Ep: 80   EpTime: 832.4079  Trainloss: 1.3469   Testloss: 1.2269  TrainAcc: 68.49   Top1: 69.8480    Top5: 89.0840
Ep: 81   EpTime: 833.6466  Trainloss: 1.3470   Testloss: 1.2313  TrainAcc: 68.51   Top1: 69.7000    Top5: 89.0760
Ep: 82   EpTime: 838.5678  Trainloss: 1.3444   Testloss: 1.2263  TrainAcc: 68.53   Top1: 69.7300    Top5: 89.1940
Ep: 83   EpTime: 841.5074  Trainloss: 1.3441   Testloss: 1.2379  TrainAcc: 68.60   Top1: 69.6420    Top5: 89.0360
Ep: 84   EpTime: 838.3769  Trainloss: 1.3422   Testloss: 1.2599  TrainAcc: 68.63   Top1: 69.6180    Top5: 88.8900
Ep: 85   EpTime: 840.7528  Trainloss: 1.3413   Testloss: 1.2281  TrainAcc: 68.59   Top1: 69.7280    Top5: 89.1360
Ep: 86   EpTime: 843.6805  Trainloss: 1.3410   Testloss: 1.2524  TrainAcc: 68.65   Top1: 69.4520    Top5: 88.9880
Ep: 87   EpTime: 841.4103  Trainloss: 1.3368   Testloss: 1.2299  TrainAcc: 68.74   Top1: 69.9100    Top5: 89.1060
Ep: 88   EpTime: 843.5468  Trainloss: 1.3385   Testloss: 1.2346  TrainAcc: 68.73   Top1: 69.7720    Top5: 89.1460
Ep: 89   EpTime: 918.9084  Trainloss: 1.3375   Testloss: 1.2368  TrainAcc: 68.66   Top1: 69.5000    Top5: 89.0080
Ep: 90   EpTime: 1147.6623  Trainloss: 1.3225   Testloss: 1.2144  TrainAcc: 69.05   Top1: 69.9960    Top5: 89.2400
Ep: 91   EpTime: 1142.7012  Trainloss: 1.3151   Testloss: 1.2132  TrainAcc: 69.18   Top1: 70.0320    Top5: 89.2560
Ep: 92   EpTime: 1139.7449  Trainloss: 1.3129   Testloss: 1.2149  TrainAcc: 69.22   Top1: 70.0500    Top5: 89.2180
Ep: 93   EpTime: 1141.9512  Trainloss: 1.3148   Testloss: 1.2121  TrainAcc: 69.19   Top1: 70.0740    Top5: 89.3160
Ep: 94   EpTime: 1135.7822  Trainloss: 1.3132   Testloss: 1.2134  TrainAcc: 69.25   Top1: 70.1080    Top5: 89.2580
Ep: 95   EpTime: 1085.4737  Trainloss: 1.3124   Testloss: 1.2116  TrainAcc: 69.24   Top1: 70.1140    Top5: 89.2580
Ep: 96   EpTime: 974.7595  Trainloss: 1.3100   Testloss: 1.2103  TrainAcc: 69.30   Top1: 70.1400    Top5: 89.3060
Ep: 97   EpTime: 933.6045  Trainloss: 1.3104   Testloss: 1.2125  TrainAcc: 69.30   Top1: 70.0740    Top5: 89.2740
Ep: 98   EpTime: 882.8118  Trainloss: 1.3104   Testloss: 1.2104  TrainAcc: 69.30   Top1: 70.1200    Top5: 89.2980
Ep: 99   EpTime: 841.1395  Trainloss: 1.3113   Testloss: 1.2122  TrainAcc: 69.27   Top1: 70.0680    Top5: 89.2260
Ep: 100   EpTime: 841.6690  Trainloss: 1.3102   Testloss: 1.2121  TrainAcc: 69.26   Top1: 70.0880    Top5: 89.2420
Ep: 101   EpTime: 841.2436  Trainloss: 1.3097   Testloss: 1.2113  TrainAcc: 69.31   Top1: 70.2260    Top5: 89.2800
Ep: 102   EpTime: 842.6283  Trainloss: 1.3086   Testloss: 1.2126  TrainAcc: 69.37   Top1: 70.0980    Top5: 89.2300
Ep: 103   EpTime: 839.3692  Trainloss: 1.3106   Testloss: 1.2110  TrainAcc: 69.29   Top1: 70.1100    Top5: 89.2500
Ep: 104   EpTime: 844.1217  Trainloss: 1.3086   Testloss: 1.2117  TrainAcc: 69.34   Top1: 70.1300    Top5: 89.2600
Ep: 105   EpTime: 842.5953  Trainloss: 1.3069   Testloss: 1.2137  TrainAcc: 69.39   Top1: 70.2120    Top5: 89.2440
Ep: 106   EpTime: 849.5088  Trainloss: 1.3095   Testloss: 1.2120  TrainAcc: 69.37   Top1: 70.0780    Top5: 89.2740
Ep: 107   EpTime: 857.6745  Trainloss: 1.3074   Testloss: 1.2118  TrainAcc: 69.31   Top1: 70.0580    Top5: 89.2920
Ep: 108   EpTime: 854.0185  Trainloss: 1.3084   Testloss: 1.2095  TrainAcc: 69.33   Top1: 70.1220    Top5: 89.3200
Ep: 109   EpTime: 847.6144  Trainloss: 1.3054   Testloss: 1.2100  TrainAcc: 69.37   Top1: 70.1700    Top5: 89.3060
Ep: 110   EpTime: 844.8949  Trainloss: 1.3081   Testloss: 1.2101  TrainAcc: 69.40   Top1: 70.1080    Top5: 89.3020
Ep: 111   EpTime: 843.7146  Trainloss: 1.3098   Testloss: 1.2105  TrainAcc: 69.35   Top1: 70.0840    Top5: 89.3020
Ep: 112   EpTime: 844.3042  Trainloss: 1.3068   Testloss: 1.2121  TrainAcc: 69.36   Top1: 70.0880    Top5: 89.2600
Ep: 113   EpTime: 857.5896  Trainloss: 1.3069   Testloss: 1.2092  TrainAcc: 69.43   Top1: 70.1060    Top5: 89.2800
Ep: 114   EpTime: 870.0730  Trainloss: 1.3064   Testloss: 1.2101  TrainAcc: 69.38   Top1: 70.1240    Top5: 89.2980
Ep: 115   EpTime: 867.7243  Trainloss: 1.3069   Testloss: 1.2091  TrainAcc: 69.37   Top1: 70.2140    Top5: 89.3160
Ep: 116   EpTime: 867.8270  Trainloss: 1.3038   Testloss: 1.2105  TrainAcc: 69.41   Top1: 70.0360    Top5: 89.2680
Ep: 117   EpTime: 869.7367  Trainloss: 1.3071   Testloss: 1.2073  TrainAcc: 69.35   Top1: 70.2020    Top5: 89.3120
Ep: 118   EpTime: 871.5651  Trainloss: 1.3051   Testloss: 1.2074  TrainAcc: 69.40   Top1: 70.1920    Top5: 89.2680
Ep: 119   EpTime: 867.6035  Trainloss: 1.3043   Testloss: 1.2100  TrainAcc: 69.43   Top1: 70.0760    Top5: 89.2560
Ep: 120   EpTime: 872.5505  Trainloss: 1.3036   Testloss: 1.2090  TrainAcc: 69.44   Top1: 70.1780    Top5: 89.3340
Ep: 121   EpTime: 865.6204  Trainloss: 1.3026   Testloss: 1.2083  TrainAcc: 69.43   Top1: 70.1480    Top5: 89.3100
Ep: 122   EpTime: 869.9623  Trainloss: 1.3039   Testloss: 1.2112  TrainAcc: 69.45   Top1: 70.1380    Top5: 89.3040
Ep: 123   EpTime: 872.7365  Trainloss: 1.3031   Testloss: 1.2086  TrainAcc: 69.52   Top1: 70.0920    Top5: 89.3320
Ep: 124   EpTime: 866.3434  Trainloss: 1.3008   Testloss: 1.2067  TrainAcc: 69.53   Top1: 70.2680    Top5: 89.3180
Ep: 125   EpTime: 868.4587  Trainloss: 1.3041   Testloss: 1.2083  TrainAcc: 69.43   Top1: 70.1580    Top5: 89.3380
Ep: 126   EpTime: 873.9822  Trainloss: 1.3041   Testloss: 1.2072  TrainAcc: 69.43   Top1: 70.1980    Top5: 89.3000
Ep: 127   EpTime: 869.9066  Trainloss: 1.3022   Testloss: 1.2102  TrainAcc: 69.46   Top1: 70.0900    Top5: 89.2840
Ep: 128   EpTime: 869.0446  Trainloss: 1.3024   Testloss: 1.2068  TrainAcc: 69.47   Top1: 70.2280    Top5: 89.3340
Ep: 129   EpTime: 870.4720  Trainloss: 1.3027   Testloss: 1.2112  TrainAcc: 69.51   Top1: 70.0940    Top5: 89.3100
Ep: 130   EpTime: 869.5057  Trainloss: 1.3010   Testloss: 1.2088  TrainAcc: 69.48   Top1: 70.1540    Top5: 89.2860
