mobilenetv1(
  (model): Sequential(
    (0): Sequential(
      (0): Conv2d(3, 32, kernel_size=(3, 3), stride=(2, 2), padding=(1, 1), bias=False)
      (1): BatchNorm2d(32, eps=1e-05, momentum=0.1, affine=True, track_running_stats=True)
      (2): ReLU(inplace)
    )
    (1): Sequential(
      (0): Conv2d(32, 32, kernel_size=(3, 3), stride=(1, 1), padding=(1, 1), groups=32, bias=False)
      (1): BatchNorm2d(32, eps=1e-05, momentum=0.1, affine=True, track_running_stats=True)
      (2): ReLU(inplace)
      (3): Conv2d(32, 64, kernel_size=(1, 1), stride=(1, 1), bias=False)
      (4): BatchNorm2d(64, eps=1e-05, momentum=0.1, affine=True, track_running_stats=True)
      (5): ReLU(inplace)
    )
    (2): Sequential(
      (0): Conv2d(64, 64, kernel_size=(3, 3), stride=(2, 2), padding=(1, 1), groups=64, bias=False)
      (1): BatchNorm2d(64, eps=1e-05, momentum=0.1, affine=True, track_running_stats=True)
      (2): ReLU(inplace)
      (3): Conv2d(64, 128, kernel_size=(1, 1), stride=(1, 1), bias=False)
      (4): BatchNorm2d(128, eps=1e-05, momentum=0.1, affine=True, track_running_stats=True)
      (5): ReLU(inplace)
    )
    (3): Sequential(
      (0): Conv2d(128, 128, kernel_size=(3, 3), stride=(1, 1), padding=(1, 1), groups=128, bias=False)
      (1): BatchNorm2d(128, eps=1e-05, momentum=0.1, affine=True, track_running_stats=True)
      (2): ReLU(inplace)
      (3): Conv2d(128, 128, kernel_size=(1, 1), stride=(1, 1), bias=False)
      (4): BatchNorm2d(128, eps=1e-05, momentum=0.1, affine=True, track_running_stats=True)
      (5): ReLU(inplace)
    )
    (4): Sequential(
      (0): Conv2d(128, 128, kernel_size=(3, 3), stride=(2, 2), padding=(1, 1), groups=128, bias=False)
      (1): BatchNorm2d(128, eps=1e-05, momentum=0.1, affine=True, track_running_stats=True)
      (2): ReLU(inplace)
      (3): Conv2d(128, 256, kernel_size=(1, 1), stride=(1, 1), bias=False)
      (4): BatchNorm2d(256, eps=1e-05, momentum=0.1, affine=True, track_running_stats=True)
      (5): ReLU(inplace)
    )
    (5): Sequential(
      (0): Conv2d(256, 256, kernel_size=(3, 3), stride=(1, 1), padding=(1, 1), groups=256, bias=False)
      (1): BatchNorm2d(256, eps=1e-05, momentum=0.1, affine=True, track_running_stats=True)
      (2): ReLU(inplace)
      (3): Conv2d(256, 256, kernel_size=(1, 1), stride=(1, 1), bias=False)
      (4): BatchNorm2d(256, eps=1e-05, momentum=0.1, affine=True, track_running_stats=True)
      (5): ReLU(inplace)
    )
    (6): Sequential(
      (0): Conv2d(256, 256, kernel_size=(3, 3), stride=(2, 2), padding=(1, 1), groups=256, bias=False)
      (1): BatchNorm2d(256, eps=1e-05, momentum=0.1, affine=True, track_running_stats=True)
      (2): ReLU(inplace)
      (3): Conv2d(256, 512, kernel_size=(1, 1), stride=(1, 1), bias=False)
      (4): BatchNorm2d(512, eps=1e-05, momentum=0.1, affine=True, track_running_stats=True)
      (5): ReLU(inplace)
    )
    (7): Sequential(
      (0): Conv2d(512, 512, kernel_size=(3, 3), stride=(1, 1), padding=(1, 1), groups=512, bias=False)
      (1): BatchNorm2d(512, eps=1e-05, momentum=0.1, affine=True, track_running_stats=True)
      (2): ReLU(inplace)
      (3): Conv2d(512, 512, kernel_size=(1, 1), stride=(1, 1), bias=False)
      (4): BatchNorm2d(512, eps=1e-05, momentum=0.1, affine=True, track_running_stats=True)
      (5): ReLU(inplace)
    )
    (8): PooledSpatialAttentionBlockV5(
      (conv_dws): Conv2d(512, 512, kernel_size=(1, 1), stride=(1, 1), groups=512)
      (bn_dws): BatchNorm2d(512, eps=1e-05, momentum=0.9, affine=True, track_running_stats=True)
      (relu_dws): ReLU(inplace)
      (maxpool): MaxPool2d(kernel_size=3, stride=1, padding=1, dilation=1, ceil_mode=False)
      (conv_point): Conv2d(512, 1, kernel_size=(1, 1), stride=(1, 1))
      (bn_point): BatchNorm2d(1, eps=1e-05, momentum=0.9, affine=True, track_running_stats=True)
      (relu_point): ReLU(inplace)
      (softmax): Softmax()
    )
    (9): Sequential(
      (0): Conv2d(512, 512, kernel_size=(1, 1), stride=(1, 1), bias=False)
      (1): BatchNorm2d(512, eps=1e-05, momentum=0.1, affine=True, track_running_stats=True)
      (2): ReLU(inplace)
      (3): Conv2d(512, 512, kernel_size=(1, 1), stride=(1, 1), bias=False)
      (4): BatchNorm2d(512, eps=1e-05, momentum=0.1, affine=True, track_running_stats=True)
      (5): ReLU(inplace)
    )
    (10): PooledSpatialAttentionBlockV5(
      (conv_dws): Conv2d(512, 512, kernel_size=(1, 1), stride=(1, 1), groups=512)
      (bn_dws): BatchNorm2d(512, eps=1e-05, momentum=0.9, affine=True, track_running_stats=True)
      (relu_dws): ReLU(inplace)
      (maxpool): MaxPool2d(kernel_size=3, stride=1, padding=1, dilation=1, ceil_mode=False)
      (conv_point): Conv2d(512, 1, kernel_size=(1, 1), stride=(1, 1))
      (bn_point): BatchNorm2d(1, eps=1e-05, momentum=0.9, affine=True, track_running_stats=True)
      (relu_point): ReLU(inplace)
      (softmax): Softmax()
    )
    (11): Sequential(
      (0): Conv2d(512, 512, kernel_size=(3, 3), stride=(2, 2), padding=(1, 1), groups=512, bias=False)
      (1): BatchNorm2d(512, eps=1e-05, momentum=0.1, affine=True, track_running_stats=True)
      (2): ReLU(inplace)
      (3): Conv2d(512, 1024, kernel_size=(1, 1), stride=(1, 1), bias=False)
      (4): BatchNorm2d(1024, eps=1e-05, momentum=0.1, affine=True, track_running_stats=True)
      (5): ReLU(inplace)
    )
    (12): Sequential(
      (0): Conv2d(1024, 1024, kernel_size=(3, 3), stride=(1, 1), padding=(1, 1), groups=1024, bias=False)
      (1): BatchNorm2d(1024, eps=1e-05, momentum=0.1, affine=True, track_running_stats=True)
      (2): ReLU(inplace)
      (3): Conv2d(1024, 1024, kernel_size=(1, 1), stride=(1, 1), bias=False)
      (4): BatchNorm2d(1024, eps=1e-05, momentum=0.1, affine=True, track_running_stats=True)
      (5): ReLU(inplace)
    )
    (13): AvgPool2d(kernel_size=7, stride=7, padding=0)
  )
  (fc): Linear(in_features=1024, out_features=1000, bias=True)
)
 * Prec@1 18.686 Prec@5 40.552
Ep: 1   EpTime: 836.0433  Trainloss: 4.9225   Testloss: 4.0837  TrainAcc: 11.08   Top1: 18.6860    Top5: 40.5520
 * Prec@1 30.462 Prec@5 56.090
Ep: 2   EpTime: 823.1855  Trainloss: 3.6211   Testloss: 3.2937  TrainAcc: 26.17   Top1: 30.4620    Top5: 56.0900
 * Prec@1 35.996 Prec@5 62.330
Ep: 3   EpTime: 823.7190  Trainloss: 3.1716   Testloss: 2.9299  TrainAcc: 33.38   Top1: 35.9960    Top5: 62.3300
 * Prec@1 40.272 Prec@5 67.046
Ep: 4   EpTime: 825.1865  Trainloss: 2.9240   Testloss: 2.6806  TrainAcc: 37.63   Top1: 40.2720    Top5: 67.0460
 * Prec@1 41.206 Prec@5 67.692
Ep: 5   EpTime: 833.1025  Trainloss: 2.7739   Testloss: 2.7831  TrainAcc: 40.23   Top1: 41.2060    Top5: 67.6920
 * Prec@1 43.962 Prec@5 70.150
Ep: 6   EpTime: 824.2783  Trainloss: 2.6690   Testloss: 2.4918  TrainAcc: 42.20   Top1: 43.9620    Top5: 70.1500
 * Prec@1 42.346 Prec@5 68.288
Ep: 7   EpTime: 829.2889  Trainloss: 2.5979   Testloss: 2.6178  TrainAcc: 43.43   Top1: 42.3460    Top5: 68.2880
 * Prec@1 45.514 Prec@5 71.272
Ep: 8   EpTime: 829.0474  Trainloss: 2.5390   Testloss: 2.5011  TrainAcc: 44.54   Top1: 45.5140    Top5: 71.2720
 * Prec@1 43.064 Prec@5 69.288
Ep: 9   EpTime: 833.7218  Trainloss: 2.4923   Testloss: 2.5847  TrainAcc: 45.37   Top1: 43.0640    Top5: 69.2880
 * Prec@1 43.946 Prec@5 69.824
Ep: 10   EpTime: 825.7448  Trainloss: 2.4556   Testloss: 2.6748  TrainAcc: 46.06   Top1: 43.9460    Top5: 69.8240
 * Prec@1 50.332 Prec@5 75.748
Ep: 11   EpTime: 820.4936  Trainloss: 2.4256   Testloss: 2.1614  TrainAcc: 46.56   Top1: 50.3320    Top5: 75.7480
 * Prec@1 47.334 Prec@5 73.324
Ep: 12   EpTime: 823.0368  Trainloss: 2.3993   Testloss: 2.4802  TrainAcc: 47.06   Top1: 47.3340    Top5: 73.3240
 * Prec@1 47.362 Prec@5 73.044
Ep: 13   EpTime: 831.0530  Trainloss: 2.3775   Testloss: 2.3913  TrainAcc: 47.53   Top1: 47.3620    Top5: 73.0440
 * Prec@1 48.410 Prec@5 74.098
Ep: 14   EpTime: 871.4715  Trainloss: 2.3582   Testloss: 2.2786  TrainAcc: 47.87   Top1: 48.4100    Top5: 74.0980
 * Prec@1 49.222 Prec@5 75.038
Ep: 15   EpTime: 908.4641  Trainloss: 2.3422   Testloss: 2.2116  TrainAcc: 48.16   Top1: 49.2220    Top5: 75.0380
 * Prec@1 50.410 Prec@5 75.846
Ep: 16   EpTime: 907.7279  Trainloss: 2.3294   Testloss: 2.1572  TrainAcc: 48.43   Top1: 50.4100    Top5: 75.8460
 * Prec@1 49.486 Prec@5 74.892
Ep: 17   EpTime: 904.9383  Trainloss: 2.3165   Testloss: 2.2436  TrainAcc: 48.64   Top1: 49.4860    Top5: 74.8920
 * Prec@1 47.338 Prec@5 72.518
Ep: 18   EpTime: 900.0224  Trainloss: 2.3034   Testloss: 2.3803  TrainAcc: 48.88   Top1: 47.3380    Top5: 72.5180
 * Prec@1 50.564 Prec@5 76.170
Ep: 19   EpTime: 894.6944  Trainloss: 2.2950   Testloss: 2.1463  TrainAcc: 49.02   Top1: 50.5640    Top5: 76.1700
 * Prec@1 48.880 Prec@5 74.572
Ep: 20   EpTime: 896.1132  Trainloss: 2.2852   Testloss: 2.3586  TrainAcc: 49.22   Top1: 48.8800    Top5: 74.5720
 * Prec@1 51.146 Prec@5 76.504
Ep: 21   EpTime: 895.6168  Trainloss: 2.2760   Testloss: 2.1312  TrainAcc: 49.43   Top1: 51.1460    Top5: 76.5040
 * Prec@1 50.944 Prec@5 76.690
Ep: 22   EpTime: 895.2005  Trainloss: 2.2668   Testloss: 2.1078  TrainAcc: 49.60   Top1: 50.9440    Top5: 76.6900
 * Prec@1 49.648 Prec@5 75.198
Ep: 23   EpTime: 902.0429  Trainloss: 2.2574   Testloss: 2.2574  TrainAcc: 49.71   Top1: 49.6480    Top5: 75.1980
 * Prec@1 52.204 Prec@5 77.002
Ep: 24   EpTime: 886.5802  Trainloss: 2.2545   Testloss: 2.0846  TrainAcc: 49.81   Top1: 52.2040    Top5: 77.0020
 * Prec@1 47.146 Prec@5 72.824
Ep: 25   EpTime: 896.2793  Trainloss: 2.2471   Testloss: 2.3579  TrainAcc: 49.97   Top1: 47.1460    Top5: 72.8240
 * Prec@1 44.224 Prec@5 70.664
Ep: 26   EpTime: 903.6131  Trainloss: 2.2425   Testloss: 2.9224  TrainAcc: 50.06   Top1: 44.2240    Top5: 70.6640
 * Prec@1 48.426 Prec@5 74.338
Ep: 27   EpTime: 889.7988  Trainloss: 2.2350   Testloss: 2.2819  TrainAcc: 50.15   Top1: 48.4260    Top5: 74.3380
 * Prec@1 50.244 Prec@5 75.728
Ep: 28   EpTime: 890.9837  Trainloss: 2.2303   Testloss: 2.2311  TrainAcc: 50.28   Top1: 50.2440    Top5: 75.7280
 * Prec@1 50.880 Prec@5 76.078
Ep: 29   EpTime: 946.4587  Trainloss: 2.2240   Testloss: 2.1427  TrainAcc: 50.34   Top1: 50.8800    Top5: 76.0780
 * Prec@1 63.400 Prec@5 85.228
Ep: 30   EpTime: 937.0483  Trainloss: 1.8545   Testloss: 1.5168  TrainAcc: 58.07   Top1: 63.4000    Top5: 85.2280
 * Prec@1 64.256 Prec@5 85.810
Ep: 31   EpTime: 927.7076  Trainloss: 1.7705   Testloss: 1.4816  TrainAcc: 59.74   Top1: 64.2560    Top5: 85.8100
 * Prec@1 64.580 Prec@5 86.052
Ep: 32   EpTime: 933.9324  Trainloss: 1.7381   Testloss: 1.4662  TrainAcc: 60.38   Top1: 64.5800    Top5: 86.0520
 * Prec@1 64.828 Prec@5 86.134
Ep: 33   EpTime: 940.6808  Trainloss: 1.7172   Testloss: 1.4524  TrainAcc: 60.84   Top1: 64.8280    Top5: 86.1340
 * Prec@1 64.970 Prec@5 86.298
Ep: 34   EpTime: 936.1376  Trainloss: 1.6979   Testloss: 1.4408  TrainAcc: 61.15   Top1: 64.9700    Top5: 86.2980
 * Prec@1 65.018 Prec@5 86.276
Ep: 35   EpTime: 948.1721  Trainloss: 1.6860   Testloss: 1.4467  TrainAcc: 61.41   Top1: 65.0180    Top5: 86.2760
 * Prec@1 65.380 Prec@5 86.532
Ep: 36   EpTime: 952.4829  Trainloss: 1.6743   Testloss: 1.4211  TrainAcc: 61.61   Top1: 65.3800    Top5: 86.5320
 * Prec@1 64.660 Prec@5 86.332
Ep: 37   EpTime: 942.7277  Trainloss: 1.6671   Testloss: 1.4551  TrainAcc: 61.77   Top1: 64.6600    Top5: 86.3320
 * Prec@1 65.102 Prec@5 86.474
Ep: 38   EpTime: 938.9570  Trainloss: 1.6626   Testloss: 1.4510  TrainAcc: 61.84   Top1: 65.1020    Top5: 86.4740
 * Prec@1 65.406 Prec@5 86.404
Ep: 39   EpTime: 955.8408  Trainloss: 1.6564   Testloss: 1.4457  TrainAcc: 61.94   Top1: 65.4060    Top5: 86.4040
 * Prec@1 65.514 Prec@5 86.626
Ep: 40   EpTime: 946.3953  Trainloss: 1.6519   Testloss: 1.4199  TrainAcc: 62.04   Top1: 65.5140    Top5: 86.6260
 * Prec@1 65.274 Prec@5 86.424
Ep: 41   EpTime: 945.0528  Trainloss: 1.6488   Testloss: 1.4282  TrainAcc: 62.15   Top1: 65.2740    Top5: 86.4240
 * Prec@1 65.608 Prec@5 86.690
Ep: 42   EpTime: 942.9435  Trainloss: 1.6473   Testloss: 1.4165  TrainAcc: 62.12   Top1: 65.6080    Top5: 86.6900
 * Prec@1 65.494 Prec@5 86.700
Ep: 43   EpTime: 942.6323  Trainloss: 1.6453   Testloss: 1.4248  TrainAcc: 62.20   Top1: 65.4940    Top5: 86.7000
 * Prec@1 65.404 Prec@5 86.502
Ep: 44   EpTime: 905.7680  Trainloss: 1.6418   Testloss: 1.4285  TrainAcc: 62.27   Top1: 65.4040    Top5: 86.5020
 * Prec@1 65.170 Prec@5 86.496
Ep: 45   EpTime: 897.8308  Trainloss: 1.6399   Testloss: 1.4347  TrainAcc: 62.27   Top1: 65.1700    Top5: 86.4960
 * Prec@1 65.336 Prec@5 86.420
Ep: 46   EpTime: 892.5103  Trainloss: 1.6399   Testloss: 1.4363  TrainAcc: 62.34   Top1: 65.3360    Top5: 86.4200
 * Prec@1 65.216 Prec@5 86.686
Ep: 47   EpTime: 900.1098  Trainloss: 1.6403   Testloss: 1.4279  TrainAcc: 62.29   Top1: 65.2160    Top5: 86.6860
 * Prec@1 65.160 Prec@5 86.394
Ep: 48   EpTime: 902.4767  Trainloss: 1.6379   Testloss: 1.4407  TrainAcc: 62.30   Top1: 65.1600    Top5: 86.3940
 * Prec@1 64.142 Prec@5 85.936
Ep: 49   EpTime: 907.1246  Trainloss: 1.6413   Testloss: 1.4860  TrainAcc: 62.28   Top1: 64.1420    Top5: 85.9360
 * Prec@1 64.504 Prec@5 85.892
Ep: 50   EpTime: 926.4366  Trainloss: 1.6398   Testloss: 1.5196  TrainAcc: 62.27   Top1: 64.5040    Top5: 85.8920
 * Prec@1 65.232 Prec@5 86.454
Ep: 51   EpTime: 935.5105  Trainloss: 1.6373   Testloss: 1.4469  TrainAcc: 62.33   Top1: 65.2320    Top5: 86.4540
 * Prec@1 64.512 Prec@5 85.928
Ep: 52   EpTime: 935.8322  Trainloss: 1.6364   Testloss: 1.5152  TrainAcc: 62.33   Top1: 64.5120    Top5: 85.9280
 * Prec@1 64.754 Prec@5 86.388
Ep: 53   EpTime: 924.4894  Trainloss: 1.6388   Testloss: 1.4534  TrainAcc: 62.27   Top1: 64.7540    Top5: 86.3880
 * Prec@1 64.746 Prec@5 86.152
Ep: 54   EpTime: 930.0408  Trainloss: 1.6376   Testloss: 1.4627  TrainAcc: 62.27   Top1: 64.7460    Top5: 86.1520
 * Prec@1 65.030 Prec@5 86.296
Ep: 55   EpTime: 928.5119  Trainloss: 1.6353   Testloss: 1.4522  TrainAcc: 62.35   Top1: 65.0300    Top5: 86.2960
 * Prec@1 64.576 Prec@5 86.074
Ep: 56   EpTime: 925.3447  Trainloss: 1.6380   Testloss: 1.4661  TrainAcc: 62.31   Top1: 64.5760    Top5: 86.0740
 * Prec@1 64.868 Prec@5 86.308
Ep: 57   EpTime: 934.3134  Trainloss: 1.6366   Testloss: 1.4488  TrainAcc: 62.35   Top1: 64.8680    Top5: 86.3080
 * Prec@1 64.200 Prec@5 85.722
Ep: 58   EpTime: 926.2055  Trainloss: 1.6347   Testloss: 1.5378  TrainAcc: 62.35   Top1: 64.2000    Top5: 85.7220
 * Prec@1 64.992 Prec@5 86.382
Ep: 59   EpTime: 924.6857  Trainloss: 1.6354   Testloss: 1.4489  TrainAcc: 62.35   Top1: 64.9920    Top5: 86.3820
 * Prec@1 67.664 Prec@5 87.848
Ep: 60   EpTime: 927.9546  Trainloss: 1.5148   Testloss: 1.3302  TrainAcc: 65.06   Top1: 67.6640    Top5: 87.8480
 * Prec@1 67.836 Prec@5 88.022
Ep: 61   EpTime: 935.3021  Trainloss: 1.4868   Testloss: 1.3165  TrainAcc: 65.66   Top1: 67.8360    Top5: 88.0220
 * Prec@1 67.988 Prec@5 88.108
Ep: 62   EpTime: 932.1705  Trainloss: 1.4762   Testloss: 1.3102  TrainAcc: 65.89   Top1: 67.9880    Top5: 88.1080
 * Prec@1 67.996 Prec@5 88.048
Ep: 63   EpTime: 929.5698  Trainloss: 1.4696   Testloss: 1.3116  TrainAcc: 66.03   Top1: 67.9960    Top5: 88.0480
 * Prec@1 68.062 Prec@5 88.186
Ep: 64   EpTime: 931.8931  Trainloss: 1.4680   Testloss: 1.3096  TrainAcc: 66.04   Top1: 68.0620    Top5: 88.1860
 * Prec@1 67.968 Prec@5 88.168
Ep: 65   EpTime: 927.1798  Trainloss: 1.4608   Testloss: 1.3073  TrainAcc: 66.23   Top1: 67.9680    Top5: 88.1680
 * Prec@1 68.064 Prec@5 88.152
Ep: 66   EpTime: 928.0643  Trainloss: 1.4586   Testloss: 1.3058  TrainAcc: 66.26   Top1: 68.0640    Top5: 88.1520
 * Prec@1 68.142 Prec@5 88.146
Ep: 67   EpTime: 930.0253  Trainloss: 1.4544   Testloss: 1.3030  TrainAcc: 66.31   Top1: 68.1420    Top5: 88.1460
 * Prec@1 68.206 Prec@5 88.224
Ep: 68   EpTime: 934.0224  Trainloss: 1.4509   Testloss: 1.3047  TrainAcc: 66.41   Top1: 68.2060    Top5: 88.2240
 * Prec@1 68.110 Prec@5 88.232
Ep: 69   EpTime: 929.6063  Trainloss: 1.4511   Testloss: 1.3054  TrainAcc: 66.39   Top1: 68.1100    Top5: 88.2320
 * Prec@1 68.282 Prec@5 88.236
Ep: 70   EpTime: 928.7300  Trainloss: 1.4462   Testloss: 1.3044  TrainAcc: 66.50   Top1: 68.2820    Top5: 88.2360
 * Prec@1 68.352 Prec@5 88.300
Ep: 71   EpTime: 934.8059  Trainloss: 1.4454   Testloss: 1.3007  TrainAcc: 66.50   Top1: 68.3520    Top5: 88.3000
 * Prec@1 68.298 Prec@5 88.258
Ep: 72   EpTime: 922.7033  Trainloss: 1.4418   Testloss: 1.2991  TrainAcc: 66.62   Top1: 68.2980    Top5: 88.2580
 * Prec@1 68.312 Prec@5 88.298
Ep: 73   EpTime: 930.3705  Trainloss: 1.4424   Testloss: 1.2975  TrainAcc: 66.64   Top1: 68.3120    Top5: 88.2980
 * Prec@1 68.434 Prec@5 88.200
Ep: 74   EpTime: 932.2171  Trainloss: 1.4398   Testloss: 1.2988  TrainAcc: 66.63   Top1: 68.4340    Top5: 88.2000
 * Prec@1 68.354 Prec@5 88.258
Ep: 75   EpTime: 926.4296  Trainloss: 1.4375   Testloss: 1.2978  TrainAcc: 66.72   Top1: 68.3540    Top5: 88.2580
 * Prec@1 68.246 Prec@5 88.260
Ep: 76   EpTime: 927.0826  Trainloss: 1.4359   Testloss: 1.2999  TrainAcc: 66.77   Top1: 68.2460    Top5: 88.2600
 * Prec@1 68.434 Prec@5 88.348
Ep: 77   EpTime: 935.7518  Trainloss: 1.4331   Testloss: 1.2969  TrainAcc: 66.78   Top1: 68.4340    Top5: 88.3480
 * Prec@1 68.308 Prec@5 88.346
Ep: 78   EpTime: 924.8965  Trainloss: 1.4331   Testloss: 1.2969  TrainAcc: 66.77   Top1: 68.3080    Top5: 88.3460
 * Prec@1 68.324 Prec@5 88.382
Ep: 79   EpTime: 930.9056  Trainloss: 1.4335   Testloss: 1.2946  TrainAcc: 66.76   Top1: 68.3240    Top5: 88.3820
 * Prec@1 68.436 Prec@5 88.452
Ep: 80   EpTime: 931.9294  Trainloss: 1.4290   Testloss: 1.2916  TrainAcc: 66.89   Top1: 68.4360    Top5: 88.4520
 * Prec@1 68.420 Prec@5 88.354
Ep: 81   EpTime: 933.0296  Trainloss: 1.4258   Testloss: 1.2958  TrainAcc: 66.93   Top1: 68.4200    Top5: 88.3540
 * Prec@1 68.420 Prec@5 88.346
Ep: 82   EpTime: 926.6077  Trainloss: 1.4269   Testloss: 1.2919  TrainAcc: 66.87   Top1: 68.4200    Top5: 88.3460
 * Prec@1 68.330 Prec@5 88.356
Ep: 83   EpTime: 932.8847  Trainloss: 1.4278   Testloss: 1.2939  TrainAcc: 66.88   Top1: 68.3300    Top5: 88.3560
 * Prec@1 68.386 Prec@5 88.382
Ep: 84   EpTime: 930.2783  Trainloss: 1.4227   Testloss: 1.2909  TrainAcc: 67.00   Top1: 68.3860    Top5: 88.3820
 * Prec@1 68.396 Prec@5 88.344
Ep: 85   EpTime: 933.8568  Trainloss: 1.4231   Testloss: 1.2975  TrainAcc: 66.98   Top1: 68.3960    Top5: 88.3440
 * Prec@1 68.498 Prec@5 88.344
Ep: 86   EpTime: 935.3315  Trainloss: 1.4220   Testloss: 1.2905  TrainAcc: 66.99   Top1: 68.4980    Top5: 88.3440
 * Prec@1 68.416 Prec@5 88.388
Ep: 87   EpTime: 936.1454  Trainloss: 1.4221   Testloss: 1.2920  TrainAcc: 67.00   Top1: 68.4160    Top5: 88.3880
 * Prec@1 68.384 Prec@5 88.326
Ep: 88   EpTime: 935.0714  Trainloss: 1.4196   Testloss: 1.2897  TrainAcc: 67.08   Top1: 68.3840    Top5: 88.3260
 * Prec@1 68.422 Prec@5 88.416
Ep: 89   EpTime: 929.7438  Trainloss: 1.4178   Testloss: 1.2929  TrainAcc: 67.10   Top1: 68.4220    Top5: 88.4160
 * Prec@1 68.638 Prec@5 88.508
Ep: 90   EpTime: 937.7290  Trainloss: 1.4040   Testloss: 1.2824  TrainAcc: 67.39   Top1: 68.6380    Top5: 88.5080
 * Prec@1 68.682 Prec@5 88.536
Ep: 91   EpTime: 925.6434  Trainloss: 1.3991   Testloss: 1.2804  TrainAcc: 67.58   Top1: 68.6820    Top5: 88.5360
 * Prec@1 68.674 Prec@5 88.570
Ep: 92   EpTime: 931.2439  Trainloss: 1.3977   Testloss: 1.2787  TrainAcc: 67.56   Top1: 68.6740    Top5: 88.5700
 * Prec@1 68.672 Prec@5 88.542
Ep: 93   EpTime: 927.4014  Trainloss: 1.3978   Testloss: 1.2784  TrainAcc: 67.57   Top1: 68.6720    Top5: 88.5420
 * Prec@1 68.708 Prec@5 88.454
Ep: 94   EpTime: 925.3039  Trainloss: 1.3950   Testloss: 1.2798  TrainAcc: 67.59   Top1: 68.7080    Top5: 88.4540
 * Prec@1 68.680 Prec@5 88.568
Ep: 95   EpTime: 926.0515  Trainloss: 1.3965   Testloss: 1.2779  TrainAcc: 67.57   Top1: 68.6800    Top5: 88.5680
 * Prec@1 68.628 Prec@5 88.504
Ep: 96   EpTime: 920.8242  Trainloss: 1.3934   Testloss: 1.2799  TrainAcc: 67.63   Top1: 68.6280    Top5: 88.5040
 * Prec@1 68.720 Prec@5 88.524
Ep: 97   EpTime: 930.4459  Trainloss: 1.3955   Testloss: 1.2774  TrainAcc: 67.62   Top1: 68.7200    Top5: 88.5240
 * Prec@1 68.644 Prec@5 88.524
Ep: 98   EpTime: 930.5155  Trainloss: 1.3943   Testloss: 1.2788  TrainAcc: 67.62   Top1: 68.6440    Top5: 88.5240
 * Prec@1 68.706 Prec@5 88.552
Ep: 99   EpTime: 935.3337  Trainloss: 1.3940   Testloss: 1.2796  TrainAcc: 67.65   Top1: 68.7060    Top5: 88.5520
 * Prec@1 68.726 Prec@5 88.582
Ep: 100   EpTime: 927.1404  Trainloss: 1.3913   Testloss: 1.2768  TrainAcc: 67.68   Top1: 68.7260    Top5: 88.5820
 * Prec@1 68.738 Prec@5 88.556
Ep: 101   EpTime: 927.3922  Trainloss: 1.3917   Testloss: 1.2785  TrainAcc: 67.69   Top1: 68.7380    Top5: 88.5560
 * Prec@1 68.738 Prec@5 88.548
Ep: 102   EpTime: 927.5395  Trainloss: 1.3941   Testloss: 1.2789  TrainAcc: 67.66   Top1: 68.7380    Top5: 88.5480
 * Prec@1 68.666 Prec@5 88.540
Ep: 103   EpTime: 928.5356  Trainloss: 1.3935   Testloss: 1.2787  TrainAcc: 67.64   Top1: 68.6660    Top5: 88.5400
 * Prec@1 68.730 Prec@5 88.504
Ep: 104   EpTime: 931.6745  Trainloss: 1.3922   Testloss: 1.2783  TrainAcc: 67.67   Top1: 68.7300    Top5: 88.5040
 * Prec@1 68.750 Prec@5 88.530
Ep: 105   EpTime: 935.4990  Trainloss: 1.3926   Testloss: 1.2776  TrainAcc: 67.68   Top1: 68.7500    Top5: 88.5300
 * Prec@1 68.758 Prec@5 88.580
Ep: 106   EpTime: 931.5088  Trainloss: 1.3914   Testloss: 1.2766  TrainAcc: 67.71   Top1: 68.7580    Top5: 88.5800
 * Prec@1 68.712 Prec@5 88.536
Ep: 107   EpTime: 938.8317  Trainloss: 1.3906   Testloss: 1.2767  TrainAcc: 67.71   Top1: 68.7120    Top5: 88.5360
 * Prec@1 68.720 Prec@5 88.490
Ep: 108   EpTime: 937.5933  Trainloss: 1.3935   Testloss: 1.2780  TrainAcc: 67.63   Top1: 68.7200    Top5: 88.4900
 * Prec@1 68.798 Prec@5 88.570
Ep: 109   EpTime: 933.5873  Trainloss: 1.3939   Testloss: 1.2758  TrainAcc: 67.65   Top1: 68.7980    Top5: 88.5700
 * Prec@1 68.700 Prec@5 88.560
Ep: 110   EpTime: 931.9900  Trainloss: 1.3925   Testloss: 1.2770  TrainAcc: 67.71   Top1: 68.7000    Top5: 88.5600
 * Prec@1 68.776 Prec@5 88.574
Ep: 111   EpTime: 930.4194  Trainloss: 1.3912   Testloss: 1.2772  TrainAcc: 67.70   Top1: 68.7760    Top5: 88.5740
 * Prec@1 68.680 Prec@5 88.536
Ep: 112   EpTime: 936.7032  Trainloss: 1.3897   Testloss: 1.2784  TrainAcc: 67.71   Top1: 68.6800    Top5: 88.5360
 * Prec@1 68.776 Prec@5 88.598
Ep: 113   EpTime: 938.1661  Trainloss: 1.3913   Testloss: 1.2763  TrainAcc: 67.65   Top1: 68.7760    Top5: 88.5980
 * Prec@1 68.710 Prec@5 88.558
Ep: 114   EpTime: 935.8284  Trainloss: 1.3891   Testloss: 1.2768  TrainAcc: 67.72   Top1: 68.7100    Top5: 88.5580
 * Prec@1 68.728 Prec@5 88.572
Ep: 115   EpTime: 958.0049  Trainloss: 1.3917   Testloss: 1.2750  TrainAcc: 67.68   Top1: 68.7280    Top5: 88.5720
 * Prec@1 68.832 Prec@5 88.566
Ep: 116   EpTime: 965.8622  Trainloss: 1.3903   Testloss: 1.2775  TrainAcc: 67.72   Top1: 68.8320    Top5: 88.5660
 * Prec@1 68.726 Prec@5 88.570
Ep: 117   EpTime: 981.1085  Trainloss: 1.3911   Testloss: 1.2738  TrainAcc: 67.64   Top1: 68.7260    Top5: 88.5700
 * Prec@1 68.800 Prec@5 88.578
Ep: 118   EpTime: 972.2940  Trainloss: 1.3898   Testloss: 1.2750  TrainAcc: 67.71   Top1: 68.8000    Top5: 88.5780
 * Prec@1 68.730 Prec@5 88.594
Ep: 119   EpTime: 960.1938  Trainloss: 1.3877   Testloss: 1.2766  TrainAcc: 67.76   Top1: 68.7300    Top5: 88.5940
