mobilenetv1(
  (model): Sequential(
    (0): Sequential(
      (0): Conv2d(3, 8, kernel_size=(3, 3), stride=(2, 2), padding=(1, 1), bias=False)
      (1): BatchNorm2d(8, eps=1e-05, momentum=0.1, affine=True, track_running_stats=True)
      (2): ReLU(inplace)
    )
    (1): Sequential(
      (0): Conv2d(8, 8, kernel_size=(3, 3), stride=(1, 1), padding=(1, 1), groups=8, bias=False)
      (1): BatchNorm2d(8, eps=1e-05, momentum=0.1, affine=True, track_running_stats=True)
      (2): ReLU(inplace)
      (3): Conv2d(8, 16, kernel_size=(1, 1), stride=(1, 1), bias=False)
      (4): BatchNorm2d(16, eps=1e-05, momentum=0.1, affine=True, track_running_stats=True)
      (5): ReLU(inplace)
    )
    (2): Sequential(
      (0): Conv2d(16, 16, kernel_size=(3, 3), stride=(2, 2), padding=(1, 1), groups=16, bias=False)
      (1): BatchNorm2d(16, eps=1e-05, momentum=0.1, affine=True, track_running_stats=True)
      (2): ReLU(inplace)
      (3): Conv2d(16, 32, kernel_size=(1, 1), stride=(1, 1), bias=False)
      (4): BatchNorm2d(32, eps=1e-05, momentum=0.1, affine=True, track_running_stats=True)
      (5): ReLU(inplace)
    )
    (3): Sequential(
      (0): Conv2d(32, 32, kernel_size=(3, 3), stride=(1, 1), padding=(1, 1), groups=32, bias=False)
      (1): BatchNorm2d(32, eps=1e-05, momentum=0.1, affine=True, track_running_stats=True)
      (2): ReLU(inplace)
      (3): Conv2d(32, 32, kernel_size=(1, 1), stride=(1, 1), bias=False)
      (4): BatchNorm2d(32, eps=1e-05, momentum=0.1, affine=True, track_running_stats=True)
      (5): ReLU(inplace)
    )
    (4): Sequential(
      (0): Conv2d(32, 32, kernel_size=(3, 3), stride=(2, 2), padding=(1, 1), groups=32, bias=False)
      (1): BatchNorm2d(32, eps=1e-05, momentum=0.1, affine=True, track_running_stats=True)
      (2): ReLU(inplace)
      (3): Conv2d(32, 64, kernel_size=(1, 1), stride=(1, 1), bias=False)
      (4): BatchNorm2d(64, eps=1e-05, momentum=0.1, affine=True, track_running_stats=True)
      (5): ReLU(inplace)
    )
    (5): Sequential(
      (0): Conv2d(64, 64, kernel_size=(3, 3), stride=(1, 1), padding=(1, 1), groups=64, bias=False)
      (1): BatchNorm2d(64, eps=1e-05, momentum=0.1, affine=True, track_running_stats=True)
      (2): ReLU(inplace)
      (3): Conv2d(64, 64, kernel_size=(1, 1), stride=(1, 1), bias=False)
      (4): BatchNorm2d(64, eps=1e-05, momentum=0.1, affine=True, track_running_stats=True)
      (5): ReLU(inplace)
    )
    (6): Sequential(
      (0): Conv2d(64, 64, kernel_size=(3, 3), stride=(2, 2), padding=(1, 1), groups=64, bias=False)
      (1): BatchNorm2d(64, eps=1e-05, momentum=0.1, affine=True, track_running_stats=True)
      (2): ReLU(inplace)
      (3): Conv2d(64, 128, kernel_size=(1, 1), stride=(1, 1), bias=False)
      (4): BatchNorm2d(128, eps=1e-05, momentum=0.1, affine=True, track_running_stats=True)
      (5): ReLU(inplace)
    )
    (7): Sequential(
      (0): Conv2d(128, 128, kernel_size=(3, 3), stride=(1, 1), padding=(1, 1), groups=128, bias=False)
      (1): BatchNorm2d(128, eps=1e-05, momentum=0.1, affine=True, track_running_stats=True)
      (2): ReLU(inplace)
      (3): Conv2d(128, 128, kernel_size=(1, 1), stride=(1, 1), bias=False)
      (4): BatchNorm2d(128, eps=1e-05, momentum=0.1, affine=True, track_running_stats=True)
      (5): ReLU(inplace)
    )
    (8): AlphaBlock(
      (arm_1): SplitArm(
        (conv_dws): Conv2d(128, 128, kernel_size=(1, 1), stride=(1, 1), groups=128)
        (bn_dws): BatchNorm2d(128, eps=1e-05, momentum=0.9, affine=True, track_running_stats=True)
        (relu_dws): ReLU(inplace)
        (maxpool): MaxPool2d(kernel_size=3, stride=1, padding=1, dilation=1, ceil_mode=False)
        (conv_point): Conv2d(128, 1, kernel_size=(1, 1), stride=(1, 1))
        (bn_point): BatchNorm2d(1, eps=1e-05, momentum=0.9, affine=True, track_running_stats=True)
        (relu_point): ReLU(inplace)
        (softmax): Softmax()
      )
    )
    (9): Sequential(
      (0): Conv2d(128, 128, kernel_size=(3, 3), stride=(1, 1), padding=(1, 1), groups=128, bias=False)
      (1): BatchNorm2d(128, eps=1e-05, momentum=0.1, affine=True, track_running_stats=True)
      (2): ReLU(inplace)
      (3): Conv2d(128, 128, kernel_size=(1, 1), stride=(1, 1), bias=False)
      (4): BatchNorm2d(128, eps=1e-05, momentum=0.1, affine=True, track_running_stats=True)
      (5): ReLU(inplace)
    )
    (10): AlphaBlock(
      (arm_1): SplitArm(
        (conv_dws): Conv2d(128, 128, kernel_size=(1, 1), stride=(1, 1), groups=128)
        (bn_dws): BatchNorm2d(128, eps=1e-05, momentum=0.9, affine=True, track_running_stats=True)
        (relu_dws): ReLU(inplace)
        (maxpool): MaxPool2d(kernel_size=3, stride=1, padding=1, dilation=1, ceil_mode=False)
        (conv_point): Conv2d(128, 1, kernel_size=(1, 1), stride=(1, 1))
        (bn_point): BatchNorm2d(1, eps=1e-05, momentum=0.9, affine=True, track_running_stats=True)
        (relu_point): ReLU(inplace)
        (softmax): Softmax()
      )
    )
    (11): Sequential(
      (0): Conv2d(128, 128, kernel_size=(3, 3), stride=(1, 1), padding=(1, 1), groups=128, bias=False)
      (1): BatchNorm2d(128, eps=1e-05, momentum=0.1, affine=True, track_running_stats=True)
      (2): ReLU(inplace)
      (3): Conv2d(128, 128, kernel_size=(1, 1), stride=(1, 1), bias=False)
      (4): BatchNorm2d(128, eps=1e-05, momentum=0.1, affine=True, track_running_stats=True)
      (5): ReLU(inplace)
    )
    (12): AlphaBlock(
      (arm_1): SplitArm(
        (conv_dws): Conv2d(128, 128, kernel_size=(1, 1), stride=(1, 1), groups=128)
        (bn_dws): BatchNorm2d(128, eps=1e-05, momentum=0.9, affine=True, track_running_stats=True)
        (relu_dws): ReLU(inplace)
        (maxpool): MaxPool2d(kernel_size=3, stride=1, padding=1, dilation=1, ceil_mode=False)
        (conv_point): Conv2d(128, 1, kernel_size=(1, 1), stride=(1, 1))
        (bn_point): BatchNorm2d(1, eps=1e-05, momentum=0.9, affine=True, track_running_stats=True)
        (relu_point): ReLU(inplace)
        (softmax): Softmax()
      )
    )
    (13): Sequential(
      (0): Conv2d(128, 128, kernel_size=(3, 3), stride=(1, 1), padding=(1, 1), groups=128, bias=False)
      (1): BatchNorm2d(128, eps=1e-05, momentum=0.1, affine=True, track_running_stats=True)
      (2): ReLU(inplace)
      (3): Conv2d(128, 128, kernel_size=(1, 1), stride=(1, 1), bias=False)
      (4): BatchNorm2d(128, eps=1e-05, momentum=0.1, affine=True, track_running_stats=True)
      (5): ReLU(inplace)
    )
    (14): Sequential(
      (0): Conv2d(128, 128, kernel_size=(3, 3), stride=(2, 2), padding=(1, 1), groups=128, bias=False)
      (1): BatchNorm2d(128, eps=1e-05, momentum=0.1, affine=True, track_running_stats=True)
      (2): ReLU(inplace)
      (3): Conv2d(128, 256, kernel_size=(1, 1), stride=(1, 1), bias=False)
      (4): BatchNorm2d(256, eps=1e-05, momentum=0.1, affine=True, track_running_stats=True)
      (5): ReLU(inplace)
    )
    (15): Sequential(
      (0): Conv2d(256, 256, kernel_size=(3, 3), stride=(1, 1), padding=(1, 1), groups=256, bias=False)
      (1): BatchNorm2d(256, eps=1e-05, momentum=0.1, affine=True, track_running_stats=True)
      (2): ReLU(inplace)
      (3): Conv2d(256, 1024, kernel_size=(1, 1), stride=(1, 1), bias=False)
      (4): BatchNorm2d(1024, eps=1e-05, momentum=0.1, affine=True, track_running_stats=True)
      (5): ReLU(inplace)
    )
    (16): AvgPool2d(kernel_size=7, stride=7, padding=0)
  )
  (fc): Linear(in_features=1024, out_features=1000, bias=True)
)
Ep: 1   EpTime: 769.1023  Trainloss: 5.5202   Testloss: 5.0254  TrainAcc: 5.62   Top1: 8.4440    Top5: 23.0220
Ep: 2   EpTime: 772.4363  Trainloss: 4.4050   Testloss: 4.2301  TrainAcc: 15.69   Top1: 16.9860    Top5: 37.9200
Ep: 3   EpTime: 749.5736  Trainloss: 3.9767   Testloss: 3.8776  TrainAcc: 21.39   Top1: 22.1640    Top5: 45.0420
Ep: 4   EpTime: 753.5563  Trainloss: 3.7549   Testloss: 4.3694  TrainAcc: 24.72   Top1: 16.5620    Top5: 36.7040
Ep: 5   EpTime: 762.3776  Trainloss: 3.6173   Testloss: 3.8734  TrainAcc: 26.78   Top1: 22.0320    Top5: 45.1220
Ep: 6   EpTime: 767.8748  Trainloss: 3.5183   Testloss: 3.6013  TrainAcc: 28.39   Top1: 25.8680    Top5: 50.2020
Ep: 7   EpTime: 759.0469  Trainloss: 3.4492   Testloss: 3.8206  TrainAcc: 29.51   Top1: 24.7100    Top5: 48.3940
Ep: 8   EpTime: 756.7738  Trainloss: 3.3944   Testloss: 4.4586  TrainAcc: 30.43   Top1: 21.1120    Top5: 42.4000
Ep: 9   EpTime: 705.4656  Trainloss: 3.3490   Testloss: 5.8846  TrainAcc: 31.15   Top1: 17.9060    Top5: 38.2620
Ep: 10   EpTime: 763.9760  Trainloss: 3.3152   Testloss: 8.3073  TrainAcc: 31.73   Top1: 10.6080    Top5: 26.1080
Ep: 11   EpTime: 785.1945  Trainloss: 3.2809   Testloss: 4.6443  TrainAcc: 32.32   Top1: 21.3780    Top5: 43.5020
Ep: 12   EpTime: 761.8995  Trainloss: 3.2584   Testloss: 3.4693  TrainAcc: 32.70   Top1: 29.0000    Top5: 53.7480
Ep: 13   EpTime: 750.0757  Trainloss: 3.2344   Testloss: 3.6513  TrainAcc: 33.08   Top1: 29.3680    Top5: 53.5780
Ep: 14   EpTime: 764.5627  Trainloss: 3.2180   Testloss: 3.5250  TrainAcc: 33.36   Top1: 28.5760    Top5: 53.6440
Ep: 15   EpTime: 898.6844  Trainloss: 3.1980   Testloss: 3.6648  TrainAcc: 33.67   Top1: 26.6360    Top5: 51.0720
Ep: 16   EpTime: 888.8894  Trainloss: 3.1845   Testloss: 3.9047  TrainAcc: 33.96   Top1: 23.0680    Top5: 45.5420
Ep: 17   EpTime: 802.0158  Trainloss: 3.1708   Testloss: 4.1647  TrainAcc: 34.14   Top1: 20.0180    Top5: 41.3960
Ep: 18   EpTime: 802.7025  Trainloss: 3.1585   Testloss: 8.3532  TrainAcc: 34.35   Top1: 12.2060    Top5: 28.9320
Ep: 19   EpTime: 785.9837  Trainloss: 3.1497   Testloss: 3.1811  TrainAcc: 34.53   Top1: 33.8180    Top5: 59.3320
Ep: 20   EpTime: 732.3072  Trainloss: 3.1391   Testloss: 3.4529  TrainAcc: 34.69   Top1: 29.9280    Top5: 54.9120
Ep: 21   EpTime: 826.9185  Trainloss: 3.1315   Testloss: 3.7419  TrainAcc: 34.82   Top1: 26.2920    Top5: 49.9560
Ep: 22   EpTime: 784.0747  Trainloss: 3.1226   Testloss: 3.7616  TrainAcc: 34.99   Top1: 26.9020    Top5: 50.8000
Ep: 23   EpTime: 882.0064  Trainloss: 3.1157   Testloss: 3.9559  TrainAcc: 35.09   Top1: 23.6120    Top5: 46.5060
Ep: 24   EpTime: 893.7814  Trainloss: 3.1093   Testloss: 3.2032  TrainAcc: 35.17   Top1: 33.4020    Top5: 58.4280
Ep: 25   EpTime: 808.5378  Trainloss: 3.1040   Testloss: 3.4030  TrainAcc: 35.25   Top1: 30.7640    Top5: 55.0520
Ep: 26   EpTime: 810.8925  Trainloss: 3.0986   Testloss: 3.7342  TrainAcc: 35.40   Top1: 26.9280    Top5: 50.7740
Ep: 27   EpTime: 783.0752  Trainloss: 3.0916   Testloss: 3.3856  TrainAcc: 35.48   Top1: 29.7400    Top5: 54.6760
Ep: 28   EpTime: 736.1016  Trainloss: 3.0889   Testloss: 4.9200  TrainAcc: 35.55   Top1: 21.6240    Top5: 43.6220
Ep: 29   EpTime: 882.1077  Trainloss: 3.0809   Testloss: 4.2827  TrainAcc: 35.69   Top1: 21.8060    Top5: 43.2700
Ep: 30   EpTime: 849.0648  Trainloss: 2.7437   Testloss: 2.4431  TrainAcc: 42.00   Top1: 46.1540    Top5: 71.0240
Ep: 31   EpTime: 727.7372  Trainloss: 2.6802   Testloss: 2.4080  TrainAcc: 43.07   Top1: 46.7500    Top5: 71.5360
Ep: 32   EpTime: 696.9328  Trainloss: 2.6593   Testloss: 2.4721  TrainAcc: 43.43   Top1: 46.3740    Top5: 71.2820
Ep: 33   EpTime: 701.5311  Trainloss: 2.6470   Testloss: 2.3803  TrainAcc: 43.63   Top1: 47.2740    Top5: 71.9900
Ep: 34   EpTime: 727.3823  Trainloss: 2.6352   Testloss: 2.5162  TrainAcc: 43.90   Top1: 46.4820    Top5: 71.3620
Ep: 35   EpTime: 727.5574  Trainloss: 2.6288   Testloss: 2.4166  TrainAcc: 44.00   Top1: 46.8520    Top5: 71.5900
Ep: 36   EpTime: 720.4266  Trainloss: 2.6230   Testloss: 2.4640  TrainAcc: 44.04   Top1: 45.8520    Top5: 70.6660
Ep: 37   EpTime: 716.9588  Trainloss: 2.6191   Testloss: 2.3796  TrainAcc: 44.13   Top1: 47.0860    Top5: 71.9020
Ep: 38   EpTime: 706.6538  Trainloss: 2.6171   Testloss: 2.4627  TrainAcc: 44.16   Top1: 45.4120    Top5: 70.4260
Ep: 39   EpTime: 701.8062  Trainloss: 2.6150   Testloss: 2.3697  TrainAcc: 44.24   Top1: 47.2600    Top5: 72.1320
Ep: 40   EpTime: 631.3839  Trainloss: 2.6123   Testloss: 2.5169  TrainAcc: 44.32   Top1: 46.0420    Top5: 71.0860
Ep: 41   EpTime: 594.5864  Trainloss: 2.6133   Testloss: 2.3968  TrainAcc: 44.23   Top1: 47.6140    Top5: 72.4480
Ep: 42   EpTime: 592.6084  Trainloss: 2.6124   Testloss: 2.5307  TrainAcc: 44.29   Top1: 45.8380    Top5: 70.6480
Ep: 43   EpTime: 587.6400  Trainloss: 2.6110   Testloss: 2.3654  TrainAcc: 44.26   Top1: 47.3660    Top5: 72.3260
Ep: 44   EpTime: 604.2353  Trainloss: 2.6095   Testloss: 2.6802  TrainAcc: 44.34   Top1: 44.0960    Top5: 69.3160
Ep: 45   EpTime: 603.3225  Trainloss: 2.6085   Testloss: 2.5680  TrainAcc: 44.30   Top1: 44.4560    Top5: 69.7980
Ep: 46   EpTime: 693.3463  Trainloss: 2.6068   Testloss: 2.7163  TrainAcc: 44.32   Top1: 43.2440    Top5: 68.4280
Ep: 47   EpTime: 735.6253  Trainloss: 2.6109   Testloss: 2.7729  TrainAcc: 44.29   Top1: 42.6100    Top5: 67.7240
Ep: 48   EpTime: 730.9074  Trainloss: 2.6113   Testloss: 2.4311  TrainAcc: 44.31   Top1: 46.7020    Top5: 71.6560
Ep: 49   EpTime: 749.1360  Trainloss: 2.6093   Testloss: 2.4154  TrainAcc: 44.29   Top1: 46.6580    Top5: 71.8380
Ep: 50   EpTime: 755.7446  Trainloss: 2.6081   Testloss: 2.4778  TrainAcc: 44.34   Top1: 45.4680    Top5: 70.7180
Ep: 51   EpTime: 754.5485  Trainloss: 2.6085   Testloss: 2.4196  TrainAcc: 44.36   Top1: 46.3800    Top5: 71.3040
Ep: 52   EpTime: 763.6558  Trainloss: 2.6079   Testloss: 2.6196  TrainAcc: 44.33   Top1: 43.7440    Top5: 69.1180
Ep: 53   EpTime: 710.7591  Trainloss: 2.6103   Testloss: 2.4432  TrainAcc: 44.29   Top1: 46.1720    Top5: 71.2260
Ep: 54   EpTime: 721.0121  Trainloss: 2.6094   Testloss: 2.7084  TrainAcc: 44.28   Top1: 43.4320    Top5: 68.6740
Ep: 55   EpTime: 724.5832  Trainloss: 2.6096   Testloss: 3.1066  TrainAcc: 44.26   Top1: 38.1500    Top5: 63.0260
Ep: 56   EpTime: 750.3667  Trainloss: 2.6073   Testloss: 2.5307  TrainAcc: 44.33   Top1: 45.3340    Top5: 70.3060
Ep: 57   EpTime: 752.4501  Trainloss: 2.6088   Testloss: 2.5368  TrainAcc: 44.33   Top1: 44.4060    Top5: 69.2200
Ep: 58   EpTime: 810.0313  Trainloss: 2.6078   Testloss: 3.3506  TrainAcc: 44.31   Top1: 35.9020    Top5: 61.2800
Ep: 59   EpTime: 910.1677  Trainloss: 2.6085   Testloss: 2.8014  TrainAcc: 44.30   Top1: 41.9220    Top5: 66.7180
Ep: 60   EpTime: 925.4338  Trainloss: 2.5073   Testloss: 2.2206  TrainAcc: 46.32   Top1: 50.4940    Top5: 74.7180
Ep: 61   EpTime: 680.1307  Trainloss: 2.4863   Testloss: 2.2040  TrainAcc: 46.71   Top1: 50.8480    Top5: 74.9760
Ep: 62   EpTime: 604.3723  Trainloss: 2.4836   Testloss: 2.2019  TrainAcc: 46.79   Top1: 50.7840    Top5: 74.9100
Ep: 63   EpTime: 593.0267  Trainloss: 2.4788   Testloss: 2.1873  TrainAcc: 46.85   Top1: 50.8540    Top5: 75.0500
Ep: 64   EpTime: 603.9170  Trainloss: 2.4786   Testloss: 2.1878  TrainAcc: 46.90   Top1: 50.7780    Top5: 75.0340
Ep: 65   EpTime: 598.0463  Trainloss: 2.4740   Testloss: 2.1871  TrainAcc: 46.95   Top1: 50.9720    Top5: 75.0980
Ep: 66   EpTime: 596.6648  Trainloss: 2.4711   Testloss: 2.1906  TrainAcc: 46.97   Top1: 51.0380    Top5: 75.0860
Ep: 67   EpTime: 595.5120  Trainloss: 2.4708   Testloss: 2.1836  TrainAcc: 47.02   Top1: 50.9680    Top5: 75.1320
Ep: 68   EpTime: 598.2712  Trainloss: 2.4697   Testloss: 2.1870  TrainAcc: 47.05   Top1: 50.9460    Top5: 75.1840
Ep: 69   EpTime: 592.3678  Trainloss: 2.4693   Testloss: 2.1792  TrainAcc: 47.00   Top1: 51.0640    Top5: 75.1880
Ep: 70   EpTime: 607.2467  Trainloss: 2.4659   Testloss: 2.1774  TrainAcc: 47.05   Top1: 50.9860    Top5: 75.1440
Ep: 71   EpTime: 593.5682  Trainloss: 2.4686   Testloss: 2.1760  TrainAcc: 47.09   Top1: 51.0460    Top5: 75.1820
Ep: 72   EpTime: 590.3295  Trainloss: 2.4645   Testloss: 2.1944  TrainAcc: 47.16   Top1: 50.9700    Top5: 75.0700
Ep: 73   EpTime: 599.2118  Trainloss: 2.4650   Testloss: 2.1960  TrainAcc: 47.13   Top1: 50.5680    Top5: 74.8320
Ep: 74   EpTime: 599.6689  Trainloss: 2.4631   Testloss: 2.1801  TrainAcc: 47.10   Top1: 51.2580    Top5: 75.1760
Ep: 75   EpTime: 594.2517  Trainloss: 2.4636   Testloss: 2.2000  TrainAcc: 47.11   Top1: 50.9000    Top5: 75.0540
Ep: 76   EpTime: 597.7557  Trainloss: 2.4629   Testloss: 2.1787  TrainAcc: 47.16   Top1: 51.1060    Top5: 75.2280
Ep: 77   EpTime: 597.7968  Trainloss: 2.4617   Testloss: 2.1749  TrainAcc: 47.17   Top1: 51.0380    Top5: 75.2160
Ep: 78   EpTime: 598.8456  Trainloss: 2.4605   Testloss: 2.1808  TrainAcc: 47.22   Top1: 51.1440    Top5: 75.3240
Ep: 79   EpTime: 592.3749  Trainloss: 2.4603   Testloss: 2.1762  TrainAcc: 47.16   Top1: 51.1620    Top5: 75.3440
Ep: 80   EpTime: 593.0598  Trainloss: 2.4614   Testloss: 2.2200  TrainAcc: 47.17   Top1: 50.6740    Top5: 74.8140
Ep: 81   EpTime: 599.9569  Trainloss: 2.4591   Testloss: 2.1771  TrainAcc: 47.22   Top1: 51.0720    Top5: 75.2560
Ep: 82   EpTime: 600.1445  Trainloss: 2.4595   Testloss: 2.1943  TrainAcc: 47.22   Top1: 50.8520    Top5: 75.0900
Ep: 83   EpTime: 593.6525  Trainloss: 2.4578   Testloss: 2.1694  TrainAcc: 47.26   Top1: 51.0700    Top5: 75.4260
Ep: 84   EpTime: 600.8887  Trainloss: 2.4550   Testloss: 2.1666  TrainAcc: 47.30   Top1: 51.2240    Top5: 75.3740
Ep: 85   EpTime: 594.0482  Trainloss: 2.4570   Testloss: 2.1709  TrainAcc: 47.15   Top1: 51.2380    Top5: 75.4780
Ep: 86   EpTime: 596.4149  Trainloss: 2.4568   Testloss: 2.1781  TrainAcc: 47.24   Top1: 51.0540    Top5: 75.3000
Ep: 87   EpTime: 592.7354  Trainloss: 2.4571   Testloss: 2.1759  TrainAcc: 47.21   Top1: 50.9880    Top5: 75.2460
Ep: 88   EpTime: 599.2129  Trainloss: 2.4554   Testloss: 2.1812  TrainAcc: 47.29   Top1: 50.8280    Top5: 75.0500
Ep: 89   EpTime: 608.6044  Trainloss: 2.4541   Testloss: 2.1706  TrainAcc: 47.34   Top1: 51.1580    Top5: 75.1440
Ep: 90   EpTime: 597.0621  Trainloss: 2.4421   Testloss: 2.1570  TrainAcc: 47.52   Top1: 51.5480    Top5: 75.5920
Ep: 91   EpTime: 595.2008  Trainloss: 2.4386   Testloss: 2.1565  TrainAcc: 47.61   Top1: 51.6460    Top5: 75.6320
Ep: 92   EpTime: 604.2102  Trainloss: 2.4387   Testloss: 2.1526  TrainAcc: 47.59   Top1: 51.6340    Top5: 75.7100
Ep: 93   EpTime: 599.6464  Trainloss: 2.4370   Testloss: 2.1511  TrainAcc: 47.66   Top1: 51.6520    Top5: 75.8120
Ep: 94   EpTime: 611.4114  Trainloss: 2.4367   Testloss: 2.1515  TrainAcc: 47.65   Top1: 51.5620    Top5: 75.6980
Ep: 95   EpTime: 597.9800  Trainloss: 2.4372   Testloss: 2.1570  TrainAcc: 47.61   Top1: 51.5660    Top5: 75.5160
Ep: 96   EpTime: 598.3463  Trainloss: 2.4379   Testloss: 2.1537  TrainAcc: 47.59   Top1: 51.5820    Top5: 75.6640
Ep: 97   EpTime: 603.0836  Trainloss: 2.4358   Testloss: 2.1527  TrainAcc: 47.64   Top1: 51.5500    Top5: 75.6760
Ep: 98   EpTime: 599.7164  Trainloss: 2.4356   Testloss: 2.1522  TrainAcc: 47.66   Top1: 51.5460    Top5: 75.6560
Ep: 99   EpTime: 603.4062  Trainloss: 2.4345   Testloss: 2.1499  TrainAcc: 47.66   Top1: 51.6380    Top5: 75.6620
Ep: 100   EpTime: 594.6779  Trainloss: 2.4362   Testloss: 2.1514  TrainAcc: 47.61   Top1: 51.6460    Top5: 75.6880
Ep: 101   EpTime: 601.0633  Trainloss: 2.4350   Testloss: 2.1548  TrainAcc: 47.69   Top1: 51.5760    Top5: 75.5900
Ep: 102   EpTime: 591.0438  Trainloss: 2.4340   Testloss: 2.1520  TrainAcc: 47.69   Top1: 51.6380    Top5: 75.5780
Ep: 103   EpTime: 605.5520  Trainloss: 2.4359   Testloss: 2.1472  TrainAcc: 47.66   Top1: 51.7200    Top5: 75.6780
Ep: 104   EpTime: 591.0212  Trainloss: 2.4354   Testloss: 2.1510  TrainAcc: 47.66   Top1: 51.6360    Top5: 75.6660
Ep: 105   EpTime: 592.6011  Trainloss: 2.4355   Testloss: 2.1544  TrainAcc: 47.66   Top1: 51.6100    Top5: 75.7060
Ep: 106   EpTime: 594.2581  Trainloss: 2.4353   Testloss: 2.1556  TrainAcc: 47.68   Top1: 51.5440    Top5: 75.6280
Ep: 107   EpTime: 603.4892  Trainloss: 2.4331   Testloss: 2.1517  TrainAcc: 47.65   Top1: 51.6080    Top5: 75.6020
Ep: 108   EpTime: 606.5029  Trainloss: 2.4330   Testloss: 2.1484  TrainAcc: 47.65   Top1: 51.7560    Top5: 75.7100
Ep: 109   EpTime: 604.5911  Trainloss: 2.4333   Testloss: 2.1503  TrainAcc: 47.69   Top1: 51.5640    Top5: 75.6800
Ep: 110   EpTime: 609.5139  Trainloss: 2.4353   Testloss: 2.1482  TrainAcc: 47.61   Top1: 51.6420    Top5: 75.7740
Ep: 111   EpTime: 608.7462  Trainloss: 2.4352   Testloss: 2.1494  TrainAcc: 47.63   Top1: 51.6900    Top5: 75.6900
Ep: 112   EpTime: 607.8033  Trainloss: 2.4351   Testloss: 2.1539  TrainAcc: 47.68   Top1: 51.5720    Top5: 75.7180
Ep: 113   EpTime: 610.4747  Trainloss: 2.4345   Testloss: 2.1502  TrainAcc: 47.71   Top1: 51.6580    Top5: 75.6080
Ep: 114   EpTime: 609.0615  Trainloss: 2.4333   Testloss: 2.1562  TrainAcc: 47.67   Top1: 51.6560    Top5: 75.6060
Ep: 115   EpTime: 613.1992  Trainloss: 2.4337   Testloss: 2.1520  TrainAcc: 47.68   Top1: 51.6260    Top5: 75.6780
Ep: 116   EpTime: 610.6915  Trainloss: 2.4323   Testloss: 2.1511  TrainAcc: 47.69   Top1: 51.6840    Top5: 75.6040
Ep: 117   EpTime: 612.4798  Trainloss: 2.4334   Testloss: 2.1532  TrainAcc: 47.69   Top1: 51.5760    Top5: 75.6200
Ep: 118   EpTime: 613.7481  Trainloss: 2.4337   Testloss: 2.1558  TrainAcc: 47.67   Top1: 51.5520    Top5: 75.5440
Ep: 119   EpTime: 613.3156  Trainloss: 2.4320   Testloss: 2.1487  TrainAcc: 47.68   Top1: 51.7360    Top5: 75.5880
Ep: 120   EpTime: 612.5849  Trainloss: 2.4326   Testloss: 2.1478  TrainAcc: 47.72   Top1: 51.6720    Top5: 75.6260
Ep: 121   EpTime: 619.1399  Trainloss: 2.4320   Testloss: 2.1486  TrainAcc: 47.70   Top1: 51.6680    Top5: 75.6740
Ep: 122   EpTime: 723.8539  Trainloss: 2.4315   Testloss: 2.1515  TrainAcc: 47.73   Top1: 51.6320    Top5: 75.6580
Ep: 123   EpTime: 727.5091  Trainloss: 2.4322   Testloss: 2.1489  TrainAcc: 47.70   Top1: 51.6860    Top5: 75.6760
Ep: 124   EpTime: 728.9855  Trainloss: 2.4320   Testloss: 2.1477  TrainAcc: 47.68   Top1: 51.7500    Top5: 75.6960
Ep: 125   EpTime: 721.6553  Trainloss: 2.4320   Testloss: 2.1487  TrainAcc: 47.71   Top1: 51.7620    Top5: 75.6700
Ep: 126   EpTime: 834.9090  Trainloss: 2.4323   Testloss: 2.1487  TrainAcc: 47.71   Top1: 51.7160    Top5: 75.6820
Ep: 127   EpTime: 864.7905  Trainloss: 2.4329   Testloss: 2.1471  TrainAcc: 47.72   Top1: 51.8160    Top5: 75.6840
Ep: 128   EpTime: 873.0088  Trainloss: 2.4313   Testloss: 2.1477  TrainAcc: 47.80   Top1: 51.7900    Top5: 75.7280
Ep: 129   EpTime: 864.7301  Trainloss: 2.4307   Testloss: 2.1508  TrainAcc: 47.79   Top1: 51.6780    Top5: 75.7060
Ep: 130   EpTime: 849.7089  Trainloss: 2.4311   Testloss: 2.1479  TrainAcc: 47.73   Top1: 51.7320    Top5: 75.7380
