mobilenetv1(
  (model): Sequential(
    (0): Sequential(
      (0): Conv2d(3, 32, kernel_size=(3, 3), stride=(2, 2), padding=(1, 1), bias=False)
      (1): BatchNorm2d(32, eps=1e-05, momentum=0.1, affine=True, track_running_stats=True)
      (2): ReLU(inplace)
    )
    (1): Sequential(
      (0): Conv2d(32, 32, kernel_size=(3, 3), stride=(1, 1), padding=(1, 1), groups=32, bias=False)
      (1): BatchNorm2d(32, eps=1e-05, momentum=0.1, affine=True, track_running_stats=True)
      (2): ReLU(inplace)
      (3): Conv2d(32, 64, kernel_size=(1, 1), stride=(1, 1), bias=False)
      (4): BatchNorm2d(64, eps=1e-05, momentum=0.1, affine=True, track_running_stats=True)
      (5): ReLU(inplace)
    )
    (2): Sequential(
      (0): Conv2d(64, 64, kernel_size=(3, 3), stride=(2, 2), padding=(1, 1), groups=64, bias=False)
      (1): BatchNorm2d(64, eps=1e-05, momentum=0.1, affine=True, track_running_stats=True)
      (2): ReLU(inplace)
      (3): Conv2d(64, 128, kernel_size=(1, 1), stride=(1, 1), bias=False)
      (4): BatchNorm2d(128, eps=1e-05, momentum=0.1, affine=True, track_running_stats=True)
      (5): ReLU(inplace)
    )
    (3): Sequential(
      (0): Conv2d(128, 128, kernel_size=(3, 3), stride=(1, 1), padding=(1, 1), groups=128, bias=False)
      (1): BatchNorm2d(128, eps=1e-05, momentum=0.1, affine=True, track_running_stats=True)
      (2): ReLU(inplace)
      (3): Conv2d(128, 128, kernel_size=(1, 1), stride=(1, 1), bias=False)
      (4): BatchNorm2d(128, eps=1e-05, momentum=0.1, affine=True, track_running_stats=True)
      (5): ReLU(inplace)
    )
    (4): Sequential(
      (0): Conv2d(128, 128, kernel_size=(3, 3), stride=(2, 2), padding=(1, 1), groups=128, bias=False)
      (1): BatchNorm2d(128, eps=1e-05, momentum=0.1, affine=True, track_running_stats=True)
      (2): ReLU(inplace)
      (3): Conv2d(128, 256, kernel_size=(1, 1), stride=(1, 1), bias=False)
      (4): BatchNorm2d(256, eps=1e-05, momentum=0.1, affine=True, track_running_stats=True)
      (5): ReLU(inplace)
    )
    (5): Sequential(
      (0): Conv2d(256, 256, kernel_size=(3, 3), stride=(1, 1), padding=(1, 1), groups=256, bias=False)
      (1): BatchNorm2d(256, eps=1e-05, momentum=0.1, affine=True, track_running_stats=True)
      (2): ReLU(inplace)
      (3): Conv2d(256, 256, kernel_size=(1, 1), stride=(1, 1), bias=False)
      (4): BatchNorm2d(256, eps=1e-05, momentum=0.1, affine=True, track_running_stats=True)
      (5): ReLU(inplace)
    )
    (6): Sequential(
      (0): Conv2d(256, 256, kernel_size=(3, 3), stride=(2, 2), padding=(1, 1), groups=256, bias=False)
      (1): BatchNorm2d(256, eps=1e-05, momentum=0.1, affine=True, track_running_stats=True)
      (2): ReLU(inplace)
      (3): Conv2d(256, 512, kernel_size=(1, 1), stride=(1, 1), bias=False)
      (4): BatchNorm2d(512, eps=1e-05, momentum=0.1, affine=True, track_running_stats=True)
      (5): ReLU(inplace)
    )
    (7): Sequential(
      (0): Conv2d(512, 512, kernel_size=(3, 3), stride=(1, 1), padding=(1, 1), groups=512, bias=False)
      (1): BatchNorm2d(512, eps=1e-05, momentum=0.1, affine=True, track_running_stats=True)
      (2): ReLU(inplace)
      (3): Conv2d(512, 512, kernel_size=(1, 1), stride=(1, 1), bias=False)
      (4): BatchNorm2d(512, eps=1e-05, momentum=0.1, affine=True, track_running_stats=True)
      (5): ReLU(inplace)
    )
    (8): Sequential(
      (0): Conv2d(512, 512, kernel_size=(3, 3), stride=(1, 1), padding=(1, 1), groups=512, bias=False)
      (1): BatchNorm2d(512, eps=1e-05, momentum=0.1, affine=True, track_running_stats=True)
      (2): ReLU(inplace)
      (3): Conv2d(512, 512, kernel_size=(1, 1), stride=(1, 1), bias=False)
      (4): BatchNorm2d(512, eps=1e-05, momentum=0.1, affine=True, track_running_stats=True)
      (5): ReLU(inplace)
    )
    (9): Sequential(
      (0): Conv2d(512, 512, kernel_size=(3, 3), stride=(1, 1), padding=(1, 1), groups=512, bias=False)
      (1): BatchNorm2d(512, eps=1e-05, momentum=0.1, affine=True, track_running_stats=True)
      (2): ReLU(inplace)
      (3): Conv2d(512, 512, kernel_size=(1, 1), stride=(1, 1), bias=False)
      (4): BatchNorm2d(512, eps=1e-05, momentum=0.1, affine=True, track_running_stats=True)
      (5): ReLU(inplace)
    )
    (10): Sequential(
      (0): Conv2d(512, 512, kernel_size=(3, 3), stride=(1, 1), padding=(1, 1), groups=512, bias=False)
      (1): BatchNorm2d(512, eps=1e-05, momentum=0.1, affine=True, track_running_stats=True)
      (2): ReLU(inplace)
      (3): Conv2d(512, 512, kernel_size=(1, 1), stride=(1, 1), bias=False)
      (4): BatchNorm2d(512, eps=1e-05, momentum=0.1, affine=True, track_running_stats=True)
      (5): ReLU(inplace)
    )
    (11): Sequential(
      (0): Conv2d(512, 512, kernel_size=(3, 3), stride=(1, 1), padding=(1, 1), groups=512, bias=False)
      (1): BatchNorm2d(512, eps=1e-05, momentum=0.1, affine=True, track_running_stats=True)
      (2): ReLU(inplace)
      (3): Conv2d(512, 512, kernel_size=(1, 1), stride=(1, 1), bias=False)
      (4): BatchNorm2d(512, eps=1e-05, momentum=0.1, affine=True, track_running_stats=True)
      (5): ReLU(inplace)
    )
    (12): Sequential(
      (0): Conv2d(512, 512, kernel_size=(3, 3), stride=(2, 2), padding=(1, 1), groups=512, bias=False)
      (1): BatchNorm2d(512, eps=1e-05, momentum=0.1, affine=True, track_running_stats=True)
      (2): ReLU(inplace)
      (3): Conv2d(512, 1024, kernel_size=(1, 1), stride=(1, 1), bias=False)
      (4): BatchNorm2d(1024, eps=1e-05, momentum=0.1, affine=True, track_running_stats=True)
      (5): ReLU(inplace)
    )
    (13): Sequential(
      (0): Conv2d(1024, 1024, kernel_size=(3, 3), stride=(1, 1), padding=(1, 1), groups=1024, bias=False)
      (1): BatchNorm2d(1024, eps=1e-05, momentum=0.1, affine=True, track_running_stats=True)
      (2): ReLU(inplace)
      (3): Conv2d(1024, 1024, kernel_size=(1, 1), stride=(1, 1), bias=False)
      (4): BatchNorm2d(1024, eps=1e-05, momentum=0.1, affine=True, track_running_stats=True)
      (5): ReLU(inplace)
    )
    (14): AvgPool2d(kernel_size=7, stride=7, padding=0)
  )
  (fc): Linear(in_features=1024, out_features=200, bias=True)
)
Ep: 1   EpTime: 23.8420  Trainloss: 5.2211   Testloss: 5.0879  TrainAcc: 0.82   Top1: 1.2637    Top5: 6.6976  lr: 0.100000
Ep: 2   EpTime: 21.6498  Trainloss: 4.9434   Testloss: 4.8955  TrainAcc: 1.78   Top1: 2.5695    Top5: 9.5619  lr: 0.100000
Ep: 3   EpTime: 20.9780  Trainloss: 4.7288   Testloss: 4.6501  TrainAcc: 3.21   Top1: 3.7489    Top5: 15.2906  lr: 0.100000
Ep: 4   EpTime: 21.5944  Trainloss: 4.5392   Testloss: 4.4156  TrainAcc: 4.74   Top1: 5.3917    Top5: 21.7355  lr: 0.100000
Ep: 5   EpTime: 21.0868  Trainloss: 4.3722   Testloss: 4.4120  TrainAcc: 6.09   Top1: 7.6243    Top5: 24.3471  lr: 0.100000
Ep: 6   EpTime: 21.3992  Trainloss: 4.2381   Testloss: 4.8097  TrainAcc: 7.56   Top1: 6.8239    Top5: 20.3033  lr: 0.100000
Ep: 7   EpTime: 21.7071  Trainloss: 4.0865   Testloss: 4.1074  TrainAcc: 9.30   Top1: 8.9722    Top5: 30.6655  lr: 0.100000
Ep: 8   EpTime: 21.9875  Trainloss: 3.9640   Testloss: 3.8939  TrainAcc: 10.78   Top1: 11.3732    Top5: 34.8357  lr: 0.100000
Ep: 9   EpTime: 22.4089  Trainloss: 3.8430   Testloss: 3.9808  TrainAcc: 12.44   Top1: 12.8896    Top5: 38.1634  lr: 0.100000
Ep: 10   EpTime: 21.4838  Trainloss: 3.6896   Testloss: 3.8117  TrainAcc: 14.94   Top1: 13.7742    Top5: 38.8795  lr: 0.100000
Ep: 11   EpTime: 21.4092  Trainloss: 3.5640   Testloss: 4.0152  TrainAcc: 17.05   Top1: 12.5948    Top5: 37.7001  lr: 0.100000
Ep: 12   EpTime: 22.6169  Trainloss: 3.4501   Testloss: 3.8686  TrainAcc: 18.62   Top1: 16.1331    Top5: 43.2603  lr: 0.100000
Ep: 13   EpTime: 22.0778  Trainloss: 3.3225   Testloss: 3.6379  TrainAcc: 21.70   Top1: 17.9865    Top5: 45.7035  lr: 0.100000
Ep: 14   EpTime: 21.6936  Trainloss: 3.2496   Testloss: 3.2089  TrainAcc: 22.36   Top1: 21.4827    Top5: 52.7801  lr: 0.100000
Ep: 15   EpTime: 22.3090  Trainloss: 3.0991   Testloss: 3.4318  TrainAcc: 25.63   Top1: 21.4406    Top5: 49.9579  lr: 0.100000
Ep: 16   EpTime: 22.2732  Trainloss: 3.0230   Testloss: 3.6070  TrainAcc: 26.66   Top1: 18.8711    Top5: 44.9874  lr: 0.100000
Ep: 17   EpTime: 21.4209  Trainloss: 2.9186   Testloss: 3.2397  TrainAcc: 29.30   Top1: 24.4735    Top5: 54.0017  lr: 0.100000
Ep: 18   EpTime: 22.0714  Trainloss: 2.8479   Testloss: 3.2225  TrainAcc: 30.62   Top1: 24.5577    Top5: 55.1390  lr: 0.100000
Ep: 19   EpTime: 23.5365  Trainloss: 2.7285   Testloss: 2.6087  TrainAcc: 32.31   Top1: 33.6142    Top5: 65.5013  lr: 0.100000
Ep: 20   EpTime: 21.9287  Trainloss: 2.6474   Testloss: 2.7557  TrainAcc: 34.75   Top1: 33.1508    Top5: 65.0379  lr: 0.100000
Ep: 21   EpTime: 21.7280  Trainloss: 2.5718   Testloss: 2.5216  TrainAcc: 35.25   Top1: 35.7203    Top5: 68.7869  lr: 0.100000
Ep: 22   EpTime: 23.1337  Trainloss: 2.5380   Testloss: 3.3003  TrainAcc: 37.01   Top1: 29.2334    Top5: 58.5088  lr: 0.100000
Ep: 23   EpTime: 22.9316  Trainloss: 2.4545   Testloss: 2.5010  TrainAcc: 38.69   Top1: 36.8997    Top5: 69.2081  lr: 0.100000
Ep: 24   EpTime: 21.8098  Trainloss: 2.3868   Testloss: 2.5380  TrainAcc: 40.35   Top1: 37.5737    Top5: 69.4608  lr: 0.100000
Ep: 25   EpTime: 22.8469  Trainloss: 2.3242   Testloss: 2.4739  TrainAcc: 41.47   Top1: 39.3429    Top5: 70.7666  lr: 0.100000
Ep: 26   EpTime: 22.3228  Trainloss: 2.2544   Testloss: 2.2727  TrainAcc: 43.30   Top1: 41.9545    Top5: 74.1786  lr: 0.100000
Ep: 27   EpTime: 22.4717  Trainloss: 2.1927   Testloss: 2.4751  TrainAcc: 43.80   Top1: 39.8062    Top5: 71.6933  lr: 0.100000
Ep: 28   EpTime: 22.7398  Trainloss: 2.1575   Testloss: 2.6582  TrainAcc: 44.71   Top1: 37.8265    Top5: 67.7759  lr: 0.100000
Ep: 29   EpTime: 21.7471  Trainloss: 2.1326   Testloss: 2.1184  TrainAcc: 45.56   Top1: 44.8610    Top5: 76.4532  lr: 0.100000
Ep: 30   EpTime: 23.0672  Trainloss: 2.0724   Testloss: 2.4178  TrainAcc: 47.11   Top1: 43.4288    Top5: 73.1676  lr: 0.010000
Ep: 31   EpTime: 23.6831  Trainloss: 1.7652   Testloss: 1.6217  TrainAcc: 55.43   Top1: 57.0345    Top5: 83.5720  lr: 0.010000
Ep: 32   EpTime: 22.2246  Trainloss: 1.6678   Testloss: 1.5838  TrainAcc: 58.22   Top1: 58.6773    Top5: 84.7094  lr: 0.010000
Ep: 33   EpTime: 21.8707  Trainloss: 1.6478   Testloss: 1.5752  TrainAcc: 58.41   Top1: 59.1407    Top5: 84.6672  lr: 0.010000
Ep: 34   EpTime: 21.8018  Trainloss: 1.5679   Testloss: 1.5678  TrainAcc: 60.66   Top1: 59.5198    Top5: 84.7936  lr: 0.010000
Ep: 35   EpTime: 21.5685  Trainloss: 1.5485   Testloss: 1.5574  TrainAcc: 61.24   Top1: 58.9722    Top5: 84.5409  lr: 0.010000
Ep: 36   EpTime: 22.8536  Trainloss: 1.5177   Testloss: 1.5421  TrainAcc: 61.73   Top1: 59.1407    Top5: 84.4145  lr: 0.010000
Ep: 37   EpTime: 21.7686  Trainloss: 1.4997   Testloss: 1.5415  TrainAcc: 62.41   Top1: 59.6462    Top5: 85.0042  lr: 0.010000
Ep: 38   EpTime: 23.0777  Trainloss: 1.4801   Testloss: 1.5338  TrainAcc: 63.35   Top1: 59.5198    Top5: 85.1727  lr: 0.010000
Ep: 39   EpTime: 22.1674  Trainloss: 1.4737   Testloss: 1.5286  TrainAcc: 63.33   Top1: 59.3513    Top5: 85.1306  lr: 0.010000
Ep: 40   EpTime: 22.2367  Trainloss: 1.4462   Testloss: 1.5385  TrainAcc: 64.01   Top1: 60.0253    Top5: 84.6672  lr: 0.010000
Ep: 41   EpTime: 22.6807  Trainloss: 1.4299   Testloss: 1.5125  TrainAcc: 63.72   Top1: 60.5729    Top5: 84.8778  lr: 0.010000
Ep: 42   EpTime: 21.8719  Trainloss: 1.4393   Testloss: 1.5143  TrainAcc: 63.78   Top1: 60.1938    Top5: 85.2991  lr: 0.010000
Ep: 43   EpTime: 21.7606  Trainloss: 1.4052   Testloss: 1.5166  TrainAcc: 64.54   Top1: 59.3934    Top5: 85.3412  lr: 0.010000
Ep: 44   EpTime: 21.4291  Trainloss: 1.3962   Testloss: 1.5199  TrainAcc: 65.35   Top1: 59.8568    Top5: 84.9200  lr: 0.010000
Ep: 45   EpTime: 22.2355  Trainloss: 1.3818   Testloss: 1.5339  TrainAcc: 65.03   Top1: 60.8677    Top5: 85.3412  lr: 0.010000
Ep: 46   EpTime: 21.9483  Trainloss: 1.3713   Testloss: 1.5323  TrainAcc: 65.73   Top1: 60.7414    Top5: 85.1306  lr: 0.010000
Ep: 47   EpTime: 21.9412  Trainloss: 1.3394   Testloss: 1.5129  TrainAcc: 65.92   Top1: 60.5307    Top5: 85.0042  lr: 0.010000
Ep: 48   EpTime: 22.7868  Trainloss: 1.3483   Testloss: 1.5196  TrainAcc: 66.67   Top1: 60.9941    Top5: 85.9730  lr: 0.010000
Ep: 49   EpTime: 22.2296  Trainloss: 1.3361   Testloss: 1.5194  TrainAcc: 66.28   Top1: 61.0362    Top5: 85.2570  lr: 0.010000
Ep: 50   EpTime: 21.7476  Trainloss: 1.3220   Testloss: 1.5069  TrainAcc: 67.23   Top1: 60.5307    Top5: 85.3833  lr: 0.010000
Ep: 51   EpTime: 22.0029  Trainloss: 1.3090   Testloss: 1.4955  TrainAcc: 66.84   Top1: 61.3732    Top5: 85.9309  lr: 0.010000
Ep: 52   EpTime: 22.8040  Trainloss: 1.3184   Testloss: 1.4986  TrainAcc: 66.62   Top1: 61.6259    Top5: 85.1727  lr: 0.010000
Ep: 53   EpTime: 23.6144  Trainloss: 1.2787   Testloss: 1.5142  TrainAcc: 67.60   Top1: 60.8256    Top5: 85.6361  lr: 0.010000
Ep: 54   EpTime: 22.1828  Trainloss: 1.2945   Testloss: 1.5029  TrainAcc: 66.99   Top1: 61.4153    Top5: 85.6782  lr: 0.010000
Ep: 55   EpTime: 22.3317  Trainloss: 1.2519   Testloss: 1.4993  TrainAcc: 68.58   Top1: 61.1205    Top5: 85.5939  lr: 0.010000
Ep: 56   EpTime: 21.7919  Trainloss: 1.2541   Testloss: 1.5201  TrainAcc: 68.53   Top1: 60.6571    Top5: 85.5939  lr: 0.010000
Ep: 57   EpTime: 21.6193  Trainloss: 1.2642   Testloss: 1.5074  TrainAcc: 68.54   Top1: 61.1626    Top5: 85.7624  lr: 0.010000
Ep: 58   EpTime: 22.3000  Trainloss: 1.2107   Testloss: 1.5161  TrainAcc: 69.84   Top1: 61.5417    Top5: 86.1837  lr: 0.010000
Ep: 59   EpTime: 22.4663  Trainloss: 1.2357   Testloss: 1.5068  TrainAcc: 68.81   Top1: 61.3311    Top5: 85.8045  lr: 0.010000
Ep: 60   EpTime: 22.2428  Trainloss: 1.2253   Testloss: 1.4967  TrainAcc: 68.91   Top1: 61.2468    Top5: 85.7624  lr: 0.001000
Ep: 61   EpTime: 21.8368  Trainloss: 1.1537   Testloss: 1.4791  TrainAcc: 71.08   Top1: 61.7944    Top5: 85.9730  lr: 0.001000
Ep: 62   EpTime: 23.5527  Trainloss: 1.1558   Testloss: 1.4751  TrainAcc: 71.08   Top1: 61.3732    Top5: 86.0994  lr: 0.001000
Ep: 63   EpTime: 21.8952  Trainloss: 1.1498   Testloss: 1.4745  TrainAcc: 71.23   Top1: 61.9208    Top5: 86.0573  lr: 0.001000
Ep: 64   EpTime: 22.3723  Trainloss: 1.1465   Testloss: 1.4655  TrainAcc: 71.75   Top1: 62.1735    Top5: 86.0573  lr: 0.001000
Ep: 65   EpTime: 22.4684  Trainloss: 1.1403   Testloss: 1.4779  TrainAcc: 72.02   Top1: 61.8366    Top5: 86.1837  lr: 0.001000
Ep: 66   EpTime: 21.9010  Trainloss: 1.1194   Testloss: 1.4745  TrainAcc: 72.16   Top1: 61.6259    Top5: 86.1837  lr: 0.001000
Ep: 67   EpTime: 21.7926  Trainloss: 1.1497   Testloss: 1.4740  TrainAcc: 71.52   Top1: 61.7523    Top5: 85.8045  lr: 0.001000
Ep: 68   EpTime: 21.9805  Trainloss: 1.1102   Testloss: 1.4677  TrainAcc: 72.78   Top1: 62.0893    Top5: 86.2679  lr: 0.001000
Ep: 69   EpTime: 22.4419  Trainloss: 1.1326   Testloss: 1.4680  TrainAcc: 71.71   Top1: 62.2999    Top5: 86.2258  lr: 0.001000
Ep: 70   EpTime: 22.7775  Trainloss: 1.1280   Testloss: 1.4709  TrainAcc: 72.57   Top1: 61.8787    Top5: 86.2679  lr: 0.001000
Ep: 71   EpTime: 22.7246  Trainloss: 1.1021   Testloss: 1.4691  TrainAcc: 72.80   Top1: 61.8366    Top5: 86.0994  lr: 0.001000
Ep: 72   EpTime: 21.5851  Trainloss: 1.1315   Testloss: 1.4725  TrainAcc: 71.84   Top1: 61.8787    Top5: 86.0994  lr: 0.001000
Ep: 73   EpTime: 22.4516  Trainloss: 1.1402   Testloss: 1.4704  TrainAcc: 72.10   Top1: 62.2157    Top5: 86.1415  lr: 0.001000
Ep: 74   EpTime: 22.6799  Trainloss: 1.1237   Testloss: 1.4686  TrainAcc: 72.45   Top1: 62.4263    Top5: 86.4785  lr: 0.001000
Ep: 75   EpTime: 22.2526  Trainloss: 1.1345   Testloss: 1.4716  TrainAcc: 72.02   Top1: 62.6369    Top5: 86.1837  lr: 0.001000
Ep: 76   EpTime: 22.7136  Trainloss: 1.1185   Testloss: 1.4627  TrainAcc: 72.63   Top1: 62.5105    Top5: 86.1415  lr: 0.001000
Ep: 77   EpTime: 22.6108  Trainloss: 1.1109   Testloss: 1.4673  TrainAcc: 72.52   Top1: 62.2578    Top5: 86.4364  lr: 0.001000
Ep: 78   EpTime: 21.8579  Trainloss: 1.1075   Testloss: 1.4679  TrainAcc: 72.85   Top1: 62.7633    Top5: 86.2258  lr: 0.001000
Ep: 79   EpTime: 22.4272  Trainloss: 1.1040   Testloss: 1.4706  TrainAcc: 73.01   Top1: 62.5527    Top5: 86.0573  lr: 0.001000
Ep: 80   EpTime: 23.0675  Trainloss: 1.1263   Testloss: 1.4738  TrainAcc: 72.39   Top1: 62.1735    Top5: 86.1415  lr: 0.001000
Ep: 81   EpTime: 22.1563  Trainloss: 1.1223   Testloss: 1.4717  TrainAcc: 72.43   Top1: 62.5105    Top5: 86.3943  lr: 0.001000
Ep: 82   EpTime: 22.9568  Trainloss: 1.0879   Testloss: 1.4744  TrainAcc: 73.04   Top1: 62.3842    Top5: 85.9309  lr: 0.001000
Ep: 83   EpTime: 22.8115  Trainloss: 1.0926   Testloss: 1.4758  TrainAcc: 72.90   Top1: 62.6790    Top5: 85.9730  lr: 0.001000
Ep: 84   EpTime: 21.9915  Trainloss: 1.1168   Testloss: 1.4787  TrainAcc: 72.62   Top1: 62.6790    Top5: 86.3943  lr: 0.001000
Ep: 85   EpTime: 22.9208  Trainloss: 1.1102   Testloss: 1.4719  TrainAcc: 72.92   Top1: 62.4684    Top5: 86.0573  lr: 0.001000
Ep: 86   EpTime: 21.6949  Trainloss: 1.1249   Testloss: 1.4684  TrainAcc: 72.56   Top1: 62.6369    Top5: 86.3100  lr: 0.001000
Ep: 87   EpTime: 23.1908  Trainloss: 1.1263   Testloss: 1.4826  TrainAcc: 72.57   Top1: 62.5948    Top5: 86.0994  lr: 0.001000
Ep: 88   EpTime: 21.3874  Trainloss: 1.1061   Testloss: 1.4698  TrainAcc: 72.62   Top1: 62.3842    Top5: 86.2258  lr: 0.001000
Ep: 89   EpTime: 22.4146  Trainloss: 1.0929   Testloss: 1.4731  TrainAcc: 73.34   Top1: 62.3842    Top5: 85.8888  lr: 0.001000
Ep: 90   EpTime: 22.3736  Trainloss: 1.0980   Testloss: 1.4765  TrainAcc: 73.07   Top1: 62.5105    Top5: 86.3521  lr: 0.000100
Ep: 91   EpTime: 22.9324  Trainloss: 1.1095   Testloss: 1.4741  TrainAcc: 72.63   Top1: 62.2999    Top5: 85.9730  lr: 0.000100
Ep: 92   EpTime: 21.6265  Trainloss: 1.0977   Testloss: 1.4783  TrainAcc: 73.43   Top1: 62.5527    Top5: 86.1415  lr: 0.000100
Ep: 93   EpTime: 21.9350  Trainloss: 1.1013   Testloss: 1.4751  TrainAcc: 72.97   Top1: 62.7211    Top5: 86.3521  lr: 0.000100
Ep: 94   EpTime: 21.8255  Trainloss: 1.0825   Testloss: 1.4714  TrainAcc: 73.29   Top1: 62.6369    Top5: 86.3521  lr: 0.000100
Ep: 95   EpTime: 22.6964  Trainloss: 1.1009   Testloss: 1.4728  TrainAcc: 72.88   Top1: 62.3842    Top5: 86.3100  lr: 0.000100
Ep: 96   EpTime: 21.9420  Trainloss: 1.0677   Testloss: 1.4801  TrainAcc: 73.97   Top1: 62.2999    Top5: 86.2258  lr: 0.000100
Ep: 97   EpTime: 22.6434  Trainloss: 1.0975   Testloss: 1.4732  TrainAcc: 73.21   Top1: 62.5948    Top5: 86.2679  lr: 0.000100
Ep: 98   EpTime: 22.2634  Trainloss: 1.1021   Testloss: 1.4684  TrainAcc: 72.90   Top1: 62.7211    Top5: 86.3521  lr: 0.000100
Ep: 99   EpTime: 21.6734  Trainloss: 1.1182   Testloss: 1.4712  TrainAcc: 72.62   Top1: 62.7211    Top5: 86.2679  lr: 0.000100
Ep: 100   EpTime: 21.2891  Trainloss: 1.0821   Testloss: 1.4751  TrainAcc: 73.46   Top1: 62.5527    Top5: 86.4364  lr: 0.000100
Ep: 101   EpTime: 21.6480  Trainloss: 1.0861   Testloss: 1.4730  TrainAcc: 73.00   Top1: 62.6790    Top5: 86.0152  lr: 0.000100
Ep: 102   EpTime: 23.3889  Trainloss: 1.1141   Testloss: 1.4729  TrainAcc: 72.75   Top1: 62.4263    Top5: 86.0152  lr: 0.000100
Ep: 103   EpTime: 21.6435  Trainloss: 1.0931   Testloss: 1.4756  TrainAcc: 73.07   Top1: 62.7633    Top5: 86.2679  lr: 0.000100
Ep: 104   EpTime: 22.0906  Trainloss: 1.1027   Testloss: 1.4673  TrainAcc: 72.73   Top1: 62.4263    Top5: 86.2258  lr: 0.000100
Ep: 105   EpTime: 22.7789  Trainloss: 1.0785   Testloss: 1.4728  TrainAcc: 73.78   Top1: 62.8896    Top5: 86.0573  lr: 0.000100
Ep: 106   EpTime: 21.4887  Trainloss: 1.0962   Testloss: 1.4743  TrainAcc: 73.25   Top1: 62.3420    Top5: 86.5206  lr: 0.000100
Ep: 107   EpTime: 22.2396  Trainloss: 1.0728   Testloss: 1.4708  TrainAcc: 73.68   Top1: 62.0893    Top5: 86.2258  lr: 0.000100
Ep: 108   EpTime: 22.6499  Trainloss: 1.1061   Testloss: 1.4700  TrainAcc: 73.04   Top1: 62.7211    Top5: 86.0994  lr: 0.000100
Ep: 109   EpTime: 21.8986  Trainloss: 1.1018   Testloss: 1.4692  TrainAcc: 73.08   Top1: 62.5527    Top5: 86.3943  lr: 0.000100
Ep: 110   EpTime: 22.0231  Trainloss: 1.0934   Testloss: 1.4706  TrainAcc: 72.99   Top1: 62.6790    Top5: 86.3100  lr: 0.000100
Ep: 111   EpTime: 23.0834  Trainloss: 1.0944   Testloss: 1.4758  TrainAcc: 73.44   Top1: 62.0893    Top5: 86.2258  lr: 0.000100
Ep: 112   EpTime: 21.4065  Trainloss: 1.0893   Testloss: 1.4754  TrainAcc: 73.53   Top1: 62.7211    Top5: 86.5206  lr: 0.000100
Ep: 113   EpTime: 22.0081  Trainloss: 1.1061   Testloss: 1.4731  TrainAcc: 72.93   Top1: 62.4263    Top5: 86.5628  lr: 0.000100
Ep: 114   EpTime: 23.0855  Trainloss: 1.0720   Testloss: 1.4804  TrainAcc: 73.76   Top1: 62.2157    Top5: 86.5628  lr: 0.000100
Ep: 115   EpTime: 22.5103  Trainloss: 1.0927   Testloss: 1.4715  TrainAcc: 73.07   Top1: 62.3420    Top5: 86.4785  lr: 0.000100
Ep: 116   EpTime: 21.5564  Trainloss: 1.0945   Testloss: 1.4683  TrainAcc: 73.21   Top1: 62.2578    Top5: 86.1415  lr: 0.000100
Ep: 117   EpTime: 22.9873  Trainloss: 1.1075   Testloss: 1.4757  TrainAcc: 73.55   Top1: 62.2578    Top5: 86.1415  lr: 0.000100
Ep: 118   EpTime: 21.9801  Trainloss: 1.0834   Testloss: 1.4701  TrainAcc: 73.33   Top1: 62.5527    Top5: 86.2679  lr: 0.000100
Ep: 119   EpTime: 22.6960  Trainloss: 1.0856   Testloss: 1.4733  TrainAcc: 73.53   Top1: 62.8054    Top5: 86.3100  lr: 0.000100
Ep: 120   EpTime: 23.1824  Trainloss: 1.0852   Testloss: 1.4757  TrainAcc: 73.38   Top1: 62.4263    Top5: 86.1837  lr: 0.000010
Ep: 121   EpTime: 22.0890  Trainloss: 1.0752   Testloss: 1.4719  TrainAcc: 73.68   Top1: 62.0472    Top5: 86.0573  lr: 0.000010
Ep: 122   EpTime: 22.7053  Trainloss: 1.0956   Testloss: 1.4768  TrainAcc: 72.89   Top1: 62.2578    Top5: 86.3100  lr: 0.000010
Ep: 123   EpTime: 21.5263  Trainloss: 1.0803   Testloss: 1.4750  TrainAcc: 73.57   Top1: 62.3420    Top5: 86.3100  lr: 0.000010
Ep: 124   EpTime: 23.0240  Trainloss: 1.0794   Testloss: 1.4755  TrainAcc: 73.27   Top1: 62.5105    Top5: 86.3521  lr: 0.000010
Ep: 125   EpTime: 22.6803  Trainloss: 1.1052   Testloss: 1.4734  TrainAcc: 72.97   Top1: 62.7633    Top5: 86.0573  lr: 0.000010
Ep: 126   EpTime: 22.0609  Trainloss: 1.1022   Testloss: 1.4745  TrainAcc: 73.63   Top1: 62.5527    Top5: 86.2258  lr: 0.000010
Ep: 127   EpTime: 22.0637  Trainloss: 1.0992   Testloss: 1.4741  TrainAcc: 72.50   Top1: 62.6790    Top5: 86.2258  lr: 0.000010
Ep: 128   EpTime: 22.3573  Trainloss: 1.0759   Testloss: 1.4722  TrainAcc: 73.48   Top1: 62.5948    Top5: 86.3100  lr: 0.000010
Ep: 129   EpTime: 21.5625  Trainloss: 1.1042   Testloss: 1.4741  TrainAcc: 72.98   Top1: 62.4263    Top5: 86.2679  lr: 0.000010
Ep: 130   EpTime: 22.5144  Trainloss: 1.0828   Testloss: 1.4736  TrainAcc: 73.24   Top1: 62.2578    Top5: 86.2679  lr: 0.000010
Ep: 131   EpTime: 22.1776  Trainloss: 1.1084   Testloss: 1.4716  TrainAcc: 72.74   Top1: 62.5527    Top5: 86.3521  lr: 0.000010
Ep: 132   EpTime: 22.1174  Trainloss: 1.0995   Testloss: 1.4693  TrainAcc: 73.28   Top1: 62.6790    Top5: 86.3521  lr: 0.000010
Ep: 133   EpTime: 22.7805  Trainloss: 1.0977   Testloss: 1.4714  TrainAcc: 73.11   Top1: 62.5105    Top5: 86.2679  lr: 0.000010
Ep: 134   EpTime: 21.4280  Trainloss: 1.0828   Testloss: 1.4768  TrainAcc: 73.48   Top1: 62.5527    Top5: 86.2679  lr: 0.000010
Ep: 135   EpTime: 22.9413  Trainloss: 1.1141   Testloss: 1.4770  TrainAcc: 73.34   Top1: 62.2578    Top5: 86.3943  lr: 0.000010
Ep: 136   EpTime: 21.5977  Trainloss: 1.1016   Testloss: 1.4762  TrainAcc: 72.63   Top1: 62.6369    Top5: 86.4364  lr: 0.000010
Ep: 137   EpTime: 21.8261  Trainloss: 1.0864   Testloss: 1.4739  TrainAcc: 73.80   Top1: 62.0472    Top5: 86.2258  lr: 0.000010
Ep: 138   EpTime: 21.8360  Trainloss: 1.0673   Testloss: 1.4770  TrainAcc: 74.27   Top1: 62.3420    Top5: 86.4364  lr: 0.000010
Ep: 139   EpTime: 21.6365  Trainloss: 1.0727   Testloss: 1.4758  TrainAcc: 73.29   Top1: 62.4263    Top5: 86.1415  lr: 0.000010
Ep: 140   EpTime: 22.3584  Trainloss: 1.0952   Testloss: 1.4782  TrainAcc: 72.31   Top1: 62.1314    Top5: 86.2679  lr: 0.000010
Ep: 141   EpTime: 21.3925  Trainloss: 1.0756   Testloss: 1.4736  TrainAcc: 73.57   Top1: 62.3420    Top5: 86.3100  lr: 0.000010
Ep: 142   EpTime: 21.2051  Trainloss: 1.0501   Testloss: 1.4704  TrainAcc: 74.29   Top1: 62.7211    Top5: 86.3943  lr: 0.000010
Ep: 143   EpTime: 22.3518  Trainloss: 1.1140   Testloss: 1.4729  TrainAcc: 72.98   Top1: 62.4263    Top5: 86.3521  lr: 0.000010
Ep: 144   EpTime: 22.4814  Trainloss: 1.0897   Testloss: 1.4736  TrainAcc: 72.99   Top1: 62.3842    Top5: 86.2679  lr: 0.000010
Ep: 145   EpTime: 21.7403  Trainloss: 1.0818   Testloss: 1.4786  TrainAcc: 73.21   Top1: 62.2578    Top5: 86.1415  lr: 0.000010
Ep: 146   EpTime: 22.9459  Trainloss: 1.0719   Testloss: 1.4675  TrainAcc: 73.92   Top1: 62.4263    Top5: 86.2679  lr: 0.000010
Ep: 147   EpTime: 22.2340  Trainloss: 1.0782   Testloss: 1.4716  TrainAcc: 73.57   Top1: 62.6369    Top5: 86.1415  lr: 0.000010
Ep: 148   EpTime: 21.6143  Trainloss: 1.0894   Testloss: 1.4758  TrainAcc: 72.97   Top1: 62.0472    Top5: 86.3100  lr: 0.000010
Ep: 149   EpTime: 21.6506  Trainloss: 1.0825   Testloss: 1.4749  TrainAcc: 73.63   Top1: 62.3420    Top5: 86.2258  lr: 0.000010
Ep: 150   EpTime: 22.0494  Trainloss: 1.0957   Testloss: 1.4740  TrainAcc: 73.06   Top1: 62.2999    Top5: 86.2679  lr: 0.000001
