[32, 16, 24, 32, 64, 96, 160, 320]
MobileNet2(
  (activation): ReLU6(inplace)
  (conv1): Conv2d(3, 32, kernel_size=(3, 3), stride=(2, 2), padding=(1, 1), bias=False)
  (bn1): BatchNorm2d(32, eps=1e-05, momentum=0.1, affine=True, track_running_stats=True)
  (bottlenecks): Sequential(
    (Bottlenecks_0): Sequential(
      (LinearBottleneck0_0): LinearBottleneck(
        (conv1): Conv2d(32, 32, kernel_size=(1, 1), stride=(1, 1), bias=False)
        (bn1): BatchNorm2d(32, eps=1e-05, momentum=0.1, affine=True, track_running_stats=True)
        (conv2): Conv2d(32, 32, kernel_size=(3, 3), stride=(1, 1), padding=(1, 1), groups=32, bias=False)
        (bn2): BatchNorm2d(32, eps=1e-05, momentum=0.1, affine=True, track_running_stats=True)
        (conv3): Conv2d(32, 16, kernel_size=(1, 1), stride=(1, 1), bias=False)
        (bn3): BatchNorm2d(16, eps=1e-05, momentum=0.1, affine=True, track_running_stats=True)
        (activation): ReLU6(inplace)
      )
    )
    (Bottlenecks_1): Sequential(
      (LinearBottleneck1_0): LinearBottleneck(
        (conv1): Conv2d(16, 96, kernel_size=(1, 1), stride=(1, 1), bias=False)
        (bn1): BatchNorm2d(96, eps=1e-05, momentum=0.1, affine=True, track_running_stats=True)
        (conv2): Conv2d(96, 96, kernel_size=(3, 3), stride=(2, 2), padding=(1, 1), groups=96, bias=False)
        (bn2): BatchNorm2d(96, eps=1e-05, momentum=0.1, affine=True, track_running_stats=True)
        (conv3): Conv2d(96, 24, kernel_size=(1, 1), stride=(1, 1), bias=False)
        (bn3): BatchNorm2d(24, eps=1e-05, momentum=0.1, affine=True, track_running_stats=True)
        (activation): ReLU6(inplace)
      )
      (LinearBottleneck1_1): LinearBottleneck(
        (conv1): Conv2d(24, 144, kernel_size=(1, 1), stride=(1, 1), bias=False)
        (bn1): BatchNorm2d(144, eps=1e-05, momentum=0.1, affine=True, track_running_stats=True)
        (conv2): Conv2d(144, 144, kernel_size=(3, 3), stride=(1, 1), padding=(1, 1), groups=144, bias=False)
        (bn2): BatchNorm2d(144, eps=1e-05, momentum=0.1, affine=True, track_running_stats=True)
        (conv3): Conv2d(144, 24, kernel_size=(1, 1), stride=(1, 1), bias=False)
        (bn3): BatchNorm2d(24, eps=1e-05, momentum=0.1, affine=True, track_running_stats=True)
        (activation): ReLU6(inplace)
      )
    )
    (Bottlenecks_2): Sequential(
      (LinearBottleneck2_0): LinearBottleneck(
        (conv1): Conv2d(24, 144, kernel_size=(1, 1), stride=(1, 1), bias=False)
        (bn1): BatchNorm2d(144, eps=1e-05, momentum=0.1, affine=True, track_running_stats=True)
        (conv2): Conv2d(144, 144, kernel_size=(3, 3), stride=(2, 2), padding=(1, 1), groups=144, bias=False)
        (bn2): BatchNorm2d(144, eps=1e-05, momentum=0.1, affine=True, track_running_stats=True)
        (conv3): Conv2d(144, 32, kernel_size=(1, 1), stride=(1, 1), bias=False)
        (bn3): BatchNorm2d(32, eps=1e-05, momentum=0.1, affine=True, track_running_stats=True)
        (activation): ReLU6(inplace)
      )
      (LinearBottleneck2_1): LinearBottleneck(
        (conv1): Conv2d(32, 192, kernel_size=(1, 1), stride=(1, 1), bias=False)
        (bn1): BatchNorm2d(192, eps=1e-05, momentum=0.1, affine=True, track_running_stats=True)
        (conv2): Conv2d(192, 192, kernel_size=(3, 3), stride=(1, 1), padding=(1, 1), groups=192, bias=False)
        (bn2): BatchNorm2d(192, eps=1e-05, momentum=0.1, affine=True, track_running_stats=True)
        (conv3): Conv2d(192, 32, kernel_size=(1, 1), stride=(1, 1), bias=False)
        (bn3): BatchNorm2d(32, eps=1e-05, momentum=0.1, affine=True, track_running_stats=True)
        (activation): ReLU6(inplace)
      )
      (LinearBottleneck2_2): LinearBottleneck(
        (conv1): Conv2d(32, 192, kernel_size=(1, 1), stride=(1, 1), bias=False)
        (bn1): BatchNorm2d(192, eps=1e-05, momentum=0.1, affine=True, track_running_stats=True)
        (conv2): Conv2d(192, 192, kernel_size=(3, 3), stride=(1, 1), padding=(1, 1), groups=192, bias=False)
        (bn2): BatchNorm2d(192, eps=1e-05, momentum=0.1, affine=True, track_running_stats=True)
        (conv3): Conv2d(192, 32, kernel_size=(1, 1), stride=(1, 1), bias=False)
        (bn3): BatchNorm2d(32, eps=1e-05, momentum=0.1, affine=True, track_running_stats=True)
        (activation): ReLU6(inplace)
      )
    )
    (Bottlenecks_3): Sequential(
      (LinearBottleneck3_0): LinearBottleneck(
        (conv1): Conv2d(32, 192, kernel_size=(1, 1), stride=(1, 1), bias=False)
        (bn1): BatchNorm2d(192, eps=1e-05, momentum=0.1, affine=True, track_running_stats=True)
        (conv2): Conv2d(192, 192, kernel_size=(3, 3), stride=(2, 2), padding=(1, 1), groups=192, bias=False)
        (bn2): BatchNorm2d(192, eps=1e-05, momentum=0.1, affine=True, track_running_stats=True)
        (conv3): Conv2d(192, 64, kernel_size=(1, 1), stride=(1, 1), bias=False)
        (bn3): BatchNorm2d(64, eps=1e-05, momentum=0.1, affine=True, track_running_stats=True)
        (activation): ReLU6(inplace)
      )
      (LinearBottleneck3_1): LinearBottleneck(
        (conv1): Conv2d(64, 384, kernel_size=(1, 1), stride=(1, 1), bias=False)
        (bn1): BatchNorm2d(384, eps=1e-05, momentum=0.1, affine=True, track_running_stats=True)
        (conv2): Conv2d(384, 384, kernel_size=(3, 3), stride=(1, 1), padding=(1, 1), groups=384, bias=False)
        (bn2): BatchNorm2d(384, eps=1e-05, momentum=0.1, affine=True, track_running_stats=True)
        (conv3): Conv2d(384, 64, kernel_size=(1, 1), stride=(1, 1), bias=False)
        (bn3): BatchNorm2d(64, eps=1e-05, momentum=0.1, affine=True, track_running_stats=True)
        (activation): ReLU6(inplace)
      )
      (LinearBottleneck3_2): LinearBottleneck(
        (conv1): Conv2d(64, 384, kernel_size=(1, 1), stride=(1, 1), bias=False)
        (bn1): BatchNorm2d(384, eps=1e-05, momentum=0.1, affine=True, track_running_stats=True)
        (conv2): Conv2d(384, 384, kernel_size=(3, 3), stride=(1, 1), padding=(1, 1), groups=384, bias=False)
        (bn2): BatchNorm2d(384, eps=1e-05, momentum=0.1, affine=True, track_running_stats=True)
        (conv3): Conv2d(384, 64, kernel_size=(1, 1), stride=(1, 1), bias=False)
        (bn3): BatchNorm2d(64, eps=1e-05, momentum=0.1, affine=True, track_running_stats=True)
        (activation): ReLU6(inplace)
      )
      (LinearBottleneck3_3): LinearBottleneck(
        (conv1): Conv2d(64, 384, kernel_size=(1, 1), stride=(1, 1), bias=False)
        (bn1): BatchNorm2d(384, eps=1e-05, momentum=0.1, affine=True, track_running_stats=True)
        (conv2): Conv2d(384, 384, kernel_size=(3, 3), stride=(1, 1), padding=(1, 1), groups=384, bias=False)
        (bn2): BatchNorm2d(384, eps=1e-05, momentum=0.1, affine=True, track_running_stats=True)
        (conv3): Conv2d(384, 64, kernel_size=(1, 1), stride=(1, 1), bias=False)
        (bn3): BatchNorm2d(64, eps=1e-05, momentum=0.1, affine=True, track_running_stats=True)
        (activation): ReLU6(inplace)
      )
    )
    (Bottlenecks_4): Sequential(
      (LinearBottleneck4_0): LinearBottleneck(
        (conv1): Conv2d(64, 384, kernel_size=(1, 1), stride=(1, 1), bias=False)
        (bn1): BatchNorm2d(384, eps=1e-05, momentum=0.1, affine=True, track_running_stats=True)
        (conv2): Conv2d(384, 384, kernel_size=(3, 3), stride=(1, 1), padding=(1, 1), groups=384, bias=False)
        (bn2): BatchNorm2d(384, eps=1e-05, momentum=0.1, affine=True, track_running_stats=True)
        (conv3): Conv2d(384, 96, kernel_size=(1, 1), stride=(1, 1), bias=False)
        (bn3): BatchNorm2d(96, eps=1e-05, momentum=0.1, affine=True, track_running_stats=True)
        (activation): ReLU6(inplace)
      )
      (LinearBottleneck4_1): LinearBottleneck(
        (conv1): Conv2d(96, 576, kernel_size=(1, 1), stride=(1, 1), bias=False)
        (bn1): BatchNorm2d(576, eps=1e-05, momentum=0.1, affine=True, track_running_stats=True)
        (conv2): Conv2d(576, 576, kernel_size=(3, 3), stride=(1, 1), padding=(1, 1), groups=576, bias=False)
        (bn2): BatchNorm2d(576, eps=1e-05, momentum=0.1, affine=True, track_running_stats=True)
        (conv3): Conv2d(576, 96, kernel_size=(1, 1), stride=(1, 1), bias=False)
        (bn3): BatchNorm2d(96, eps=1e-05, momentum=0.1, affine=True, track_running_stats=True)
        (activation): ReLU6(inplace)
      )
      (LinearBottleneck4_2): LinearBottleneck(
        (conv1): Conv2d(96, 576, kernel_size=(1, 1), stride=(1, 1), bias=False)
        (bn1): BatchNorm2d(576, eps=1e-05, momentum=0.1, affine=True, track_running_stats=True)
        (conv2): Conv2d(576, 576, kernel_size=(3, 3), stride=(1, 1), padding=(1, 1), groups=576, bias=False)
        (bn2): BatchNorm2d(576, eps=1e-05, momentum=0.1, affine=True, track_running_stats=True)
        (conv3): Conv2d(576, 96, kernel_size=(1, 1), stride=(1, 1), bias=False)
        (bn3): BatchNorm2d(96, eps=1e-05, momentum=0.1, affine=True, track_running_stats=True)
        (activation): ReLU6(inplace)
      )
    )
    (Bottlenecks_5): Sequential(
      (LinearBottleneck5_0): LinearBottleneck(
        (conv1): Conv2d(96, 576, kernel_size=(1, 1), stride=(1, 1), bias=False)
        (bn1): BatchNorm2d(576, eps=1e-05, momentum=0.1, affine=True, track_running_stats=True)
        (conv2): Conv2d(576, 576, kernel_size=(3, 3), stride=(2, 2), padding=(1, 1), groups=576, bias=False)
        (bn2): BatchNorm2d(576, eps=1e-05, momentum=0.1, affine=True, track_running_stats=True)
        (conv3): Conv2d(576, 160, kernel_size=(1, 1), stride=(1, 1), bias=False)
        (bn3): BatchNorm2d(160, eps=1e-05, momentum=0.1, affine=True, track_running_stats=True)
        (activation): ReLU6(inplace)
      )
      (LinearBottleneck5AlphaBlock_1): AlphaBlock(
        (arm_1): SplitArm(
          (conv_dws): Conv2d(10, 10, kernel_size=(1, 1), stride=(1, 1), groups=10)
          (bn_dws): BatchNorm2d(10, eps=1e-05, momentum=0.9, affine=True, track_running_stats=True)
          (relu_dws): ReLU(inplace)
          (maxpool): MaxPool2d(kernel_size=3, stride=1, padding=1, dilation=1, ceil_mode=False)
          (conv_point): Conv2d(10, 1, kernel_size=(1, 1), stride=(1, 1))
          (bn_point): BatchNorm2d(1, eps=1e-05, momentum=0.9, affine=True, track_running_stats=True)
          (relu_point): ReLU(inplace)
          (softmax): Softmax()
        )
        (arm_2): SplitArm(
          (conv_dws): Conv2d(10, 10, kernel_size=(1, 1), stride=(1, 1), groups=10)
          (bn_dws): BatchNorm2d(10, eps=1e-05, momentum=0.9, affine=True, track_running_stats=True)
          (relu_dws): ReLU(inplace)
          (maxpool): MaxPool2d(kernel_size=3, stride=1, padding=1, dilation=1, ceil_mode=False)
          (conv_point): Conv2d(10, 1, kernel_size=(1, 1), stride=(1, 1))
          (bn_point): BatchNorm2d(1, eps=1e-05, momentum=0.9, affine=True, track_running_stats=True)
          (relu_point): ReLU(inplace)
          (softmax): Softmax()
        )
        (arm_3): SplitArm(
          (conv_dws): Conv2d(10, 10, kernel_size=(1, 1), stride=(1, 1), groups=10)
          (bn_dws): BatchNorm2d(10, eps=1e-05, momentum=0.9, affine=True, track_running_stats=True)
          (relu_dws): ReLU(inplace)
          (maxpool): MaxPool2d(kernel_size=3, stride=1, padding=1, dilation=1, ceil_mode=False)
          (conv_point): Conv2d(10, 1, kernel_size=(1, 1), stride=(1, 1))
          (bn_point): BatchNorm2d(1, eps=1e-05, momentum=0.9, affine=True, track_running_stats=True)
          (relu_point): ReLU(inplace)
          (softmax): Softmax()
        )
        (arm_4): SplitArm(
          (conv_dws): Conv2d(10, 10, kernel_size=(1, 1), stride=(1, 1), groups=10)
          (bn_dws): BatchNorm2d(10, eps=1e-05, momentum=0.9, affine=True, track_running_stats=True)
          (relu_dws): ReLU(inplace)
          (maxpool): MaxPool2d(kernel_size=3, stride=1, padding=1, dilation=1, ceil_mode=False)
          (conv_point): Conv2d(10, 1, kernel_size=(1, 1), stride=(1, 1))
          (bn_point): BatchNorm2d(1, eps=1e-05, momentum=0.9, affine=True, track_running_stats=True)
          (relu_point): ReLU(inplace)
          (softmax): Softmax()
        )
        (arm_5): SplitArm(
          (conv_dws): Conv2d(10, 10, kernel_size=(1, 1), stride=(1, 1), groups=10)
          (bn_dws): BatchNorm2d(10, eps=1e-05, momentum=0.9, affine=True, track_running_stats=True)
          (relu_dws): ReLU(inplace)
          (maxpool): MaxPool2d(kernel_size=3, stride=1, padding=1, dilation=1, ceil_mode=False)
          (conv_point): Conv2d(10, 1, kernel_size=(1, 1), stride=(1, 1))
          (bn_point): BatchNorm2d(1, eps=1e-05, momentum=0.9, affine=True, track_running_stats=True)
          (relu_point): ReLU(inplace)
          (softmax): Softmax()
        )
        (arm_6): SplitArm(
          (conv_dws): Conv2d(10, 10, kernel_size=(1, 1), stride=(1, 1), groups=10)
          (bn_dws): BatchNorm2d(10, eps=1e-05, momentum=0.9, affine=True, track_running_stats=True)
          (relu_dws): ReLU(inplace)
          (maxpool): MaxPool2d(kernel_size=3, stride=1, padding=1, dilation=1, ceil_mode=False)
          (conv_point): Conv2d(10, 1, kernel_size=(1, 1), stride=(1, 1))
          (bn_point): BatchNorm2d(1, eps=1e-05, momentum=0.9, affine=True, track_running_stats=True)
          (relu_point): ReLU(inplace)
          (softmax): Softmax()
        )
        (arm_7): SplitArm(
          (conv_dws): Conv2d(10, 10, kernel_size=(1, 1), stride=(1, 1), groups=10)
          (bn_dws): BatchNorm2d(10, eps=1e-05, momentum=0.9, affine=True, track_running_stats=True)
          (relu_dws): ReLU(inplace)
          (maxpool): MaxPool2d(kernel_size=3, stride=1, padding=1, dilation=1, ceil_mode=False)
          (conv_point): Conv2d(10, 1, kernel_size=(1, 1), stride=(1, 1))
          (bn_point): BatchNorm2d(1, eps=1e-05, momentum=0.9, affine=True, track_running_stats=True)
          (relu_point): ReLU(inplace)
          (softmax): Softmax()
        )
        (arm_8): SplitArm(
          (conv_dws): Conv2d(10, 10, kernel_size=(1, 1), stride=(1, 1), groups=10)
          (bn_dws): BatchNorm2d(10, eps=1e-05, momentum=0.9, affine=True, track_running_stats=True)
          (relu_dws): ReLU(inplace)
          (maxpool): MaxPool2d(kernel_size=3, stride=1, padding=1, dilation=1, ceil_mode=False)
          (conv_point): Conv2d(10, 1, kernel_size=(1, 1), stride=(1, 1))
          (bn_point): BatchNorm2d(1, eps=1e-05, momentum=0.9, affine=True, track_running_stats=True)
          (relu_point): ReLU(inplace)
          (softmax): Softmax()
        )
        (arm_9): SplitArm(
          (conv_dws): Conv2d(10, 10, kernel_size=(1, 1), stride=(1, 1), groups=10)
          (bn_dws): BatchNorm2d(10, eps=1e-05, momentum=0.9, affine=True, track_running_stats=True)
          (relu_dws): ReLU(inplace)
          (maxpool): MaxPool2d(kernel_size=3, stride=1, padding=1, dilation=1, ceil_mode=False)
          (conv_point): Conv2d(10, 1, kernel_size=(1, 1), stride=(1, 1))
          (bn_point): BatchNorm2d(1, eps=1e-05, momentum=0.9, affine=True, track_running_stats=True)
          (relu_point): ReLU(inplace)
          (softmax): Softmax()
        )
        (arm_10): SplitArm(
          (conv_dws): Conv2d(10, 10, kernel_size=(1, 1), stride=(1, 1), groups=10)
          (bn_dws): BatchNorm2d(10, eps=1e-05, momentum=0.9, affine=True, track_running_stats=True)
          (relu_dws): ReLU(inplace)
          (maxpool): MaxPool2d(kernel_size=3, stride=1, padding=1, dilation=1, ceil_mode=False)
          (conv_point): Conv2d(10, 1, kernel_size=(1, 1), stride=(1, 1))
          (bn_point): BatchNorm2d(1, eps=1e-05, momentum=0.9, affine=True, track_running_stats=True)
          (relu_point): ReLU(inplace)
          (softmax): Softmax()
        )
        (arm_11): SplitArm(
          (conv_dws): Conv2d(10, 10, kernel_size=(1, 1), stride=(1, 1), groups=10)
          (bn_dws): BatchNorm2d(10, eps=1e-05, momentum=0.9, affine=True, track_running_stats=True)
          (relu_dws): ReLU(inplace)
          (maxpool): MaxPool2d(kernel_size=3, stride=1, padding=1, dilation=1, ceil_mode=False)
          (conv_point): Conv2d(10, 1, kernel_size=(1, 1), stride=(1, 1))
          (bn_point): BatchNorm2d(1, eps=1e-05, momentum=0.9, affine=True, track_running_stats=True)
          (relu_point): ReLU(inplace)
          (softmax): Softmax()
        )
        (arm_12): SplitArm(
          (conv_dws): Conv2d(10, 10, kernel_size=(1, 1), stride=(1, 1), groups=10)
          (bn_dws): BatchNorm2d(10, eps=1e-05, momentum=0.9, affine=True, track_running_stats=True)
          (relu_dws): ReLU(inplace)
          (maxpool): MaxPool2d(kernel_size=3, stride=1, padding=1, dilation=1, ceil_mode=False)
          (conv_point): Conv2d(10, 1, kernel_size=(1, 1), stride=(1, 1))
          (bn_point): BatchNorm2d(1, eps=1e-05, momentum=0.9, affine=True, track_running_stats=True)
          (relu_point): ReLU(inplace)
          (softmax): Softmax()
        )
        (arm_13): SplitArm(
          (conv_dws): Conv2d(10, 10, kernel_size=(1, 1), stride=(1, 1), groups=10)
          (bn_dws): BatchNorm2d(10, eps=1e-05, momentum=0.9, affine=True, track_running_stats=True)
          (relu_dws): ReLU(inplace)
          (maxpool): MaxPool2d(kernel_size=3, stride=1, padding=1, dilation=1, ceil_mode=False)
          (conv_point): Conv2d(10, 1, kernel_size=(1, 1), stride=(1, 1))
          (bn_point): BatchNorm2d(1, eps=1e-05, momentum=0.9, affine=True, track_running_stats=True)
          (relu_point): ReLU(inplace)
          (softmax): Softmax()
        )
        (arm_14): SplitArm(
          (conv_dws): Conv2d(10, 10, kernel_size=(1, 1), stride=(1, 1), groups=10)
          (bn_dws): BatchNorm2d(10, eps=1e-05, momentum=0.9, affine=True, track_running_stats=True)
          (relu_dws): ReLU(inplace)
          (maxpool): MaxPool2d(kernel_size=3, stride=1, padding=1, dilation=1, ceil_mode=False)
          (conv_point): Conv2d(10, 1, kernel_size=(1, 1), stride=(1, 1))
          (bn_point): BatchNorm2d(1, eps=1e-05, momentum=0.9, affine=True, track_running_stats=True)
          (relu_point): ReLU(inplace)
          (softmax): Softmax()
        )
        (arm_15): SplitArm(
          (conv_dws): Conv2d(10, 10, kernel_size=(1, 1), stride=(1, 1), groups=10)
          (bn_dws): BatchNorm2d(10, eps=1e-05, momentum=0.9, affine=True, track_running_stats=True)
          (relu_dws): ReLU(inplace)
          (maxpool): MaxPool2d(kernel_size=3, stride=1, padding=1, dilation=1, ceil_mode=False)
          (conv_point): Conv2d(10, 1, kernel_size=(1, 1), stride=(1, 1))
          (bn_point): BatchNorm2d(1, eps=1e-05, momentum=0.9, affine=True, track_running_stats=True)
          (relu_point): ReLU(inplace)
          (softmax): Softmax()
        )
        (arm_16): SplitArm(
          (conv_dws): Conv2d(10, 10, kernel_size=(1, 1), stride=(1, 1), groups=10)
          (bn_dws): BatchNorm2d(10, eps=1e-05, momentum=0.9, affine=True, track_running_stats=True)
          (relu_dws): ReLU(inplace)
          (maxpool): MaxPool2d(kernel_size=3, stride=1, padding=1, dilation=1, ceil_mode=False)
          (conv_point): Conv2d(10, 1, kernel_size=(1, 1), stride=(1, 1))
          (bn_point): BatchNorm2d(1, eps=1e-05, momentum=0.9, affine=True, track_running_stats=True)
          (relu_point): ReLU(inplace)
          (softmax): Softmax()
        )
      )
      (LinearBottleneck5AlphaBlock_2): AlphaBlock(
        (arm_1): SplitArm(
          (conv_dws): Conv2d(10, 10, kernel_size=(1, 1), stride=(1, 1), groups=10)
          (bn_dws): BatchNorm2d(10, eps=1e-05, momentum=0.9, affine=True, track_running_stats=True)
          (relu_dws): ReLU(inplace)
          (maxpool): MaxPool2d(kernel_size=3, stride=1, padding=1, dilation=1, ceil_mode=False)
          (conv_point): Conv2d(10, 1, kernel_size=(1, 1), stride=(1, 1))
          (bn_point): BatchNorm2d(1, eps=1e-05, momentum=0.9, affine=True, track_running_stats=True)
          (relu_point): ReLU(inplace)
          (softmax): Softmax()
        )
        (arm_2): SplitArm(
          (conv_dws): Conv2d(10, 10, kernel_size=(1, 1), stride=(1, 1), groups=10)
          (bn_dws): BatchNorm2d(10, eps=1e-05, momentum=0.9, affine=True, track_running_stats=True)
          (relu_dws): ReLU(inplace)
          (maxpool): MaxPool2d(kernel_size=3, stride=1, padding=1, dilation=1, ceil_mode=False)
          (conv_point): Conv2d(10, 1, kernel_size=(1, 1), stride=(1, 1))
          (bn_point): BatchNorm2d(1, eps=1e-05, momentum=0.9, affine=True, track_running_stats=True)
          (relu_point): ReLU(inplace)
          (softmax): Softmax()
        )
        (arm_3): SplitArm(
          (conv_dws): Conv2d(10, 10, kernel_size=(1, 1), stride=(1, 1), groups=10)
          (bn_dws): BatchNorm2d(10, eps=1e-05, momentum=0.9, affine=True, track_running_stats=True)
          (relu_dws): ReLU(inplace)
          (maxpool): MaxPool2d(kernel_size=3, stride=1, padding=1, dilation=1, ceil_mode=False)
          (conv_point): Conv2d(10, 1, kernel_size=(1, 1), stride=(1, 1))
          (bn_point): BatchNorm2d(1, eps=1e-05, momentum=0.9, affine=True, track_running_stats=True)
          (relu_point): ReLU(inplace)
          (softmax): Softmax()
        )
        (arm_4): SplitArm(
          (conv_dws): Conv2d(10, 10, kernel_size=(1, 1), stride=(1, 1), groups=10)
          (bn_dws): BatchNorm2d(10, eps=1e-05, momentum=0.9, affine=True, track_running_stats=True)
          (relu_dws): ReLU(inplace)
          (maxpool): MaxPool2d(kernel_size=3, stride=1, padding=1, dilation=1, ceil_mode=False)
          (conv_point): Conv2d(10, 1, kernel_size=(1, 1), stride=(1, 1))
          (bn_point): BatchNorm2d(1, eps=1e-05, momentum=0.9, affine=True, track_running_stats=True)
          (relu_point): ReLU(inplace)
          (softmax): Softmax()
        )
        (arm_5): SplitArm(
          (conv_dws): Conv2d(10, 10, kernel_size=(1, 1), stride=(1, 1), groups=10)
          (bn_dws): BatchNorm2d(10, eps=1e-05, momentum=0.9, affine=True, track_running_stats=True)
          (relu_dws): ReLU(inplace)
          (maxpool): MaxPool2d(kernel_size=3, stride=1, padding=1, dilation=1, ceil_mode=False)
          (conv_point): Conv2d(10, 1, kernel_size=(1, 1), stride=(1, 1))
          (bn_point): BatchNorm2d(1, eps=1e-05, momentum=0.9, affine=True, track_running_stats=True)
          (relu_point): ReLU(inplace)
          (softmax): Softmax()
        )
        (arm_6): SplitArm(
          (conv_dws): Conv2d(10, 10, kernel_size=(1, 1), stride=(1, 1), groups=10)
          (bn_dws): BatchNorm2d(10, eps=1e-05, momentum=0.9, affine=True, track_running_stats=True)
          (relu_dws): ReLU(inplace)
          (maxpool): MaxPool2d(kernel_size=3, stride=1, padding=1, dilation=1, ceil_mode=False)
          (conv_point): Conv2d(10, 1, kernel_size=(1, 1), stride=(1, 1))
          (bn_point): BatchNorm2d(1, eps=1e-05, momentum=0.9, affine=True, track_running_stats=True)
          (relu_point): ReLU(inplace)
          (softmax): Softmax()
        )
        (arm_7): SplitArm(
          (conv_dws): Conv2d(10, 10, kernel_size=(1, 1), stride=(1, 1), groups=10)
          (bn_dws): BatchNorm2d(10, eps=1e-05, momentum=0.9, affine=True, track_running_stats=True)
          (relu_dws): ReLU(inplace)
          (maxpool): MaxPool2d(kernel_size=3, stride=1, padding=1, dilation=1, ceil_mode=False)
          (conv_point): Conv2d(10, 1, kernel_size=(1, 1), stride=(1, 1))
          (bn_point): BatchNorm2d(1, eps=1e-05, momentum=0.9, affine=True, track_running_stats=True)
          (relu_point): ReLU(inplace)
          (softmax): Softmax()
        )
        (arm_8): SplitArm(
          (conv_dws): Conv2d(10, 10, kernel_size=(1, 1), stride=(1, 1), groups=10)
          (bn_dws): BatchNorm2d(10, eps=1e-05, momentum=0.9, affine=True, track_running_stats=True)
          (relu_dws): ReLU(inplace)
          (maxpool): MaxPool2d(kernel_size=3, stride=1, padding=1, dilation=1, ceil_mode=False)
          (conv_point): Conv2d(10, 1, kernel_size=(1, 1), stride=(1, 1))
          (bn_point): BatchNorm2d(1, eps=1e-05, momentum=0.9, affine=True, track_running_stats=True)
          (relu_point): ReLU(inplace)
          (softmax): Softmax()
        )
        (arm_9): SplitArm(
          (conv_dws): Conv2d(10, 10, kernel_size=(1, 1), stride=(1, 1), groups=10)
          (bn_dws): BatchNorm2d(10, eps=1e-05, momentum=0.9, affine=True, track_running_stats=True)
          (relu_dws): ReLU(inplace)
          (maxpool): MaxPool2d(kernel_size=3, stride=1, padding=1, dilation=1, ceil_mode=False)
          (conv_point): Conv2d(10, 1, kernel_size=(1, 1), stride=(1, 1))
          (bn_point): BatchNorm2d(1, eps=1e-05, momentum=0.9, affine=True, track_running_stats=True)
          (relu_point): ReLU(inplace)
          (softmax): Softmax()
        )
        (arm_10): SplitArm(
          (conv_dws): Conv2d(10, 10, kernel_size=(1, 1), stride=(1, 1), groups=10)
          (bn_dws): BatchNorm2d(10, eps=1e-05, momentum=0.9, affine=True, track_running_stats=True)
          (relu_dws): ReLU(inplace)
          (maxpool): MaxPool2d(kernel_size=3, stride=1, padding=1, dilation=1, ceil_mode=False)
          (conv_point): Conv2d(10, 1, kernel_size=(1, 1), stride=(1, 1))
          (bn_point): BatchNorm2d(1, eps=1e-05, momentum=0.9, affine=True, track_running_stats=True)
          (relu_point): ReLU(inplace)
          (softmax): Softmax()
        )
        (arm_11): SplitArm(
          (conv_dws): Conv2d(10, 10, kernel_size=(1, 1), stride=(1, 1), groups=10)
          (bn_dws): BatchNorm2d(10, eps=1e-05, momentum=0.9, affine=True, track_running_stats=True)
          (relu_dws): ReLU(inplace)
          (maxpool): MaxPool2d(kernel_size=3, stride=1, padding=1, dilation=1, ceil_mode=False)
          (conv_point): Conv2d(10, 1, kernel_size=(1, 1), stride=(1, 1))
          (bn_point): BatchNorm2d(1, eps=1e-05, momentum=0.9, affine=True, track_running_stats=True)
          (relu_point): ReLU(inplace)
          (softmax): Softmax()
        )
        (arm_12): SplitArm(
          (conv_dws): Conv2d(10, 10, kernel_size=(1, 1), stride=(1, 1), groups=10)
          (bn_dws): BatchNorm2d(10, eps=1e-05, momentum=0.9, affine=True, track_running_stats=True)
          (relu_dws): ReLU(inplace)
          (maxpool): MaxPool2d(kernel_size=3, stride=1, padding=1, dilation=1, ceil_mode=False)
          (conv_point): Conv2d(10, 1, kernel_size=(1, 1), stride=(1, 1))
          (bn_point): BatchNorm2d(1, eps=1e-05, momentum=0.9, affine=True, track_running_stats=True)
          (relu_point): ReLU(inplace)
          (softmax): Softmax()
        )
        (arm_13): SplitArm(
          (conv_dws): Conv2d(10, 10, kernel_size=(1, 1), stride=(1, 1), groups=10)
          (bn_dws): BatchNorm2d(10, eps=1e-05, momentum=0.9, affine=True, track_running_stats=True)
          (relu_dws): ReLU(inplace)
          (maxpool): MaxPool2d(kernel_size=3, stride=1, padding=1, dilation=1, ceil_mode=False)
          (conv_point): Conv2d(10, 1, kernel_size=(1, 1), stride=(1, 1))
          (bn_point): BatchNorm2d(1, eps=1e-05, momentum=0.9, affine=True, track_running_stats=True)
          (relu_point): ReLU(inplace)
          (softmax): Softmax()
        )
        (arm_14): SplitArm(
          (conv_dws): Conv2d(10, 10, kernel_size=(1, 1), stride=(1, 1), groups=10)
          (bn_dws): BatchNorm2d(10, eps=1e-05, momentum=0.9, affine=True, track_running_stats=True)
          (relu_dws): ReLU(inplace)
          (maxpool): MaxPool2d(kernel_size=3, stride=1, padding=1, dilation=1, ceil_mode=False)
          (conv_point): Conv2d(10, 1, kernel_size=(1, 1), stride=(1, 1))
          (bn_point): BatchNorm2d(1, eps=1e-05, momentum=0.9, affine=True, track_running_stats=True)
          (relu_point): ReLU(inplace)
          (softmax): Softmax()
        )
        (arm_15): SplitArm(
          (conv_dws): Conv2d(10, 10, kernel_size=(1, 1), stride=(1, 1), groups=10)
          (bn_dws): BatchNorm2d(10, eps=1e-05, momentum=0.9, affine=True, track_running_stats=True)
          (relu_dws): ReLU(inplace)
          (maxpool): MaxPool2d(kernel_size=3, stride=1, padding=1, dilation=1, ceil_mode=False)
          (conv_point): Conv2d(10, 1, kernel_size=(1, 1), stride=(1, 1))
          (bn_point): BatchNorm2d(1, eps=1e-05, momentum=0.9, affine=True, track_running_stats=True)
          (relu_point): ReLU(inplace)
          (softmax): Softmax()
        )
        (arm_16): SplitArm(
          (conv_dws): Conv2d(10, 10, kernel_size=(1, 1), stride=(1, 1), groups=10)
          (bn_dws): BatchNorm2d(10, eps=1e-05, momentum=0.9, affine=True, track_running_stats=True)
          (relu_dws): ReLU(inplace)
          (maxpool): MaxPool2d(kernel_size=3, stride=1, padding=1, dilation=1, ceil_mode=False)
          (conv_point): Conv2d(10, 1, kernel_size=(1, 1), stride=(1, 1))
          (bn_point): BatchNorm2d(1, eps=1e-05, momentum=0.9, affine=True, track_running_stats=True)
          (relu_point): ReLU(inplace)
          (softmax): Softmax()
        )
      )
    )
    (Bottlenecks_6): Sequential(
      (LinearBottleneck6_0): LinearBottleneck(
        (conv1): Conv2d(160, 960, kernel_size=(1, 1), stride=(1, 1), bias=False)
        (bn1): BatchNorm2d(960, eps=1e-05, momentum=0.1, affine=True, track_running_stats=True)
        (conv2): Conv2d(960, 960, kernel_size=(3, 3), stride=(1, 1), padding=(1, 1), groups=960, bias=False)
        (bn2): BatchNorm2d(960, eps=1e-05, momentum=0.1, affine=True, track_running_stats=True)
        (conv3): Conv2d(960, 320, kernel_size=(1, 1), stride=(1, 1), bias=False)
        (bn3): BatchNorm2d(320, eps=1e-05, momentum=0.1, affine=True, track_running_stats=True)
        (activation): ReLU6(inplace)
      )
    )
  )
  (conv_last): Conv2d(320, 1280, kernel_size=(1, 1), stride=(1, 1), bias=False)
  (bn_last): BatchNorm2d(1280, eps=1e-05, momentum=0.1, affine=True, track_running_stats=True)
  (avgpool): AdaptiveAvgPool2d(output_size=1)
  (dropout): Dropout(p=0.2, inplace)
  (fc): Linear(in_features=1280, out_features=200, bias=True)
)
Ep: 1   EpTime: 28.2672  Trainloss: 5.3993   Testloss: 6.6067  TrainAcc: 0.87   Top1: 0.6318    Top5: 4.4229	lr:0.045000
Checkpoint saved!!!
Ep: 2   EpTime: 25.9357  Trainloss: 4.9925   Testloss: 4.9353  TrainAcc: 1.89   Top1: 3.2856    Top5: 12.3842	lr:0.045000
Checkpoint saved!!!
Ep: 3   EpTime: 25.6689  Trainloss: 4.6977   Testloss: 4.5842  TrainAcc: 3.84   Top1: 5.5181    Top5: 19.0817	lr:0.044100
Checkpoint saved!!!
Ep: 4   EpTime: 25.3604  Trainloss: 4.4733   Testloss: 4.6883  TrainAcc: 5.89   Top1: 4.8863    Top5: 18.3656	lr:0.043218
Ep: 5   EpTime: 25.9931  Trainloss: 4.2797   Testloss: 4.0763  TrainAcc: 7.07   Top1: 9.2249    Top5: 31.0446	lr:0.042354
Checkpoint saved!!!
Ep: 6   EpTime: 25.7750  Trainloss: 4.0989   Testloss: 4.1923  TrainAcc: 9.45   Top1: 9.2249    Top5: 28.8543	lr:0.041507
Ep: 7   EpTime: 26.0851  Trainloss: 3.9408   Testloss: 3.7906  TrainAcc: 11.85   Top1: 13.7742    Top5: 39.4271	lr:0.040676
Checkpoint saved!!!
Ep: 8   EpTime: 25.8579  Trainloss: 3.7959   Testloss: 3.9996  TrainAcc: 14.23   Top1: 12.0893    Top5: 36.8997	lr:0.039863
Ep: 9   EpTime: 26.2939  Trainloss: 3.6387   Testloss: 3.4369  TrainAcc: 16.19   Top1: 18.9553    Top5: 46.1247	lr:0.039066
Checkpoint saved!!!
Ep: 10   EpTime: 26.3719  Trainloss: 3.5424   Testloss: 3.4529  TrainAcc: 18.43   Top1: 19.5029    Top5: 47.7675	lr:0.038284
Checkpoint saved!!!
Ep: 11   EpTime: 25.7783  Trainloss: 3.3807   Testloss: 3.2749  TrainAcc: 20.83   Top1: 22.4937    Top5: 52.3168	lr:0.037519
Checkpoint saved!!!
Ep: 12   EpTime: 25.8888  Trainloss: 3.2910   Testloss: 3.3447  TrainAcc: 22.77   Top1: 23.3361    Top5: 52.6116	lr:0.036768
Checkpoint saved!!!
Ep: 13   EpTime: 25.7297  Trainloss: 3.1848   Testloss: 2.8912  TrainAcc: 23.94   Top1: 29.6125    Top5: 60.0253	lr:0.036033
Checkpoint saved!!!
Ep: 14   EpTime: 25.8474  Trainloss: 3.0428   Testloss: 2.8128  TrainAcc: 26.97   Top1: 28.7700    Top5: 61.0783	lr:0.035312
Ep: 15   EpTime: 26.1553  Trainloss: 2.9682   Testloss: 2.9534  TrainAcc: 28.54   Top1: 28.6015    Top5: 59.6462	lr:0.034606
Ep: 16   EpTime: 25.7166  Trainloss: 2.8754   Testloss: 2.7029  TrainAcc: 30.21   Top1: 32.0556    Top5: 64.8694	lr:0.033914
Checkpoint saved!!!
Ep: 17   EpTime: 25.8832  Trainloss: 2.8136   Testloss: 2.7336  TrainAcc: 31.55   Top1: 32.8138    Top5: 64.0270	lr:0.033236
Checkpoint saved!!!
Ep: 18   EpTime: 26.0511  Trainloss: 2.7042   Testloss: 3.0435  TrainAcc: 33.89   Top1: 28.3488    Top5: 58.4246	lr:0.032571
Ep: 19   EpTime: 25.7257  Trainloss: 2.6388   Testloss: 2.7249  TrainAcc: 34.70   Top1: 33.9511    Top5: 62.7633	lr:0.031919
Checkpoint saved!!!
Ep: 20   EpTime: 25.9134  Trainloss: 2.5357   Testloss: 2.4673  TrainAcc: 37.94   Top1: 37.1104    Top5: 68.4920	lr:0.031281
Checkpoint saved!!!
Ep: 21   EpTime: 25.5602  Trainloss: 2.4736   Testloss: 2.4530  TrainAcc: 38.83   Top1: 38.6689    Top5: 69.7136	lr:0.030655
Checkpoint saved!!!
Ep: 22   EpTime: 25.7868  Trainloss: 2.4178   Testloss: 2.4413  TrainAcc: 40.51   Top1: 39.1744    Top5: 70.2190	lr:0.030042
Checkpoint saved!!!
Ep: 23   EpTime: 26.0845  Trainloss: 2.3692   Testloss: 2.1866  TrainAcc: 41.29   Top1: 44.7346    Top5: 74.1786	lr:0.029442
Checkpoint saved!!!
Ep: 24   EpTime: 26.1331  Trainloss: 2.2855   Testloss: 2.2161  TrainAcc: 43.55   Top1: 44.0607    Top5: 73.6731	lr:0.028853
Ep: 25   EpTime: 25.9596  Trainloss: 2.2548   Testloss: 2.1658  TrainAcc: 44.31   Top1: 44.6925    Top5: 75.7371	lr:0.028276
Ep: 26   EpTime: 25.7894  Trainloss: 2.1974   Testloss: 2.3108  TrainAcc: 45.33   Top1: 45.2401    Top5: 73.0413	lr:0.027710
Checkpoint saved!!!
Ep: 27   EpTime: 26.2306  Trainloss: 2.1057   Testloss: 1.9894  TrainAcc: 46.65   Top1: 48.1466    Top5: 78.1382	lr:0.027156
Checkpoint saved!!!
Ep: 28   EpTime: 26.0198  Trainloss: 2.0868   Testloss: 2.0762  TrainAcc: 47.34   Top1: 47.8096    Top5: 76.3690	lr:0.026613
Ep: 29   EpTime: 25.7730  Trainloss: 2.0246   Testloss: 2.0170  TrainAcc: 49.04   Top1: 48.7363    Top5: 78.6015	lr:0.026081
Checkpoint saved!!!
Ep: 30   EpTime: 25.7722  Trainloss: 1.9738   Testloss: 2.0091  TrainAcc: 49.85   Top1: 48.7363    Top5: 77.5484	lr:0.025559
Checkpoint saved!!!
Ep: 31   EpTime: 26.0824  Trainloss: 1.9076   Testloss: 2.0338  TrainAcc: 51.81   Top1: 48.9469    Top5: 78.0118	lr:0.025048
Checkpoint saved!!!
Ep: 32   EpTime: 26.0344  Trainloss: 1.9230   Testloss: 1.9629  TrainAcc: 51.00   Top1: 49.7473    Top5: 78.8964	lr:0.024547
Checkpoint saved!!!
Ep: 33   EpTime: 25.5103  Trainloss: 1.8541   Testloss: 2.0148  TrainAcc: 52.65   Top1: 50.4212    Top5: 78.6015	lr:0.024056
Checkpoint saved!!!
Ep: 34   EpTime: 25.6396  Trainloss: 1.8339   Testloss: 1.9523  TrainAcc: 53.48   Top1: 50.2949    Top5: 78.8543	lr:0.023575
Ep: 35   EpTime: 25.8915  Trainloss: 1.7568   Testloss: 1.8557  TrainAcc: 55.17   Top1: 53.2013    Top5: 80.1179	lr:0.023103
Checkpoint saved!!!
Ep: 36   EpTime: 25.6191  Trainloss: 1.7215   Testloss: 1.9042  TrainAcc: 55.98   Top1: 51.6428    Top5: 79.6967	lr:0.022641
Ep: 37   EpTime: 26.0087  Trainloss: 1.7326   Testloss: 1.8026  TrainAcc: 55.90   Top1: 54.0017    Top5: 81.2974	lr:0.022188
Checkpoint saved!!!
Ep: 38   EpTime: 25.9787  Trainloss: 1.6747   Testloss: 1.7930  TrainAcc: 57.36   Top1: 54.2544    Top5: 81.0446	lr:0.021745
Checkpoint saved!!!
Ep: 39   EpTime: 25.7675  Trainloss: 1.6463   Testloss: 1.7635  TrainAcc: 58.07   Top1: 55.3075    Top5: 82.0977	lr:0.021310
Checkpoint saved!!!
Ep: 40   EpTime: 25.5530  Trainloss: 1.5878   Testloss: 1.8142  TrainAcc: 59.58   Top1: 54.8863    Top5: 81.3816	lr:0.020884
Ep: 41   EpTime: 25.7102  Trainloss: 1.5979   Testloss: 1.8807  TrainAcc: 59.21   Top1: 54.4650    Top5: 79.5703	lr:0.020466
Ep: 42   EpTime: 25.6701  Trainloss: 1.5780   Testloss: 1.8255  TrainAcc: 60.05   Top1: 54.8020    Top5: 81.1289	lr:0.020057
Ep: 43   EpTime: 25.7505  Trainloss: 1.5346   Testloss: 1.7903  TrainAcc: 61.03   Top1: 56.6133    Top5: 82.0977	lr:0.019655
Checkpoint saved!!!
Ep: 44   EpTime: 25.8582  Trainloss: 1.5164   Testloss: 1.7872  TrainAcc: 61.22   Top1: 55.4339    Top5: 82.1820	lr:0.019262
Ep: 45   EpTime: 26.0297  Trainloss: 1.4576   Testloss: 1.7814  TrainAcc: 62.36   Top1: 55.0548    Top5: 82.1820	lr:0.018877
Ep: 46   EpTime: 25.8342  Trainloss: 1.4438   Testloss: 1.8389  TrainAcc: 62.85   Top1: 55.3075    Top5: 81.7607	lr:0.018499
Ep: 47   EpTime: 26.2483  Trainloss: 1.3977   Testloss: 1.6880  TrainAcc: 64.07   Top1: 57.6243    Top5: 84.3302	lr:0.018130
Checkpoint saved!!!
Ep: 48   EpTime: 25.5755  Trainloss: 1.3954   Testloss: 1.7068  TrainAcc: 64.56   Top1: 57.7506    Top5: 83.5720	lr:0.017767
Checkpoint saved!!!
Ep: 49   EpTime: 25.8916  Trainloss: 1.3860   Testloss: 1.6912  TrainAcc: 64.39   Top1: 57.3715    Top5: 82.9823	lr:0.017412
Ep: 50   EpTime: 25.7966  Trainloss: 1.3433   Testloss: 1.6649  TrainAcc: 65.24   Top1: 58.7616    Top5: 83.5720	lr:0.017063
Checkpoint saved!!!
Ep: 51   EpTime: 25.7124  Trainloss: 1.3356   Testloss: 1.7801  TrainAcc: 66.34   Top1: 56.4027    Top5: 82.3926	lr:0.016722
Ep: 52   EpTime: 25.8897  Trainloss: 1.3072   Testloss: 1.6270  TrainAcc: 66.56   Top1: 59.6883    Top5: 83.9090	lr:0.016388
Checkpoint saved!!!
Ep: 53   EpTime: 25.3134  Trainloss: 1.2850   Testloss: 1.6433  TrainAcc: 67.43   Top1: 58.5088    Top5: 84.1617	lr:0.016060
Ep: 54   EpTime: 25.3805  Trainloss: 1.2600   Testloss: 1.6103  TrainAcc: 67.64   Top1: 59.1407    Top5: 84.2039	lr:0.015739
Ep: 55   EpTime: 25.9058  Trainloss: 1.2897   Testloss: 1.6500  TrainAcc: 66.89   Top1: 59.7725    Top5: 83.9511	lr:0.015424
Checkpoint saved!!!
Ep: 56   EpTime: 26.1021  Trainloss: 1.2233   Testloss: 1.6241  TrainAcc: 68.93   Top1: 59.9410    Top5: 84.5409	lr:0.015115
Checkpoint saved!!!
Ep: 57   EpTime: 25.8283  Trainloss: 1.2138   Testloss: 1.6304  TrainAcc: 69.38   Top1: 60.6150    Top5: 84.6251	lr:0.014813
Checkpoint saved!!!
Ep: 58   EpTime: 26.1510  Trainloss: 1.2039   Testloss: 1.7050  TrainAcc: 69.71   Top1: 58.9301    Top5: 83.1929	lr:0.014517
Ep: 59   EpTime: 26.2843  Trainloss: 1.1857   Testloss: 1.6014  TrainAcc: 69.95   Top1: 59.6883    Top5: 83.6563	lr:0.014227
Ep: 60   EpTime: 25.7831  Trainloss: 1.1724   Testloss: 1.6338  TrainAcc: 70.91   Top1: 60.3623    Top5: 84.6251	lr:0.013942
Ep: 61   EpTime: 25.7899  Trainloss: 1.1370   Testloss: 1.6324  TrainAcc: 71.39   Top1: 59.8568    Top5: 83.8669	lr:0.013663
Ep: 62   EpTime: 26.2776  Trainloss: 1.1185   Testloss: 1.6235  TrainAcc: 71.68   Top1: 59.8989    Top5: 84.1618	lr:0.013390
Ep: 63   EpTime: 25.9352  Trainloss: 1.0934   Testloss: 1.6513  TrainAcc: 71.67   Top1: 60.6571    Top5: 83.9511	lr:0.013122
Checkpoint saved!!!
Ep: 64   EpTime: 25.7899  Trainloss: 1.1023   Testloss: 1.6121  TrainAcc: 71.90   Top1: 61.4153    Top5: 84.5830	lr:0.012860
Checkpoint saved!!!
Ep: 65   EpTime: 25.9384  Trainloss: 1.0843   Testloss: 1.6461  TrainAcc: 72.79   Top1: 60.4886    Top5: 83.9511	lr:0.012602
Ep: 66   EpTime: 25.8037  Trainloss: 1.0532   Testloss: 1.6719  TrainAcc: 73.70   Top1: 59.9831    Top5: 83.6563	lr:0.012350
Ep: 67   EpTime: 25.3931  Trainloss: 1.0520   Testloss: 1.5804  TrainAcc: 73.89   Top1: 61.7523    Top5: 85.2991	lr:0.012103
Checkpoint saved!!!
Ep: 68   EpTime: 26.4996  Trainloss: 1.0451   Testloss: 1.5809  TrainAcc: 74.05   Top1: 61.8366    Top5: 85.2991	lr:0.011861
Checkpoint saved!!!
Ep: 69   EpTime: 25.8364  Trainloss: 1.0185   Testloss: 1.6235  TrainAcc: 74.42   Top1: 61.2468    Top5: 84.8357	lr:0.011624
Ep: 70   EpTime: 25.4629  Trainloss: 1.0077   Testloss: 1.6389  TrainAcc: 74.67   Top1: 61.1205    Top5: 84.0775	lr:0.011392
Ep: 71   EpTime: 25.7081  Trainloss: 0.9867   Testloss: 1.5916  TrainAcc: 75.20   Top1: 61.4575    Top5: 85.4254	lr:0.011164
Ep: 72   EpTime: 25.8302  Trainloss: 0.9760   Testloss: 1.6048  TrainAcc: 75.44   Top1: 61.6681    Top5: 84.8778	lr:0.010941
Ep: 73   EpTime: 25.9678  Trainloss: 0.9662   Testloss: 1.6172  TrainAcc: 75.58   Top1: 61.2890    Top5: 85.1727	lr:0.010722
Ep: 74   EpTime: 26.1629  Trainloss: 0.9733   Testloss: 1.7214  TrainAcc: 75.56   Top1: 60.8256    Top5: 84.0775	lr:0.010507
Ep: 75   EpTime: 25.6506  Trainloss: 0.9548   Testloss: 1.5304  TrainAcc: 76.28   Top1: 63.7742    Top5: 85.6361	lr:0.010297
Checkpoint saved!!!
Ep: 76   EpTime: 25.2902  Trainloss: 0.9285   Testloss: 1.6042  TrainAcc: 76.36   Top1: 61.2047    Top5: 84.5409	lr:0.010091
Ep: 77   EpTime: 25.9680  Trainloss: 0.9525   Testloss: 1.5995  TrainAcc: 76.34   Top1: 62.4684    Top5: 85.0042	lr:0.009889
Ep: 78   EpTime: 25.9779  Trainloss: 0.9105   Testloss: 1.6096  TrainAcc: 77.48   Top1: 62.2999    Top5: 85.8045	lr:0.009692
Ep: 79   EpTime: 25.4961  Trainloss: 0.9093   Testloss: 1.5751  TrainAcc: 77.76   Top1: 62.9739    Top5: 85.8467	lr:0.009498
Ep: 80   EpTime: 25.2758  Trainloss: 0.9188   Testloss: 1.6067  TrainAcc: 77.05   Top1: 61.9208    Top5: 85.2991	lr:0.009308
Ep: 81   EpTime: 25.9122  Trainloss: 0.8925   Testloss: 1.6246  TrainAcc: 77.83   Top1: 61.3311    Top5: 85.6361	lr:0.009122
Ep: 82   EpTime: 26.3553  Trainloss: 0.9134   Testloss: 1.5928  TrainAcc: 77.75   Top1: 62.5948    Top5: 85.3412	lr:0.008939
Ep: 83   EpTime: 25.9013  Trainloss: 0.9077   Testloss: 1.6019  TrainAcc: 77.53   Top1: 61.3732    Top5: 85.2148	lr:0.008760
Ep: 84   EpTime: 25.8256  Trainloss: 0.8769   Testloss: 1.6683  TrainAcc: 78.52   Top1: 60.7414    Top5: 84.5409	lr:0.008585
Ep: 85   EpTime: 26.2667  Trainloss: 0.8670   Testloss: 1.6004  TrainAcc: 78.57   Top1: 62.0051    Top5: 85.4676	lr:0.008414
Ep: 86   EpTime: 26.4332  Trainloss: 0.8571   Testloss: 1.5699  TrainAcc: 78.92   Top1: 62.2578    Top5: 85.6361	lr:0.008245
Ep: 87   EpTime: 25.8037  Trainloss: 0.8536   Testloss: 1.5867  TrainAcc: 79.29   Top1: 62.7633    Top5: 85.6361	lr:0.008080
Ep: 88   EpTime: 25.6832  Trainloss: 0.8721   Testloss: 1.5572  TrainAcc: 78.81   Top1: 64.0270    Top5: 85.2991	lr:0.007919
Checkpoint saved!!!
Ep: 89   EpTime: 26.0778  Trainloss: 0.8462   Testloss: 1.5641  TrainAcc: 79.36   Top1: 63.9006    Top5: 85.4676	lr:0.007760
Ep: 90   EpTime: 25.7236  Trainloss: 0.8483   Testloss: 1.5660  TrainAcc: 79.54   Top1: 64.1112    Top5: 85.1306	lr:0.007605
Checkpoint saved!!!
Ep: 91   EpTime: 25.4257  Trainloss: 0.8070   Testloss: 1.5639  TrainAcc: 80.55   Top1: 63.2266    Top5: 85.8045	lr:0.007453
Ep: 92   EpTime: 26.1583  Trainloss: 0.7860   Testloss: 1.5622  TrainAcc: 80.43   Top1: 63.6900    Top5: 86.0152	lr:0.007304
Ep: 93   EpTime: 25.5583  Trainloss: 0.7997   Testloss: 1.5991  TrainAcc: 80.31   Top1: 63.0581    Top5: 85.8045	lr:0.007158
Ep: 94   EpTime: 26.1732  Trainloss: 0.7874   Testloss: 1.5862  TrainAcc: 80.77   Top1: 63.2266    Top5: 86.0152	lr:0.007015
Ep: 95   EpTime: 26.1256  Trainloss: 0.7845   Testloss: 1.5571  TrainAcc: 81.02   Top1: 63.3951    Top5: 85.5097	lr:0.006874
Ep: 96   EpTime: 26.0486  Trainloss: 0.8044   Testloss: 1.5625  TrainAcc: 80.43   Top1: 63.3530    Top5: 85.8467	lr:0.006737
Ep: 97   EpTime: 26.0034  Trainloss: 0.7888   Testloss: 1.5676  TrainAcc: 81.07   Top1: 63.6900    Top5: 86.1837	lr:0.006602
Ep: 98   EpTime: 25.5076  Trainloss: 0.7800   Testloss: 1.5788  TrainAcc: 81.15   Top1: 64.5324    Top5: 85.8045	lr:0.006470
Checkpoint saved!!!
Ep: 99   EpTime: 25.5936  Trainloss: 0.7895   Testloss: 1.6195  TrainAcc: 80.91   Top1: 62.9318    Top5: 85.3412	lr:0.006341
Ep: 100   EpTime: 25.9237  Trainloss: 0.7709   Testloss: 1.5945  TrainAcc: 81.42   Top1: 63.4372    Top5: 85.3412	lr:0.006214
Ep: 101   EpTime: 26.6393  Trainloss: 0.7474   Testloss: 1.5978  TrainAcc: 82.08   Top1: 63.1845    Top5: 85.9730	lr:0.006090
Ep: 102   EpTime: 26.5002  Trainloss: 0.7576   Testloss: 1.5581  TrainAcc: 81.50   Top1: 63.6057    Top5: 85.6782	lr:0.005968
Ep: 103   EpTime: 25.5020  Trainloss: 0.7425   Testloss: 1.5680  TrainAcc: 82.01   Top1: 64.0691    Top5: 85.9730	lr:0.005849
Ep: 104   EpTime: 25.8015  Trainloss: 0.7305   Testloss: 1.5790  TrainAcc: 82.40   Top1: 64.0270    Top5: 85.6782	lr:0.005732
Ep: 105   EpTime: 26.0844  Trainloss: 0.7296   Testloss: 1.5684  TrainAcc: 82.42   Top1: 63.5215    Top5: 86.1837	lr:0.005617
Ep: 106   EpTime: 25.9392  Trainloss: 0.7219   Testloss: 1.5692  TrainAcc: 82.70   Top1: 64.0270    Top5: 85.9309	lr:0.005505
Ep: 107   EpTime: 25.2267  Trainloss: 0.7410   Testloss: 1.6010  TrainAcc: 81.97   Top1: 63.9427    Top5: 85.2991	lr:0.005394
Ep: 108   EpTime: 25.7182  Trainloss: 0.7250   Testloss: 1.5769  TrainAcc: 82.36   Top1: 64.1533    Top5: 86.0573	lr:0.005287
Ep: 109   EpTime: 25.4294  Trainloss: 0.7120   Testloss: 1.5710  TrainAcc: 82.95   Top1: 64.0691    Top5: 85.6361	lr:0.005181
Ep: 110   EpTime: 25.5198  Trainloss: 0.7302   Testloss: 1.6169  TrainAcc: 82.60   Top1: 63.1424    Top5: 85.0042	lr:0.005077
Ep: 111   EpTime: 25.8148  Trainloss: 0.7176   Testloss: 1.6219  TrainAcc: 82.97   Top1: 63.8163    Top5: 85.5097	lr:0.004976
Ep: 112   EpTime: 26.1625  Trainloss: 0.7030   Testloss: 1.5790  TrainAcc: 83.62   Top1: 63.6057    Top5: 85.8888	lr:0.004876
Ep: 113   EpTime: 25.6863  Trainloss: 0.7041   Testloss: 1.5768  TrainAcc: 82.82   Top1: 63.5215    Top5: 86.2258	lr:0.004779
Ep: 114   EpTime: 25.6871  Trainloss: 0.7121   Testloss: 1.5805  TrainAcc: 82.98   Top1: 63.7742    Top5: 85.7203	lr:0.004683
Ep: 115   EpTime: 26.0013  Trainloss: 0.6987   Testloss: 1.5714  TrainAcc: 83.12   Top1: 63.7321    Top5: 86.2258	lr:0.004589
Ep: 116   EpTime: 25.6997  Trainloss: 0.6878   Testloss: 1.5980  TrainAcc: 83.71   Top1: 63.6057    Top5: 85.8045	lr:0.004498
Ep: 117   EpTime: 26.6326  Trainloss: 0.6919   Testloss: 1.5743  TrainAcc: 83.63   Top1: 64.0270    Top5: 86.0994	lr:0.004408
Ep: 118   EpTime: 26.2951  Trainloss: 0.7004   Testloss: 1.5768  TrainAcc: 83.16   Top1: 63.7742    Top5: 85.8045	lr:0.004320
Ep: 119   EpTime: 25.7085  Trainloss: 0.6865   Testloss: 1.6045  TrainAcc: 83.36   Top1: 63.6478    Top5: 85.6782	lr:0.004233
Ep: 120   EpTime: 25.7665  Trainloss: 0.7018   Testloss: 1.5619  TrainAcc: 83.32   Top1: 64.5746    Top5: 85.6782	lr:0.004148
Checkpoint saved!!!
Ep: 121   EpTime: 26.3085  Trainloss: 0.6659   Testloss: 1.5823  TrainAcc: 83.98   Top1: 64.1112    Top5: 86.1837	lr:0.004066
Ep: 122   EpTime: 26.2065  Trainloss: 0.6663   Testloss: 1.5910  TrainAcc: 84.08   Top1: 63.4794    Top5: 85.5097	lr:0.003984
Ep: 123   EpTime: 26.0616  Trainloss: 0.6795   Testloss: 1.5822  TrainAcc: 84.06   Top1: 63.7321    Top5: 85.7624	lr:0.003905
Ep: 124   EpTime: 25.0766  Trainloss: 0.6548   Testloss: 1.5519  TrainAcc: 84.44   Top1: 64.7852    Top5: 86.0994	lr:0.003826
Checkpoint saved!!!
Ep: 125   EpTime: 26.1678  Trainloss: 0.6714   Testloss: 1.5768  TrainAcc: 84.08   Top1: 64.2797    Top5: 85.6361	lr:0.003750
Ep: 126   EpTime: 25.5132  Trainloss: 0.6677   Testloss: 1.5705  TrainAcc: 84.18   Top1: 64.3639    Top5: 86.0994	lr:0.003675
Ep: 127   EpTime: 25.8834  Trainloss: 0.6684   Testloss: 1.5633  TrainAcc: 83.79   Top1: 64.6167    Top5: 86.3943	lr:0.003601
Ep: 128   EpTime: 26.5559  Trainloss: 0.6540   Testloss: 1.5684  TrainAcc: 84.38   Top1: 64.1533    Top5: 86.0573	lr:0.003529
Ep: 129   EpTime: 26.4533  Trainloss: 0.6602   Testloss: 1.5765  TrainAcc: 84.32   Top1: 63.6478    Top5: 85.6782	lr:0.003459
Ep: 130   EpTime: 25.9915  Trainloss: 0.6375   Testloss: 1.5837  TrainAcc: 84.84   Top1: 63.9427    Top5: 86.0152	lr:0.003390
Ep: 131   EpTime: 25.8435  Trainloss: 0.6361   Testloss: 1.5740  TrainAcc: 85.17   Top1: 64.6167    Top5: 86.0994	lr:0.003322
Ep: 132   EpTime: 25.6684  Trainloss: 0.6266   Testloss: 1.5454  TrainAcc: 85.07   Top1: 65.0379    Top5: 86.6470	lr:0.003255
Checkpoint saved!!!
Ep: 133   EpTime: 26.3458  Trainloss: 0.6250   Testloss: 1.5793  TrainAcc: 85.26   Top1: 64.2376    Top5: 85.9309	lr:0.003190
Ep: 134   EpTime: 25.5286  Trainloss: 0.6243   Testloss: 1.5548  TrainAcc: 85.16   Top1: 64.8694    Top5: 86.2679	lr:0.003126
Ep: 135   EpTime: 25.4874  Trainloss: 0.6406   Testloss: 1.5632  TrainAcc: 84.62   Top1: 64.3218    Top5: 86.1837	lr:0.003064
Ep: 136   EpTime: 26.0603  Trainloss: 0.6250   Testloss: 1.5626  TrainAcc: 85.15   Top1: 64.1533    Top5: 85.7203	lr:0.003003
Ep: 137   EpTime: 25.9185  Trainloss: 0.6639   Testloss: 1.5531  TrainAcc: 84.52   Top1: 64.7009    Top5: 85.8467	lr:0.002943
Ep: 138   EpTime: 26.1232  Trainloss: 0.6196   Testloss: 1.5646  TrainAcc: 85.36   Top1: 64.1954    Top5: 86.0152	lr:0.002884
Ep: 139   EpTime: 26.3507  Trainloss: 0.6152   Testloss: 1.5737  TrainAcc: 85.42   Top1: 64.0691    Top5: 86.4785	lr:0.002826
Ep: 140   EpTime: 25.8861  Trainloss: 0.6231   Testloss: 1.5782  TrainAcc: 85.49   Top1: 63.3530    Top5: 86.1837	lr:0.002770
Ep: 141   EpTime: 25.6580  Trainloss: 0.6203   Testloss: 1.5747  TrainAcc: 85.27   Top1: 64.2797    Top5: 86.1415	lr:0.002714
Ep: 142   EpTime: 25.5438  Trainloss: 0.6169   Testloss: 1.5780  TrainAcc: 85.29   Top1: 64.5324    Top5: 85.7203	lr:0.002660
Ep: 143   EpTime: 26.0064  Trainloss: 0.6240   Testloss: 1.5655  TrainAcc: 85.29   Top1: 64.9115    Top5: 85.9730	lr:0.002607
Ep: 144   EpTime: 25.4801  Trainloss: 0.5973   Testloss: 1.5555  TrainAcc: 85.84   Top1: 64.6588    Top5: 86.4785	lr:0.002555
Ep: 145   EpTime: 25.4828  Trainloss: 0.5976   Testloss: 1.5578  TrainAcc: 86.19   Top1: 64.7430    Top5: 86.2258	lr:0.002503
Ep: 146   EpTime: 26.0356  Trainloss: 0.6024   Testloss: 1.5640  TrainAcc: 85.99   Top1: 64.7852    Top5: 85.9730	lr:0.002453
Ep: 147   EpTime: 25.9318  Trainloss: 0.6006   Testloss: 1.5686  TrainAcc: 85.58   Top1: 64.3639    Top5: 86.0994	lr:0.002404
Ep: 148   EpTime: 25.5285  Trainloss: 0.6031   Testloss: 1.5598  TrainAcc: 85.62   Top1: 65.0379    Top5: 86.4364	lr:0.002356
Ep: 149   EpTime: 25.9682  Trainloss: 0.6042   Testloss: 1.5729  TrainAcc: 85.89   Top1: 64.3639    Top5: 85.7203	lr:0.002309
Ep: 150   EpTime: 25.8177  Trainloss: 0.6019   Testloss: 1.5859  TrainAcc: 85.83   Top1: 64.7009    Top5: 85.5939	lr:0.002263
Ep: 151   EpTime: 25.8572  Trainloss: 0.6087   Testloss: 1.5755  TrainAcc: 85.46   Top1: 64.2376    Top5: 85.8467	lr:0.002218
Ep: 152   EpTime: 26.1573  Trainloss: 0.5992   Testloss: 1.5802  TrainAcc: 85.76   Top1: 64.2376    Top5: 85.5939	lr:0.002173
Ep: 153   EpTime: 26.4967  Trainloss: 0.5965   Testloss: 1.5721  TrainAcc: 85.78   Top1: 64.3639    Top5: 85.5939	lr:0.002130
Ep: 154   EpTime: 26.1432  Trainloss: 0.5990   Testloss: 1.5845  TrainAcc: 86.04   Top1: 63.7321    Top5: 85.3833	lr:0.002087
Ep: 155   EpTime: 26.0104  Trainloss: 0.6024   Testloss: 1.5840  TrainAcc: 85.57   Top1: 64.1954    Top5: 85.0463	lr:0.002046
Ep: 156   EpTime: 25.4222  Trainloss: 0.5722   Testloss: 1.5744  TrainAcc: 86.76   Top1: 64.8273    Top5: 85.5518	lr:0.002005
Ep: 157   EpTime: 26.2079  Trainloss: 0.5708   Testloss: 1.5993  TrainAcc: 86.46   Top1: 63.8585    Top5: 85.7203	lr:0.001965
Ep: 158   EpTime: 26.0870  Trainloss: 0.5745   Testloss: 1.5996  TrainAcc: 86.43   Top1: 63.9427    Top5: 85.3412	lr:0.001925
Ep: 159   EpTime: 26.3345  Trainloss: 0.5698   Testloss: 1.5653  TrainAcc: 86.75   Top1: 64.6167    Top5: 85.8467	lr:0.001887
Ep: 160   EpTime: 26.0236  Trainloss: 0.5819   Testloss: 1.5917  TrainAcc: 85.75   Top1: 64.3639    Top5: 85.5097	lr:0.001849
Ep: 161   EpTime: 25.6180  Trainloss: 0.6170   Testloss: 1.5684  TrainAcc: 85.44   Top1: 64.2797    Top5: 85.8467	lr:0.001812
Ep: 162   EpTime: 25.9992  Trainloss: 0.5907   Testloss: 1.5780  TrainAcc: 86.30   Top1: 64.6167    Top5: 85.9309	lr:0.001776
Ep: 163   EpTime: 25.9293  Trainloss: 0.5898   Testloss: 1.5766  TrainAcc: 86.25   Top1: 64.1954    Top5: 85.8888	lr:0.001740
Ep: 164   EpTime: 25.6115  Trainloss: 0.5718   Testloss: 1.5728  TrainAcc: 86.64   Top1: 64.7852    Top5: 85.8045	lr:0.001705
Ep: 165   EpTime: 25.2346  Trainloss: 0.5680   Testloss: 1.5732  TrainAcc: 86.53   Top1: 64.8273    Top5: 85.7203	lr:0.001671
Ep: 166   EpTime: 25.7488  Trainloss: 0.5775   Testloss: 1.5911  TrainAcc: 86.27   Top1: 64.5324    Top5: 85.7203	lr:0.001638
Ep: 167   EpTime: 25.8479  Trainloss: 0.5564   Testloss: 1.5788  TrainAcc: 86.59   Top1: 64.8273    Top5: 85.6782	lr:0.001605
Ep: 168   EpTime: 26.1718  Trainloss: 0.5696   Testloss: 1.5600  TrainAcc: 86.68   Top1: 64.9958    Top5: 86.0573	lr:0.001573
Ep: 169   EpTime: 25.9005  Trainloss: 0.5647   Testloss: 1.5828  TrainAcc: 86.99   Top1: 64.8694    Top5: 85.8467	lr:0.001542
Ep: 170   EpTime: 25.9219  Trainloss: 0.5743   Testloss: 1.5780  TrainAcc: 86.55   Top1: 64.4482    Top5: 85.7624	lr:0.001511
Ep: 171   EpTime: 25.8967  Trainloss: 0.5502   Testloss: 1.5717  TrainAcc: 87.31   Top1: 64.8273    Top5: 85.9730	lr:0.001481
Ep: 172   EpTime: 25.9808  Trainloss: 0.5822   Testloss: 1.5799  TrainAcc: 86.25   Top1: 64.6167    Top5: 86.2679	lr:0.001451
Ep: 173   EpTime: 26.0081  Trainloss: 0.5663   Testloss: 1.5781  TrainAcc: 86.82   Top1: 63.9427    Top5: 85.9309	lr:0.001422
Ep: 174   EpTime: 26.1925  Trainloss: 0.5714   Testloss: 1.5896  TrainAcc: 86.49   Top1: 63.8585    Top5: 85.7203	lr:0.001393
Ep: 175   EpTime: 25.5513  Trainloss: 0.5762   Testloss: 1.5855  TrainAcc: 86.23   Top1: 63.9848    Top5: 85.8467	lr:0.001366
Ep: 176   EpTime: 26.1472  Trainloss: 0.5411   Testloss: 1.5894  TrainAcc: 87.45   Top1: 64.1533    Top5: 85.9309	lr:0.001338
Ep: 177   EpTime: 25.5714  Trainloss: 0.5462   Testloss: 1.5723  TrainAcc: 87.23   Top1: 64.4482    Top5: 85.8888	lr:0.001312
Ep: 178   EpTime: 25.9426  Trainloss: 0.5432   Testloss: 1.5813  TrainAcc: 87.08   Top1: 64.7852    Top5: 85.8045	lr:0.001285
Ep: 179   EpTime: 25.6064  Trainloss: 0.5744   Testloss: 1.5981  TrainAcc: 86.60   Top1: 64.2376    Top5: 85.8045	lr:0.001260
Ep: 180   EpTime: 26.1773  Trainloss: 0.5617   Testloss: 1.5907  TrainAcc: 86.62   Top1: 63.8163    Top5: 85.7624	lr:0.001234
Ep: 181   EpTime: 25.9027  Trainloss: 0.5546   Testloss: 1.5851  TrainAcc: 86.97   Top1: 64.4061    Top5: 86.0994	lr:0.001210
Ep: 182   EpTime: 25.7691  Trainloss: 0.5676   Testloss: 1.5865  TrainAcc: 86.81   Top1: 63.9427    Top5: 85.9730	lr:0.001186
Ep: 183   EpTime: 25.4710  Trainloss: 0.5321   Testloss: 1.5799  TrainAcc: 87.66   Top1: 64.4482    Top5: 85.8045	lr:0.001162
Ep: 184   EpTime: 25.8012  Trainloss: 0.5343   Testloss: 1.5685  TrainAcc: 87.51   Top1: 64.9958    Top5: 85.8888	lr:0.001139
Ep: 185   EpTime: 25.7357  Trainloss: 0.5528   Testloss: 1.5915  TrainAcc: 87.05   Top1: 64.8273    Top5: 85.7624	lr:0.001116
Ep: 186   EpTime: 25.6680  Trainloss: 0.5613   Testloss: 1.5808  TrainAcc: 86.78   Top1: 64.9537    Top5: 85.8045	lr:0.001093
Ep: 187   EpTime: 25.7335  Trainloss: 0.5561   Testloss: 1.5941  TrainAcc: 86.63   Top1: 64.3218    Top5: 85.8888	lr:0.001072
Ep: 188   EpTime: 26.3050  Trainloss: 0.5513   Testloss: 1.6024  TrainAcc: 86.93   Top1: 64.0270    Top5: 85.7624	lr:0.001050
Ep: 189   EpTime: 26.0950  Trainloss: 0.5571   Testloss: 1.5849  TrainAcc: 86.72   Top1: 64.1533    Top5: 85.8888	lr:0.001029
Ep: 190   EpTime: 25.9798  Trainloss: 0.5400   Testloss: 1.5817  TrainAcc: 87.16   Top1: 64.4482    Top5: 85.7203	lr:0.001009
Ep: 191   EpTime: 25.2044  Trainloss: 0.5420   Testloss: 1.5809  TrainAcc: 87.12   Top1: 64.7852    Top5: 86.0573	lr:0.000988
Ep: 192   EpTime: 26.1196  Trainloss: 0.5600   Testloss: 1.5788  TrainAcc: 86.64   Top1: 64.1954    Top5: 86.1837	lr:0.000969
Ep: 193   EpTime: 25.9965  Trainloss: 0.5610   Testloss: 1.5962  TrainAcc: 86.88   Top1: 64.4482    Top5: 85.7203	lr:0.000949
Ep: 194   EpTime: 26.2488  Trainloss: 0.5785   Testloss: 1.5937  TrainAcc: 86.54   Top1: 64.7430    Top5: 85.8888	lr:0.000930
Ep: 195   EpTime: 25.5553  Trainloss: 0.5428   Testloss: 1.5843  TrainAcc: 87.35   Top1: 64.1112    Top5: 85.7203	lr:0.000912
Ep: 196   EpTime: 25.5892  Trainloss: 0.5470   Testloss: 1.5832  TrainAcc: 86.81   Top1: 63.9006    Top5: 85.8467	lr:0.000893
Ep: 197   EpTime: 25.1943  Trainloss: 0.5289   Testloss: 1.5846  TrainAcc: 87.56   Top1: 64.8273    Top5: 85.9730	lr:0.000876
Ep: 198   EpTime: 25.4213  Trainloss: 0.5135   Testloss: 1.5824  TrainAcc: 87.79   Top1: 64.6167    Top5: 85.8467	lr:0.000858
Ep: 199   EpTime: 25.9504  Trainloss: 0.5209   Testloss: 1.5810  TrainAcc: 87.53   Top1: 64.4061    Top5: 85.5939	lr:0.000841
Ep: 200   EpTime: 25.3890  Trainloss: 0.5322   Testloss: 1.5916  TrainAcc: 87.31   Top1: 64.2797    Top5: 85.7203	lr:0.000824
Ep: 201   EpTime: 25.5955  Trainloss: 0.5327   Testloss: 1.5911  TrainAcc: 87.54   Top1: 64.6167    Top5: 85.8467	lr:0.000808
Ep: 202   EpTime: 26.2705  Trainloss: 0.5392   Testloss: 1.6031  TrainAcc: 87.20   Top1: 63.9848    Top5: 85.8467	lr:0.000791
Ep: 203   EpTime: 25.6726  Trainloss: 0.5357   Testloss: 1.5819  TrainAcc: 87.12   Top1: 64.5324    Top5: 85.8888	lr:0.000776
Ep: 204   EpTime: 25.5269  Trainloss: 0.5400   Testloss: 1.5753  TrainAcc: 87.51   Top1: 64.4061    Top5: 86.2258	lr:0.000760
Ep: 205   EpTime: 25.8021  Trainloss: 0.5260   Testloss: 1.5834  TrainAcc: 87.81   Top1: 64.6588    Top5: 85.8888	lr:0.000745
Ep: 206   EpTime: 26.0623  Trainloss: 0.5478   Testloss: 1.6008  TrainAcc: 87.03   Top1: 64.4061    Top5: 85.9309	lr:0.000730
Ep: 207   EpTime: 26.1281  Trainloss: 0.5456   Testloss: 1.5903  TrainAcc: 86.69   Top1: 64.0691    Top5: 85.9309	lr:0.000715
Ep: 208   EpTime: 25.7898  Trainloss: 0.5292   Testloss: 1.5923  TrainAcc: 87.46   Top1: 63.8163    Top5: 85.7203	lr:0.000701
Ep: 209   EpTime: 26.4033  Trainloss: 0.5487   Testloss: 1.5887  TrainAcc: 87.10   Top1: 64.6167    Top5: 85.7624	lr:0.000687
Ep: 210   EpTime: 25.9969  Trainloss: 0.5309   Testloss: 1.5895  TrainAcc: 87.22   Top1: 64.1954    Top5: 85.8467	lr:0.000673
Ep: 211   EpTime: 26.1001  Trainloss: 0.5259   Testloss: 1.5885  TrainAcc: 87.38   Top1: 64.1112    Top5: 86.0152	lr:0.000660
Ep: 212   EpTime: 25.6890  Trainloss: 0.5540   Testloss: 1.5779  TrainAcc: 87.10   Top1: 64.5746    Top5: 85.6361	lr:0.000647
Ep: 213   EpTime: 26.0197  Trainloss: 0.5476   Testloss: 1.5865  TrainAcc: 87.19   Top1: 64.6167    Top5: 85.6361	lr:0.000634
Ep: 214   EpTime: 25.7679  Trainloss: 0.5586   Testloss: 1.5811  TrainAcc: 86.93   Top1: 64.5746    Top5: 85.5097	lr:0.000621
Ep: 215   EpTime: 25.5840  Trainloss: 0.5175   Testloss: 1.5837  TrainAcc: 87.95   Top1: 64.6588    Top5: 85.6361	lr:0.000609
Ep: 216   EpTime: 25.6088  Trainloss: 0.5249   Testloss: 1.5730  TrainAcc: 87.78   Top1: 64.6167    Top5: 85.6361	lr:0.000596
Ep: 217   EpTime: 26.2171  Trainloss: 0.5423   Testloss: 1.5961  TrainAcc: 87.36   Top1: 64.4061    Top5: 85.8888	lr:0.000585
Ep: 218   EpTime: 26.5610  Trainloss: 0.5217   Testloss: 1.5965  TrainAcc: 87.68   Top1: 64.6588    Top5: 85.5939	lr:0.000573
Ep: 219   EpTime: 25.8234  Trainloss: 0.5156   Testloss: 1.5905  TrainAcc: 87.66   Top1: 63.9006    Top5: 85.5518	lr:0.000561
Ep: 220   EpTime: 26.4323  Trainloss: 0.5250   Testloss: 1.5951  TrainAcc: 87.54   Top1: 64.5324    Top5: 85.5939	lr:0.000550
