[32, 16, 24, 32, 64, 96, 160, 320]
MobileNet2(
  (activation): ReLU6(inplace)
  (conv1): Conv2d(3, 32, kernel_size=(3, 3), stride=(2, 2), padding=(1, 1), bias=False)
  (bn1): BatchNorm2d(32, eps=1e-05, momentum=0.1, affine=True, track_running_stats=True)
  (bottlenecks): Sequential(
    (Bottlenecks_0): Sequential(
      (LinearBottleneck0_0): LinearBottleneck(
        (conv1): Conv2d(32, 32, kernel_size=(1, 1), stride=(1, 1), bias=False)
        (bn1): BatchNorm2d(32, eps=1e-05, momentum=0.1, affine=True, track_running_stats=True)
        (conv2): Conv2d(32, 32, kernel_size=(3, 3), stride=(1, 1), padding=(1, 1), groups=32, bias=False)
        (bn2): BatchNorm2d(32, eps=1e-05, momentum=0.1, affine=True, track_running_stats=True)
        (conv3): Conv2d(32, 16, kernel_size=(1, 1), stride=(1, 1), bias=False)
        (bn3): BatchNorm2d(16, eps=1e-05, momentum=0.1, affine=True, track_running_stats=True)
        (activation): ReLU6(inplace)
      )
    )
    (Bottlenecks_1): Sequential(
      (LinearBottleneck1_0): LinearBottleneck(
        (conv1): Conv2d(16, 96, kernel_size=(1, 1), stride=(1, 1), bias=False)
        (bn1): BatchNorm2d(96, eps=1e-05, momentum=0.1, affine=True, track_running_stats=True)
        (conv2): Conv2d(96, 96, kernel_size=(3, 3), stride=(2, 2), padding=(1, 1), groups=96, bias=False)
        (bn2): BatchNorm2d(96, eps=1e-05, momentum=0.1, affine=True, track_running_stats=True)
        (conv3): Conv2d(96, 24, kernel_size=(1, 1), stride=(1, 1), bias=False)
        (bn3): BatchNorm2d(24, eps=1e-05, momentum=0.1, affine=True, track_running_stats=True)
        (activation): ReLU6(inplace)
      )
      (LinearBottleneck1_1): LinearBottleneck(
        (conv1): Conv2d(24, 144, kernel_size=(1, 1), stride=(1, 1), bias=False)
        (bn1): BatchNorm2d(144, eps=1e-05, momentum=0.1, affine=True, track_running_stats=True)
        (conv2): Conv2d(144, 144, kernel_size=(3, 3), stride=(1, 1), padding=(1, 1), groups=144, bias=False)
        (bn2): BatchNorm2d(144, eps=1e-05, momentum=0.1, affine=True, track_running_stats=True)
        (conv3): Conv2d(144, 24, kernel_size=(1, 1), stride=(1, 1), bias=False)
        (bn3): BatchNorm2d(24, eps=1e-05, momentum=0.1, affine=True, track_running_stats=True)
        (activation): ReLU6(inplace)
      )
    )
    (Bottlenecks_2): Sequential(
      (LinearBottleneck2_0): LinearBottleneck(
        (conv1): Conv2d(24, 144, kernel_size=(1, 1), stride=(1, 1), bias=False)
        (bn1): BatchNorm2d(144, eps=1e-05, momentum=0.1, affine=True, track_running_stats=True)
        (conv2): Conv2d(144, 144, kernel_size=(3, 3), stride=(2, 2), padding=(1, 1), groups=144, bias=False)
        (bn2): BatchNorm2d(144, eps=1e-05, momentum=0.1, affine=True, track_running_stats=True)
        (conv3): Conv2d(144, 32, kernel_size=(1, 1), stride=(1, 1), bias=False)
        (bn3): BatchNorm2d(32, eps=1e-05, momentum=0.1, affine=True, track_running_stats=True)
        (activation): ReLU6(inplace)
      )
      (LinearBottleneck2_1): LinearBottleneck(
        (conv1): Conv2d(32, 192, kernel_size=(1, 1), stride=(1, 1), bias=False)
        (bn1): BatchNorm2d(192, eps=1e-05, momentum=0.1, affine=True, track_running_stats=True)
        (conv2): Conv2d(192, 192, kernel_size=(3, 3), stride=(1, 1), padding=(1, 1), groups=192, bias=False)
        (bn2): BatchNorm2d(192, eps=1e-05, momentum=0.1, affine=True, track_running_stats=True)
        (conv3): Conv2d(192, 32, kernel_size=(1, 1), stride=(1, 1), bias=False)
        (bn3): BatchNorm2d(32, eps=1e-05, momentum=0.1, affine=True, track_running_stats=True)
        (activation): ReLU6(inplace)
      )
      (LinearBottleneck2_2): LinearBottleneck(
        (conv1): Conv2d(32, 192, kernel_size=(1, 1), stride=(1, 1), bias=False)
        (bn1): BatchNorm2d(192, eps=1e-05, momentum=0.1, affine=True, track_running_stats=True)
        (conv2): Conv2d(192, 192, kernel_size=(3, 3), stride=(1, 1), padding=(1, 1), groups=192, bias=False)
        (bn2): BatchNorm2d(192, eps=1e-05, momentum=0.1, affine=True, track_running_stats=True)
        (conv3): Conv2d(192, 32, kernel_size=(1, 1), stride=(1, 1), bias=False)
        (bn3): BatchNorm2d(32, eps=1e-05, momentum=0.1, affine=True, track_running_stats=True)
        (activation): ReLU6(inplace)
      )
    )
    (Bottlenecks_3): Sequential(
      (LinearBottleneck3_0): LinearBottleneck(
        (conv1): Conv2d(32, 192, kernel_size=(1, 1), stride=(1, 1), bias=False)
        (bn1): BatchNorm2d(192, eps=1e-05, momentum=0.1, affine=True, track_running_stats=True)
        (conv2): Conv2d(192, 192, kernel_size=(3, 3), stride=(2, 2), padding=(1, 1), groups=192, bias=False)
        (bn2): BatchNorm2d(192, eps=1e-05, momentum=0.1, affine=True, track_running_stats=True)
        (conv3): Conv2d(192, 64, kernel_size=(1, 1), stride=(1, 1), bias=False)
        (bn3): BatchNorm2d(64, eps=1e-05, momentum=0.1, affine=True, track_running_stats=True)
        (activation): ReLU6(inplace)
      )
      (LinearBottleneck3_1): LinearBottleneck(
        (conv1): Conv2d(64, 384, kernel_size=(1, 1), stride=(1, 1), bias=False)
        (bn1): BatchNorm2d(384, eps=1e-05, momentum=0.1, affine=True, track_running_stats=True)
        (conv2): Conv2d(384, 384, kernel_size=(3, 3), stride=(1, 1), padding=(1, 1), groups=384, bias=False)
        (bn2): BatchNorm2d(384, eps=1e-05, momentum=0.1, affine=True, track_running_stats=True)
        (conv3): Conv2d(384, 64, kernel_size=(1, 1), stride=(1, 1), bias=False)
        (bn3): BatchNorm2d(64, eps=1e-05, momentum=0.1, affine=True, track_running_stats=True)
        (activation): ReLU6(inplace)
      )
      (LinearBottleneck3_2): LinearBottleneck(
        (conv1): Conv2d(64, 384, kernel_size=(1, 1), stride=(1, 1), bias=False)
        (bn1): BatchNorm2d(384, eps=1e-05, momentum=0.1, affine=True, track_running_stats=True)
        (conv2): Conv2d(384, 384, kernel_size=(3, 3), stride=(1, 1), padding=(1, 1), groups=384, bias=False)
        (bn2): BatchNorm2d(384, eps=1e-05, momentum=0.1, affine=True, track_running_stats=True)
        (conv3): Conv2d(384, 64, kernel_size=(1, 1), stride=(1, 1), bias=False)
        (bn3): BatchNorm2d(64, eps=1e-05, momentum=0.1, affine=True, track_running_stats=True)
        (activation): ReLU6(inplace)
      )
      (LinearBottleneck3_3): LinearBottleneck(
        (conv1): Conv2d(64, 384, kernel_size=(1, 1), stride=(1, 1), bias=False)
        (bn1): BatchNorm2d(384, eps=1e-05, momentum=0.1, affine=True, track_running_stats=True)
        (conv2): Conv2d(384, 384, kernel_size=(3, 3), stride=(1, 1), padding=(1, 1), groups=384, bias=False)
        (bn2): BatchNorm2d(384, eps=1e-05, momentum=0.1, affine=True, track_running_stats=True)
        (conv3): Conv2d(384, 64, kernel_size=(1, 1), stride=(1, 1), bias=False)
        (bn3): BatchNorm2d(64, eps=1e-05, momentum=0.1, affine=True, track_running_stats=True)
        (activation): ReLU6(inplace)
      )
    )
    (Bottlenecks_4): Sequential(
      (LinearBottleneck4_0): LinearBottleneck(
        (conv1): Conv2d(64, 384, kernel_size=(1, 1), stride=(1, 1), bias=False)
        (bn1): BatchNorm2d(384, eps=1e-05, momentum=0.1, affine=True, track_running_stats=True)
        (conv2): Conv2d(384, 384, kernel_size=(3, 3), stride=(1, 1), padding=(1, 1), groups=384, bias=False)
        (bn2): BatchNorm2d(384, eps=1e-05, momentum=0.1, affine=True, track_running_stats=True)
        (conv3): Conv2d(384, 96, kernel_size=(1, 1), stride=(1, 1), bias=False)
        (bn3): BatchNorm2d(96, eps=1e-05, momentum=0.1, affine=True, track_running_stats=True)
        (activation): ReLU6(inplace)
      )
      (LinearBottleneck4_PSABlockV5_1): PooledSpatialAttentionBlockV5(
        (conv_dws): Conv2d(96, 96, kernel_size=(1, 1), stride=(1, 1), groups=96)
        (bn_dws): BatchNorm2d(96, eps=1e-05, momentum=0.9, affine=True, track_running_stats=True)
        (relu_dws): ReLU6(inplace)
        (maxpool): MaxPool2d(kernel_size=3, stride=1, padding=1, dilation=1, ceil_mode=False)
        (conv_point): Conv2d(96, 1, kernel_size=(1, 1), stride=(1, 1))
        (bn_point): BatchNorm2d(1, eps=1e-05, momentum=0.9, affine=True, track_running_stats=True)
        (relu_point): ReLU6(inplace)
        (softmax): Softmax()
      )
      (LinearBottleneck4_2): LinearBottleneck(
        (conv1): Conv2d(96, 576, kernel_size=(1, 1), stride=(1, 1), bias=False)
        (bn1): BatchNorm2d(576, eps=1e-05, momentum=0.1, affine=True, track_running_stats=True)
        (conv2): Conv2d(576, 576, kernel_size=(3, 3), stride=(1, 1), padding=(1, 1), groups=576, bias=False)
        (bn2): BatchNorm2d(576, eps=1e-05, momentum=0.1, affine=True, track_running_stats=True)
        (conv3): Conv2d(576, 96, kernel_size=(1, 1), stride=(1, 1), bias=False)
        (bn3): BatchNorm2d(96, eps=1e-05, momentum=0.1, affine=True, track_running_stats=True)
        (activation): ReLU6(inplace)
      )
    )
    (Bottlenecks_5): Sequential(
      (LinearBottleneck5_0): LinearBottleneck(
        (conv1): Conv2d(96, 576, kernel_size=(1, 1), stride=(1, 1), bias=False)
        (bn1): BatchNorm2d(576, eps=1e-05, momentum=0.1, affine=True, track_running_stats=True)
        (conv2): Conv2d(576, 576, kernel_size=(3, 3), stride=(2, 2), padding=(1, 1), groups=576, bias=False)
        (bn2): BatchNorm2d(576, eps=1e-05, momentum=0.1, affine=True, track_running_stats=True)
        (conv3): Conv2d(576, 160, kernel_size=(1, 1), stride=(1, 1), bias=False)
        (bn3): BatchNorm2d(160, eps=1e-05, momentum=0.1, affine=True, track_running_stats=True)
        (activation): ReLU6(inplace)
      )
      (LinearBottleneck5_1): LinearBottleneck(
        (conv1): Conv2d(160, 960, kernel_size=(1, 1), stride=(1, 1), bias=False)
        (bn1): BatchNorm2d(960, eps=1e-05, momentum=0.1, affine=True, track_running_stats=True)
        (conv2): Conv2d(960, 960, kernel_size=(3, 3), stride=(1, 1), padding=(1, 1), groups=960, bias=False)
        (bn2): BatchNorm2d(960, eps=1e-05, momentum=0.1, affine=True, track_running_stats=True)
        (conv3): Conv2d(960, 160, kernel_size=(1, 1), stride=(1, 1), bias=False)
        (bn3): BatchNorm2d(160, eps=1e-05, momentum=0.1, affine=True, track_running_stats=True)
        (activation): ReLU6(inplace)
      )
      (LinearBottleneck5_2): LinearBottleneck(
        (conv1): Conv2d(160, 960, kernel_size=(1, 1), stride=(1, 1), bias=False)
        (bn1): BatchNorm2d(960, eps=1e-05, momentum=0.1, affine=True, track_running_stats=True)
        (conv2): Conv2d(960, 960, kernel_size=(3, 3), stride=(1, 1), padding=(1, 1), groups=960, bias=False)
        (bn2): BatchNorm2d(960, eps=1e-05, momentum=0.1, affine=True, track_running_stats=True)
        (conv3): Conv2d(960, 160, kernel_size=(1, 1), stride=(1, 1), bias=False)
        (bn3): BatchNorm2d(160, eps=1e-05, momentum=0.1, affine=True, track_running_stats=True)
        (activation): ReLU6(inplace)
      )
    )
    (Bottlenecks_6): Sequential(
      (LinearBottleneck6_0): LinearBottleneck(
        (conv1): Conv2d(160, 960, kernel_size=(1, 1), stride=(1, 1), bias=False)
        (bn1): BatchNorm2d(960, eps=1e-05, momentum=0.1, affine=True, track_running_stats=True)
        (conv2): Conv2d(960, 960, kernel_size=(3, 3), stride=(1, 1), padding=(1, 1), groups=960, bias=False)
        (bn2): BatchNorm2d(960, eps=1e-05, momentum=0.1, affine=True, track_running_stats=True)
        (conv3): Conv2d(960, 320, kernel_size=(1, 1), stride=(1, 1), bias=False)
        (bn3): BatchNorm2d(320, eps=1e-05, momentum=0.1, affine=True, track_running_stats=True)
        (activation): ReLU6(inplace)
      )
    )
  )
  (conv_last): Conv2d(320, 1280, kernel_size=(1, 1), stride=(1, 1), bias=False)
  (bn_last): BatchNorm2d(1280, eps=1e-05, momentum=0.1, affine=True, track_running_stats=True)
  (avgpool): AdaptiveAvgPool2d(output_size=1)
  (dropout): Dropout(p=0.2, inplace)
  (fc): Linear(in_features=1280, out_features=200, bias=True)
)
Ep: 1   EpTime: 34.0851  Trainloss: 5.3517   Testloss: 5.5587  TrainAcc: 1.17   Top1: 1.8534    Top5: 5.8972	lr:0.045000
Ep: 2   EpTime: 28.9917  Trainloss: 4.9134   Testloss: 4.7504  TrainAcc: 2.43   Top1: 3.6647    Top5: 14.6167	lr:0.045000
Ep: 3   EpTime: 28.6399  Trainloss: 4.6442   Testloss: 4.5505  TrainAcc: 4.09   Top1: 6.2763    Top5: 20.3875	lr:0.044100
Ep: 4   EpTime: 28.7215  Trainloss: 4.4074   Testloss: 4.1949  TrainAcc: 6.44   Top1: 8.0034    Top5: 27.1272	lr:0.043218
Ep: 5   EpTime: 28.6186  Trainloss: 4.2214   Testloss: 4.0357  TrainAcc: 8.26   Top1: 10.2780    Top5: 30.9604	lr:0.042354
Ep: 6   EpTime: 29.4251  Trainloss: 4.0693   Testloss: 3.9861  TrainAcc: 9.69   Top1: 11.9208    Top5: 33.7405	lr:0.041507
Ep: 7   EpTime: 29.7908  Trainloss: 3.9028   Testloss: 3.7520  TrainAcc: 12.16   Top1: 14.0691    Top5: 39.6799	lr:0.040676
Ep: 8   EpTime: 30.3152  Trainloss: 3.7624   Testloss: 3.9947  TrainAcc: 14.53   Top1: 13.3109    Top5: 39.1323	lr:0.039863
Ep: 9   EpTime: 29.2917  Trainloss: 3.6100   Testloss: 3.4073  TrainAcc: 16.92   Top1: 18.4920    Top5: 47.5990	lr:0.039066
Ep: 10   EpTime: 29.7622  Trainloss: 3.4703   Testloss: 3.3523  TrainAcc: 19.24   Top1: 20.7666    Top5: 49.6630	lr:0.038284
Ep: 11   EpTime: 29.4144  Trainloss: 3.3738   Testloss: 3.1825  TrainAcc: 20.97   Top1: 23.4204    Top5: 54.7178	lr:0.037519
Ep: 12   EpTime: 29.7399  Trainloss: 3.2138   Testloss: 3.0494  TrainAcc: 23.75   Top1: 27.6327    Top5: 55.8130	lr:0.036768
Ep: 13   EpTime: 29.2470  Trainloss: 3.0942   Testloss: 3.0462  TrainAcc: 26.14   Top1: 25.9478    Top5: 56.6133	lr:0.036033
Ep: 14   EpTime: 29.3408  Trainloss: 3.0332   Testloss: 2.8371  TrainAcc: 27.10   Top1: 30.1179    Top5: 61.7102	lr:0.035312
Ep: 15   EpTime: 29.2429  Trainloss: 2.9295   Testloss: 2.7517  TrainAcc: 29.36   Top1: 31.0025    Top5: 63.6478	lr:0.034606
Ep: 16   EpTime: 29.7399  Trainloss: 2.8135   Testloss: 2.7188  TrainAcc: 31.77   Top1: 34.0354    Top5: 63.3530	lr:0.033914
Ep: 17   EpTime: 29.2483  Trainloss: 2.7231   Testloss: 2.6876  TrainAcc: 32.81   Top1: 33.9511    Top5: 64.8273	lr:0.033236
Ep: 18   EpTime: 29.8230  Trainloss: 2.6336   Testloss: 2.5519  TrainAcc: 34.79   Top1: 36.1415    Top5: 67.2704	lr:0.032571
Ep: 19   EpTime: 29.4102  Trainloss: 2.5513   Testloss: 2.4053  TrainAcc: 37.84   Top1: 40.1011    Top5: 70.2190	lr:0.031919
Ep: 20   EpTime: 29.8784  Trainloss: 2.4859   Testloss: 2.4130  TrainAcc: 38.24   Top1: 39.6377    Top5: 71.4827	lr:0.031281
Ep: 21   EpTime: 29.4590  Trainloss: 2.3746   Testloss: 2.2831  TrainAcc: 40.41   Top1: 41.7860    Top5: 72.1988	lr:0.030655
Ep: 22   EpTime: 29.6654  Trainloss: 2.3675   Testloss: 2.2627  TrainAcc: 41.33   Top1: 42.6285    Top5: 73.5046	lr:0.030042
Ep: 23   EpTime: 29.1486  Trainloss: 2.2860   Testloss: 2.5196  TrainAcc: 42.73   Top1: 37.7001    Top5: 67.9023	lr:0.029442
Ep: 24   EpTime: 29.2979  Trainloss: 2.2368   Testloss: 2.2501  TrainAcc: 44.46   Top1: 43.5552    Top5: 72.8307	lr:0.028853
Ep: 25   EpTime: 29.5096  Trainloss: 2.1706   Testloss: 2.2503  TrainAcc: 46.02   Top1: 42.5021    Top5: 73.3783	lr:0.028276
Ep: 26   EpTime: 29.4579  Trainloss: 2.1119   Testloss: 2.2832  TrainAcc: 46.75   Top1: 44.8610    Top5: 74.1786	lr:0.027710
Ep: 27   EpTime: 29.1315  Trainloss: 2.0430   Testloss: 2.0481  TrainAcc: 48.43   Top1: 48.5257    Top5: 77.7591	lr:0.027156
Ep: 28   EpTime: 29.4040  Trainloss: 1.9785   Testloss: 2.2427  TrainAcc: 49.73   Top1: 45.5771    Top5: 74.6420	lr:0.026613
Ep: 29   EpTime: 29.4375  Trainloss: 1.9299   Testloss: 2.1169  TrainAcc: 51.13   Top1: 45.9983    Top5: 76.1163	lr:0.026081
Ep: 30   EpTime: 28.9605  Trainloss: 1.9300   Testloss: 2.0476  TrainAcc: 51.45   Top1: 47.7675    Top5: 77.1272	lr:0.025559
Ep: 31   EpTime: 29.2179  Trainloss: 1.8434   Testloss: 1.9958  TrainAcc: 53.01   Top1: 49.2418    Top5: 78.0960	lr:0.025048
Ep: 32   EpTime: 29.2850  Trainloss: 1.8095   Testloss: 1.8632  TrainAcc: 54.06   Top1: 51.9377    Top5: 79.9073	lr:0.024547
Ep: 33   EpTime: 29.1861  Trainloss: 1.7750   Testloss: 1.9085  TrainAcc: 54.88   Top1: 51.8534    Top5: 80.1179	lr:0.024056
Ep: 34   EpTime: 28.8413  Trainloss: 1.7660   Testloss: 1.8933  TrainAcc: 54.79   Top1: 51.9798    Top5: 79.7388	lr:0.023575
Ep: 35   EpTime: 28.9819  Trainloss: 1.6965   Testloss: 1.9052  TrainAcc: 57.12   Top1: 52.7801    Top5: 80.3707	lr:0.023103
Ep: 36   EpTime: 29.0895  Trainloss: 1.6668   Testloss: 1.7842  TrainAcc: 56.69   Top1: 55.1811    Top5: 81.6765	lr:0.022641
Ep: 37   EpTime: 29.2617  Trainloss: 1.6249   Testloss: 1.8645  TrainAcc: 58.65   Top1: 54.6335    Top5: 80.4970	lr:0.022188
Ep: 38   EpTime: 29.1303  Trainloss: 1.5866   Testloss: 1.8689  TrainAcc: 59.54   Top1: 55.0969    Top5: 80.0337	lr:0.021745
Ep: 39   EpTime: 29.1746  Trainloss: 1.5833   Testloss: 1.8427  TrainAcc: 59.13   Top1: 54.7178    Top5: 81.6344	lr:0.021310
Ep: 40   EpTime: 29.2834  Trainloss: 1.5229   Testloss: 1.8996  TrainAcc: 60.82   Top1: 54.8020    Top5: 81.1289	lr:0.020884
Ep: 41   EpTime: 29.4354  Trainloss: 1.5094   Testloss: 1.7731  TrainAcc: 61.08   Top1: 56.4448    Top5: 82.1398	lr:0.020466
Ep: 42   EpTime: 29.1816  Trainloss: 1.4520   Testloss: 1.8131  TrainAcc: 63.33   Top1: 55.7287    Top5: 81.0025	lr:0.020057
Ep: 43   EpTime: 29.0328  Trainloss: 1.4179   Testloss: 1.7114  TrainAcc: 64.64   Top1: 58.1719    Top5: 83.3193	lr:0.019655
Ep: 44   EpTime: 29.2327  Trainloss: 1.3789   Testloss: 1.7320  TrainAcc: 64.53   Top1: 57.2452    Top5: 83.4035	lr:0.019262
Ep: 45   EpTime: 29.5523  Trainloss: 1.4094   Testloss: 1.7537  TrainAcc: 63.79   Top1: 57.2873    Top5: 82.4347	lr:0.018877
Ep: 46   EpTime: 29.2824  Trainloss: 1.3512   Testloss: 1.7817  TrainAcc: 65.65   Top1: 55.6866    Top5: 83.0244	lr:0.018499
Ep: 47   EpTime: 29.2674  Trainloss: 1.3222   Testloss: 1.7739  TrainAcc: 66.16   Top1: 55.1811    Top5: 82.3083	lr:0.018130
Ep: 48   EpTime: 29.5419  Trainloss: 1.2815   Testloss: 1.6911  TrainAcc: 67.21   Top1: 57.7928    Top5: 84.0354	lr:0.017767
Ep: 49   EpTime: 29.0145  Trainloss: 1.2899   Testloss: 1.6519  TrainAcc: 66.94   Top1: 58.9301    Top5: 83.9090	lr:0.017412
Ep: 50   EpTime: 29.3890  Trainloss: 1.2659   Testloss: 1.7784  TrainAcc: 67.79   Top1: 55.7287    Top5: 82.5611	lr:0.017063
Ep: 51   EpTime: 29.0911  Trainloss: 1.2578   Testloss: 1.6924  TrainAcc: 68.01   Top1: 57.7085    Top5: 84.3724	lr:0.016722
Ep: 52   EpTime: 29.7137  Trainloss: 1.2020   Testloss: 1.7428  TrainAcc: 69.29   Top1: 57.2873    Top5: 83.2772	lr:0.016388
Ep: 53   EpTime: 29.4894  Trainloss: 1.1718   Testloss: 1.7131  TrainAcc: 70.30   Top1: 58.4246    Top5: 84.3302	lr:0.016060
Ep: 54   EpTime: 29.5027  Trainloss: 1.1767   Testloss: 1.6898  TrainAcc: 70.05   Top1: 58.2561    Top5: 83.4035	lr:0.015739
Ep: 55   EpTime: 29.2727  Trainloss: 1.1541   Testloss: 1.7266  TrainAcc: 70.68   Top1: 57.8770    Top5: 83.6142	lr:0.015424
Ep: 56   EpTime: 29.1493  Trainloss: 1.1538   Testloss: 1.7412  TrainAcc: 71.03   Top1: 59.2249    Top5: 82.7717	lr:0.015115
Ep: 57   EpTime: 29.5084  Trainloss: 1.1408   Testloss: 1.6992  TrainAcc: 70.46   Top1: 58.7195    Top5: 83.2772	lr:0.014813
Ep: 58   EpTime: 29.7370  Trainloss: 1.1331   Testloss: 1.7292  TrainAcc: 71.19   Top1: 58.7616    Top5: 83.5299	lr:0.014517
Ep: 59   EpTime: 29.1624  Trainloss: 1.0663   Testloss: 1.7249  TrainAcc: 73.14   Top1: 59.0986    Top5: 83.2772	lr:0.014227
Ep: 60   EpTime: 29.1841  Trainloss: 1.0921   Testloss: 1.7201  TrainAcc: 72.39   Top1: 59.0986    Top5: 84.1196	lr:0.013942
Ep: 61   EpTime: 29.3288  Trainloss: 1.0670   Testloss: 1.6914  TrainAcc: 73.61   Top1: 59.3513    Top5: 83.6563	lr:0.013663
Ep: 62   EpTime: 29.2554  Trainloss: 1.0137   Testloss: 1.7105  TrainAcc: 74.16   Top1: 58.9301    Top5: 83.4878	lr:0.013390
Ep: 63   EpTime: 29.3691  Trainloss: 0.9948   Testloss: 1.7945  TrainAcc: 75.03   Top1: 58.4667    Top5: 82.7717	lr:0.013122
Ep: 64   EpTime: 29.1024  Trainloss: 1.0258   Testloss: 1.7820  TrainAcc: 74.08   Top1: 59.3092    Top5: 83.8669	lr:0.012860
Ep: 65   EpTime: 29.5596  Trainloss: 1.0020   Testloss: 1.7341  TrainAcc: 75.33   Top1: 59.5198    Top5: 83.4035	lr:0.012602
Ep: 66   EpTime: 29.3411  Trainloss: 0.9609   Testloss: 1.6788  TrainAcc: 76.12   Top1: 59.6462    Top5: 84.6672	lr:0.012350
Ep: 67   EpTime: 29.0692  Trainloss: 0.9530   Testloss: 1.6861  TrainAcc: 76.29   Top1: 60.3623    Top5: 84.0354	lr:0.012103
Ep: 68   EpTime: 28.9779  Trainloss: 0.9598   Testloss: 1.7120  TrainAcc: 76.08   Top1: 59.8147    Top5: 84.3302	lr:0.011861
Ep: 69   EpTime: 29.2328  Trainloss: 0.9219   Testloss: 1.6798  TrainAcc: 77.01   Top1: 59.9831    Top5: 84.4145	lr:0.011624
Ep: 70   EpTime: 29.3753  Trainloss: 0.9401   Testloss: 1.6892  TrainAcc: 76.21   Top1: 59.8568    Top5: 84.6672	lr:0.011392
Ep: 71   EpTime: 29.2703  Trainloss: 0.8896   Testloss: 1.7104  TrainAcc: 78.11   Top1: 61.0362    Top5: 84.6672	lr:0.011164
Ep: 72   EpTime: 29.1437  Trainloss: 0.8931   Testloss: 1.7509  TrainAcc: 78.03   Top1: 59.9831    Top5: 84.6672	lr:0.010941
Ep: 73   EpTime: 28.6950  Trainloss: 0.8595   Testloss: 1.7184  TrainAcc: 79.06   Top1: 59.8147    Top5: 84.0354	lr:0.010722
Ep: 74   EpTime: 28.8534  Trainloss: 0.9013   Testloss: 1.6806  TrainAcc: 77.85   Top1: 61.1205    Top5: 85.0885	lr:0.010507
Ep: 75   EpTime: 28.7687  Trainloss: 0.8764   Testloss: 1.6591  TrainAcc: 78.50   Top1: 61.1626    Top5: 85.1306	lr:0.010297
Ep: 76   EpTime: 29.2369  Trainloss: 0.8438   Testloss: 1.7124  TrainAcc: 78.84   Top1: 60.1938    Top5: 84.7936	lr:0.010091
Ep: 77   EpTime: 29.1487  Trainloss: 0.8217   Testloss: 1.6968  TrainAcc: 79.69   Top1: 60.4886    Top5: 84.6251	lr:0.009889
Ep: 78   EpTime: 29.1150  Trainloss: 0.8549   Testloss: 1.6851  TrainAcc: 79.41   Top1: 60.2359    Top5: 85.0463	lr:0.009692
Ep: 79   EpTime: 29.2879  Trainloss: 0.8251   Testloss: 1.7113  TrainAcc: 79.98   Top1: 60.6992    Top5: 84.2881	lr:0.009498
Ep: 80   EpTime: 29.2496  Trainloss: 0.8287   Testloss: 1.6826  TrainAcc: 80.05   Top1: 60.5729    Top5: 84.7515	lr:0.009308
Ep: 81   EpTime: 28.6498  Trainloss: 0.8321   Testloss: 1.7024  TrainAcc: 79.73   Top1: 60.6571    Top5: 84.4987	lr:0.009122
Ep: 82   EpTime: 29.4732  Trainloss: 0.8154   Testloss: 1.7023  TrainAcc: 79.97   Top1: 60.6992    Top5: 84.7093	lr:0.008939
Ep: 83   EpTime: 29.0116  Trainloss: 0.7967   Testloss: 1.6607  TrainAcc: 80.64   Top1: 62.3420    Top5: 85.2148	lr:0.008760
Ep: 84   EpTime: 29.6652  Trainloss: 0.7706   Testloss: 1.6971  TrainAcc: 80.99   Top1: 60.6150    Top5: 84.9200	lr:0.008585
Ep: 85   EpTime: 29.0338  Trainloss: 0.7821   Testloss: 1.7455  TrainAcc: 81.06   Top1: 60.5307    Top5: 84.6251	lr:0.008414
Ep: 86   EpTime: 29.1378  Trainloss: 0.7535   Testloss: 1.6866  TrainAcc: 81.85   Top1: 60.6571    Top5: 85.2569	lr:0.008245
Ep: 87   EpTime: 29.4587  Trainloss: 0.7715   Testloss: 1.6985  TrainAcc: 81.48   Top1: 61.2890    Top5: 84.7515	lr:0.008080
Ep: 88   EpTime: 28.8105  Trainloss: 0.7816   Testloss: 1.7299  TrainAcc: 80.86   Top1: 60.7835    Top5: 84.6251	lr:0.007919
Ep: 89   EpTime: 29.3030  Trainloss: 0.7455   Testloss: 1.7059  TrainAcc: 82.13   Top1: 60.9099    Top5: 85.0042	lr:0.007760
Ep: 90   EpTime: 29.2768  Trainloss: 0.7525   Testloss: 1.7139  TrainAcc: 81.94   Top1: 61.4996    Top5: 85.5939	lr:0.007605
Ep: 91   EpTime: 29.3278  Trainloss: 0.7632   Testloss: 1.7085  TrainAcc: 81.59   Top1: 60.2359    Top5: 84.7515	lr:0.007453
Ep: 92   EpTime: 29.0587  Trainloss: 0.7002   Testloss: 1.7415  TrainAcc: 83.10   Top1: 59.8568    Top5: 84.4987	lr:0.007304
Ep: 93   EpTime: 28.9891  Trainloss: 0.7226   Testloss: 1.6902  TrainAcc: 82.71   Top1: 61.4575    Top5: 85.5097	lr:0.007158
Ep: 94   EpTime: 29.2845  Trainloss: 0.7467   Testloss: 1.7369  TrainAcc: 82.39   Top1: 60.4886    Top5: 84.8778	lr:0.007015
Ep: 95   EpTime: 29.1162  Trainloss: 0.7144   Testloss: 1.7495  TrainAcc: 82.33   Top1: 60.1938    Top5: 84.3302	lr:0.006874
Ep: 96   EpTime: 29.4589  Trainloss: 0.7110   Testloss: 1.7300  TrainAcc: 82.62   Top1: 60.9520    Top5: 84.7936	lr:0.006737
Ep: 97   EpTime: 29.2043  Trainloss: 0.6974   Testloss: 1.7362  TrainAcc: 83.41   Top1: 61.4996    Top5: 84.7515	lr:0.006602
Ep: 98   EpTime: 29.6621  Trainloss: 0.7043   Testloss: 1.7187  TrainAcc: 83.03   Top1: 61.5838    Top5: 84.6672	lr:0.006470
Ep: 99   EpTime: 29.4369  Trainloss: 0.6623   Testloss: 1.7087  TrainAcc: 84.14   Top1: 61.2890    Top5: 84.5409	lr:0.006341
Ep: 100   EpTime: 28.9779  Trainloss: 0.6954   Testloss: 1.6914  TrainAcc: 83.26   Top1: 61.1626    Top5: 84.9200	lr:0.006214
Ep: 101   EpTime: 29.3163  Trainloss: 0.6844   Testloss: 1.7104  TrainAcc: 83.31   Top1: 61.9208    Top5: 85.0042	lr:0.006090
Ep: 102   EpTime: 29.3575  Trainloss: 0.6911   Testloss: 1.7490  TrainAcc: 83.18   Top1: 61.2047    Top5: 84.6251	lr:0.005968
Ep: 103   EpTime: 29.6295  Trainloss: 0.6758   Testloss: 1.7117  TrainAcc: 83.77   Top1: 61.3732    Top5: 84.4145	lr:0.005849
Ep: 104   EpTime: 29.1957  Trainloss: 0.6738   Testloss: 1.7363  TrainAcc: 84.04   Top1: 60.3623    Top5: 84.2460	lr:0.005732
Ep: 105   EpTime: 29.2499  Trainloss: 0.6851   Testloss: 1.7767  TrainAcc: 83.47   Top1: 60.9941    Top5: 84.4145	lr:0.005617
Ep: 106   EpTime: 29.4436  Trainloss: 0.6581   Testloss: 1.7422  TrainAcc: 84.20   Top1: 61.4153    Top5: 84.4145	lr:0.005505
Ep: 107   EpTime: 29.3203  Trainloss: 0.6565   Testloss: 1.7558  TrainAcc: 84.22   Top1: 61.0783    Top5: 83.8669	lr:0.005394
Ep: 108   EpTime: 29.4078  Trainloss: 0.6474   Testloss: 1.7385  TrainAcc: 84.44   Top1: 61.4996    Top5: 84.5409	lr:0.005287
Ep: 109   EpTime: 29.7965  Trainloss: 0.6758   Testloss: 1.6998  TrainAcc: 83.86   Top1: 61.7523    Top5: 84.6672	lr:0.005181
Ep: 110   EpTime: 29.7594  Trainloss: 0.6221   Testloss: 1.7526  TrainAcc: 85.02   Top1: 61.5417    Top5: 84.8778	lr:0.005077
Ep: 111   EpTime: 29.4547  Trainloss: 0.6320   Testloss: 1.7116  TrainAcc: 84.28   Top1: 61.7523    Top5: 84.5409	lr:0.004976
Ep: 112   EpTime: 29.5494  Trainloss: 0.6595   Testloss: 1.7320  TrainAcc: 84.08   Top1: 61.2047    Top5: 84.7936	lr:0.004876
Ep: 113   EpTime: 29.1310  Trainloss: 0.6301   Testloss: 1.7167  TrainAcc: 84.93   Top1: 62.1735    Top5: 84.9200	lr:0.004779
Ep: 114   EpTime: 29.2350  Trainloss: 0.6205   Testloss: 1.7267  TrainAcc: 84.95   Top1: 61.8787    Top5: 85.0885	lr:0.004683
Ep: 115   EpTime: 29.3160  Trainloss: 0.6278   Testloss: 1.7434  TrainAcc: 85.10   Top1: 61.7523    Top5: 84.6672	lr:0.004589
Ep: 116   EpTime: 29.4987  Trainloss: 0.5884   Testloss: 1.7356  TrainAcc: 85.86   Top1: 61.2468    Top5: 85.0463	lr:0.004498
Ep: 117   EpTime: 29.1783  Trainloss: 0.6154   Testloss: 1.7215  TrainAcc: 85.44   Top1: 61.7523    Top5: 84.8357	lr:0.004408
Ep: 118   EpTime: 29.3994  Trainloss: 0.6227   Testloss: 1.7498  TrainAcc: 84.97   Top1: 61.0362    Top5: 84.9200	lr:0.004320
Ep: 119   EpTime: 29.1124  Trainloss: 0.6006   Testloss: 1.7209  TrainAcc: 85.90   Top1: 61.4996    Top5: 84.7093	lr:0.004233
Ep: 120   EpTime: 29.7162  Trainloss: 0.6170   Testloss: 1.7150  TrainAcc: 85.51   Top1: 62.0893    Top5: 84.9200	lr:0.004148
Ep: 121   EpTime: 29.3228  Trainloss: 0.6028   Testloss: 1.7392  TrainAcc: 85.50   Top1: 62.0893    Top5: 84.9621	lr:0.004066
Ep: 122   EpTime: 29.1992  Trainloss: 0.6090   Testloss: 1.7245  TrainAcc: 85.41   Top1: 61.8787    Top5: 85.0885	lr:0.003984
Ep: 123   EpTime: 28.9977  Trainloss: 0.6157   Testloss: 1.7280  TrainAcc: 84.95   Top1: 61.9208    Top5: 85.2148	lr:0.003905
Ep: 124   EpTime: 29.4240  Trainloss: 0.5934   Testloss: 1.7419  TrainAcc: 85.47   Top1: 61.7523    Top5: 84.4566	lr:0.003826
Ep: 125   EpTime: 29.1015  Trainloss: 0.5961   Testloss: 1.7262  TrainAcc: 85.85   Top1: 61.7944    Top5: 84.9621	lr:0.003750
Ep: 126   EpTime: 29.1793  Trainloss: 0.5913   Testloss: 1.6842  TrainAcc: 86.00   Top1: 63.0160    Top5: 85.1727	lr:0.003675
Ep: 127   EpTime: 29.2079  Trainloss: 0.5666   Testloss: 1.7352  TrainAcc: 86.36   Top1: 61.8366    Top5: 84.6251	lr:0.003601
Ep: 128   EpTime: 29.6029  Trainloss: 0.5564   Testloss: 1.6985  TrainAcc: 86.68   Top1: 62.2999    Top5: 85.0885	lr:0.003529
Ep: 129   EpTime: 29.2864  Trainloss: 0.5703   Testloss: 1.7042  TrainAcc: 86.52   Top1: 62.3842    Top5: 85.1727	lr:0.003459
Ep: 130   EpTime: 29.4096  Trainloss: 0.5648   Testloss: 1.6988  TrainAcc: 86.63   Top1: 62.0472    Top5: 85.2569	lr:0.003390
Ep: 131   EpTime: 29.2531  Trainloss: 0.5466   Testloss: 1.7234  TrainAcc: 87.38   Top1: 62.0472    Top5: 84.9200	lr:0.003322
Ep: 132   EpTime: 29.3388  Trainloss: 0.5749   Testloss: 1.7532  TrainAcc: 86.39   Top1: 61.4153    Top5: 84.8778	lr:0.003255
Ep: 133   EpTime: 29.4759  Trainloss: 0.5751   Testloss: 1.7017  TrainAcc: 86.36   Top1: 62.0472    Top5: 85.1306	lr:0.003190
Ep: 134   EpTime: 29.0070  Trainloss: 0.5575   Testloss: 1.7053  TrainAcc: 86.81   Top1: 61.7523    Top5: 85.0463	lr:0.003126
Ep: 135   EpTime: 29.4074  Trainloss: 0.5930   Testloss: 1.7260  TrainAcc: 85.80   Top1: 62.4684    Top5: 84.7936	lr:0.003064
Ep: 136   EpTime: 29.2416  Trainloss: 0.5858   Testloss: 1.7179  TrainAcc: 85.55   Top1: 61.9208    Top5: 84.8778	lr:0.003003
Ep: 137   EpTime: 29.1544  Trainloss: 0.5343   Testloss: 1.7097  TrainAcc: 87.44   Top1: 62.2157    Top5: 84.8357	lr:0.002943
Ep: 138   EpTime: 29.6272  Trainloss: 0.5584   Testloss: 1.7123  TrainAcc: 86.62   Top1: 61.7523    Top5: 84.3724	lr:0.002884
Ep: 139   EpTime: 29.7073  Trainloss: 0.5498   Testloss: 1.7303  TrainAcc: 87.07   Top1: 61.7944    Top5: 84.8357	lr:0.002826
Ep: 140   EpTime: 29.2673  Trainloss: 0.5554   Testloss: 1.7150  TrainAcc: 86.94   Top1: 62.0051    Top5: 85.2569	lr:0.002770
Ep: 141   EpTime: 29.0563  Trainloss: 0.5490   Testloss: 1.7124  TrainAcc: 86.91   Top1: 61.7944    Top5: 85.1306	lr:0.002714
Ep: 142   EpTime: 29.3698  Trainloss: 0.5428   Testloss: 1.7295  TrainAcc: 87.52   Top1: 61.7523    Top5: 84.6672	lr:0.002660
Ep: 143   EpTime: 29.4361  Trainloss: 0.5435   Testloss: 1.7342  TrainAcc: 86.81   Top1: 61.7102    Top5: 85.0885	lr:0.002607
Ep: 144   EpTime: 29.2653  Trainloss: 0.5657   Testloss: 1.7422  TrainAcc: 86.39   Top1: 61.8366    Top5: 85.2569	lr:0.002555
Ep: 145   EpTime: 29.5505  Trainloss: 0.5474   Testloss: 1.7134  TrainAcc: 86.99   Top1: 62.0051    Top5: 85.0463	lr:0.002503
Ep: 146   EpTime: 29.3222  Trainloss: 0.5778   Testloss: 1.7427  TrainAcc: 86.04   Top1: 61.6259    Top5: 84.9200	lr:0.002453
Ep: 147   EpTime: 29.6747  Trainloss: 0.5632   Testloss: 1.7304  TrainAcc: 86.82   Top1: 61.4575    Top5: 84.7515	lr:0.002404
Ep: 148   EpTime: 29.4219  Trainloss: 0.5375   Testloss: 1.7277  TrainAcc: 87.50   Top1: 61.2890    Top5: 85.0463	lr:0.002356
Ep: 149   EpTime: 29.5673  Trainloss: 0.5265   Testloss: 1.7502  TrainAcc: 87.62   Top1: 61.5417    Top5: 84.2039	lr:0.002309
Ep: 150   EpTime: 29.7035  Trainloss: 0.5308   Testloss: 1.7590  TrainAcc: 87.67   Top1: 61.1205    Top5: 84.8357	lr:0.002263
Ep: 151   EpTime: 30.0177  Trainloss: 0.5368   Testloss: 1.7674  TrainAcc: 87.43   Top1: 61.7944    Top5: 84.2039	lr:0.002218
Ep: 152   EpTime: 29.3886  Trainloss: 0.5165   Testloss: 1.7422  TrainAcc: 87.61   Top1: 61.4575    Top5: 84.7936	lr:0.002173
Ep: 153   EpTime: 29.2579  Trainloss: 0.5267   Testloss: 1.7633  TrainAcc: 87.24   Top1: 62.0472    Top5: 84.8778	lr:0.002130
Ep: 154   EpTime: 29.6570  Trainloss: 0.5626   Testloss: 1.7537  TrainAcc: 86.63   Top1: 61.4153    Top5: 84.8357	lr:0.002087
Ep: 155   EpTime: 29.7456  Trainloss: 0.5227   Testloss: 1.7498  TrainAcc: 87.57   Top1: 61.9629    Top5: 84.9200	lr:0.002046
Ep: 156   EpTime: 29.0975  Trainloss: 0.5302   Testloss: 1.7413  TrainAcc: 87.71   Top1: 61.2047    Top5: 84.9200	lr:0.002005
Ep: 157   EpTime: 29.7523  Trainloss: 0.5139   Testloss: 1.7398  TrainAcc: 87.93   Top1: 61.7944    Top5: 84.8357	lr:0.001965
Ep: 158   EpTime: 29.4020  Trainloss: 0.5152   Testloss: 1.7318  TrainAcc: 87.56   Top1: 61.7944    Top5: 85.1306	lr:0.001925
Ep: 159   EpTime: 29.9568  Trainloss: 0.5440   Testloss: 1.7538  TrainAcc: 87.29   Top1: 61.2890    Top5: 84.8778	lr:0.001887
Ep: 160   EpTime: 29.7256  Trainloss: 0.5382   Testloss: 1.7305  TrainAcc: 87.32   Top1: 61.4996    Top5: 84.8778	lr:0.001849
Ep: 161   EpTime: 29.4689  Trainloss: 0.5341   Testloss: 1.7531  TrainAcc: 87.59   Top1: 60.8256    Top5: 84.8778	lr:0.001812
Ep: 162   EpTime: 29.5623  Trainloss: 0.5388   Testloss: 1.7413  TrainAcc: 87.35   Top1: 61.3311    Top5: 85.4254	lr:0.001776
Ep: 163   EpTime: 29.3780  Trainloss: 0.5184   Testloss: 1.7396  TrainAcc: 87.73   Top1: 61.6259    Top5: 85.0042	lr:0.001740
Ep: 164   EpTime: 29.4072  Trainloss: 0.5190   Testloss: 1.7355  TrainAcc: 88.01   Top1: 61.9629    Top5: 84.6251	lr:0.001705
Ep: 165   EpTime: 30.0175  Trainloss: 0.5092   Testloss: 1.7378  TrainAcc: 88.11   Top1: 61.9629    Top5: 85.0042	lr:0.001671
Ep: 166   EpTime: 29.6837  Trainloss: 0.5307   Testloss: 1.7393  TrainAcc: 87.42   Top1: 61.4996    Top5: 85.2991	lr:0.001638
Ep: 167   EpTime: 29.6715  Trainloss: 0.5051   Testloss: 1.7450  TrainAcc: 88.26   Top1: 62.0051    Top5: 84.8778	lr:0.001605
Ep: 168   EpTime: 29.5358  Trainloss: 0.5398   Testloss: 1.7361  TrainAcc: 87.06   Top1: 61.4575    Top5: 85.0042	lr:0.001573
Ep: 169   EpTime: 29.3380  Trainloss: 0.5187   Testloss: 1.7399  TrainAcc: 87.74   Top1: 61.2890    Top5: 84.5409	lr:0.001542
Ep: 170   EpTime: 29.4535  Trainloss: 0.5154   Testloss: 1.7210  TrainAcc: 87.86   Top1: 61.2890    Top5: 84.9621	lr:0.001511
Ep: 171   EpTime: 29.6426  Trainloss: 0.5165   Testloss: 1.7481  TrainAcc: 87.86   Top1: 61.8366    Top5: 84.2881	lr:0.001481
Ep: 172   EpTime: 29.8451  Trainloss: 0.4833   Testloss: 1.7525  TrainAcc: 88.18   Top1: 61.2047    Top5: 84.5830	lr:0.001451
Ep: 173   EpTime: 29.4709  Trainloss: 0.4883   Testloss: 1.7311  TrainAcc: 88.53   Top1: 61.8366    Top5: 84.7515	lr:0.001422
Ep: 174   EpTime: 29.5908  Trainloss: 0.4725   Testloss: 1.7335  TrainAcc: 88.85   Top1: 61.6259    Top5: 84.6251	lr:0.001393
Ep: 175   EpTime: 29.8582  Trainloss: 0.4651   Testloss: 1.7496  TrainAcc: 88.91   Top1: 62.1735    Top5: 84.4566	lr:0.001366
Ep: 176   EpTime: 29.6002  Trainloss: 0.5037   Testloss: 1.7339  TrainAcc: 87.75   Top1: 61.8787    Top5: 84.5409	lr:0.001338
Ep: 177   EpTime: 29.4492  Trainloss: 0.5104   Testloss: 1.7379  TrainAcc: 87.96   Top1: 62.2999    Top5: 84.6251	lr:0.001312
Ep: 178   EpTime: 29.8839  Trainloss: 0.5031   Testloss: 1.7272  TrainAcc: 88.22   Top1: 61.8366    Top5: 84.8778	lr:0.001285
Ep: 179   EpTime: 29.8240  Trainloss: 0.4758   Testloss: 1.7484  TrainAcc: 88.78   Top1: 61.4153    Top5: 84.6251	lr:0.001260
Ep: 180   EpTime: 29.3640  Trainloss: 0.4902   Testloss: 1.7447  TrainAcc: 88.16   Top1: 62.0472    Top5: 84.6251	lr:0.001234
Ep: 181   EpTime: 29.4713  Trainloss: 0.4980   Testloss: 1.7359  TrainAcc: 87.97   Top1: 62.0472    Top5: 84.7093	lr:0.001210
Ep: 182   EpTime: 29.6851  Trainloss: 0.5130   Testloss: 1.7429  TrainAcc: 87.58   Top1: 62.1314    Top5: 84.8778	lr:0.001186
Ep: 183   EpTime: 29.5663  Trainloss: 0.5088   Testloss: 1.7415  TrainAcc: 87.91   Top1: 61.8787    Top5: 85.1306	lr:0.001162
Ep: 184   EpTime: 29.2353  Trainloss: 0.5045   Testloss: 1.7467  TrainAcc: 88.19   Top1: 62.0893    Top5: 84.8357	lr:0.001139
Ep: 185   EpTime: 29.5317  Trainloss: 0.4996   Testloss: 1.7418  TrainAcc: 88.32   Top1: 61.7944    Top5: 84.4566	lr:0.001116
Ep: 186   EpTime: 29.2032  Trainloss: 0.4897   Testloss: 1.7472  TrainAcc: 88.41   Top1: 61.6681    Top5: 84.3302	lr:0.001093
Ep: 187   EpTime: 30.0326  Trainloss: 0.5011   Testloss: 1.7439  TrainAcc: 88.17   Top1: 61.5838    Top5: 84.2039	lr:0.001072
Ep: 188   EpTime: 29.6080  Trainloss: 0.4976   Testloss: 1.7421  TrainAcc: 88.29   Top1: 61.7102    Top5: 84.2460	lr:0.001050
Ep: 189   EpTime: 29.3535  Trainloss: 0.4698   Testloss: 1.7339  TrainAcc: 88.72   Top1: 62.4684    Top5: 84.1196	lr:0.001029
Ep: 190   EpTime: 29.6669  Trainloss: 0.4691   Testloss: 1.7365  TrainAcc: 88.78   Top1: 62.1314    Top5: 84.3724	lr:0.001009
Ep: 191   EpTime: 29.0760  Trainloss: 0.5001   Testloss: 1.7530  TrainAcc: 88.24   Top1: 61.1626    Top5: 84.2460	lr:0.000988
Ep: 192   EpTime: 29.8896  Trainloss: 0.4518   Testloss: 1.7495  TrainAcc: 89.14   Top1: 61.6681    Top5: 84.2881	lr:0.000969
Ep: 193   EpTime: 29.1565  Trainloss: 0.4850   Testloss: 1.7567  TrainAcc: 88.46   Top1: 61.0362    Top5: 84.6251	lr:0.000949
Ep: 194   EpTime: 29.5237  Trainloss: 0.4667   Testloss: 1.7443  TrainAcc: 89.01   Top1: 61.2890    Top5: 84.0775	lr:0.000930
Ep: 195   EpTime: 29.3073  Trainloss: 0.4809   Testloss: 1.7418  TrainAcc: 88.80   Top1: 62.4684    Top5: 84.4566	lr:0.000912
Ep: 196   EpTime: 29.6763  Trainloss: 0.4705   Testloss: 1.7520  TrainAcc: 88.85   Top1: 61.6259    Top5: 84.4145	lr:0.000893
Ep: 197   EpTime: 29.2886  Trainloss: 0.4688   Testloss: 1.7433  TrainAcc: 88.96   Top1: 62.0893    Top5: 84.5830	lr:0.000876
Ep: 198   EpTime: 29.4936  Trainloss: 0.4840   Testloss: 1.7421  TrainAcc: 88.48   Top1: 61.6681    Top5: 84.7093	lr:0.000858
Ep: 199   EpTime: 29.5222  Trainloss: 0.4947   Testloss: 1.7504  TrainAcc: 88.43   Top1: 61.4153    Top5: 84.5409	lr:0.000841
Ep: 200   EpTime: 29.5784  Trainloss: 0.4694   Testloss: 1.7480  TrainAcc: 88.94   Top1: 61.4575    Top5: 84.1196	lr:0.000824
Ep: 201   EpTime: 29.6311  Trainloss: 0.4823   Testloss: 1.7535  TrainAcc: 88.75   Top1: 61.3311    Top5: 84.6251	lr:0.000808
Ep: 202   EpTime: 29.9521  Trainloss: 0.4690   Testloss: 1.7523  TrainAcc: 89.19   Top1: 61.7102    Top5: 84.5409	lr:0.000791
Ep: 203   EpTime: 29.6579  Trainloss: 0.4650   Testloss: 1.7399  TrainAcc: 88.86   Top1: 61.5838    Top5: 84.7936	lr:0.000776
Ep: 204   EpTime: 29.6043  Trainloss: 0.4765   Testloss: 1.7408  TrainAcc: 88.94   Top1: 61.0783    Top5: 84.6251	lr:0.000760
Ep: 205   EpTime: 29.3195  Trainloss: 0.4849   Testloss: 1.7468  TrainAcc: 88.57   Top1: 61.3732    Top5: 85.0463	lr:0.000745
Ep: 206   EpTime: 29.1392  Trainloss: 0.4741   Testloss: 1.7451  TrainAcc: 88.81   Top1: 61.9208    Top5: 84.7093	lr:0.000730
Ep: 207   EpTime: 29.6425  Trainloss: 0.4901   Testloss: 1.7402  TrainAcc: 88.60   Top1: 61.4996    Top5: 84.7515	lr:0.000715
Ep: 208   EpTime: 29.2947  Trainloss: 0.4870   Testloss: 1.7506  TrainAcc: 88.35   Top1: 61.7102    Top5: 84.6251	lr:0.000701
Ep: 209   EpTime: 29.3749  Trainloss: 0.4924   Testloss: 1.7538  TrainAcc: 88.34   Top1: 61.8787    Top5: 84.4145	lr:0.000687
Ep: 210   EpTime: 29.4126  Trainloss: 0.4724   Testloss: 1.7499  TrainAcc: 88.56   Top1: 61.5838    Top5: 84.5830	lr:0.000673
Ep: 211   EpTime: 29.3565  Trainloss: 0.4601   Testloss: 1.7446  TrainAcc: 89.35   Top1: 62.0051    Top5: 84.6672	lr:0.000660
Ep: 212   EpTime: 29.3757  Trainloss: 0.4839   Testloss: 1.7404  TrainAcc: 88.50   Top1: 61.9629    Top5: 84.4566	lr:0.000647
Ep: 213   EpTime: 29.7197  Trainloss: 0.4878   Testloss: 1.7480  TrainAcc: 88.51   Top1: 62.0051    Top5: 84.4987	lr:0.000634
Ep: 214   EpTime: 29.5278  Trainloss: 0.4717   Testloss: 1.7502  TrainAcc: 88.73   Top1: 61.7102    Top5: 84.4566	lr:0.000621
Ep: 215   EpTime: 29.7592  Trainloss: 0.4763   Testloss: 1.7384  TrainAcc: 88.77   Top1: 62.3842    Top5: 84.4145	lr:0.000609
Ep: 216   EpTime: 28.9971  Trainloss: 0.4819   Testloss: 1.7440  TrainAcc: 88.78   Top1: 62.1735    Top5: 84.4987	lr:0.000596
Ep: 217   EpTime: 29.3274  Trainloss: 0.4680   Testloss: 1.7459  TrainAcc: 88.67   Top1: 61.7944    Top5: 84.2039	lr:0.000585
Ep: 218   EpTime: 29.0506  Trainloss: 0.4457   Testloss: 1.7463  TrainAcc: 89.58   Top1: 62.0051    Top5: 84.4987	lr:0.000573
Ep: 219   EpTime: 29.4198  Trainloss: 0.4771   Testloss: 1.7411  TrainAcc: 88.65   Top1: 62.1314    Top5: 84.2881	lr:0.000561
Ep: 220   EpTime: 29.5052  Trainloss: 0.4572   Testloss: 1.7338  TrainAcc: 89.44   Top1: 62.3420    Top5: 84.4145	lr:0.000550
Ep: 221   EpTime: 29.1080  Trainloss: 0.4783   Testloss: 1.7569  TrainAcc: 88.66   Top1: 61.7523    Top5: 84.2039	lr:0.000539
Ep: 222   EpTime: 29.6191  Trainloss: 0.4888   Testloss: 1.7582  TrainAcc: 88.35   Top1: 61.3311    Top5: 84.4145	lr:0.000528
Ep: 223   EpTime: 29.3484  Trainloss: 0.4720   Testloss: 1.7472  TrainAcc: 89.16   Top1: 61.7102    Top5: 84.2881	lr:0.000518
Ep: 224   EpTime: 29.7720  Trainloss: 0.4491   Testloss: 1.7488  TrainAcc: 89.43   Top1: 61.8366    Top5: 84.2460	lr:0.000507
Ep: 225   EpTime: 29.3333  Trainloss: 0.4663   Testloss: 1.7541  TrainAcc: 89.10   Top1: 61.7102    Top5: 84.4987	lr:0.000497
Ep: 226   EpTime: 29.2641  Trainloss: 0.4798   Testloss: 1.7591  TrainAcc: 88.62   Top1: 61.4996    Top5: 84.4987	lr:0.000487
Ep: 227   EpTime: 29.4212  Trainloss: 0.4613   Testloss: 1.7495  TrainAcc: 89.13   Top1: 61.6259    Top5: 84.0775	lr:0.000478
Ep: 228   EpTime: 29.9087  Trainloss: 0.4733   Testloss: 1.7414  TrainAcc: 88.82   Top1: 61.9629    Top5: 84.1196	lr:0.000468
Ep: 229   EpTime: 29.2195  Trainloss: 0.4483   Testloss: 1.7529  TrainAcc: 89.23   Top1: 61.4996    Top5: 84.0354	lr:0.000459
Ep: 230   EpTime: 29.6899  Trainloss: 0.4613   Testloss: 1.7471  TrainAcc: 88.86   Top1: 61.5417    Top5: 84.7936	lr:0.000450
Ep: 231   EpTime: 29.4854  Trainloss: 0.4705   Testloss: 1.7596  TrainAcc: 88.91   Top1: 61.6681    Top5: 84.3724	lr:0.000441
Ep: 232   EpTime: 29.4939  Trainloss: 0.4806   Testloss: 1.7571  TrainAcc: 88.75   Top1: 61.6259    Top5: 84.2881	lr:0.000432
Ep: 233   EpTime: 29.7294  Trainloss: 0.4651   Testloss: 1.7512  TrainAcc: 88.88   Top1: 61.1205    Top5: 84.7093	lr:0.000423
Ep: 234   EpTime: 29.6362  Trainloss: 0.4711   Testloss: 1.7503  TrainAcc: 88.79   Top1: 61.5838    Top5: 84.5409	lr:0.000415
Ep: 235   EpTime: 29.3667  Trainloss: 0.4755   Testloss: 1.7552  TrainAcc: 88.82   Top1: 61.3732    Top5: 84.5409	lr:0.000406
Ep: 236   EpTime: 29.5128  Trainloss: 0.4673   Testloss: 1.7553  TrainAcc: 88.85   Top1: 61.9208    Top5: 84.4987	lr:0.000398
Ep: 237   EpTime: 29.9951  Trainloss: 0.4699   Testloss: 1.7560  TrainAcc: 89.31   Top1: 60.6150    Top5: 84.5830	lr:0.000390
Ep: 238   EpTime: 29.6528  Trainloss: 0.4982   Testloss: 1.7571  TrainAcc: 88.18   Top1: 61.2890    Top5: 84.6251	lr:0.000382
Ep: 239   EpTime: 29.7172  Trainloss: 0.4596   Testloss: 1.7609  TrainAcc: 89.03   Top1: 61.0783    Top5: 84.5830	lr:0.000375
