[32, 16, 24, 32, 64, 96, 160, 320]
MobileNet2(
  (activation): ReLU6(inplace)
  (conv1): Conv2d(3, 32, kernel_size=(3, 3), stride=(2, 2), padding=(1, 1), bias=False)
  (bn1): BatchNorm2d(32, eps=1e-05, momentum=0.1, affine=True, track_running_stats=True)
  (bottlenecks): Sequential(
    (Bottlenecks_0): Sequential(
      (LinearBottleneck0_0): LinearBottleneck(
        (conv1): Conv2d(32, 32, kernel_size=(1, 1), stride=(1, 1), bias=False)
        (bn1): BatchNorm2d(32, eps=1e-05, momentum=0.1, affine=True, track_running_stats=True)
        (conv2): Conv2d(32, 32, kernel_size=(3, 3), stride=(1, 1), padding=(1, 1), groups=32, bias=False)
        (bn2): BatchNorm2d(32, eps=1e-05, momentum=0.1, affine=True, track_running_stats=True)
        (conv3): Conv2d(32, 16, kernel_size=(1, 1), stride=(1, 1), bias=False)
        (bn3): BatchNorm2d(16, eps=1e-05, momentum=0.1, affine=True, track_running_stats=True)
        (activation): ReLU6(inplace)
      )
    )
    (Bottlenecks_1): Sequential(
      (LinearBottleneck1_0): LinearBottleneck(
        (conv1): Conv2d(16, 96, kernel_size=(1, 1), stride=(1, 1), bias=False)
        (bn1): BatchNorm2d(96, eps=1e-05, momentum=0.1, affine=True, track_running_stats=True)
        (conv2): Conv2d(96, 96, kernel_size=(3, 3), stride=(2, 2), padding=(1, 1), groups=96, bias=False)
        (bn2): BatchNorm2d(96, eps=1e-05, momentum=0.1, affine=True, track_running_stats=True)
        (conv3): Conv2d(96, 24, kernel_size=(1, 1), stride=(1, 1), bias=False)
        (bn3): BatchNorm2d(24, eps=1e-05, momentum=0.1, affine=True, track_running_stats=True)
        (activation): ReLU6(inplace)
      )
      (LinearBottleneck1_1): LinearBottleneck(
        (conv1): Conv2d(24, 144, kernel_size=(1, 1), stride=(1, 1), bias=False)
        (bn1): BatchNorm2d(144, eps=1e-05, momentum=0.1, affine=True, track_running_stats=True)
        (conv2): Conv2d(144, 144, kernel_size=(3, 3), stride=(1, 1), padding=(1, 1), groups=144, bias=False)
        (bn2): BatchNorm2d(144, eps=1e-05, momentum=0.1, affine=True, track_running_stats=True)
        (conv3): Conv2d(144, 24, kernel_size=(1, 1), stride=(1, 1), bias=False)
        (bn3): BatchNorm2d(24, eps=1e-05, momentum=0.1, affine=True, track_running_stats=True)
        (activation): ReLU6(inplace)
      )
    )
    (Bottlenecks_2): Sequential(
      (LinearBottleneck2_0): LinearBottleneck(
        (conv1): Conv2d(24, 144, kernel_size=(1, 1), stride=(1, 1), bias=False)
        (bn1): BatchNorm2d(144, eps=1e-05, momentum=0.1, affine=True, track_running_stats=True)
        (conv2): Conv2d(144, 144, kernel_size=(3, 3), stride=(2, 2), padding=(1, 1), groups=144, bias=False)
        (bn2): BatchNorm2d(144, eps=1e-05, momentum=0.1, affine=True, track_running_stats=True)
        (conv3): Conv2d(144, 32, kernel_size=(1, 1), stride=(1, 1), bias=False)
        (bn3): BatchNorm2d(32, eps=1e-05, momentum=0.1, affine=True, track_running_stats=True)
        (activation): ReLU6(inplace)
      )
      (LinearBottleneck2_1): LinearBottleneck(
        (conv1): Conv2d(32, 192, kernel_size=(1, 1), stride=(1, 1), bias=False)
        (bn1): BatchNorm2d(192, eps=1e-05, momentum=0.1, affine=True, track_running_stats=True)
        (conv2): Conv2d(192, 192, kernel_size=(3, 3), stride=(1, 1), padding=(1, 1), groups=192, bias=False)
        (bn2): BatchNorm2d(192, eps=1e-05, momentum=0.1, affine=True, track_running_stats=True)
        (conv3): Conv2d(192, 32, kernel_size=(1, 1), stride=(1, 1), bias=False)
        (bn3): BatchNorm2d(32, eps=1e-05, momentum=0.1, affine=True, track_running_stats=True)
        (activation): ReLU6(inplace)
      )
      (LinearBottleneck2_2): LinearBottleneck(
        (conv1): Conv2d(32, 192, kernel_size=(1, 1), stride=(1, 1), bias=False)
        (bn1): BatchNorm2d(192, eps=1e-05, momentum=0.1, affine=True, track_running_stats=True)
        (conv2): Conv2d(192, 192, kernel_size=(3, 3), stride=(1, 1), padding=(1, 1), groups=192, bias=False)
        (bn2): BatchNorm2d(192, eps=1e-05, momentum=0.1, affine=True, track_running_stats=True)
        (conv3): Conv2d(192, 32, kernel_size=(1, 1), stride=(1, 1), bias=False)
        (bn3): BatchNorm2d(32, eps=1e-05, momentum=0.1, affine=True, track_running_stats=True)
        (activation): ReLU6(inplace)
      )
    )
    (Bottlenecks_3): Sequential(
      (LinearBottleneck3_0): LinearBottleneck(
        (conv1): Conv2d(32, 192, kernel_size=(1, 1), stride=(1, 1), bias=False)
        (bn1): BatchNorm2d(192, eps=1e-05, momentum=0.1, affine=True, track_running_stats=True)
        (conv2): Conv2d(192, 192, kernel_size=(3, 3), stride=(2, 2), padding=(1, 1), groups=192, bias=False)
        (bn2): BatchNorm2d(192, eps=1e-05, momentum=0.1, affine=True, track_running_stats=True)
        (conv3): Conv2d(192, 64, kernel_size=(1, 1), stride=(1, 1), bias=False)
        (bn3): BatchNorm2d(64, eps=1e-05, momentum=0.1, affine=True, track_running_stats=True)
        (activation): ReLU6(inplace)
      )
      (LinearBottleneck3_1): LinearBottleneck(
        (conv1): Conv2d(64, 384, kernel_size=(1, 1), stride=(1, 1), bias=False)
        (bn1): BatchNorm2d(384, eps=1e-05, momentum=0.1, affine=True, track_running_stats=True)
        (conv2): Conv2d(384, 384, kernel_size=(3, 3), stride=(1, 1), padding=(1, 1), groups=384, bias=False)
        (bn2): BatchNorm2d(384, eps=1e-05, momentum=0.1, affine=True, track_running_stats=True)
        (conv3): Conv2d(384, 64, kernel_size=(1, 1), stride=(1, 1), bias=False)
        (bn3): BatchNorm2d(64, eps=1e-05, momentum=0.1, affine=True, track_running_stats=True)
        (activation): ReLU6(inplace)
      )
      (LinearBottleneck3_2): LinearBottleneck(
        (conv1): Conv2d(64, 384, kernel_size=(1, 1), stride=(1, 1), bias=False)
        (bn1): BatchNorm2d(384, eps=1e-05, momentum=0.1, affine=True, track_running_stats=True)
        (conv2): Conv2d(384, 384, kernel_size=(3, 3), stride=(1, 1), padding=(1, 1), groups=384, bias=False)
        (bn2): BatchNorm2d(384, eps=1e-05, momentum=0.1, affine=True, track_running_stats=True)
        (conv3): Conv2d(384, 64, kernel_size=(1, 1), stride=(1, 1), bias=False)
        (bn3): BatchNorm2d(64, eps=1e-05, momentum=0.1, affine=True, track_running_stats=True)
        (activation): ReLU6(inplace)
      )
      (LinearBottleneck3_3): LinearBottleneck(
        (conv1): Conv2d(64, 384, kernel_size=(1, 1), stride=(1, 1), bias=False)
        (bn1): BatchNorm2d(384, eps=1e-05, momentum=0.1, affine=True, track_running_stats=True)
        (conv2): Conv2d(384, 384, kernel_size=(3, 3), stride=(1, 1), padding=(1, 1), groups=384, bias=False)
        (bn2): BatchNorm2d(384, eps=1e-05, momentum=0.1, affine=True, track_running_stats=True)
        (conv3): Conv2d(384, 64, kernel_size=(1, 1), stride=(1, 1), bias=False)
        (bn3): BatchNorm2d(64, eps=1e-05, momentum=0.1, affine=True, track_running_stats=True)
        (activation): ReLU6(inplace)
      )
    )
    (Bottlenecks_4): Sequential(
      (LinearBottleneck4_0): LinearBottleneck(
        (conv1): Conv2d(64, 384, kernel_size=(1, 1), stride=(1, 1), bias=False)
        (bn1): BatchNorm2d(384, eps=1e-05, momentum=0.1, affine=True, track_running_stats=True)
        (conv2): Conv2d(384, 384, kernel_size=(3, 3), stride=(1, 1), padding=(1, 1), groups=384, bias=False)
        (bn2): BatchNorm2d(384, eps=1e-05, momentum=0.1, affine=True, track_running_stats=True)
        (conv3): Conv2d(384, 96, kernel_size=(1, 1), stride=(1, 1), bias=False)
        (bn3): BatchNorm2d(96, eps=1e-05, momentum=0.1, affine=True, track_running_stats=True)
        (activation): ReLU6(inplace)
      )
      (LinearBottleneck4AlphaBlock_1): AlphaBlock(
        (arm_1): SplitArm(
          (conv_dws): Conv2d(12, 12, kernel_size=(1, 1), stride=(1, 1), groups=12)
          (bn_dws): BatchNorm2d(12, eps=1e-05, momentum=0.9, affine=True, track_running_stats=True)
          (relu_dws): ReLU(inplace)
          (maxpool): MaxPool2d(kernel_size=3, stride=1, padding=1, dilation=1, ceil_mode=False)
          (conv_point): Conv2d(12, 1, kernel_size=(1, 1), stride=(1, 1))
          (bn_point): BatchNorm2d(1, eps=1e-05, momentum=0.9, affine=True, track_running_stats=True)
          (relu_point): ReLU(inplace)
          (softmax): Softmax()
        )
        (arm_2): SplitArm(
          (conv_dws): Conv2d(12, 12, kernel_size=(1, 1), stride=(1, 1), groups=12)
          (bn_dws): BatchNorm2d(12, eps=1e-05, momentum=0.9, affine=True, track_running_stats=True)
          (relu_dws): ReLU(inplace)
          (maxpool): MaxPool2d(kernel_size=3, stride=1, padding=1, dilation=1, ceil_mode=False)
          (conv_point): Conv2d(12, 1, kernel_size=(1, 1), stride=(1, 1))
          (bn_point): BatchNorm2d(1, eps=1e-05, momentum=0.9, affine=True, track_running_stats=True)
          (relu_point): ReLU(inplace)
          (softmax): Softmax()
        )
        (arm_3): SplitArm(
          (conv_dws): Conv2d(12, 12, kernel_size=(1, 1), stride=(1, 1), groups=12)
          (bn_dws): BatchNorm2d(12, eps=1e-05, momentum=0.9, affine=True, track_running_stats=True)
          (relu_dws): ReLU(inplace)
          (maxpool): MaxPool2d(kernel_size=3, stride=1, padding=1, dilation=1, ceil_mode=False)
          (conv_point): Conv2d(12, 1, kernel_size=(1, 1), stride=(1, 1))
          (bn_point): BatchNorm2d(1, eps=1e-05, momentum=0.9, affine=True, track_running_stats=True)
          (relu_point): ReLU(inplace)
          (softmax): Softmax()
        )
        (arm_4): SplitArm(
          (conv_dws): Conv2d(12, 12, kernel_size=(1, 1), stride=(1, 1), groups=12)
          (bn_dws): BatchNorm2d(12, eps=1e-05, momentum=0.9, affine=True, track_running_stats=True)
          (relu_dws): ReLU(inplace)
          (maxpool): MaxPool2d(kernel_size=3, stride=1, padding=1, dilation=1, ceil_mode=False)
          (conv_point): Conv2d(12, 1, kernel_size=(1, 1), stride=(1, 1))
          (bn_point): BatchNorm2d(1, eps=1e-05, momentum=0.9, affine=True, track_running_stats=True)
          (relu_point): ReLU(inplace)
          (softmax): Softmax()
        )
        (arm_5): SplitArm(
          (conv_dws): Conv2d(12, 12, kernel_size=(1, 1), stride=(1, 1), groups=12)
          (bn_dws): BatchNorm2d(12, eps=1e-05, momentum=0.9, affine=True, track_running_stats=True)
          (relu_dws): ReLU(inplace)
          (maxpool): MaxPool2d(kernel_size=3, stride=1, padding=1, dilation=1, ceil_mode=False)
          (conv_point): Conv2d(12, 1, kernel_size=(1, 1), stride=(1, 1))
          (bn_point): BatchNorm2d(1, eps=1e-05, momentum=0.9, affine=True, track_running_stats=True)
          (relu_point): ReLU(inplace)
          (softmax): Softmax()
        )
        (arm_6): SplitArm(
          (conv_dws): Conv2d(12, 12, kernel_size=(1, 1), stride=(1, 1), groups=12)
          (bn_dws): BatchNorm2d(12, eps=1e-05, momentum=0.9, affine=True, track_running_stats=True)
          (relu_dws): ReLU(inplace)
          (maxpool): MaxPool2d(kernel_size=3, stride=1, padding=1, dilation=1, ceil_mode=False)
          (conv_point): Conv2d(12, 1, kernel_size=(1, 1), stride=(1, 1))
          (bn_point): BatchNorm2d(1, eps=1e-05, momentum=0.9, affine=True, track_running_stats=True)
          (relu_point): ReLU(inplace)
          (softmax): Softmax()
        )
        (arm_7): SplitArm(
          (conv_dws): Conv2d(12, 12, kernel_size=(1, 1), stride=(1, 1), groups=12)
          (bn_dws): BatchNorm2d(12, eps=1e-05, momentum=0.9, affine=True, track_running_stats=True)
          (relu_dws): ReLU(inplace)
          (maxpool): MaxPool2d(kernel_size=3, stride=1, padding=1, dilation=1, ceil_mode=False)
          (conv_point): Conv2d(12, 1, kernel_size=(1, 1), stride=(1, 1))
          (bn_point): BatchNorm2d(1, eps=1e-05, momentum=0.9, affine=True, track_running_stats=True)
          (relu_point): ReLU(inplace)
          (softmax): Softmax()
        )
        (arm_8): SplitArm(
          (conv_dws): Conv2d(12, 12, kernel_size=(1, 1), stride=(1, 1), groups=12)
          (bn_dws): BatchNorm2d(12, eps=1e-05, momentum=0.9, affine=True, track_running_stats=True)
          (relu_dws): ReLU(inplace)
          (maxpool): MaxPool2d(kernel_size=3, stride=1, padding=1, dilation=1, ceil_mode=False)
          (conv_point): Conv2d(12, 1, kernel_size=(1, 1), stride=(1, 1))
          (bn_point): BatchNorm2d(1, eps=1e-05, momentum=0.9, affine=True, track_running_stats=True)
          (relu_point): ReLU(inplace)
          (softmax): Softmax()
        )
      )
      (LinearBottleneck4AlphaBlock_2): AlphaBlock(
        (arm_1): SplitArm(
          (conv_dws): Conv2d(12, 12, kernel_size=(1, 1), stride=(1, 1), groups=12)
          (bn_dws): BatchNorm2d(12, eps=1e-05, momentum=0.9, affine=True, track_running_stats=True)
          (relu_dws): ReLU(inplace)
          (maxpool): MaxPool2d(kernel_size=3, stride=1, padding=1, dilation=1, ceil_mode=False)
          (conv_point): Conv2d(12, 1, kernel_size=(1, 1), stride=(1, 1))
          (bn_point): BatchNorm2d(1, eps=1e-05, momentum=0.9, affine=True, track_running_stats=True)
          (relu_point): ReLU(inplace)
          (softmax): Softmax()
        )
        (arm_2): SplitArm(
          (conv_dws): Conv2d(12, 12, kernel_size=(1, 1), stride=(1, 1), groups=12)
          (bn_dws): BatchNorm2d(12, eps=1e-05, momentum=0.9, affine=True, track_running_stats=True)
          (relu_dws): ReLU(inplace)
          (maxpool): MaxPool2d(kernel_size=3, stride=1, padding=1, dilation=1, ceil_mode=False)
          (conv_point): Conv2d(12, 1, kernel_size=(1, 1), stride=(1, 1))
          (bn_point): BatchNorm2d(1, eps=1e-05, momentum=0.9, affine=True, track_running_stats=True)
          (relu_point): ReLU(inplace)
          (softmax): Softmax()
        )
        (arm_3): SplitArm(
          (conv_dws): Conv2d(12, 12, kernel_size=(1, 1), stride=(1, 1), groups=12)
          (bn_dws): BatchNorm2d(12, eps=1e-05, momentum=0.9, affine=True, track_running_stats=True)
          (relu_dws): ReLU(inplace)
          (maxpool): MaxPool2d(kernel_size=3, stride=1, padding=1, dilation=1, ceil_mode=False)
          (conv_point): Conv2d(12, 1, kernel_size=(1, 1), stride=(1, 1))
          (bn_point): BatchNorm2d(1, eps=1e-05, momentum=0.9, affine=True, track_running_stats=True)
          (relu_point): ReLU(inplace)
          (softmax): Softmax()
        )
        (arm_4): SplitArm(
          (conv_dws): Conv2d(12, 12, kernel_size=(1, 1), stride=(1, 1), groups=12)
          (bn_dws): BatchNorm2d(12, eps=1e-05, momentum=0.9, affine=True, track_running_stats=True)
          (relu_dws): ReLU(inplace)
          (maxpool): MaxPool2d(kernel_size=3, stride=1, padding=1, dilation=1, ceil_mode=False)
          (conv_point): Conv2d(12, 1, kernel_size=(1, 1), stride=(1, 1))
          (bn_point): BatchNorm2d(1, eps=1e-05, momentum=0.9, affine=True, track_running_stats=True)
          (relu_point): ReLU(inplace)
          (softmax): Softmax()
        )
        (arm_5): SplitArm(
          (conv_dws): Conv2d(12, 12, kernel_size=(1, 1), stride=(1, 1), groups=12)
          (bn_dws): BatchNorm2d(12, eps=1e-05, momentum=0.9, affine=True, track_running_stats=True)
          (relu_dws): ReLU(inplace)
          (maxpool): MaxPool2d(kernel_size=3, stride=1, padding=1, dilation=1, ceil_mode=False)
          (conv_point): Conv2d(12, 1, kernel_size=(1, 1), stride=(1, 1))
          (bn_point): BatchNorm2d(1, eps=1e-05, momentum=0.9, affine=True, track_running_stats=True)
          (relu_point): ReLU(inplace)
          (softmax): Softmax()
        )
        (arm_6): SplitArm(
          (conv_dws): Conv2d(12, 12, kernel_size=(1, 1), stride=(1, 1), groups=12)
          (bn_dws): BatchNorm2d(12, eps=1e-05, momentum=0.9, affine=True, track_running_stats=True)
          (relu_dws): ReLU(inplace)
          (maxpool): MaxPool2d(kernel_size=3, stride=1, padding=1, dilation=1, ceil_mode=False)
          (conv_point): Conv2d(12, 1, kernel_size=(1, 1), stride=(1, 1))
          (bn_point): BatchNorm2d(1, eps=1e-05, momentum=0.9, affine=True, track_running_stats=True)
          (relu_point): ReLU(inplace)
          (softmax): Softmax()
        )
        (arm_7): SplitArm(
          (conv_dws): Conv2d(12, 12, kernel_size=(1, 1), stride=(1, 1), groups=12)
          (bn_dws): BatchNorm2d(12, eps=1e-05, momentum=0.9, affine=True, track_running_stats=True)
          (relu_dws): ReLU(inplace)
          (maxpool): MaxPool2d(kernel_size=3, stride=1, padding=1, dilation=1, ceil_mode=False)
          (conv_point): Conv2d(12, 1, kernel_size=(1, 1), stride=(1, 1))
          (bn_point): BatchNorm2d(1, eps=1e-05, momentum=0.9, affine=True, track_running_stats=True)
          (relu_point): ReLU(inplace)
          (softmax): Softmax()
        )
        (arm_8): SplitArm(
          (conv_dws): Conv2d(12, 12, kernel_size=(1, 1), stride=(1, 1), groups=12)
          (bn_dws): BatchNorm2d(12, eps=1e-05, momentum=0.9, affine=True, track_running_stats=True)
          (relu_dws): ReLU(inplace)
          (maxpool): MaxPool2d(kernel_size=3, stride=1, padding=1, dilation=1, ceil_mode=False)
          (conv_point): Conv2d(12, 1, kernel_size=(1, 1), stride=(1, 1))
          (bn_point): BatchNorm2d(1, eps=1e-05, momentum=0.9, affine=True, track_running_stats=True)
          (relu_point): ReLU(inplace)
          (softmax): Softmax()
        )
      )
    )
    (Bottlenecks_5): Sequential(
      (LinearBottleneck5_0): LinearBottleneck(
        (conv1): Conv2d(96, 576, kernel_size=(1, 1), stride=(1, 1), bias=False)
        (bn1): BatchNorm2d(576, eps=1e-05, momentum=0.1, affine=True, track_running_stats=True)
        (conv2): Conv2d(576, 576, kernel_size=(3, 3), stride=(2, 2), padding=(1, 1), groups=576, bias=False)
        (bn2): BatchNorm2d(576, eps=1e-05, momentum=0.1, affine=True, track_running_stats=True)
        (conv3): Conv2d(576, 160, kernel_size=(1, 1), stride=(1, 1), bias=False)
        (bn3): BatchNorm2d(160, eps=1e-05, momentum=0.1, affine=True, track_running_stats=True)
        (activation): ReLU6(inplace)
      )
      (LinearBottleneck5_1): LinearBottleneck(
        (conv1): Conv2d(160, 960, kernel_size=(1, 1), stride=(1, 1), bias=False)
        (bn1): BatchNorm2d(960, eps=1e-05, momentum=0.1, affine=True, track_running_stats=True)
        (conv2): Conv2d(960, 960, kernel_size=(3, 3), stride=(1, 1), padding=(1, 1), groups=960, bias=False)
        (bn2): BatchNorm2d(960, eps=1e-05, momentum=0.1, affine=True, track_running_stats=True)
        (conv3): Conv2d(960, 160, kernel_size=(1, 1), stride=(1, 1), bias=False)
        (bn3): BatchNorm2d(160, eps=1e-05, momentum=0.1, affine=True, track_running_stats=True)
        (activation): ReLU6(inplace)
      )
      (LinearBottleneck5_2): LinearBottleneck(
        (conv1): Conv2d(160, 960, kernel_size=(1, 1), stride=(1, 1), bias=False)
        (bn1): BatchNorm2d(960, eps=1e-05, momentum=0.1, affine=True, track_running_stats=True)
        (conv2): Conv2d(960, 960, kernel_size=(3, 3), stride=(1, 1), padding=(1, 1), groups=960, bias=False)
        (bn2): BatchNorm2d(960, eps=1e-05, momentum=0.1, affine=True, track_running_stats=True)
        (conv3): Conv2d(960, 160, kernel_size=(1, 1), stride=(1, 1), bias=False)
        (bn3): BatchNorm2d(160, eps=1e-05, momentum=0.1, affine=True, track_running_stats=True)
        (activation): ReLU6(inplace)
      )
    )
    (Bottlenecks_6): Sequential(
      (LinearBottleneck6_0): LinearBottleneck(
        (conv1): Conv2d(160, 960, kernel_size=(1, 1), stride=(1, 1), bias=False)
        (bn1): BatchNorm2d(960, eps=1e-05, momentum=0.1, affine=True, track_running_stats=True)
        (conv2): Conv2d(960, 960, kernel_size=(3, 3), stride=(1, 1), padding=(1, 1), groups=960, bias=False)
        (bn2): BatchNorm2d(960, eps=1e-05, momentum=0.1, affine=True, track_running_stats=True)
        (conv3): Conv2d(960, 320, kernel_size=(1, 1), stride=(1, 1), bias=False)
        (bn3): BatchNorm2d(320, eps=1e-05, momentum=0.1, affine=True, track_running_stats=True)
        (activation): ReLU6(inplace)
      )
    )
  )
  (conv_last): Conv2d(320, 1280, kernel_size=(1, 1), stride=(1, 1), bias=False)
  (bn_last): BatchNorm2d(1280, eps=1e-05, momentum=0.1, affine=True, track_running_stats=True)
  (avgpool): AdaptiveAvgPool2d(output_size=1)
  (dropout): Dropout(p=0.2, inplace)
  (fc): Linear(in_features=1280, out_features=200, bias=True)
)
Ep: 1   EpTime: 27.1305  Trainloss: 5.3531   Testloss: 5.8439  TrainAcc: 0.73   Top1: 1.1373    Top5: 5.6024	lr:0.045000
Checkpoint saved!!!
Ep: 2   EpTime: 24.5404  Trainloss: 5.0018   Testloss: 4.8500  TrainAcc: 2.20   Top1: 2.3589    Top5: 10.9941	lr:0.045000
Checkpoint saved!!!
Ep: 3   EpTime: 24.4855  Trainloss: 4.7558   Testloss: 4.5125  TrainAcc: 3.11   Top1: 4.8863    Top5: 18.0708	lr:0.044100
Checkpoint saved!!!
Ep: 4   EpTime: 24.9529  Trainloss: 4.4913   Testloss: 4.6409  TrainAcc: 5.47   Top1: 5.2233    Top5: 17.6495	lr:0.043218
Checkpoint saved!!!
Ep: 5   EpTime: 24.9212  Trainloss: 4.2997   Testloss: 4.2370  TrainAcc: 7.34   Top1: 7.7506    Top5: 27.0008	lr:0.042354
Checkpoint saved!!!
Ep: 6   EpTime: 24.7219  Trainloss: 4.1114   Testloss: 3.9634  TrainAcc: 8.73   Top1: 11.6259    Top5: 33.7405	lr:0.041507
Checkpoint saved!!!
Ep: 7   EpTime: 25.9306  Trainloss: 3.9515   Testloss: 3.8769  TrainAcc: 11.56   Top1: 11.7102    Top5: 35.8467	lr:0.040676
Checkpoint saved!!!
Ep: 8   EpTime: 24.9870  Trainloss: 3.7949   Testloss: 3.8365  TrainAcc: 13.72   Top1: 13.6900    Top5: 40.1011	lr:0.039863
Checkpoint saved!!!
Ep: 9   EpTime: 25.4956  Trainloss: 3.6363   Testloss: 3.4710  TrainAcc: 16.12   Top1: 19.8821    Top5: 46.7565	lr:0.039066
Checkpoint saved!!!
Ep: 10   EpTime: 25.0752  Trainloss: 3.5488   Testloss: 3.4250  TrainAcc: 17.94   Top1: 19.3766    Top5: 47.9360	lr:0.038284
Ep: 11   EpTime: 25.0987  Trainloss: 3.4156   Testloss: 3.2040  TrainAcc: 19.82   Top1: 22.4516    Top5: 52.8222	lr:0.037519
Checkpoint saved!!!
Ep: 12   EpTime: 25.1910  Trainloss: 3.2799   Testloss: 3.1221  TrainAcc: 22.90   Top1: 24.7683    Top5: 55.0126	lr:0.036768
Checkpoint saved!!!
Ep: 13   EpTime: 25.4821  Trainloss: 3.2070   Testloss: 3.6201  TrainAcc: 24.06   Top1: 19.5029    Top5: 44.3134	lr:0.036033
Ep: 14   EpTime: 25.4622  Trainloss: 3.0607   Testloss: 2.8058  TrainAcc: 26.10   Top1: 29.4861    Top5: 61.7523	lr:0.035312
Checkpoint saved!!!
Ep: 15   EpTime: 24.6180  Trainloss: 2.9552   Testloss: 2.8261  TrainAcc: 28.78   Top1: 30.0758    Top5: 60.6150	lr:0.034606
Checkpoint saved!!!
Ep: 16   EpTime: 24.9129  Trainloss: 2.8414   Testloss: 2.9659  TrainAcc: 29.95   Top1: 29.6125    Top5: 59.2671	lr:0.033914
Ep: 17   EpTime: 24.9616  Trainloss: 2.7703   Testloss: 2.7299  TrainAcc: 32.14   Top1: 32.0556    Top5: 64.1533	lr:0.033236
Checkpoint saved!!!
Ep: 18   EpTime: 24.5947  Trainloss: 2.7072   Testloss: 2.5501  TrainAcc: 33.46   Top1: 35.6782    Top5: 67.7759	lr:0.032571
Checkpoint saved!!!
Ep: 19   EpTime: 24.9877  Trainloss: 2.5661   Testloss: 2.3910  TrainAcc: 36.39   Top1: 39.6377    Top5: 69.4608	lr:0.031919
Checkpoint saved!!!
Ep: 20   EpTime: 24.9932  Trainloss: 2.5098   Testloss: 2.4136  TrainAcc: 37.26   Top1: 40.1011    Top5: 70.1348	lr:0.031281
Checkpoint saved!!!
Ep: 21   EpTime: 25.0149  Trainloss: 2.4610   Testloss: 2.6282  TrainAcc: 38.95   Top1: 34.8357    Top5: 68.8290	lr:0.030655
Ep: 22   EpTime: 25.4397  Trainloss: 2.4021   Testloss: 2.2203  TrainAcc: 39.88   Top1: 42.7127    Top5: 73.7995	lr:0.030042
Checkpoint saved!!!
Ep: 23   EpTime: 25.0691  Trainloss: 2.3302   Testloss: 2.1968  TrainAcc: 41.61   Top1: 43.6394    Top5: 73.4625	lr:0.029442
Checkpoint saved!!!
Ep: 24   EpTime: 25.2660  Trainloss: 2.2580   Testloss: 2.1554  TrainAcc: 43.75   Top1: 44.8610    Top5: 75.8635	lr:0.028853
Checkpoint saved!!!
Ep: 25   EpTime: 25.3095  Trainloss: 2.1981   Testloss: 2.1154  TrainAcc: 44.58   Top1: 45.9141    Top5: 76.4532	lr:0.028276
Checkpoint saved!!!
Ep: 26   EpTime: 24.6582  Trainloss: 2.1227   Testloss: 2.2144  TrainAcc: 46.28   Top1: 44.8610    Top5: 73.9259	lr:0.027710
Ep: 27   EpTime: 25.2491  Trainloss: 2.0832   Testloss: 2.0470  TrainAcc: 47.49   Top1: 47.0093    Top5: 77.4642	lr:0.027156
Checkpoint saved!!!
Ep: 28   EpTime: 25.1812  Trainloss: 2.0192   Testloss: 2.1806  TrainAcc: 48.25   Top1: 45.3665    Top5: 75.9056	lr:0.026613
Ep: 29   EpTime: 25.1881  Trainloss: 1.9545   Testloss: 2.2775  TrainAcc: 50.67   Top1: 44.6504    Top5: 74.0101	lr:0.026081
Ep: 30   EpTime: 25.0171  Trainloss: 1.9191   Testloss: 2.1756  TrainAcc: 51.35   Top1: 45.7035    Top5: 75.2317	lr:0.025559
Ep: 31   EpTime: 24.9793  Trainloss: 1.8613   Testloss: 1.9644  TrainAcc: 52.34   Top1: 50.1685    Top5: 78.4751	lr:0.025048
Checkpoint saved!!!
Ep: 32   EpTime: 25.5757  Trainloss: 1.8397   Testloss: 2.0035  TrainAcc: 53.08   Top1: 49.9579    Top5: 78.3067	lr:0.024547
Ep: 33   EpTime: 24.8285  Trainloss: 1.8152   Testloss: 1.8927  TrainAcc: 53.67   Top1: 51.8534    Top5: 80.2864	lr:0.024056
Checkpoint saved!!!
Ep: 34   EpTime: 25.0968  Trainloss: 1.7547   Testloss: 1.8738  TrainAcc: 55.59   Top1: 51.4743    Top5: 79.9073	lr:0.023575
Ep: 35   EpTime: 24.9517  Trainloss: 1.7027   Testloss: 1.9735  TrainAcc: 56.05   Top1: 51.0531    Top5: 78.5594	lr:0.023103
Ep: 36   EpTime: 24.7938  Trainloss: 1.6808   Testloss: 1.8809  TrainAcc: 57.37   Top1: 51.7692    Top5: 80.6234	lr:0.022641
Ep: 37   EpTime: 24.9908  Trainloss: 1.6311   Testloss: 1.8916  TrainAcc: 58.60   Top1: 53.1592    Top5: 80.4549	lr:0.022188
Checkpoint saved!!!
Ep: 38   EpTime: 25.1635  Trainloss: 1.5971   Testloss: 1.7758  TrainAcc: 58.92   Top1: 54.6335    Top5: 82.2241	lr:0.021745
Checkpoint saved!!!
Ep: 39   EpTime: 25.4204  Trainloss: 1.5596   Testloss: 1.8414  TrainAcc: 59.97   Top1: 54.2544    Top5: 81.1289	lr:0.021310
Ep: 40   EpTime: 25.4444  Trainloss: 1.5441   Testloss: 1.7984  TrainAcc: 60.58   Top1: 55.1811    Top5: 82.0135	lr:0.020884
Checkpoint saved!!!
Ep: 41   EpTime: 24.8426  Trainloss: 1.4736   Testloss: 1.8623  TrainAcc: 62.73   Top1: 53.9174    Top5: 80.3707	lr:0.020466
Ep: 42   EpTime: 24.9626  Trainloss: 1.4640   Testloss: 1.8211  TrainAcc: 62.75   Top1: 55.3917    Top5: 81.6765	lr:0.020057
Checkpoint saved!!!
Ep: 43   EpTime: 25.6402  Trainloss: 1.4513   Testloss: 1.8017  TrainAcc: 62.74   Top1: 54.6757    Top5: 82.0556	lr:0.019655
Ep: 44   EpTime: 25.7204  Trainloss: 1.4169   Testloss: 1.7692  TrainAcc: 63.78   Top1: 57.0345    Top5: 81.8450	lr:0.019262
Checkpoint saved!!!
Ep: 45   EpTime: 25.5120  Trainloss: 1.3939   Testloss: 1.7606  TrainAcc: 64.17   Top1: 56.1500    Top5: 82.5611	lr:0.018877
Ep: 46   EpTime: 26.0545  Trainloss: 1.3556   Testloss: 1.9236  TrainAcc: 65.57   Top1: 54.2544    Top5: 80.0337	lr:0.018499
Ep: 47   EpTime: 25.4983  Trainloss: 1.3319   Testloss: 1.8078  TrainAcc: 65.58   Top1: 54.7599    Top5: 81.6344	lr:0.018130
Ep: 48   EpTime: 26.1878  Trainloss: 1.3214   Testloss: 1.7347  TrainAcc: 66.13   Top1: 56.1921    Top5: 82.9402	lr:0.017767
Ep: 49   EpTime: 25.7539  Trainloss: 1.2851   Testloss: 1.7402  TrainAcc: 67.04   Top1: 57.1188    Top5: 83.3193	lr:0.017412
Checkpoint saved!!!
Ep: 50   EpTime: 25.5682  Trainloss: 1.2618   Testloss: 1.7730  TrainAcc: 67.94   Top1: 56.6554    Top5: 83.2772	lr:0.017063
Ep: 51   EpTime: 25.4920  Trainloss: 1.2518   Testloss: 1.7483  TrainAcc: 68.17   Top1: 56.9924    Top5: 82.3505	lr:0.016722
Ep: 52   EpTime: 25.5224  Trainloss: 1.2385   Testloss: 1.7542  TrainAcc: 68.25   Top1: 56.6554    Top5: 83.4457	lr:0.016388
Ep: 53   EpTime: 25.7780  Trainloss: 1.2225   Testloss: 1.7336  TrainAcc: 68.83   Top1: 56.9503    Top5: 82.7717	lr:0.016060
Ep: 54   EpTime: 25.6526  Trainloss: 1.1641   Testloss: 1.7525  TrainAcc: 70.66   Top1: 56.9503    Top5: 83.9090	lr:0.015739
Ep: 55   EpTime: 25.2867  Trainloss: 1.1602   Testloss: 1.6978  TrainAcc: 70.89   Top1: 56.4869    Top5: 84.1196	lr:0.015424
Ep: 56   EpTime: 25.5114  Trainloss: 1.1411   Testloss: 1.7036  TrainAcc: 70.59   Top1: 58.7616    Top5: 84.1617	lr:0.015115
Checkpoint saved!!!
Ep: 57   EpTime: 25.7045  Trainloss: 1.1004   Testloss: 1.8055  TrainAcc: 72.31   Top1: 57.6243    Top5: 83.3193	lr:0.014813
Ep: 58   EpTime: 25.7791  Trainloss: 1.1088   Testloss: 1.8048  TrainAcc: 71.92   Top1: 58.2982    Top5: 83.1508	lr:0.014517
Ep: 59   EpTime: 25.9847  Trainloss: 1.0824   Testloss: 1.7519  TrainAcc: 72.40   Top1: 58.3404    Top5: 83.9090	lr:0.014227
Ep: 60   EpTime: 25.2301  Trainloss: 1.0851   Testloss: 1.7335  TrainAcc: 72.92   Top1: 59.5619    Top5: 83.9090	lr:0.013942
Checkpoint saved!!!
Ep: 61   EpTime: 25.3427  Trainloss: 1.0610   Testloss: 1.8328  TrainAcc: 72.80   Top1: 56.7397    Top5: 82.3083	lr:0.013663
Ep: 62   EpTime: 25.2692  Trainloss: 1.0765   Testloss: 1.7695  TrainAcc: 73.17   Top1: 58.5510    Top5: 83.5720	lr:0.013390
Ep: 63   EpTime: 24.9493  Trainloss: 0.9836   Testloss: 1.7293  TrainAcc: 74.98   Top1: 59.4777    Top5: 83.9511	lr:0.013122
Ep: 64   EpTime: 25.3222  Trainloss: 0.9944   Testloss: 1.6698  TrainAcc: 74.84   Top1: 60.1938    Top5: 84.4987	lr:0.012860
Checkpoint saved!!!
Ep: 65   EpTime: 25.6352  Trainloss: 0.9728   Testloss: 1.6948  TrainAcc: 75.62   Top1: 59.7725    Top5: 84.4145	lr:0.012602
Ep: 66   EpTime: 25.2453  Trainloss: 0.9762   Testloss: 1.7524  TrainAcc: 75.84   Top1: 59.1828    Top5: 83.9090	lr:0.012350
Ep: 67   EpTime: 24.9630  Trainloss: 0.9772   Testloss: 1.7306  TrainAcc: 75.68   Top1: 59.7725    Top5: 84.2460	lr:0.012103
Ep: 68   EpTime: 25.0347  Trainloss: 0.9317   Testloss: 1.7311  TrainAcc: 76.93   Top1: 60.9099    Top5: 83.2350	lr:0.011861
Checkpoint saved!!!
Ep: 69   EpTime: 24.8369  Trainloss: 0.9589   Testloss: 1.7265  TrainAcc: 75.99   Top1: 59.3934    Top5: 83.6142	lr:0.011624
Ep: 70   EpTime: 25.3562  Trainloss: 0.9170   Testloss: 1.7476  TrainAcc: 77.19   Top1: 58.9301    Top5: 84.1617	lr:0.011392
Ep: 71   EpTime: 25.1796  Trainloss: 0.8972   Testloss: 1.7101  TrainAcc: 77.99   Top1: 59.2249    Top5: 84.1618	lr:0.011164
Ep: 72   EpTime: 25.3168  Trainloss: 0.9116   Testloss: 1.7091  TrainAcc: 77.48   Top1: 59.8147    Top5: 84.5830	lr:0.010941
Ep: 73   EpTime: 25.4822  Trainloss: 0.8895   Testloss: 1.6848  TrainAcc: 77.92   Top1: 60.3201    Top5: 83.9090	lr:0.010722
Ep: 74   EpTime: 24.9538  Trainloss: 0.8749   Testloss: 1.7025  TrainAcc: 78.37   Top1: 60.5729    Top5: 84.4566	lr:0.010507
Ep: 75   EpTime: 25.0254  Trainloss: 0.8867   Testloss: 1.6853  TrainAcc: 78.21   Top1: 61.7523    Top5: 84.3302	lr:0.010297
Checkpoint saved!!!
Ep: 76   EpTime: 25.0643  Trainloss: 0.8379   Testloss: 1.7468  TrainAcc: 79.43   Top1: 60.2359    Top5: 84.1617	lr:0.010091
Ep: 77   EpTime: 25.6716  Trainloss: 0.8410   Testloss: 1.7003  TrainAcc: 79.38   Top1: 59.6883    Top5: 84.9621	lr:0.009889
Ep: 78   EpTime: 25.1489  Trainloss: 0.8362   Testloss: 1.7431  TrainAcc: 79.38   Top1: 60.2359    Top5: 84.7515	lr:0.009692
Ep: 79   EpTime: 25.5073  Trainloss: 0.8431   Testloss: 1.7334  TrainAcc: 79.57   Top1: 60.1938    Top5: 83.6984	lr:0.009498
Ep: 80   EpTime: 24.7962  Trainloss: 0.8227   Testloss: 1.7515  TrainAcc: 80.33   Top1: 60.2780    Top5: 83.5720	lr:0.009308
Ep: 81   EpTime: 25.4531  Trainloss: 0.8248   Testloss: 1.7407  TrainAcc: 79.55   Top1: 60.1938    Top5: 84.3302	lr:0.009122
Ep: 82   EpTime: 25.3121  Trainloss: 0.8053   Testloss: 1.7201  TrainAcc: 80.56   Top1: 61.4996    Top5: 84.0354	lr:0.008939
Ep: 83   EpTime: 25.4006  Trainloss: 0.8009   Testloss: 1.7075  TrainAcc: 80.39   Top1: 60.5729    Top5: 84.0775	lr:0.008760
Ep: 84   EpTime: 24.9929  Trainloss: 0.8007   Testloss: 1.6763  TrainAcc: 80.90   Top1: 61.3311    Top5: 84.4566	lr:0.008585
Ep: 85   EpTime: 25.3462  Trainloss: 0.7947   Testloss: 1.7114  TrainAcc: 80.37   Top1: 60.3623    Top5: 84.5409	lr:0.008414
Ep: 86   EpTime: 25.1212  Trainloss: 0.7623   Testloss: 1.7206  TrainAcc: 80.78   Top1: 60.9099    Top5: 84.2039	lr:0.008245
Ep: 87   EpTime: 25.4367  Trainloss: 0.7667   Testloss: 1.7623  TrainAcc: 81.08   Top1: 60.1516    Top5: 83.8248	lr:0.008080
Ep: 88   EpTime: 25.2350  Trainloss: 0.7667   Testloss: 1.7419  TrainAcc: 81.29   Top1: 60.9520    Top5: 83.9933	lr:0.007919
Ep: 89   EpTime: 24.9819  Trainloss: 0.7806   Testloss: 1.7321  TrainAcc: 81.09   Top1: 60.6571    Top5: 84.2881	lr:0.007760
Ep: 90   EpTime: 25.5574  Trainloss: 0.7313   Testloss: 1.7445  TrainAcc: 82.45   Top1: 60.5307    Top5: 84.7515	lr:0.007605
Ep: 91   EpTime: 25.1618  Trainloss: 0.7418   Testloss: 1.7504  TrainAcc: 81.76   Top1: 60.7835    Top5: 84.4566	lr:0.007453
Ep: 92   EpTime: 24.9326  Trainloss: 0.7027   Testloss: 1.7178  TrainAcc: 82.93   Top1: 61.8366    Top5: 84.6672	lr:0.007304
Checkpoint saved!!!
Ep: 93   EpTime: 25.2914  Trainloss: 0.7310   Testloss: 1.7276  TrainAcc: 82.46   Top1: 61.7944    Top5: 84.5409	lr:0.007158
Ep: 94   EpTime: 25.4105  Trainloss: 0.7264   Testloss: 1.7000  TrainAcc: 82.24   Top1: 62.2578    Top5: 84.4566	lr:0.007015
Checkpoint saved!!!
Ep: 95   EpTime: 25.4101  Trainloss: 0.7030   Testloss: 1.6928  TrainAcc: 82.91   Top1: 62.2578    Top5: 84.8357	lr:0.006874
Checkpoint saved!!!
Ep: 96   EpTime: 25.4905  Trainloss: 0.7179   Testloss: 1.7083  TrainAcc: 83.01   Top1: 61.9629    Top5: 84.5830	lr:0.006737
Ep: 97   EpTime: 24.9418  Trainloss: 0.7020   Testloss: 1.7319  TrainAcc: 83.08   Top1: 60.8256    Top5: 84.6672	lr:0.006602
Ep: 98   EpTime: 25.2853  Trainloss: 0.6911   Testloss: 1.7547  TrainAcc: 83.57   Top1: 60.6571    Top5: 84.5830	lr:0.006470
Ep: 99   EpTime: 25.6940  Trainloss: 0.6828   Testloss: 1.7047  TrainAcc: 83.77   Top1: 62.2578    Top5: 84.3724	lr:0.006341
Ep: 100   EpTime: 25.6747  Trainloss: 0.6995   Testloss: 1.7422  TrainAcc: 83.13   Top1: 61.0362    Top5: 84.2460	lr:0.006214
Ep: 101   EpTime: 25.0874  Trainloss: 0.6750   Testloss: 1.6882  TrainAcc: 83.39   Top1: 61.6681    Top5: 84.8778	lr:0.006090
Ep: 102   EpTime: 25.2383  Trainloss: 0.6598   Testloss: 1.7404  TrainAcc: 84.45   Top1: 61.5417    Top5: 84.6672	lr:0.005968
Ep: 103   EpTime: 25.7278  Trainloss: 0.6731   Testloss: 1.7226  TrainAcc: 83.92   Top1: 61.8366    Top5: 84.6672	lr:0.005849
Ep: 104   EpTime: 25.6361  Trainloss: 0.6462   Testloss: 1.7443  TrainAcc: 84.31   Top1: 61.7944    Top5: 84.3302	lr:0.005732
Ep: 105   EpTime: 25.3756  Trainloss: 0.6726   Testloss: 1.7268  TrainAcc: 84.09   Top1: 62.2578    Top5: 84.3724	lr:0.005617
Ep: 106   EpTime: 25.4017  Trainloss: 0.6607   Testloss: 1.6902  TrainAcc: 84.01   Top1: 62.0051    Top5: 85.3833	lr:0.005505
Ep: 107   EpTime: 25.4089  Trainloss: 0.6731   Testloss: 1.6902  TrainAcc: 83.45   Top1: 63.0160    Top5: 84.9200	lr:0.005394
Checkpoint saved!!!
Ep: 108   EpTime: 25.4242  Trainloss: 0.6468   Testloss: 1.6958  TrainAcc: 84.63   Top1: 62.5948    Top5: 84.3302	lr:0.005287
Ep: 109   EpTime: 24.9825  Trainloss: 0.6419   Testloss: 1.6788  TrainAcc: 84.69   Top1: 62.3842    Top5: 84.6672	lr:0.005181
Ep: 110   EpTime: 25.2766  Trainloss: 0.6450   Testloss: 1.7225  TrainAcc: 84.76   Top1: 62.5948    Top5: 84.2881	lr:0.005077
Ep: 111   EpTime: 24.5075  Trainloss: 0.6553   Testloss: 1.6948  TrainAcc: 84.17   Top1: 62.5527    Top5: 84.7936	lr:0.004976
Ep: 112   EpTime: 25.5624  Trainloss: 0.6306   Testloss: 1.7394  TrainAcc: 84.78   Top1: 61.9208    Top5: 84.2881	lr:0.004876
Ep: 113   EpTime: 25.1542  Trainloss: 0.6298   Testloss: 1.7355  TrainAcc: 84.88   Top1: 62.6369    Top5: 84.4145	lr:0.004779
Ep: 114   EpTime: 25.5391  Trainloss: 0.6413   Testloss: 1.7225  TrainAcc: 84.60   Top1: 61.4575    Top5: 84.8357	lr:0.004683
Ep: 115   EpTime: 25.1876  Trainloss: 0.6239   Testloss: 1.7378  TrainAcc: 85.21   Top1: 61.6681    Top5: 85.1306	lr:0.004589
Ep: 116   EpTime: 25.2166  Trainloss: 0.6192   Testloss: 1.7314  TrainAcc: 84.94   Top1: 61.7523    Top5: 84.4566	lr:0.004498
Ep: 117   EpTime: 25.3451  Trainloss: 0.6344   Testloss: 1.7543  TrainAcc: 84.94   Top1: 61.2468    Top5: 84.1196	lr:0.004408
Ep: 118   EpTime: 25.4351  Trainloss: 0.6198   Testloss: 1.7555  TrainAcc: 85.57   Top1: 61.5417    Top5: 84.2460	lr:0.004320
Ep: 119   EpTime: 25.1010  Trainloss: 0.6294   Testloss: 1.7677  TrainAcc: 84.98   Top1: 61.4575    Top5: 84.1617	lr:0.004233
Ep: 120   EpTime: 25.8005  Trainloss: 0.6305   Testloss: 1.7890  TrainAcc: 85.10   Top1: 62.3420    Top5: 83.4878	lr:0.004148
Ep: 121   EpTime: 25.6394  Trainloss: 0.6104   Testloss: 1.7368  TrainAcc: 85.67   Top1: 61.6259    Top5: 85.5097	lr:0.004066
Ep: 122   EpTime: 25.4944  Trainloss: 0.6022   Testloss: 1.7298  TrainAcc: 85.54   Top1: 61.9629    Top5: 85.0042	lr:0.003984
Ep: 123   EpTime: 25.5640  Trainloss: 0.6215   Testloss: 1.7041  TrainAcc: 84.47   Top1: 62.7633    Top5: 84.5830	lr:0.003905
Ep: 124   EpTime: 26.1301  Trainloss: 0.5729   Testloss: 1.7591  TrainAcc: 86.46   Top1: 61.3311    Top5: 84.4987	lr:0.003826
Ep: 125   EpTime: 25.2240  Trainloss: 0.5790   Testloss: 1.7288  TrainAcc: 86.15   Top1: 62.0051    Top5: 84.6672	lr:0.003750
Ep: 126   EpTime: 25.2271  Trainloss: 0.5606   Testloss: 1.7184  TrainAcc: 86.56   Top1: 62.2999    Top5: 85.0042	lr:0.003675
Ep: 127   EpTime: 25.7296  Trainloss: 0.5711   Testloss: 1.7276  TrainAcc: 86.57   Top1: 62.0472    Top5: 84.6672	lr:0.003601
Ep: 128   EpTime: 25.5134  Trainloss: 0.5743   Testloss: 1.7538  TrainAcc: 86.69   Top1: 62.2157    Top5: 84.3724	lr:0.003529
Ep: 129   EpTime: 24.9348  Trainloss: 0.5808   Testloss: 1.7530  TrainAcc: 86.21   Top1: 61.7102    Top5: 84.4987	lr:0.003459
Ep: 130   EpTime: 25.1766  Trainloss: 0.5769   Testloss: 1.7607  TrainAcc: 86.19   Top1: 61.8366    Top5: 85.0463	lr:0.003390
Ep: 131   EpTime: 25.1093  Trainloss: 0.5757   Testloss: 1.7461  TrainAcc: 86.09   Top1: 62.2999    Top5: 84.7093	lr:0.003322
Ep: 132   EpTime: 24.7127  Trainloss: 0.5665   Testloss: 1.7230  TrainAcc: 86.74   Top1: 63.1003    Top5: 84.8778	lr:0.003255
Checkpoint saved!!!
Ep: 133   EpTime: 25.4251  Trainloss: 0.5666   Testloss: 1.7333  TrainAcc: 86.21   Top1: 61.7944    Top5: 84.4145	lr:0.003190
Ep: 134   EpTime: 24.8319  Trainloss: 0.5342   Testloss: 1.7161  TrainAcc: 87.19   Top1: 62.5527    Top5: 84.8778	lr:0.003126
Ep: 135   EpTime: 24.8588  Trainloss: 0.5753   Testloss: 1.7516  TrainAcc: 86.33   Top1: 61.4153    Top5: 84.4145	lr:0.003064
Ep: 136   EpTime: 25.5166  Trainloss: 0.5578   Testloss: 1.7438  TrainAcc: 86.88   Top1: 61.2890    Top5: 84.7093	lr:0.003003
Ep: 137   EpTime: 25.5077  Trainloss: 0.5500   Testloss: 1.7377  TrainAcc: 87.18   Top1: 62.3842    Top5: 84.5409	lr:0.002943
Ep: 138   EpTime: 25.7043  Trainloss: 0.5670   Testloss: 1.7431  TrainAcc: 86.60   Top1: 62.2999    Top5: 84.2460	lr:0.002884
Ep: 139   EpTime: 25.1954  Trainloss: 0.5555   Testloss: 1.7419  TrainAcc: 86.84   Top1: 62.5105    Top5: 84.7936	lr:0.002826
Ep: 140   EpTime: 25.3212  Trainloss: 0.5630   Testloss: 1.7311  TrainAcc: 87.14   Top1: 62.9318    Top5: 84.8778	lr:0.002770
Ep: 141   EpTime: 25.2954  Trainloss: 0.5548   Testloss: 1.7371  TrainAcc: 86.90   Top1: 62.1314    Top5: 85.1306	lr:0.002714
Ep: 142   EpTime: 25.6762  Trainloss: 0.5317   Testloss: 1.7429  TrainAcc: 87.49   Top1: 62.8896    Top5: 84.3724	lr:0.002660
Ep: 143   EpTime: 25.2638  Trainloss: 0.5547   Testloss: 1.7466  TrainAcc: 86.61   Top1: 61.7944    Top5: 84.8357	lr:0.002607
Ep: 144   EpTime: 25.3498  Trainloss: 0.5704   Testloss: 1.7198  TrainAcc: 86.54   Top1: 62.0472    Top5: 85.1306	lr:0.002555
Ep: 145   EpTime: 24.9133  Trainloss: 0.5527   Testloss: 1.7448  TrainAcc: 86.78   Top1: 62.3842    Top5: 84.7093	lr:0.002503
Ep: 146   EpTime: 25.1413  Trainloss: 0.5201   Testloss: 1.7301  TrainAcc: 87.48   Top1: 62.8896    Top5: 85.0042	lr:0.002453
Ep: 147   EpTime: 25.1473  Trainloss: 0.5423   Testloss: 1.7457  TrainAcc: 87.27   Top1: 62.5948    Top5: 85.0885	lr:0.002404
Ep: 148   EpTime: 25.1648  Trainloss: 0.5410   Testloss: 1.7525  TrainAcc: 87.22   Top1: 61.3311    Top5: 84.4145	lr:0.002356
Ep: 149   EpTime: 25.1772  Trainloss: 0.5319   Testloss: 1.7309  TrainAcc: 87.29   Top1: 62.1735    Top5: 85.2148	lr:0.002309
Ep: 150   EpTime: 25.2109  Trainloss: 0.5350   Testloss: 1.7415  TrainAcc: 87.43   Top1: 62.1735    Top5: 84.7515	lr:0.002263
Ep: 151   EpTime: 25.1168  Trainloss: 0.5302   Testloss: 1.7541  TrainAcc: 87.74   Top1: 62.2999    Top5: 84.6251	lr:0.002218
Ep: 152   EpTime: 25.2229  Trainloss: 0.5310   Testloss: 1.7566  TrainAcc: 87.11   Top1: 62.0893    Top5: 84.9200	lr:0.002173
Ep: 153   EpTime: 25.2308  Trainloss: 0.5194   Testloss: 1.7506  TrainAcc: 87.75   Top1: 62.0893    Top5: 84.5830	lr:0.002130
Ep: 154   EpTime: 25.1754  Trainloss: 0.5161   Testloss: 1.7516  TrainAcc: 87.70   Top1: 62.7211    Top5: 84.9200	lr:0.002087
Ep: 155   EpTime: 25.4525  Trainloss: 0.5236   Testloss: 1.7567  TrainAcc: 87.66   Top1: 62.6369    Top5: 84.6672	lr:0.002046
Ep: 156   EpTime: 25.3549  Trainloss: 0.5349   Testloss: 1.7765  TrainAcc: 87.45   Top1: 62.0893    Top5: 84.5830	lr:0.002005
Ep: 157   EpTime: 25.2973  Trainloss: 0.5082   Testloss: 1.7528  TrainAcc: 87.77   Top1: 62.0893    Top5: 84.6672	lr:0.001965
Ep: 158   EpTime: 25.5911  Trainloss: 0.5116   Testloss: 1.7660  TrainAcc: 87.70   Top1: 62.0472    Top5: 84.7515	lr:0.001925
Ep: 159   EpTime: 25.1609  Trainloss: 0.5298   Testloss: 1.7726  TrainAcc: 87.01   Top1: 62.3842    Top5: 84.8778	lr:0.001887
Ep: 160   EpTime: 25.3732  Trainloss: 0.5228   Testloss: 1.7400  TrainAcc: 87.58   Top1: 62.4684    Top5: 84.4566	lr:0.001849
Ep: 161   EpTime: 25.3330  Trainloss: 0.5321   Testloss: 1.7475  TrainAcc: 87.51   Top1: 62.5105    Top5: 84.7936	lr:0.001812
Ep: 162   EpTime: 25.2294  Trainloss: 0.5280   Testloss: 1.7426  TrainAcc: 87.18   Top1: 61.9208    Top5: 84.7936	lr:0.001776
Ep: 163   EpTime: 25.0951  Trainloss: 0.5219   Testloss: 1.7606  TrainAcc: 87.56   Top1: 62.4263    Top5: 84.7515	lr:0.001740
Ep: 164   EpTime: 25.3848  Trainloss: 0.5101   Testloss: 1.7539  TrainAcc: 87.81   Top1: 62.1735    Top5: 85.1727	lr:0.001705
Ep: 165   EpTime: 25.4416  Trainloss: 0.5069   Testloss: 1.7512  TrainAcc: 88.00   Top1: 61.8366    Top5: 84.5409	lr:0.001671
Ep: 166   EpTime: 24.8808  Trainloss: 0.5025   Testloss: 1.7606  TrainAcc: 87.96   Top1: 61.9208    Top5: 84.2881	lr:0.001638
Ep: 167   EpTime: 25.5860  Trainloss: 0.5213   Testloss: 1.7578  TrainAcc: 87.62   Top1: 61.2047    Top5: 84.5830	lr:0.001605
Ep: 168   EpTime: 25.1901  Trainloss: 0.5153   Testloss: 1.7600  TrainAcc: 87.99   Top1: 61.6681    Top5: 84.5409	lr:0.001573
Ep: 169   EpTime: 25.6172  Trainloss: 0.5016   Testloss: 1.7642  TrainAcc: 88.08   Top1: 62.2999    Top5: 84.3302	lr:0.001542
Ep: 170   EpTime: 25.4002  Trainloss: 0.5113   Testloss: 1.7465  TrainAcc: 88.02   Top1: 62.0893    Top5: 85.0042	lr:0.001511
Ep: 171   EpTime: 25.2178  Trainloss: 0.5196   Testloss: 1.7584  TrainAcc: 87.88   Top1: 62.1735    Top5: 84.4145	lr:0.001481
Ep: 172   EpTime: 25.6524  Trainloss: 0.4954   Testloss: 1.7736  TrainAcc: 88.33   Top1: 62.0893    Top5: 84.4566	lr:0.001451
Ep: 173   EpTime: 25.1417  Trainloss: 0.4883   Testloss: 1.7586  TrainAcc: 88.79   Top1: 62.4263    Top5: 84.4145	lr:0.001422
Ep: 174   EpTime: 25.0929  Trainloss: 0.5176   Testloss: 1.7583  TrainAcc: 87.73   Top1: 62.2578    Top5: 85.1306	lr:0.001393
Ep: 175   EpTime: 25.0370  Trainloss: 0.5095   Testloss: 1.7584  TrainAcc: 87.89   Top1: 62.5105    Top5: 84.4987	lr:0.001366
Ep: 176   EpTime: 24.7934  Trainloss: 0.5071   Testloss: 1.7541  TrainAcc: 87.93   Top1: 62.1735    Top5: 84.9200	lr:0.001338
Ep: 177   EpTime: 25.2369  Trainloss: 0.5037   Testloss: 1.7653  TrainAcc: 88.21   Top1: 62.3842    Top5: 84.8778	lr:0.001312
Ep: 178   EpTime: 24.9968  Trainloss: 0.5059   Testloss: 1.7441  TrainAcc: 87.91   Top1: 62.4263    Top5: 84.4566	lr:0.001285
Ep: 179   EpTime: 24.9129  Trainloss: 0.4900   Testloss: 1.7411  TrainAcc: 88.47   Top1: 62.3420    Top5: 84.3302	lr:0.001260
Ep: 180   EpTime: 25.1159  Trainloss: 0.4885   Testloss: 1.7539  TrainAcc: 88.53   Top1: 62.0893    Top5: 84.7936	lr:0.001234
Ep: 181   EpTime: 25.4417  Trainloss: 0.5073   Testloss: 1.7598  TrainAcc: 88.14   Top1: 61.5838    Top5: 84.6672	lr:0.001210
Ep: 182   EpTime: 25.3099  Trainloss: 0.4960   Testloss: 1.7480  TrainAcc: 88.39   Top1: 62.3842    Top5: 84.7515	lr:0.001186
Ep: 183   EpTime: 24.8256  Trainloss: 0.4959   Testloss: 1.7459  TrainAcc: 88.19   Top1: 62.1735    Top5: 84.9200	lr:0.001162
Ep: 184   EpTime: 25.5106  Trainloss: 0.5098   Testloss: 1.7402  TrainAcc: 87.97   Top1: 62.4263    Top5: 84.8778	lr:0.001139
Ep: 185   EpTime: 25.3498  Trainloss: 0.4839   Testloss: 1.7490  TrainAcc: 88.79   Top1: 62.0472    Top5: 84.4566	lr:0.001116
Ep: 186   EpTime: 25.2047  Trainloss: 0.4820   Testloss: 1.7672  TrainAcc: 88.76   Top1: 62.6369    Top5: 84.4566	lr:0.001093
Ep: 187   EpTime: 24.6566  Trainloss: 0.4719   Testloss: 1.7418  TrainAcc: 88.77   Top1: 62.4684    Top5: 84.4145	lr:0.001072
Ep: 188   EpTime: 25.6292  Trainloss: 0.4919   Testloss: 1.7675  TrainAcc: 88.12   Top1: 62.2578    Top5: 84.3302	lr:0.001050
Ep: 189   EpTime: 25.3493  Trainloss: 0.4954   Testloss: 1.7765  TrainAcc: 88.25   Top1: 62.3842    Top5: 84.4987	lr:0.001029
Ep: 190   EpTime: 24.9352  Trainloss: 0.4880   Testloss: 1.7648  TrainAcc: 88.37   Top1: 62.5527    Top5: 84.4987	lr:0.001009
Ep: 191   EpTime: 25.1641  Trainloss: 0.4990   Testloss: 1.7628  TrainAcc: 88.56   Top1: 62.5527    Top5: 84.2881	lr:0.000988
Ep: 192   EpTime: 25.0550  Trainloss: 0.4820   Testloss: 1.7701  TrainAcc: 88.80   Top1: 62.0893    Top5: 84.3302	lr:0.000969
Ep: 193   EpTime: 24.4599  Trainloss: 0.4837   Testloss: 1.7708  TrainAcc: 88.65   Top1: 61.7944    Top5: 84.3724	lr:0.000949
Ep: 194   EpTime: 24.6818  Trainloss: 0.4681   Testloss: 1.7583  TrainAcc: 88.90   Top1: 62.0051    Top5: 84.2460	lr:0.000930
Ep: 195   EpTime: 24.9578  Trainloss: 0.4717   Testloss: 1.7602  TrainAcc: 88.65   Top1: 62.1735    Top5: 84.6251	lr:0.000912
Ep: 196   EpTime: 25.0175  Trainloss: 0.4896   Testloss: 1.7627  TrainAcc: 88.31   Top1: 62.1735    Top5: 84.0775	lr:0.000893
Ep: 197   EpTime: 24.8881  Trainloss: 0.4884   Testloss: 1.7775  TrainAcc: 88.28   Top1: 62.8896    Top5: 84.2460	lr:0.000876
Ep: 198   EpTime: 25.0156  Trainloss: 0.4804   Testloss: 1.7656  TrainAcc: 88.52   Top1: 62.1735    Top5: 84.4987	lr:0.000858
Ep: 199   EpTime: 25.2796  Trainloss: 0.4891   Testloss: 1.7529  TrainAcc: 88.71   Top1: 62.5948    Top5: 84.5409	lr:0.000841
Ep: 200   EpTime: 25.1926  Trainloss: 0.4616   Testloss: 1.7628  TrainAcc: 88.84   Top1: 62.1735    Top5: 84.3724	lr:0.000824
Ep: 201   EpTime: 25.2951  Trainloss: 0.4918   Testloss: 1.7547  TrainAcc: 88.40   Top1: 62.2157    Top5: 84.6251	lr:0.000808
Ep: 202   EpTime: 25.2502  Trainloss: 0.4735   Testloss: 1.7603  TrainAcc: 88.72   Top1: 61.7944    Top5: 84.4987	lr:0.000791
Ep: 203   EpTime: 25.0041  Trainloss: 0.5080   Testloss: 1.7622  TrainAcc: 88.22   Top1: 62.0051    Top5: 84.8357	lr:0.000776
Ep: 204   EpTime: 25.2987  Trainloss: 0.4726   Testloss: 1.7687  TrainAcc: 89.10   Top1: 61.5417    Top5: 84.3724	lr:0.000760
Ep: 205   EpTime: 25.0657  Trainloss: 0.4751   Testloss: 1.7552  TrainAcc: 88.73   Top1: 62.2578    Top5: 84.3724	lr:0.000745
Ep: 206   EpTime: 24.6488  Trainloss: 0.5007   Testloss: 1.7624  TrainAcc: 88.38   Top1: 61.8366    Top5: 84.5830	lr:0.000730
Ep: 207   EpTime: 24.6428  Trainloss: 0.4680   Testloss: 1.7432  TrainAcc: 88.85   Top1: 62.1735    Top5: 84.3302	lr:0.000715
Ep: 208   EpTime: 25.3389  Trainloss: 0.4553   Testloss: 1.7680  TrainAcc: 89.11   Top1: 62.4263    Top5: 84.1196	lr:0.000701
Ep: 209   EpTime: 24.8120  Trainloss: 0.4894   Testloss: 1.7535  TrainAcc: 88.55   Top1: 62.0893    Top5: 84.3724	lr:0.000687
Ep: 210   EpTime: 25.0826  Trainloss: 0.4621   Testloss: 1.7535  TrainAcc: 89.05   Top1: 61.7944    Top5: 84.5830	lr:0.000673
Ep: 211   EpTime: 24.6825  Trainloss: 0.4833   Testloss: 1.7603  TrainAcc: 88.42   Top1: 61.9629    Top5: 84.2460	lr:0.000660
Ep: 212   EpTime: 25.2088  Trainloss: 0.4823   Testloss: 1.7684  TrainAcc: 89.07   Top1: 61.7102    Top5: 84.1617	lr:0.000647
Ep: 213   EpTime: 25.2110  Trainloss: 0.4894   Testloss: 1.7641  TrainAcc: 88.57   Top1: 62.1735    Top5: 84.4566	lr:0.000634
Ep: 214   EpTime: 25.1703  Trainloss: 0.4668   Testloss: 1.7508  TrainAcc: 89.19   Top1: 62.2157    Top5: 84.2460	lr:0.000621
Ep: 215   EpTime: 24.9003  Trainloss: 0.4836   Testloss: 1.7560  TrainAcc: 88.93   Top1: 62.0893    Top5: 84.4987	lr:0.000609
Ep: 216   EpTime: 25.0677  Trainloss: 0.4590   Testloss: 1.7602  TrainAcc: 89.15   Top1: 62.2578    Top5: 84.4566	lr:0.000596
Ep: 217   EpTime: 25.4074  Trainloss: 0.4745   Testloss: 1.7526  TrainAcc: 89.05   Top1: 62.2999    Top5: 84.1617	lr:0.000585
Ep: 218   EpTime: 25.2641  Trainloss: 0.4754   Testloss: 1.7599  TrainAcc: 88.70   Top1: 62.1735    Top5: 84.3302	lr:0.000573
Ep: 219   EpTime: 24.8706  Trainloss: 0.4869   Testloss: 1.7649  TrainAcc: 88.34   Top1: 62.0051    Top5: 84.4566	lr:0.000561
Ep: 220   EpTime: 25.1548  Trainloss: 0.4787   Testloss: 1.7620  TrainAcc: 88.71   Top1: 62.2578    Top5: 84.0354	lr:0.000550
