[32, 16, 24, 32, 64, 96, 160, 320]
MobileNet2(
  (activation): ReLU6(inplace)
  (conv1): Conv2d(3, 32, kernel_size=(3, 3), stride=(2, 2), padding=(1, 1), bias=False)
  (bn1): BatchNorm2d(32, eps=1e-05, momentum=0.1, affine=True, track_running_stats=True)
  (bottlenecks): Sequential(
    (Bottlenecks_0): Sequential(
      (LinearBottleneck0_0): LinearBottleneck(
        (conv1): Conv2d(32, 32, kernel_size=(1, 1), stride=(1, 1), bias=False)
        (bn1): BatchNorm2d(32, eps=1e-05, momentum=0.1, affine=True, track_running_stats=True)
        (conv2): Conv2d(32, 32, kernel_size=(3, 3), stride=(1, 1), padding=(1, 1), groups=32, bias=False)
        (bn2): BatchNorm2d(32, eps=1e-05, momentum=0.1, affine=True, track_running_stats=True)
        (conv3): Conv2d(32, 16, kernel_size=(1, 1), stride=(1, 1), bias=False)
        (bn3): BatchNorm2d(16, eps=1e-05, momentum=0.1, affine=True, track_running_stats=True)
        (activation): ReLU6(inplace)
      )
    )
    (Bottlenecks_1): Sequential(
      (LinearBottleneck1_0): LinearBottleneck(
        (conv1): Conv2d(16, 96, kernel_size=(1, 1), stride=(1, 1), bias=False)
        (bn1): BatchNorm2d(96, eps=1e-05, momentum=0.1, affine=True, track_running_stats=True)
        (conv2): Conv2d(96, 96, kernel_size=(3, 3), stride=(2, 2), padding=(1, 1), groups=96, bias=False)
        (bn2): BatchNorm2d(96, eps=1e-05, momentum=0.1, affine=True, track_running_stats=True)
        (conv3): Conv2d(96, 24, kernel_size=(1, 1), stride=(1, 1), bias=False)
        (bn3): BatchNorm2d(24, eps=1e-05, momentum=0.1, affine=True, track_running_stats=True)
        (activation): ReLU6(inplace)
      )
      (LinearBottleneck1_1): LinearBottleneck(
        (conv1): Conv2d(24, 144, kernel_size=(1, 1), stride=(1, 1), bias=False)
        (bn1): BatchNorm2d(144, eps=1e-05, momentum=0.1, affine=True, track_running_stats=True)
        (conv2): Conv2d(144, 144, kernel_size=(3, 3), stride=(1, 1), padding=(1, 1), groups=144, bias=False)
        (bn2): BatchNorm2d(144, eps=1e-05, momentum=0.1, affine=True, track_running_stats=True)
        (conv3): Conv2d(144, 24, kernel_size=(1, 1), stride=(1, 1), bias=False)
        (bn3): BatchNorm2d(24, eps=1e-05, momentum=0.1, affine=True, track_running_stats=True)
        (activation): ReLU6(inplace)
      )
    )
    (Bottlenecks_2): Sequential(
      (LinearBottleneck2_0): LinearBottleneck(
        (conv1): Conv2d(24, 144, kernel_size=(1, 1), stride=(1, 1), bias=False)
        (bn1): BatchNorm2d(144, eps=1e-05, momentum=0.1, affine=True, track_running_stats=True)
        (conv2): Conv2d(144, 144, kernel_size=(3, 3), stride=(2, 2), padding=(1, 1), groups=144, bias=False)
        (bn2): BatchNorm2d(144, eps=1e-05, momentum=0.1, affine=True, track_running_stats=True)
        (conv3): Conv2d(144, 32, kernel_size=(1, 1), stride=(1, 1), bias=False)
        (bn3): BatchNorm2d(32, eps=1e-05, momentum=0.1, affine=True, track_running_stats=True)
        (activation): ReLU6(inplace)
      )
      (LinearBottleneck2_1): LinearBottleneck(
        (conv1): Conv2d(32, 192, kernel_size=(1, 1), stride=(1, 1), bias=False)
        (bn1): BatchNorm2d(192, eps=1e-05, momentum=0.1, affine=True, track_running_stats=True)
        (conv2): Conv2d(192, 192, kernel_size=(3, 3), stride=(1, 1), padding=(1, 1), groups=192, bias=False)
        (bn2): BatchNorm2d(192, eps=1e-05, momentum=0.1, affine=True, track_running_stats=True)
        (conv3): Conv2d(192, 32, kernel_size=(1, 1), stride=(1, 1), bias=False)
        (bn3): BatchNorm2d(32, eps=1e-05, momentum=0.1, affine=True, track_running_stats=True)
        (activation): ReLU6(inplace)
      )
      (LinearBottleneck2_2): LinearBottleneck(
        (conv1): Conv2d(32, 192, kernel_size=(1, 1), stride=(1, 1), bias=False)
        (bn1): BatchNorm2d(192, eps=1e-05, momentum=0.1, affine=True, track_running_stats=True)
        (conv2): Conv2d(192, 192, kernel_size=(3, 3), stride=(1, 1), padding=(1, 1), groups=192, bias=False)
        (bn2): BatchNorm2d(192, eps=1e-05, momentum=0.1, affine=True, track_running_stats=True)
        (conv3): Conv2d(192, 32, kernel_size=(1, 1), stride=(1, 1), bias=False)
        (bn3): BatchNorm2d(32, eps=1e-05, momentum=0.1, affine=True, track_running_stats=True)
        (activation): ReLU6(inplace)
      )
    )
    (Bottlenecks_3): Sequential(
      (LinearBottleneck3_0): LinearBottleneck(
        (conv1): Conv2d(32, 192, kernel_size=(1, 1), stride=(1, 1), bias=False)
        (bn1): BatchNorm2d(192, eps=1e-05, momentum=0.1, affine=True, track_running_stats=True)
        (conv2): Conv2d(192, 192, kernel_size=(3, 3), stride=(2, 2), padding=(1, 1), groups=192, bias=False)
        (bn2): BatchNorm2d(192, eps=1e-05, momentum=0.1, affine=True, track_running_stats=True)
        (conv3): Conv2d(192, 64, kernel_size=(1, 1), stride=(1, 1), bias=False)
        (bn3): BatchNorm2d(64, eps=1e-05, momentum=0.1, affine=True, track_running_stats=True)
        (activation): ReLU6(inplace)
      )
      (LinearBottleneck3_1): LinearBottleneck(
        (conv1): Conv2d(64, 384, kernel_size=(1, 1), stride=(1, 1), bias=False)
        (bn1): BatchNorm2d(384, eps=1e-05, momentum=0.1, affine=True, track_running_stats=True)
        (conv2): Conv2d(384, 384, kernel_size=(3, 3), stride=(1, 1), padding=(1, 1), groups=384, bias=False)
        (bn2): BatchNorm2d(384, eps=1e-05, momentum=0.1, affine=True, track_running_stats=True)
        (conv3): Conv2d(384, 64, kernel_size=(1, 1), stride=(1, 1), bias=False)
        (bn3): BatchNorm2d(64, eps=1e-05, momentum=0.1, affine=True, track_running_stats=True)
        (activation): ReLU6(inplace)
      )
      (LinearBottleneck3_2): LinearBottleneck(
        (conv1): Conv2d(64, 384, kernel_size=(1, 1), stride=(1, 1), bias=False)
        (bn1): BatchNorm2d(384, eps=1e-05, momentum=0.1, affine=True, track_running_stats=True)
        (conv2): Conv2d(384, 384, kernel_size=(3, 3), stride=(1, 1), padding=(1, 1), groups=384, bias=False)
        (bn2): BatchNorm2d(384, eps=1e-05, momentum=0.1, affine=True, track_running_stats=True)
        (conv3): Conv2d(384, 64, kernel_size=(1, 1), stride=(1, 1), bias=False)
        (bn3): BatchNorm2d(64, eps=1e-05, momentum=0.1, affine=True, track_running_stats=True)
        (activation): ReLU6(inplace)
      )
      (LinearBottleneck3_3): LinearBottleneck(
        (conv1): Conv2d(64, 384, kernel_size=(1, 1), stride=(1, 1), bias=False)
        (bn1): BatchNorm2d(384, eps=1e-05, momentum=0.1, affine=True, track_running_stats=True)
        (conv2): Conv2d(384, 384, kernel_size=(3, 3), stride=(1, 1), padding=(1, 1), groups=384, bias=False)
        (bn2): BatchNorm2d(384, eps=1e-05, momentum=0.1, affine=True, track_running_stats=True)
        (conv3): Conv2d(384, 64, kernel_size=(1, 1), stride=(1, 1), bias=False)
        (bn3): BatchNorm2d(64, eps=1e-05, momentum=0.1, affine=True, track_running_stats=True)
        (activation): ReLU6(inplace)
      )
    )
    (Bottlenecks_4): Sequential(
      (LinearBottleneck4_0): LinearBottleneck(
        (conv1): Conv2d(64, 384, kernel_size=(1, 1), stride=(1, 1), bias=False)
        (bn1): BatchNorm2d(384, eps=1e-05, momentum=0.1, affine=True, track_running_stats=True)
        (conv2): Conv2d(384, 384, kernel_size=(3, 3), stride=(1, 1), padding=(1, 1), groups=384, bias=False)
        (bn2): BatchNorm2d(384, eps=1e-05, momentum=0.1, affine=True, track_running_stats=True)
        (conv3): Conv2d(384, 96, kernel_size=(1, 1), stride=(1, 1), bias=False)
        (bn3): BatchNorm2d(96, eps=1e-05, momentum=0.1, affine=True, track_running_stats=True)
        (activation): ReLU6(inplace)
      )
      (LinearBottleneck4_1): LinearBottleneck(
        (conv1): Conv2d(96, 576, kernel_size=(1, 1), stride=(1, 1), bias=False)
        (bn1): BatchNorm2d(576, eps=1e-05, momentum=0.1, affine=True, track_running_stats=True)
        (conv2): Conv2d(576, 576, kernel_size=(3, 3), stride=(1, 1), padding=(1, 1), groups=576, bias=False)
        (bn2): BatchNorm2d(576, eps=1e-05, momentum=0.1, affine=True, track_running_stats=True)
        (conv3): Conv2d(576, 96, kernel_size=(1, 1), stride=(1, 1), bias=False)
        (bn3): BatchNorm2d(96, eps=1e-05, momentum=0.1, affine=True, track_running_stats=True)
        (activation): ReLU6(inplace)
      )
      (LinearBottleneck4_2): LinearBottleneck(
        (conv1): Conv2d(96, 576, kernel_size=(1, 1), stride=(1, 1), bias=False)
        (bn1): BatchNorm2d(576, eps=1e-05, momentum=0.1, affine=True, track_running_stats=True)
        (conv2): Conv2d(576, 576, kernel_size=(3, 3), stride=(1, 1), padding=(1, 1), groups=576, bias=False)
        (bn2): BatchNorm2d(576, eps=1e-05, momentum=0.1, affine=True, track_running_stats=True)
        (conv3): Conv2d(576, 96, kernel_size=(1, 1), stride=(1, 1), bias=False)
        (bn3): BatchNorm2d(96, eps=1e-05, momentum=0.1, affine=True, track_running_stats=True)
        (activation): ReLU6(inplace)
      )
    )
    (Bottlenecks_5): Sequential(
      (LinearBottleneck5_0): LinearBottleneck(
        (conv1): Conv2d(96, 576, kernel_size=(1, 1), stride=(1, 1), bias=False)
        (bn1): BatchNorm2d(576, eps=1e-05, momentum=0.1, affine=True, track_running_stats=True)
        (conv2): Conv2d(576, 576, kernel_size=(3, 3), stride=(2, 2), padding=(1, 1), groups=576, bias=False)
        (bn2): BatchNorm2d(576, eps=1e-05, momentum=0.1, affine=True, track_running_stats=True)
        (conv3): Conv2d(576, 160, kernel_size=(1, 1), stride=(1, 1), bias=False)
        (bn3): BatchNorm2d(160, eps=1e-05, momentum=0.1, affine=True, track_running_stats=True)
        (activation): ReLU6(inplace)
      )
      (LinearBottleneck5_1): LinearBottleneck(
        (conv1): Conv2d(160, 960, kernel_size=(1, 1), stride=(1, 1), bias=False)
        (bn1): BatchNorm2d(960, eps=1e-05, momentum=0.1, affine=True, track_running_stats=True)
        (conv2): Conv2d(960, 960, kernel_size=(3, 3), stride=(1, 1), padding=(1, 1), groups=960, bias=False)
        (bn2): BatchNorm2d(960, eps=1e-05, momentum=0.1, affine=True, track_running_stats=True)
        (conv3): Conv2d(960, 160, kernel_size=(1, 1), stride=(1, 1), bias=False)
        (bn3): BatchNorm2d(160, eps=1e-05, momentum=0.1, affine=True, track_running_stats=True)
        (activation): ReLU6(inplace)
      )
      (LinearBottleneck5_2): LinearBottleneck(
        (conv1): Conv2d(160, 960, kernel_size=(1, 1), stride=(1, 1), bias=False)
        (bn1): BatchNorm2d(960, eps=1e-05, momentum=0.1, affine=True, track_running_stats=True)
        (conv2): Conv2d(960, 960, kernel_size=(3, 3), stride=(1, 1), padding=(1, 1), groups=960, bias=False)
        (bn2): BatchNorm2d(960, eps=1e-05, momentum=0.1, affine=True, track_running_stats=True)
        (conv3): Conv2d(960, 160, kernel_size=(1, 1), stride=(1, 1), bias=False)
        (bn3): BatchNorm2d(160, eps=1e-05, momentum=0.1, affine=True, track_running_stats=True)
        (activation): ReLU6(inplace)
      )
    )
    (Bottlenecks_6): Sequential(
      (LinearBottleneck6_0): LinearBottleneck(
        (conv1): Conv2d(160, 960, kernel_size=(1, 1), stride=(1, 1), bias=False)
        (bn1): BatchNorm2d(960, eps=1e-05, momentum=0.1, affine=True, track_running_stats=True)
        (conv2): Conv2d(960, 960, kernel_size=(3, 3), stride=(1, 1), padding=(1, 1), groups=960, bias=False)
        (bn2): BatchNorm2d(960, eps=1e-05, momentum=0.1, affine=True, track_running_stats=True)
        (conv3): Conv2d(960, 320, kernel_size=(1, 1), stride=(1, 1), bias=False)
        (bn3): BatchNorm2d(320, eps=1e-05, momentum=0.1, affine=True, track_running_stats=True)
        (activation): ReLU6(inplace)
      )
    )
  )
  (conv_last): Conv2d(320, 1280, kernel_size=(1, 1), stride=(1, 1), bias=False)
  (bn_last): BatchNorm2d(1280, eps=1e-05, momentum=0.1, affine=True, track_running_stats=True)
  (avgpool): AdaptiveAvgPool2d(output_size=1)
  (dropout): Dropout(p=0.2, inplace)
  (fc): Linear(in_features=1280, out_features=200, bias=True)
)
Ep: 1   EpTime: 33.8934  Trainloss: 5.3898   Testloss: 5.6414  TrainAcc: 0.82   Top1: 1.3901    Top5: 5.8130	lr:0.044713
Ep: 2   EpTime: 29.1681  Trainloss: 4.9348   Testloss: 4.8689  TrainAcc: 2.65   Top1: 2.8222    Top5: 12.4684	lr:0.044427
Ep: 3   EpTime: 28.8402  Trainloss: 4.6495   Testloss: 4.5111  TrainAcc: 3.89   Top1: 5.2233    Top5: 18.4077	lr:0.044140
Ep: 4   EpTime: 28.9046  Trainloss: 4.4243   Testloss: 4.2398  TrainAcc: 5.75   Top1: 7.9191    Top5: 25.4423	lr:0.043854
Ep: 5   EpTime: 29.3106  Trainloss: 4.2392   Testloss: 4.0452  TrainAcc: 7.92   Top1: 9.2249    Top5: 29.8652	lr:0.043567
Ep: 6   EpTime: 30.6338  Trainloss: 4.0949   Testloss: 4.0134  TrainAcc: 9.47   Top1: 10.6150    Top5: 32.7717	lr:0.043280
Ep: 7   EpTime: 30.2647  Trainloss: 3.9282   Testloss: 3.7710  TrainAcc: 11.66   Top1: 14.8694    Top5: 37.8686	lr:0.042994
Ep: 8   EpTime: 30.4289  Trainloss: 3.7712   Testloss: 4.0054  TrainAcc: 13.79   Top1: 13.4794    Top5: 38.7532	lr:0.042707
Ep: 9   EpTime: 30.1792  Trainloss: 3.6454   Testloss: 3.6815  TrainAcc: 16.43   Top1: 15.7961    Top5: 40.8172	lr:0.042420
Ep: 10   EpTime: 30.3777  Trainloss: 3.5428   Testloss: 3.1948  TrainAcc: 17.64   Top1: 22.3673    Top5: 51.4743	lr:0.042134
Ep: 11   EpTime: 30.4627  Trainloss: 3.4173   Testloss: 3.5898  TrainAcc: 20.00   Top1: 19.2081    Top5: 45.1559	lr:0.041847
Ep: 12   EpTime: 30.5255  Trainloss: 3.3033   Testloss: 3.0955  TrainAcc: 22.09   Top1: 24.5156    Top5: 54.7178	lr:0.041561
Ep: 13   EpTime: 30.5403  Trainloss: 3.1942   Testloss: 3.2085  TrainAcc: 24.28   Top1: 23.7574    Top5: 53.1592	lr:0.041274
Ep: 14   EpTime: 30.0114  Trainloss: 3.0941   Testloss: 3.0059  TrainAcc: 25.82   Top1: 27.8012    Top5: 57.6243	lr:0.040987
Ep: 15   EpTime: 30.3348  Trainloss: 2.9987   Testloss: 2.9131  TrainAcc: 27.83   Top1: 29.2755    Top5: 59.0986	lr:0.040701
Ep: 16   EpTime: 30.5676  Trainloss: 2.9007   Testloss: 2.8742  TrainAcc: 29.09   Top1: 30.6655    Top5: 60.0253	lr:0.040414
Ep: 17   EpTime: 30.4679  Trainloss: 2.8190   Testloss: 2.7236  TrainAcc: 31.71   Top1: 31.3395    Top5: 65.1643	lr:0.040127
Ep: 18   EpTime: 30.6062  Trainloss: 2.7528   Testloss: 2.8497  TrainAcc: 33.41   Top1: 31.8029    Top5: 62.3420	lr:0.039841
Ep: 19   EpTime: 30.1521  Trainloss: 2.6603   Testloss: 2.6075  TrainAcc: 34.50   Top1: 35.3833    Top5: 65.7540	lr:0.039554
Ep: 20   EpTime: 30.3064  Trainloss: 2.5854   Testloss: 2.7531  TrainAcc: 35.72   Top1: 30.6234    Top5: 63.2687	lr:0.039268
Ep: 21   EpTime: 30.2076  Trainloss: 2.5259   Testloss: 2.5054  TrainAcc: 37.35   Top1: 37.4473    Top5: 68.9975	lr:0.038981
Ep: 22   EpTime: 31.0349  Trainloss: 2.4536   Testloss: 2.2934  TrainAcc: 39.37   Top1: 41.8703    Top5: 71.9040	lr:0.038694
Ep: 23   EpTime: 30.4868  Trainloss: 2.3487   Testloss: 2.4985  TrainAcc: 41.20   Top1: 40.3538    Top5: 69.7557	lr:0.038408
Ep: 24   EpTime: 30.4216  Trainloss: 2.3012   Testloss: 2.2493  TrainAcc: 42.07   Top1: 41.2384    Top5: 74.8526	lr:0.038121
Ep: 25   EpTime: 30.7195  Trainloss: 2.2958   Testloss: 2.5125  TrainAcc: 42.71   Top1: 39.2586    Top5: 69.2923	lr:0.037834
Ep: 26   EpTime: 30.4164  Trainloss: 2.2323   Testloss: 2.2704  TrainAcc: 43.94   Top1: 42.0388    Top5: 72.7043	lr:0.037548
Ep: 27   EpTime: 30.5783  Trainloss: 2.1879   Testloss: 2.1905  TrainAcc: 44.73   Top1: 44.1870    Top5: 75.6529	lr:0.037261
Ep: 28   EpTime: 30.3202  Trainloss: 2.0889   Testloss: 2.0204  TrainAcc: 46.60   Top1: 48.2308    Top5: 77.1693	lr:0.036975
Ep: 29   EpTime: 30.4108  Trainloss: 2.0422   Testloss: 2.0013  TrainAcc: 48.07   Top1: 48.0202    Top5: 78.9806	lr:0.036688
Ep: 30   EpTime: 30.2367  Trainloss: 2.0222   Testloss: 2.2066  TrainAcc: 48.34   Top1: 46.9250    Top5: 76.1163	lr:0.036401
Ep: 31   EpTime: 30.1568  Trainloss: 1.9588   Testloss: 2.1523  TrainAcc: 50.04   Top1: 46.7565    Top5: 76.2005	lr:0.036115
Ep: 32   EpTime: 30.5814  Trainloss: 1.9032   Testloss: 2.1105  TrainAcc: 51.44   Top1: 47.5147    Top5: 75.6529	lr:0.035828
Ep: 33   EpTime: 30.5674  Trainloss: 1.8586   Testloss: 1.9822  TrainAcc: 52.08   Top1: 50.6740    Top5: 78.5173	lr:0.035541
Ep: 34   EpTime: 30.2128  Trainloss: 1.8409   Testloss: 1.9841  TrainAcc: 53.01   Top1: 48.8627    Top5: 79.3176	lr:0.035255
Ep: 35   EpTime: 30.9632  Trainloss: 1.7871   Testloss: 2.0485  TrainAcc: 54.80   Top1: 49.4524    Top5: 78.3909	lr:0.034968
Ep: 36   EpTime: 30.4890  Trainloss: 1.7492   Testloss: 1.9918  TrainAcc: 55.68   Top1: 50.3791    Top5: 78.9806	lr:0.034682
Ep: 37   EpTime: 30.0673  Trainloss: 1.6910   Testloss: 1.8505  TrainAcc: 55.93   Top1: 52.9907    Top5: 80.9183	lr:0.034395
Ep: 38   EpTime: 30.4595  Trainloss: 1.7005   Testloss: 2.1243  TrainAcc: 56.66   Top1: 49.4524    Top5: 78.3488	lr:0.034108
Ep: 39   EpTime: 30.6130  Trainloss: 1.6518   Testloss: 1.8420  TrainAcc: 57.77   Top1: 55.0548    Top5: 80.7919	lr:0.033822
Ep: 40   EpTime: 31.2142  Trainloss: 1.6146   Testloss: 1.9350  TrainAcc: 58.19   Top1: 52.7801    Top5: 79.9916	lr:0.033535
Ep: 41   EpTime: 30.6320  Trainloss: 1.5702   Testloss: 1.9547  TrainAcc: 59.27   Top1: 52.7380    Top5: 80.3707	lr:0.033248
Ep: 42   EpTime: 30.9067  Trainloss: 1.5840   Testloss: 2.0432  TrainAcc: 59.03   Top1: 50.0842    Top5: 79.0227	lr:0.032962
Ep: 43   EpTime: 30.1904  Trainloss: 1.4921   Testloss: 1.9658  TrainAcc: 61.96   Top1: 53.2013    Top5: 79.1912	lr:0.032675
Ep: 44   EpTime: 31.0846  Trainloss: 1.5090   Testloss: 1.8583  TrainAcc: 61.21   Top1: 53.4120    Top5: 80.9604	lr:0.032389
Ep: 45   EpTime: 30.2749  Trainloss: 1.4355   Testloss: 2.0309  TrainAcc: 62.43   Top1: 51.6849    Top5: 78.1382	lr:0.032102
Ep: 46   EpTime: 30.5025  Trainloss: 1.4472   Testloss: 1.8491  TrainAcc: 62.75   Top1: 54.8020    Top5: 80.5392	lr:0.031815
Ep: 47   EpTime: 30.2542  Trainloss: 1.4162   Testloss: 1.7711  TrainAcc: 63.73   Top1: 57.4136    Top5: 81.9292	lr:0.031529
Ep: 48   EpTime: 30.4131  Trainloss: 1.3763   Testloss: 2.0331  TrainAcc: 64.51   Top1: 51.3901    Top5: 79.6125	lr:0.031242
Ep: 49   EpTime: 29.9057  Trainloss: 1.3555   Testloss: 1.9326  TrainAcc: 64.48   Top1: 54.1702    Top5: 79.8231	lr:0.030955
Ep: 50   EpTime: 30.4987  Trainloss: 1.3082   Testloss: 1.8017  TrainAcc: 65.95   Top1: 56.6554    Top5: 82.9823	lr:0.030669
Ep: 51   EpTime: 30.3368  Trainloss: 1.3177   Testloss: 1.7833  TrainAcc: 66.07   Top1: 57.4979    Top5: 83.2350	lr:0.030382
Ep: 52   EpTime: 30.3456  Trainloss: 1.2773   Testloss: 1.7795  TrainAcc: 66.97   Top1: 57.7085    Top5: 83.4878	lr:0.030096
Ep: 53   EpTime: 30.4283  Trainloss: 1.3019   Testloss: 1.7120  TrainAcc: 66.55   Top1: 58.8880    Top5: 83.6563	lr:0.029809
Ep: 54   EpTime: 30.4438  Trainloss: 1.2767   Testloss: 1.8382  TrainAcc: 66.78   Top1: 57.4136    Top5: 83.2350	lr:0.029522
Ep: 55   EpTime: 30.3388  Trainloss: 1.2029   Testloss: 1.7260  TrainAcc: 69.41   Top1: 59.1828    Top5: 84.0775	lr:0.029236
Ep: 56   EpTime: 30.1792  Trainloss: 1.2067   Testloss: 1.8724  TrainAcc: 69.19   Top1: 57.3715    Top5: 82.6874	lr:0.028949
Ep: 57   EpTime: 30.2461  Trainloss: 1.2329   Testloss: 1.6947  TrainAcc: 68.59   Top1: 58.5931    Top5: 84.6672	lr:0.028662
Ep: 58   EpTime: 30.1487  Trainloss: 1.1458   Testloss: 1.7320  TrainAcc: 70.63   Top1: 59.1407    Top5: 84.2460	lr:0.028376
Ep: 59   EpTime: 30.2933  Trainloss: 1.1353   Testloss: 1.8783  TrainAcc: 70.90   Top1: 57.9191    Top5: 83.3614	lr:0.028089
Ep: 60   EpTime: 30.4287  Trainloss: 1.1069   Testloss: 1.7652  TrainAcc: 71.67   Top1: 58.0455    Top5: 84.0354	lr:0.027803
Ep: 61   EpTime: 30.6592  Trainloss: 1.0970   Testloss: 1.7549  TrainAcc: 71.67   Top1: 58.5510    Top5: 83.3614	lr:0.027516
Ep: 62   EpTime: 30.4089  Trainloss: 1.0717   Testloss: 1.8076  TrainAcc: 72.27   Top1: 59.3092    Top5: 83.4035	lr:0.027229
Ep: 63   EpTime: 30.8032  Trainloss: 1.0825   Testloss: 1.6919  TrainAcc: 72.39   Top1: 60.8256    Top5: 84.1196	lr:0.026943
Ep: 64   EpTime: 29.9216  Trainloss: 1.0613   Testloss: 1.7562  TrainAcc: 73.42   Top1: 59.1828    Top5: 83.6984	lr:0.026656
Ep: 65   EpTime: 30.3550  Trainloss: 1.0283   Testloss: 1.7590  TrainAcc: 73.26   Top1: 59.7725    Top5: 84.0354	lr:0.026369
Ep: 66   EpTime: 30.5716  Trainloss: 1.0381   Testloss: 1.7332  TrainAcc: 73.25   Top1: 59.8147    Top5: 84.6672	lr:0.026083
Ep: 67   EpTime: 30.3029  Trainloss: 1.0436   Testloss: 1.8112  TrainAcc: 73.40   Top1: 58.3404    Top5: 83.9933	lr:0.025796
Ep: 68   EpTime: 30.5473  Trainloss: 0.9898   Testloss: 1.7199  TrainAcc: 74.59   Top1: 59.5198    Top5: 85.0042	lr:0.025510
Ep: 69   EpTime: 30.2086  Trainloss: 0.9898   Testloss: 1.7998  TrainAcc: 75.14   Top1: 59.7304    Top5: 84.4987	lr:0.025223
Ep: 70   EpTime: 30.4135  Trainloss: 0.9559   Testloss: 1.7848  TrainAcc: 75.98   Top1: 59.8147    Top5: 84.2039	lr:0.024936
Ep: 71   EpTime: 30.0191  Trainloss: 0.9863   Testloss: 1.7646  TrainAcc: 75.15   Top1: 60.1938    Top5: 83.8669	lr:0.024650
Ep: 72   EpTime: 30.5560  Trainloss: 0.9407   Testloss: 1.7218  TrainAcc: 76.50   Top1: 61.0362    Top5: 84.7936	lr:0.024363
Ep: 73   EpTime: 30.5916  Trainloss: 0.9315   Testloss: 1.8653  TrainAcc: 76.58   Top1: 59.6040    Top5: 82.9823	lr:0.024076
Ep: 74   EpTime: 30.5235  Trainloss: 0.8948   Testloss: 1.7772  TrainAcc: 77.36   Top1: 59.6883    Top5: 84.5830	lr:0.023790
Ep: 75   EpTime: 30.4227  Trainloss: 0.8908   Testloss: 1.8705  TrainAcc: 77.17   Top1: 59.0564    Top5: 83.4457	lr:0.023503
Ep: 76   EpTime: 30.2470  Trainloss: 0.9008   Testloss: 1.8270  TrainAcc: 76.67   Top1: 59.4355    Top5: 83.6984	lr:0.023217
Ep: 77   EpTime: 30.6620  Trainloss: 0.8757   Testloss: 1.6897  TrainAcc: 77.76   Top1: 60.6150    Top5: 84.7093	lr:0.022930
Ep: 78   EpTime: 31.0342  Trainloss: 0.8602   Testloss: 1.7188  TrainAcc: 78.23   Top1: 60.7835    Top5: 84.8357	lr:0.022643
Ep: 79   EpTime: 30.5216  Trainloss: 0.8405   Testloss: 1.7892  TrainAcc: 79.18   Top1: 60.0674    Top5: 84.2460	lr:0.022357
Ep: 80   EpTime: 30.6580  Trainloss: 0.8819   Testloss: 1.7818  TrainAcc: 77.75   Top1: 59.7725    Top5: 84.2460	lr:0.022070
Ep: 81   EpTime: 30.5885  Trainloss: 0.8366   Testloss: 1.7260  TrainAcc: 79.26   Top1: 61.8787    Top5: 84.7093	lr:0.021783
Ep: 82   EpTime: 30.7361  Trainloss: 0.8220   Testloss: 1.8102  TrainAcc: 79.40   Top1: 60.6992    Top5: 84.3302	lr:0.021497
Ep: 83   EpTime: 30.5733  Trainloss: 0.8154   Testloss: 1.7765  TrainAcc: 79.63   Top1: 60.7835    Top5: 84.4145	lr:0.021210
Ep: 84   EpTime: 29.8353  Trainloss: 0.8009   Testloss: 1.7181  TrainAcc: 80.06   Top1: 62.0472    Top5: 85.2991	lr:0.020924
Ep: 85   EpTime: 30.3963  Trainloss: 0.8157   Testloss: 1.7477  TrainAcc: 79.57   Top1: 61.7102    Top5: 85.8467	lr:0.020637
Ep: 86   EpTime: 30.5975  Trainloss: 0.7892   Testloss: 1.7064  TrainAcc: 80.25   Top1: 61.7523    Top5: 86.0573	lr:0.020350
Ep: 87   EpTime: 30.5727  Trainloss: 0.8098   Testloss: 1.6965  TrainAcc: 79.76   Top1: 62.0051    Top5: 84.9200	lr:0.020064
Ep: 88   EpTime: 30.3470  Trainloss: 0.7723   Testloss: 1.8037  TrainAcc: 80.67   Top1: 60.8677    Top5: 84.7515	lr:0.019777
Ep: 89   EpTime: 30.4421  Trainloss: 0.7321   Testloss: 1.7655  TrainAcc: 81.92   Top1: 61.8787    Top5: 84.7515	lr:0.019490
Ep: 90   EpTime: 30.5050  Trainloss: 0.7686   Testloss: 1.8004  TrainAcc: 80.44   Top1: 60.7835    Top5: 83.9933	lr:0.019204
Ep: 91   EpTime: 30.6198  Trainloss: 0.7540   Testloss: 1.7658  TrainAcc: 81.24   Top1: 62.2578    Top5: 85.3833	lr:0.018917
Ep: 92   EpTime: 30.5631  Trainloss: 0.7558   Testloss: 1.7353  TrainAcc: 81.09   Top1: 62.8896    Top5: 85.3833	lr:0.018631
Ep: 93   EpTime: 30.6454  Trainloss: 0.7002   Testloss: 1.7446  TrainAcc: 82.30   Top1: 64.3218    Top5: 84.4145	lr:0.018344
Ep: 94   EpTime: 30.7761  Trainloss: 0.7348   Testloss: 1.7460  TrainAcc: 81.50   Top1: 63.4794    Top5: 85.2569	lr:0.018057
Ep: 95   EpTime: 30.4243  Trainloss: 0.7252   Testloss: 1.7328  TrainAcc: 82.40   Top1: 62.6369    Top5: 85.1727	lr:0.017771
Ep: 96   EpTime: 30.2190  Trainloss: 0.7236   Testloss: 1.7235  TrainAcc: 82.15   Top1: 62.8896    Top5: 84.4566	lr:0.017484
Ep: 97   EpTime: 30.7628  Trainloss: 0.7032   Testloss: 1.7893  TrainAcc: 82.85   Top1: 62.8054    Top5: 85.0463	lr:0.017197
Ep: 98   EpTime: 30.5627  Trainloss: 0.6878   Testloss: 1.7732  TrainAcc: 82.82   Top1: 62.5527    Top5: 84.7515	lr:0.016911
Ep: 99   EpTime: 30.5161  Trainloss: 0.6774   Testloss: 1.7418  TrainAcc: 83.18   Top1: 62.5105    Top5: 84.8778	lr:0.016624
Ep: 100   EpTime: 30.3844  Trainloss: 0.6735   Testloss: 1.8032  TrainAcc: 83.18   Top1: 62.7633    Top5: 84.7936	lr:0.016338
Ep: 101   EpTime: 30.3627  Trainloss: 0.6809   Testloss: 1.7706  TrainAcc: 83.35   Top1: 62.4684    Top5: 84.4987	lr:0.016051
Ep: 102   EpTime: 30.8532  Trainloss: 0.6635   Testloss: 1.7122  TrainAcc: 83.82   Top1: 63.7321    Top5: 84.9200	lr:0.015764
Ep: 103   EpTime: 30.3964  Trainloss: 0.6598   Testloss: 1.7472  TrainAcc: 83.80   Top1: 62.0893    Top5: 84.5409	lr:0.015478
Ep: 104   EpTime: 30.4313  Trainloss: 0.6654   Testloss: 1.7900  TrainAcc: 83.46   Top1: 62.5105    Top5: 85.2148	lr:0.015191
Ep: 105   EpTime: 30.2559  Trainloss: 0.6330   Testloss: 1.7194  TrainAcc: 84.30   Top1: 63.2266    Top5: 85.1727	lr:0.014904
Ep: 106   EpTime: 30.5045  Trainloss: 0.6549   Testloss: 1.7894  TrainAcc: 84.07   Top1: 63.6057    Top5: 85.2569	lr:0.014618
Ep: 107   EpTime: 30.5262  Trainloss: 0.6488   Testloss: 1.7489  TrainAcc: 84.11   Top1: 63.0581    Top5: 85.4254	lr:0.014331
Ep: 108   EpTime: 30.6277  Trainloss: 0.6406   Testloss: 1.7786  TrainAcc: 84.31   Top1: 61.9208    Top5: 84.7936	lr:0.014045
Ep: 109   EpTime: 30.3592  Trainloss: 0.6259   Testloss: 1.7631  TrainAcc: 84.88   Top1: 63.4794    Top5: 85.0463	lr:0.013758
Ep: 110   EpTime: 31.3651  Trainloss: 0.6001   Testloss: 1.7050  TrainAcc: 85.24   Top1: 63.5215    Top5: 85.2991	lr:0.013471
Ep: 111   EpTime: 30.7680  Trainloss: 0.5877   Testloss: 1.7600  TrainAcc: 85.63   Top1: 63.0160    Top5: 85.3412	lr:0.013185
Ep: 112   EpTime: 30.6480  Trainloss: 0.6062   Testloss: 1.7290  TrainAcc: 85.13   Top1: 63.3530    Top5: 85.6361	lr:0.012898
Ep: 113   EpTime: 30.6218  Trainloss: 0.5876   Testloss: 1.7466  TrainAcc: 85.54   Top1: 63.6900    Top5: 86.1837	lr:0.012611
Ep: 114   EpTime: 30.6432  Trainloss: 0.5931   Testloss: 1.7734  TrainAcc: 85.27   Top1: 63.2687    Top5: 85.5097	lr:0.012325
Ep: 115   EpTime: 30.0124  Trainloss: 0.6082   Testloss: 1.7199  TrainAcc: 85.07   Top1: 62.8054    Top5: 85.3833	lr:0.012038
Ep: 116   EpTime: 30.6007  Trainloss: 0.5755   Testloss: 1.7266  TrainAcc: 85.88   Top1: 63.9427    Top5: 85.8045	lr:0.011752
Ep: 117   EpTime: 31.2796  Trainloss: 0.5843   Testloss: 1.7357  TrainAcc: 85.67   Top1: 63.2266    Top5: 85.2569	lr:0.011465
Ep: 118   EpTime: 30.8405  Trainloss: 0.5911   Testloss: 1.7660  TrainAcc: 85.90   Top1: 62.6790    Top5: 85.7203	lr:0.011178
Ep: 119   EpTime: 30.0236  Trainloss: 0.5755   Testloss: 1.7598  TrainAcc: 85.86   Top1: 64.0691    Top5: 85.3412	lr:0.010892
Ep: 120   EpTime: 30.1315  Trainloss: 0.5708   Testloss: 1.7475  TrainAcc: 86.05   Top1: 63.9848    Top5: 85.7624	lr:0.010605
Ep: 121   EpTime: 30.4690  Trainloss: 0.5681   Testloss: 1.7290  TrainAcc: 86.25   Top1: 63.7321    Top5: 86.0152	lr:0.010318
Ep: 122   EpTime: 30.0002  Trainloss: 0.5710   Testloss: 1.7576  TrainAcc: 86.43   Top1: 63.6478    Top5: 85.5518	lr:0.010032
Ep: 123   EpTime: 30.1438  Trainloss: 0.5688   Testloss: 1.7437  TrainAcc: 86.25   Top1: 62.5105    Top5: 85.5518	lr:0.009745
Ep: 124   EpTime: 30.2737  Trainloss: 0.5419   Testloss: 1.7520  TrainAcc: 86.84   Top1: 63.1424    Top5: 84.8778	lr:0.009459
Ep: 125   EpTime: 30.5438  Trainloss: 0.5494   Testloss: 1.7546  TrainAcc: 86.62   Top1: 64.0691    Top5: 86.0573	lr:0.009172
Ep: 126   EpTime: 30.7762  Trainloss: 0.5130   Testloss: 1.7634  TrainAcc: 87.45   Top1: 63.6057    Top5: 85.0885	lr:0.008885
Ep: 127   EpTime: 30.1425  Trainloss: 0.5320   Testloss: 1.7322  TrainAcc: 87.41   Top1: 64.1954    Top5: 85.7203	lr:0.008599
Ep: 128   EpTime: 30.0614  Trainloss: 0.5126   Testloss: 1.7500  TrainAcc: 87.43   Top1: 63.9848    Top5: 85.0885	lr:0.008312
Ep: 129   EpTime: 29.8540  Trainloss: 0.5287   Testloss: 1.7838  TrainAcc: 87.20   Top1: 62.5527    Top5: 84.9200	lr:0.008025
Ep: 130   EpTime: 29.7830  Trainloss: 0.5190   Testloss: 1.7641  TrainAcc: 87.44   Top1: 63.6478    Top5: 85.2148	lr:0.007739
Ep: 131   EpTime: 29.8547  Trainloss: 0.5045   Testloss: 1.7425  TrainAcc: 87.76   Top1: 63.9427    Top5: 85.3412	lr:0.007452
Ep: 132   EpTime: 30.7377  Trainloss: 0.5371   Testloss: 1.7598  TrainAcc: 86.97   Top1: 63.7742    Top5: 85.6782	lr:0.007166
Ep: 133   EpTime: 30.4606  Trainloss: 0.5164   Testloss: 1.7145  TrainAcc: 87.59   Top1: 63.9427    Top5: 85.8045	lr:0.006879
Ep: 134   EpTime: 30.6600  Trainloss: 0.5008   Testloss: 1.7234  TrainAcc: 87.88   Top1: 63.3530    Top5: 86.0994	lr:0.006592
Ep: 135   EpTime: 30.1117  Trainloss: 0.4985   Testloss: 1.7233  TrainAcc: 88.00   Top1: 64.3218    Top5: 85.5518	lr:0.006306
Ep: 136   EpTime: 29.8816  Trainloss: 0.4810   Testloss: 1.7148  TrainAcc: 88.63   Top1: 64.0270    Top5: 85.2569	lr:0.006019
Ep: 137   EpTime: 30.3025  Trainloss: 0.4902   Testloss: 1.7234  TrainAcc: 88.15   Top1: 64.0270    Top5: 85.8888	lr:0.005732
Ep: 138   EpTime: 30.4357  Trainloss: 0.4867   Testloss: 1.7585  TrainAcc: 88.44   Top1: 64.2376    Top5: 85.2569	lr:0.005446
Ep: 139   EpTime: 30.4668  Trainloss: 0.4829   Testloss: 1.7323  TrainAcc: 88.51   Top1: 64.4903    Top5: 85.5939	lr:0.005159
Ep: 140   EpTime: 30.0784  Trainloss: 0.4864   Testloss: 1.7302  TrainAcc: 88.26   Top1: 64.8273    Top5: 85.6361	lr:0.004873
Ep: 141   EpTime: 30.1011  Trainloss: 0.4884   Testloss: 1.7412  TrainAcc: 88.19   Top1: 63.9006    Top5: 85.6361	lr:0.004586
Ep: 142   EpTime: 30.1672  Trainloss: 0.4791   Testloss: 1.7581  TrainAcc: 88.14   Top1: 64.4903    Top5: 85.0463	lr:0.004299
Ep: 143   EpTime: 30.2913  Trainloss: 0.4699   Testloss: 1.7285  TrainAcc: 88.85   Top1: 63.6057    Top5: 85.5939	lr:0.004013
Ep: 144   EpTime: 30.3702  Trainloss: 0.4578   Testloss: 1.7465  TrainAcc: 89.24   Top1: 64.1112    Top5: 85.5097	lr:0.003726
Ep: 145   EpTime: 30.6684  Trainloss: 0.4701   Testloss: 1.7183  TrainAcc: 88.54   Top1: 64.2797    Top5: 85.8045	lr:0.003439
Ep: 146   EpTime: 30.3274  Trainloss: 0.4492   Testloss: 1.7306  TrainAcc: 89.43   Top1: 64.2797    Top5: 85.4676	lr:0.003153
Ep: 147   EpTime: 30.8094  Trainloss: 0.4596   Testloss: 1.7429  TrainAcc: 89.27   Top1: 63.9427    Top5: 85.5939	lr:0.002866
Ep: 148   EpTime: 30.7120  Trainloss: 0.4388   Testloss: 1.7250  TrainAcc: 89.60   Top1: 64.4482    Top5: 85.8467	lr:0.002580
Ep: 149   EpTime: 30.6439  Trainloss: 0.4360   Testloss: 1.7336  TrainAcc: 89.09   Top1: 64.1533    Top5: 85.5939	lr:0.002293
Ep: 150   EpTime: 30.3932  Trainloss: 0.4318   Testloss: 1.7151  TrainAcc: 89.68   Top1: 64.1954    Top5: 86.0152	lr:0.002006
Ep: 151   EpTime: 30.3295  Trainloss: 0.4491   Testloss: 1.7037  TrainAcc: 89.30   Top1: 64.1112    Top5: 85.7203	lr:0.001966
Ep: 152   EpTime: 30.5849  Trainloss: 0.4270   Testloss: 1.7227  TrainAcc: 89.71   Top1: 63.8163    Top5: 85.2991	lr:0.001927
Ep: 153   EpTime: 30.0997  Trainloss: 0.4558   Testloss: 1.7200  TrainAcc: 89.14   Top1: 63.9427    Top5: 85.2991	lr:0.001888
Ep: 154   EpTime: 30.0205  Trainloss: 0.4410   Testloss: 1.7087  TrainAcc: 89.28   Top1: 64.7009    Top5: 85.4676	lr:0.001851
Ep: 155   EpTime: 30.4232  Trainloss: 0.4372   Testloss: 1.7251  TrainAcc: 89.49   Top1: 63.9427    Top5: 85.3412	lr:0.001814
Ep: 156   EpTime: 30.4164  Trainloss: 0.4222   Testloss: 1.7092  TrainAcc: 89.84   Top1: 64.7009    Top5: 85.0885	lr:0.001777
Ep: 157   EpTime: 30.0803  Trainloss: 0.4132   Testloss: 1.7150  TrainAcc: 89.96   Top1: 64.5324    Top5: 85.1306	lr:0.001742
Ep: 158   EpTime: 30.2154  Trainloss: 0.4241   Testloss: 1.7124  TrainAcc: 89.56   Top1: 64.1954    Top5: 85.3833	lr:0.001707
Ep: 159   EpTime: 30.1338  Trainloss: 0.4186   Testloss: 1.7221  TrainAcc: 90.02   Top1: 64.4903    Top5: 85.2148	lr:0.001673
Ep: 160   EpTime: 30.2245  Trainloss: 0.4320   Testloss: 1.7174  TrainAcc: 89.66   Top1: 64.1112    Top5: 85.6361	lr:0.001639
Ep: 161   EpTime: 30.7192  Trainloss: 0.4513   Testloss: 1.7199  TrainAcc: 89.39   Top1: 64.6588    Top5: 85.4676	lr:0.001607
Ep: 162   EpTime: 30.3572  Trainloss: 0.4312   Testloss: 1.7236  TrainAcc: 89.91   Top1: 64.1954    Top5: 85.4254	lr:0.001574
Ep: 163   EpTime: 30.3142  Trainloss: 0.4297   Testloss: 1.7268  TrainAcc: 89.79   Top1: 64.0691    Top5: 85.2569	lr:0.001543
Ep: 164   EpTime: 30.7194  Trainloss: 0.4364   Testloss: 1.7162  TrainAcc: 89.44   Top1: 64.5324    Top5: 85.4676	lr:0.001512
Ep: 165   EpTime: 30.5191  Trainloss: 0.4365   Testloss: 1.7166  TrainAcc: 89.68   Top1: 64.2797    Top5: 85.6782	lr:0.001482
Ep: 166   EpTime: 30.4985  Trainloss: 0.4430   Testloss: 1.7296  TrainAcc: 89.15   Top1: 64.1112    Top5: 85.4676	lr:0.001452
Ep: 167   EpTime: 30.3364  Trainloss: 0.4223   Testloss: 1.7152  TrainAcc: 89.90   Top1: 64.1112    Top5: 85.8045	lr:0.001423
Ep: 168   EpTime: 30.2295  Trainloss: 0.4510   Testloss: 1.7295  TrainAcc: 89.39   Top1: 63.9006    Top5: 85.2991	lr:0.001395
Ep: 169   EpTime: 29.9942  Trainloss: 0.4255   Testloss: 1.7383  TrainAcc: 89.61   Top1: 64.3218    Top5: 85.3833	lr:0.001367
Ep: 170   EpTime: 30.0854  Trainloss: 0.4189   Testloss: 1.7291  TrainAcc: 89.73   Top1: 64.4061    Top5: 85.5939	lr:0.001339
Ep: 171   EpTime: 30.4410  Trainloss: 0.4222   Testloss: 1.7450  TrainAcc: 89.97   Top1: 64.1112    Top5: 85.8045	lr:0.001313
Ep: 172   EpTime: 30.6595  Trainloss: 0.4337   Testloss: 1.7287  TrainAcc: 89.61   Top1: 64.2797    Top5: 85.3833	lr:0.001286
Ep: 173   EpTime: 30.3489  Trainloss: 0.4069   Testloss: 1.7275  TrainAcc: 90.25   Top1: 63.9427    Top5: 85.4676	lr:0.001261
Ep: 174   EpTime: 30.0198  Trainloss: 0.4249   Testloss: 1.7172  TrainAcc: 89.88   Top1: 64.4061    Top5: 85.5097	lr:0.001235
Ep: 175   EpTime: 30.5731  Trainloss: 0.4278   Testloss: 1.7276  TrainAcc: 89.71   Top1: 63.9427    Top5: 85.6361	lr:0.001211
Ep: 176   EpTime: 29.7694  Trainloss: 0.4006   Testloss: 1.7282  TrainAcc: 90.29   Top1: 64.4903    Top5: 85.5939	lr:0.001187
Ep: 177   EpTime: 30.5654  Trainloss: 0.4143   Testloss: 1.7225  TrainAcc: 90.10   Top1: 64.4903    Top5: 85.7203	lr:0.001163
Ep: 178   EpTime: 30.1837  Trainloss: 0.4136   Testloss: 1.7231  TrainAcc: 90.34   Top1: 64.1954    Top5: 85.2148	lr:0.001140
Ep: 179   EpTime: 30.2753  Trainloss: 0.4197   Testloss: 1.7257  TrainAcc: 89.74   Top1: 63.9848    Top5: 85.2991	lr:0.001117
Ep: 180   EpTime: 30.3953  Trainloss: 0.3948   Testloss: 1.7218  TrainAcc: 90.26   Top1: 63.9427    Top5: 85.8045	lr:0.001094
Ep: 181   EpTime: 30.5468  Trainloss: 0.4008   Testloss: 1.7219  TrainAcc: 90.66   Top1: 64.1112    Top5: 85.3833	lr:0.001073
Ep: 182   EpTime: 29.9435  Trainloss: 0.4080   Testloss: 1.7187  TrainAcc: 90.20   Top1: 64.1112    Top5: 85.4254	lr:0.001051
Ep: 183   EpTime: 30.4695  Trainloss: 0.4207   Testloss: 1.7227  TrainAcc: 89.86   Top1: 63.8163    Top5: 85.4254	lr:0.001030
Ep: 184   EpTime: 30.6194  Trainloss: 0.4262   Testloss: 1.7199  TrainAcc: 89.81   Top1: 63.9427    Top5: 85.6782	lr:0.001009
Ep: 185   EpTime: 30.4523  Trainloss: 0.4284   Testloss: 1.7349  TrainAcc: 89.78   Top1: 63.9848    Top5: 86.0152	lr:0.000989
Ep: 186   EpTime: 30.3088  Trainloss: 0.3968   Testloss: 1.7113  TrainAcc: 90.26   Top1: 64.2797    Top5: 85.6361	lr:0.000970
Ep: 187   EpTime: 30.1762  Trainloss: 0.4189   Testloss: 1.7230  TrainAcc: 90.13   Top1: 64.4061    Top5: 85.8467	lr:0.000950
Ep: 188   EpTime: 30.4802  Trainloss: 0.4230   Testloss: 1.7237  TrainAcc: 89.90   Top1: 64.1533    Top5: 85.4676	lr:0.000931
Ep: 189   EpTime: 30.4433  Trainloss: 0.4136   Testloss: 1.7182  TrainAcc: 90.15   Top1: 63.8163    Top5: 85.4254	lr:0.000912
Ep: 190   EpTime: 29.9761  Trainloss: 0.4213   Testloss: 1.7182  TrainAcc: 90.12   Top1: 64.0691    Top5: 85.6361	lr:0.000894
Ep: 191   EpTime: 30.1426  Trainloss: 0.4131   Testloss: 1.7240  TrainAcc: 90.45   Top1: 64.0270    Top5: 85.4254	lr:0.000876
Ep: 192   EpTime: 30.3180  Trainloss: 0.4122   Testloss: 1.7292  TrainAcc: 90.33   Top1: 64.2797    Top5: 85.4254	lr:0.000859
Ep: 193   EpTime: 30.3772  Trainloss: 0.3814   Testloss: 1.7332  TrainAcc: 90.68   Top1: 64.0691    Top5: 85.5097	lr:0.000842
Ep: 194   EpTime: 30.2026  Trainloss: 0.4188   Testloss: 1.7283  TrainAcc: 90.05   Top1: 63.9848    Top5: 85.4676	lr:0.000825
Ep: 195   EpTime: 30.0993  Trainloss: 0.4293   Testloss: 1.7230  TrainAcc: 89.80   Top1: 64.3639    Top5: 85.1306	lr:0.000808
Ep: 196   EpTime: 30.0892  Trainloss: 0.3934   Testloss: 1.7236  TrainAcc: 90.69   Top1: 64.0691    Top5: 85.2991	lr:0.000792
Ep: 197   EpTime: 30.4897  Trainloss: 0.4262   Testloss: 1.7126  TrainAcc: 90.03   Top1: 64.7852    Top5: 85.5518	lr:0.000776
Ep: 198   EpTime: 30.3101  Trainloss: 0.4110   Testloss: 1.7171  TrainAcc: 90.06   Top1: 64.3218    Top5: 85.2991	lr:0.000761
Ep: 199   EpTime: 30.1395  Trainloss: 0.4158   Testloss: 1.7144  TrainAcc: 90.15   Top1: 64.1533    Top5: 85.2991	lr:0.000746
Ep: 200   EpTime: 30.6705  Trainloss: 0.3897   Testloss: 1.7119  TrainAcc: 90.96   Top1: 64.3639    Top5: 85.3833	lr:0.000731
Ep: 201   EpTime: 30.4478  Trainloss: 0.4024   Testloss: 1.7214  TrainAcc: 90.33   Top1: 64.2376    Top5: 85.2569	lr:0.000716
Ep: 202   EpTime: 30.2155  Trainloss: 0.4146   Testloss: 1.7326  TrainAcc: 90.07   Top1: 64.1954    Top5: 85.2569	lr:0.000702
Ep: 203   EpTime: 30.5104  Trainloss: 0.4044   Testloss: 1.7153  TrainAcc: 89.95   Top1: 64.3218    Top5: 84.9200	lr:0.000688
Ep: 204   EpTime: 30.2752  Trainloss: 0.4205   Testloss: 1.7321  TrainAcc: 89.75   Top1: 64.4482    Top5: 85.3833	lr:0.000674
Ep: 205   EpTime: 30.6383  Trainloss: 0.4186   Testloss: 1.7134  TrainAcc: 89.87   Top1: 64.4903    Top5: 85.7203	lr:0.000660
Ep: 206   EpTime: 30.3045  Trainloss: 0.4177   Testloss: 1.7260  TrainAcc: 90.02   Top1: 64.2797    Top5: 85.5518	lr:0.000647
Ep: 207   EpTime: 30.2179  Trainloss: 0.4017   Testloss: 1.7273  TrainAcc: 90.40   Top1: 64.2376    Top5: 85.7624	lr:0.000634
Ep: 208   EpTime: 30.6296  Trainloss: 0.4099   Testloss: 1.7285  TrainAcc: 90.29   Top1: 64.4061    Top5: 85.5097	lr:0.000622
Ep: 209   EpTime: 30.3114  Trainloss: 0.4063   Testloss: 1.7229  TrainAcc: 90.62   Top1: 64.5746    Top5: 85.1727	lr:0.000609
Ep: 210   EpTime: 30.3209  Trainloss: 0.3935   Testloss: 1.7386  TrainAcc: 90.33   Top1: 63.9427    Top5: 85.2148	lr:0.000597
Ep: 211   EpTime: 30.1906  Trainloss: 0.4076   Testloss: 1.7291  TrainAcc: 90.20   Top1: 63.9006    Top5: 85.2148	lr:0.000585
Ep: 212   EpTime: 29.9296  Trainloss: 0.4059   Testloss: 1.7358  TrainAcc: 90.29   Top1: 64.0691    Top5: 85.5518	lr:0.000573
Ep: 213   EpTime: 30.4241  Trainloss: 0.3971   Testloss: 1.7294  TrainAcc: 90.20   Top1: 63.9006    Top5: 85.4676	lr:0.000562
Ep: 214   EpTime: 30.4150  Trainloss: 0.4110   Testloss: 1.7327  TrainAcc: 89.92   Top1: 63.4372    Top5: 85.4676	lr:0.000551
