[32, 16, 24, 32, 64, 96, 160, 320]
MobileNet2(
  (activation): ReLU6(inplace)
  (conv1): Conv2d(3, 32, kernel_size=(3, 3), stride=(2, 2), padding=(1, 1), bias=False)
  (bn1): BatchNorm2d(32, eps=1e-05, momentum=0.1, affine=True, track_running_stats=True)
  (bottlenecks): Sequential(
    (Bottlenecks_0): Sequential(
      (LinearBottleneck0_0): LinearBottleneck(
        (conv1): Conv2d(32, 32, kernel_size=(1, 1), stride=(1, 1), bias=False)
        (bn1): BatchNorm2d(32, eps=1e-05, momentum=0.1, affine=True, track_running_stats=True)
        (conv2): Conv2d(32, 32, kernel_size=(3, 3), stride=(1, 1), padding=(1, 1), groups=32, bias=False)
        (bn2): BatchNorm2d(32, eps=1e-05, momentum=0.1, affine=True, track_running_stats=True)
        (conv3): Conv2d(32, 16, kernel_size=(1, 1), stride=(1, 1), bias=False)
        (bn3): BatchNorm2d(16, eps=1e-05, momentum=0.1, affine=True, track_running_stats=True)
        (activation): ReLU6(inplace)
      )
    )
    (Bottlenecks_1): Sequential(
      (LinearBottleneck1_0): LinearBottleneck(
        (conv1): Conv2d(16, 96, kernel_size=(1, 1), stride=(1, 1), bias=False)
        (bn1): BatchNorm2d(96, eps=1e-05, momentum=0.1, affine=True, track_running_stats=True)
        (conv2): Conv2d(96, 96, kernel_size=(3, 3), stride=(2, 2), padding=(1, 1), groups=96, bias=False)
        (bn2): BatchNorm2d(96, eps=1e-05, momentum=0.1, affine=True, track_running_stats=True)
        (conv3): Conv2d(96, 24, kernel_size=(1, 1), stride=(1, 1), bias=False)
        (bn3): BatchNorm2d(24, eps=1e-05, momentum=0.1, affine=True, track_running_stats=True)
        (activation): ReLU6(inplace)
      )
      (LinearBottleneck1_1): LinearBottleneck(
        (conv1): Conv2d(24, 144, kernel_size=(1, 1), stride=(1, 1), bias=False)
        (bn1): BatchNorm2d(144, eps=1e-05, momentum=0.1, affine=True, track_running_stats=True)
        (conv2): Conv2d(144, 144, kernel_size=(3, 3), stride=(1, 1), padding=(1, 1), groups=144, bias=False)
        (bn2): BatchNorm2d(144, eps=1e-05, momentum=0.1, affine=True, track_running_stats=True)
        (conv3): Conv2d(144, 24, kernel_size=(1, 1), stride=(1, 1), bias=False)
        (bn3): BatchNorm2d(24, eps=1e-05, momentum=0.1, affine=True, track_running_stats=True)
        (activation): ReLU6(inplace)
      )
    )
    (Bottlenecks_2): Sequential(
      (LinearBottleneck2_0): LinearBottleneck(
        (conv1): Conv2d(24, 144, kernel_size=(1, 1), stride=(1, 1), bias=False)
        (bn1): BatchNorm2d(144, eps=1e-05, momentum=0.1, affine=True, track_running_stats=True)
        (conv2): Conv2d(144, 144, kernel_size=(3, 3), stride=(2, 2), padding=(1, 1), groups=144, bias=False)
        (bn2): BatchNorm2d(144, eps=1e-05, momentum=0.1, affine=True, track_running_stats=True)
        (conv3): Conv2d(144, 32, kernel_size=(1, 1), stride=(1, 1), bias=False)
        (bn3): BatchNorm2d(32, eps=1e-05, momentum=0.1, affine=True, track_running_stats=True)
        (activation): ReLU6(inplace)
      )
      (LinearBottleneck2_1): LinearBottleneck(
        (conv1): Conv2d(32, 192, kernel_size=(1, 1), stride=(1, 1), bias=False)
        (bn1): BatchNorm2d(192, eps=1e-05, momentum=0.1, affine=True, track_running_stats=True)
        (conv2): Conv2d(192, 192, kernel_size=(3, 3), stride=(1, 1), padding=(1, 1), groups=192, bias=False)
        (bn2): BatchNorm2d(192, eps=1e-05, momentum=0.1, affine=True, track_running_stats=True)
        (conv3): Conv2d(192, 32, kernel_size=(1, 1), stride=(1, 1), bias=False)
        (bn3): BatchNorm2d(32, eps=1e-05, momentum=0.1, affine=True, track_running_stats=True)
        (activation): ReLU6(inplace)
      )
      (LinearBottleneck2_2): LinearBottleneck(
        (conv1): Conv2d(32, 192, kernel_size=(1, 1), stride=(1, 1), bias=False)
        (bn1): BatchNorm2d(192, eps=1e-05, momentum=0.1, affine=True, track_running_stats=True)
        (conv2): Conv2d(192, 192, kernel_size=(3, 3), stride=(1, 1), padding=(1, 1), groups=192, bias=False)
        (bn2): BatchNorm2d(192, eps=1e-05, momentum=0.1, affine=True, track_running_stats=True)
        (conv3): Conv2d(192, 32, kernel_size=(1, 1), stride=(1, 1), bias=False)
        (bn3): BatchNorm2d(32, eps=1e-05, momentum=0.1, affine=True, track_running_stats=True)
        (activation): ReLU6(inplace)
      )
    )
    (Bottlenecks_3): Sequential(
      (LinearBottleneck3_0): LinearBottleneck(
        (conv1): Conv2d(32, 192, kernel_size=(1, 1), stride=(1, 1), bias=False)
        (bn1): BatchNorm2d(192, eps=1e-05, momentum=0.1, affine=True, track_running_stats=True)
        (conv2): Conv2d(192, 192, kernel_size=(3, 3), stride=(2, 2), padding=(1, 1), groups=192, bias=False)
        (bn2): BatchNorm2d(192, eps=1e-05, momentum=0.1, affine=True, track_running_stats=True)
        (conv3): Conv2d(192, 64, kernel_size=(1, 1), stride=(1, 1), bias=False)
        (bn3): BatchNorm2d(64, eps=1e-05, momentum=0.1, affine=True, track_running_stats=True)
        (activation): ReLU6(inplace)
      )
      (LinearBottleneck3_1): LinearBottleneck(
        (conv1): Conv2d(64, 384, kernel_size=(1, 1), stride=(1, 1), bias=False)
        (bn1): BatchNorm2d(384, eps=1e-05, momentum=0.1, affine=True, track_running_stats=True)
        (conv2): Conv2d(384, 384, kernel_size=(3, 3), stride=(1, 1), padding=(1, 1), groups=384, bias=False)
        (bn2): BatchNorm2d(384, eps=1e-05, momentum=0.1, affine=True, track_running_stats=True)
        (conv3): Conv2d(384, 64, kernel_size=(1, 1), stride=(1, 1), bias=False)
        (bn3): BatchNorm2d(64, eps=1e-05, momentum=0.1, affine=True, track_running_stats=True)
        (activation): ReLU6(inplace)
      )
      (LinearBottleneck3_2): LinearBottleneck(
        (conv1): Conv2d(64, 384, kernel_size=(1, 1), stride=(1, 1), bias=False)
        (bn1): BatchNorm2d(384, eps=1e-05, momentum=0.1, affine=True, track_running_stats=True)
        (conv2): Conv2d(384, 384, kernel_size=(3, 3), stride=(1, 1), padding=(1, 1), groups=384, bias=False)
        (bn2): BatchNorm2d(384, eps=1e-05, momentum=0.1, affine=True, track_running_stats=True)
        (conv3): Conv2d(384, 64, kernel_size=(1, 1), stride=(1, 1), bias=False)
        (bn3): BatchNorm2d(64, eps=1e-05, momentum=0.1, affine=True, track_running_stats=True)
        (activation): ReLU6(inplace)
      )
      (LinearBottleneck3AlphaBlock_1): AlphaBlock(
        (arm_1): SplitArm(
          (conv_dws): Conv2d(4, 4, kernel_size=(1, 1), stride=(1, 1), groups=4)
          (bn_dws): BatchNorm2d(4, eps=1e-05, momentum=0.9, affine=True, track_running_stats=True)
          (relu_dws): ReLU(inplace)
          (maxpool): MaxPool2d(kernel_size=3, stride=1, padding=1, dilation=1, ceil_mode=False)
          (conv_point): Conv2d(4, 1, kernel_size=(1, 1), stride=(1, 1))
          (bn_point): BatchNorm2d(1, eps=1e-05, momentum=0.9, affine=True, track_running_stats=True)
          (relu_point): ReLU(inplace)
          (softmax): Softmax()
        )
        (arm_2): SplitArm(
          (conv_dws): Conv2d(4, 4, kernel_size=(1, 1), stride=(1, 1), groups=4)
          (bn_dws): BatchNorm2d(4, eps=1e-05, momentum=0.9, affine=True, track_running_stats=True)
          (relu_dws): ReLU(inplace)
          (maxpool): MaxPool2d(kernel_size=3, stride=1, padding=1, dilation=1, ceil_mode=False)
          (conv_point): Conv2d(4, 1, kernel_size=(1, 1), stride=(1, 1))
          (bn_point): BatchNorm2d(1, eps=1e-05, momentum=0.9, affine=True, track_running_stats=True)
          (relu_point): ReLU(inplace)
          (softmax): Softmax()
        )
        (arm_3): SplitArm(
          (conv_dws): Conv2d(4, 4, kernel_size=(1, 1), stride=(1, 1), groups=4)
          (bn_dws): BatchNorm2d(4, eps=1e-05, momentum=0.9, affine=True, track_running_stats=True)
          (relu_dws): ReLU(inplace)
          (maxpool): MaxPool2d(kernel_size=3, stride=1, padding=1, dilation=1, ceil_mode=False)
          (conv_point): Conv2d(4, 1, kernel_size=(1, 1), stride=(1, 1))
          (bn_point): BatchNorm2d(1, eps=1e-05, momentum=0.9, affine=True, track_running_stats=True)
          (relu_point): ReLU(inplace)
          (softmax): Softmax()
        )
        (arm_4): SplitArm(
          (conv_dws): Conv2d(4, 4, kernel_size=(1, 1), stride=(1, 1), groups=4)
          (bn_dws): BatchNorm2d(4, eps=1e-05, momentum=0.9, affine=True, track_running_stats=True)
          (relu_dws): ReLU(inplace)
          (maxpool): MaxPool2d(kernel_size=3, stride=1, padding=1, dilation=1, ceil_mode=False)
          (conv_point): Conv2d(4, 1, kernel_size=(1, 1), stride=(1, 1))
          (bn_point): BatchNorm2d(1, eps=1e-05, momentum=0.9, affine=True, track_running_stats=True)
          (relu_point): ReLU(inplace)
          (softmax): Softmax()
        )
        (arm_5): SplitArm(
          (conv_dws): Conv2d(4, 4, kernel_size=(1, 1), stride=(1, 1), groups=4)
          (bn_dws): BatchNorm2d(4, eps=1e-05, momentum=0.9, affine=True, track_running_stats=True)
          (relu_dws): ReLU(inplace)
          (maxpool): MaxPool2d(kernel_size=3, stride=1, padding=1, dilation=1, ceil_mode=False)
          (conv_point): Conv2d(4, 1, kernel_size=(1, 1), stride=(1, 1))
          (bn_point): BatchNorm2d(1, eps=1e-05, momentum=0.9, affine=True, track_running_stats=True)
          (relu_point): ReLU(inplace)
          (softmax): Softmax()
        )
        (arm_6): SplitArm(
          (conv_dws): Conv2d(4, 4, kernel_size=(1, 1), stride=(1, 1), groups=4)
          (bn_dws): BatchNorm2d(4, eps=1e-05, momentum=0.9, affine=True, track_running_stats=True)
          (relu_dws): ReLU(inplace)
          (maxpool): MaxPool2d(kernel_size=3, stride=1, padding=1, dilation=1, ceil_mode=False)
          (conv_point): Conv2d(4, 1, kernel_size=(1, 1), stride=(1, 1))
          (bn_point): BatchNorm2d(1, eps=1e-05, momentum=0.9, affine=True, track_running_stats=True)
          (relu_point): ReLU(inplace)
          (softmax): Softmax()
        )
        (arm_7): SplitArm(
          (conv_dws): Conv2d(4, 4, kernel_size=(1, 1), stride=(1, 1), groups=4)
          (bn_dws): BatchNorm2d(4, eps=1e-05, momentum=0.9, affine=True, track_running_stats=True)
          (relu_dws): ReLU(inplace)
          (maxpool): MaxPool2d(kernel_size=3, stride=1, padding=1, dilation=1, ceil_mode=False)
          (conv_point): Conv2d(4, 1, kernel_size=(1, 1), stride=(1, 1))
          (bn_point): BatchNorm2d(1, eps=1e-05, momentum=0.9, affine=True, track_running_stats=True)
          (relu_point): ReLU(inplace)
          (softmax): Softmax()
        )
        (arm_8): SplitArm(
          (conv_dws): Conv2d(4, 4, kernel_size=(1, 1), stride=(1, 1), groups=4)
          (bn_dws): BatchNorm2d(4, eps=1e-05, momentum=0.9, affine=True, track_running_stats=True)
          (relu_dws): ReLU(inplace)
          (maxpool): MaxPool2d(kernel_size=3, stride=1, padding=1, dilation=1, ceil_mode=False)
          (conv_point): Conv2d(4, 1, kernel_size=(1, 1), stride=(1, 1))
          (bn_point): BatchNorm2d(1, eps=1e-05, momentum=0.9, affine=True, track_running_stats=True)
          (relu_point): ReLU(inplace)
          (softmax): Softmax()
        )
        (arm_9): SplitArm(
          (conv_dws): Conv2d(4, 4, kernel_size=(1, 1), stride=(1, 1), groups=4)
          (bn_dws): BatchNorm2d(4, eps=1e-05, momentum=0.9, affine=True, track_running_stats=True)
          (relu_dws): ReLU(inplace)
          (maxpool): MaxPool2d(kernel_size=3, stride=1, padding=1, dilation=1, ceil_mode=False)
          (conv_point): Conv2d(4, 1, kernel_size=(1, 1), stride=(1, 1))
          (bn_point): BatchNorm2d(1, eps=1e-05, momentum=0.9, affine=True, track_running_stats=True)
          (relu_point): ReLU(inplace)
          (softmax): Softmax()
        )
        (arm_10): SplitArm(
          (conv_dws): Conv2d(4, 4, kernel_size=(1, 1), stride=(1, 1), groups=4)
          (bn_dws): BatchNorm2d(4, eps=1e-05, momentum=0.9, affine=True, track_running_stats=True)
          (relu_dws): ReLU(inplace)
          (maxpool): MaxPool2d(kernel_size=3, stride=1, padding=1, dilation=1, ceil_mode=False)
          (conv_point): Conv2d(4, 1, kernel_size=(1, 1), stride=(1, 1))
          (bn_point): BatchNorm2d(1, eps=1e-05, momentum=0.9, affine=True, track_running_stats=True)
          (relu_point): ReLU(inplace)
          (softmax): Softmax()
        )
        (arm_11): SplitArm(
          (conv_dws): Conv2d(4, 4, kernel_size=(1, 1), stride=(1, 1), groups=4)
          (bn_dws): BatchNorm2d(4, eps=1e-05, momentum=0.9, affine=True, track_running_stats=True)
          (relu_dws): ReLU(inplace)
          (maxpool): MaxPool2d(kernel_size=3, stride=1, padding=1, dilation=1, ceil_mode=False)
          (conv_point): Conv2d(4, 1, kernel_size=(1, 1), stride=(1, 1))
          (bn_point): BatchNorm2d(1, eps=1e-05, momentum=0.9, affine=True, track_running_stats=True)
          (relu_point): ReLU(inplace)
          (softmax): Softmax()
        )
        (arm_12): SplitArm(
          (conv_dws): Conv2d(4, 4, kernel_size=(1, 1), stride=(1, 1), groups=4)
          (bn_dws): BatchNorm2d(4, eps=1e-05, momentum=0.9, affine=True, track_running_stats=True)
          (relu_dws): ReLU(inplace)
          (maxpool): MaxPool2d(kernel_size=3, stride=1, padding=1, dilation=1, ceil_mode=False)
          (conv_point): Conv2d(4, 1, kernel_size=(1, 1), stride=(1, 1))
          (bn_point): BatchNorm2d(1, eps=1e-05, momentum=0.9, affine=True, track_running_stats=True)
          (relu_point): ReLU(inplace)
          (softmax): Softmax()
        )
        (arm_13): SplitArm(
          (conv_dws): Conv2d(4, 4, kernel_size=(1, 1), stride=(1, 1), groups=4)
          (bn_dws): BatchNorm2d(4, eps=1e-05, momentum=0.9, affine=True, track_running_stats=True)
          (relu_dws): ReLU(inplace)
          (maxpool): MaxPool2d(kernel_size=3, stride=1, padding=1, dilation=1, ceil_mode=False)
          (conv_point): Conv2d(4, 1, kernel_size=(1, 1), stride=(1, 1))
          (bn_point): BatchNorm2d(1, eps=1e-05, momentum=0.9, affine=True, track_running_stats=True)
          (relu_point): ReLU(inplace)
          (softmax): Softmax()
        )
        (arm_14): SplitArm(
          (conv_dws): Conv2d(4, 4, kernel_size=(1, 1), stride=(1, 1), groups=4)
          (bn_dws): BatchNorm2d(4, eps=1e-05, momentum=0.9, affine=True, track_running_stats=True)
          (relu_dws): ReLU(inplace)
          (maxpool): MaxPool2d(kernel_size=3, stride=1, padding=1, dilation=1, ceil_mode=False)
          (conv_point): Conv2d(4, 1, kernel_size=(1, 1), stride=(1, 1))
          (bn_point): BatchNorm2d(1, eps=1e-05, momentum=0.9, affine=True, track_running_stats=True)
          (relu_point): ReLU(inplace)
          (softmax): Softmax()
        )
        (arm_15): SplitArm(
          (conv_dws): Conv2d(4, 4, kernel_size=(1, 1), stride=(1, 1), groups=4)
          (bn_dws): BatchNorm2d(4, eps=1e-05, momentum=0.9, affine=True, track_running_stats=True)
          (relu_dws): ReLU(inplace)
          (maxpool): MaxPool2d(kernel_size=3, stride=1, padding=1, dilation=1, ceil_mode=False)
          (conv_point): Conv2d(4, 1, kernel_size=(1, 1), stride=(1, 1))
          (bn_point): BatchNorm2d(1, eps=1e-05, momentum=0.9, affine=True, track_running_stats=True)
          (relu_point): ReLU(inplace)
          (softmax): Softmax()
        )
        (arm_16): SplitArm(
          (conv_dws): Conv2d(4, 4, kernel_size=(1, 1), stride=(1, 1), groups=4)
          (bn_dws): BatchNorm2d(4, eps=1e-05, momentum=0.9, affine=True, track_running_stats=True)
          (relu_dws): ReLU(inplace)
          (maxpool): MaxPool2d(kernel_size=3, stride=1, padding=1, dilation=1, ceil_mode=False)
          (conv_point): Conv2d(4, 1, kernel_size=(1, 1), stride=(1, 1))
          (bn_point): BatchNorm2d(1, eps=1e-05, momentum=0.9, affine=True, track_running_stats=True)
          (relu_point): ReLU(inplace)
          (softmax): Softmax()
        )
      )
    )
    (Bottlenecks_4): Sequential(
      (LinearBottleneck4_0): LinearBottleneck(
        (conv1): Conv2d(64, 384, kernel_size=(1, 1), stride=(1, 1), bias=False)
        (bn1): BatchNorm2d(384, eps=1e-05, momentum=0.1, affine=True, track_running_stats=True)
        (conv2): Conv2d(384, 384, kernel_size=(3, 3), stride=(1, 1), padding=(1, 1), groups=384, bias=False)
        (bn2): BatchNorm2d(384, eps=1e-05, momentum=0.1, affine=True, track_running_stats=True)
        (conv3): Conv2d(384, 96, kernel_size=(1, 1), stride=(1, 1), bias=False)
        (bn3): BatchNorm2d(96, eps=1e-05, momentum=0.1, affine=True, track_running_stats=True)
        (activation): ReLU6(inplace)
      )
      (LinearBottleneck4_2): LinearBottleneck(
        (conv1): Conv2d(96, 576, kernel_size=(1, 1), stride=(1, 1), bias=False)
        (bn1): BatchNorm2d(576, eps=1e-05, momentum=0.1, affine=True, track_running_stats=True)
        (conv2): Conv2d(576, 576, kernel_size=(3, 3), stride=(1, 1), padding=(1, 1), groups=576, bias=False)
        (bn2): BatchNorm2d(576, eps=1e-05, momentum=0.1, affine=True, track_running_stats=True)
        (conv3): Conv2d(576, 96, kernel_size=(1, 1), stride=(1, 1), bias=False)
        (bn3): BatchNorm2d(96, eps=1e-05, momentum=0.1, affine=True, track_running_stats=True)
        (activation): ReLU6(inplace)
      )
      (LinearBottleneck4AlphaBlock_1): AlphaBlock(
        (arm_1): SplitArm(
          (conv_dws): Conv2d(6, 6, kernel_size=(1, 1), stride=(1, 1), groups=6)
          (bn_dws): BatchNorm2d(6, eps=1e-05, momentum=0.9, affine=True, track_running_stats=True)
          (relu_dws): ReLU(inplace)
          (maxpool): MaxPool2d(kernel_size=3, stride=1, padding=1, dilation=1, ceil_mode=False)
          (conv_point): Conv2d(6, 1, kernel_size=(1, 1), stride=(1, 1))
          (bn_point): BatchNorm2d(1, eps=1e-05, momentum=0.9, affine=True, track_running_stats=True)
          (relu_point): ReLU(inplace)
          (softmax): Softmax()
        )
        (arm_2): SplitArm(
          (conv_dws): Conv2d(6, 6, kernel_size=(1, 1), stride=(1, 1), groups=6)
          (bn_dws): BatchNorm2d(6, eps=1e-05, momentum=0.9, affine=True, track_running_stats=True)
          (relu_dws): ReLU(inplace)
          (maxpool): MaxPool2d(kernel_size=3, stride=1, padding=1, dilation=1, ceil_mode=False)
          (conv_point): Conv2d(6, 1, kernel_size=(1, 1), stride=(1, 1))
          (bn_point): BatchNorm2d(1, eps=1e-05, momentum=0.9, affine=True, track_running_stats=True)
          (relu_point): ReLU(inplace)
          (softmax): Softmax()
        )
        (arm_3): SplitArm(
          (conv_dws): Conv2d(6, 6, kernel_size=(1, 1), stride=(1, 1), groups=6)
          (bn_dws): BatchNorm2d(6, eps=1e-05, momentum=0.9, affine=True, track_running_stats=True)
          (relu_dws): ReLU(inplace)
          (maxpool): MaxPool2d(kernel_size=3, stride=1, padding=1, dilation=1, ceil_mode=False)
          (conv_point): Conv2d(6, 1, kernel_size=(1, 1), stride=(1, 1))
          (bn_point): BatchNorm2d(1, eps=1e-05, momentum=0.9, affine=True, track_running_stats=True)
          (relu_point): ReLU(inplace)
          (softmax): Softmax()
        )
        (arm_4): SplitArm(
          (conv_dws): Conv2d(6, 6, kernel_size=(1, 1), stride=(1, 1), groups=6)
          (bn_dws): BatchNorm2d(6, eps=1e-05, momentum=0.9, affine=True, track_running_stats=True)
          (relu_dws): ReLU(inplace)
          (maxpool): MaxPool2d(kernel_size=3, stride=1, padding=1, dilation=1, ceil_mode=False)
          (conv_point): Conv2d(6, 1, kernel_size=(1, 1), stride=(1, 1))
          (bn_point): BatchNorm2d(1, eps=1e-05, momentum=0.9, affine=True, track_running_stats=True)
          (relu_point): ReLU(inplace)
          (softmax): Softmax()
        )
        (arm_5): SplitArm(
          (conv_dws): Conv2d(6, 6, kernel_size=(1, 1), stride=(1, 1), groups=6)
          (bn_dws): BatchNorm2d(6, eps=1e-05, momentum=0.9, affine=True, track_running_stats=True)
          (relu_dws): ReLU(inplace)
          (maxpool): MaxPool2d(kernel_size=3, stride=1, padding=1, dilation=1, ceil_mode=False)
          (conv_point): Conv2d(6, 1, kernel_size=(1, 1), stride=(1, 1))
          (bn_point): BatchNorm2d(1, eps=1e-05, momentum=0.9, affine=True, track_running_stats=True)
          (relu_point): ReLU(inplace)
          (softmax): Softmax()
        )
        (arm_6): SplitArm(
          (conv_dws): Conv2d(6, 6, kernel_size=(1, 1), stride=(1, 1), groups=6)
          (bn_dws): BatchNorm2d(6, eps=1e-05, momentum=0.9, affine=True, track_running_stats=True)
          (relu_dws): ReLU(inplace)
          (maxpool): MaxPool2d(kernel_size=3, stride=1, padding=1, dilation=1, ceil_mode=False)
          (conv_point): Conv2d(6, 1, kernel_size=(1, 1), stride=(1, 1))
          (bn_point): BatchNorm2d(1, eps=1e-05, momentum=0.9, affine=True, track_running_stats=True)
          (relu_point): ReLU(inplace)
          (softmax): Softmax()
        )
        (arm_7): SplitArm(
          (conv_dws): Conv2d(6, 6, kernel_size=(1, 1), stride=(1, 1), groups=6)
          (bn_dws): BatchNorm2d(6, eps=1e-05, momentum=0.9, affine=True, track_running_stats=True)
          (relu_dws): ReLU(inplace)
          (maxpool): MaxPool2d(kernel_size=3, stride=1, padding=1, dilation=1, ceil_mode=False)
          (conv_point): Conv2d(6, 1, kernel_size=(1, 1), stride=(1, 1))
          (bn_point): BatchNorm2d(1, eps=1e-05, momentum=0.9, affine=True, track_running_stats=True)
          (relu_point): ReLU(inplace)
          (softmax): Softmax()
        )
        (arm_8): SplitArm(
          (conv_dws): Conv2d(6, 6, kernel_size=(1, 1), stride=(1, 1), groups=6)
          (bn_dws): BatchNorm2d(6, eps=1e-05, momentum=0.9, affine=True, track_running_stats=True)
          (relu_dws): ReLU(inplace)
          (maxpool): MaxPool2d(kernel_size=3, stride=1, padding=1, dilation=1, ceil_mode=False)
          (conv_point): Conv2d(6, 1, kernel_size=(1, 1), stride=(1, 1))
          (bn_point): BatchNorm2d(1, eps=1e-05, momentum=0.9, affine=True, track_running_stats=True)
          (relu_point): ReLU(inplace)
          (softmax): Softmax()
        )
        (arm_9): SplitArm(
          (conv_dws): Conv2d(6, 6, kernel_size=(1, 1), stride=(1, 1), groups=6)
          (bn_dws): BatchNorm2d(6, eps=1e-05, momentum=0.9, affine=True, track_running_stats=True)
          (relu_dws): ReLU(inplace)
          (maxpool): MaxPool2d(kernel_size=3, stride=1, padding=1, dilation=1, ceil_mode=False)
          (conv_point): Conv2d(6, 1, kernel_size=(1, 1), stride=(1, 1))
          (bn_point): BatchNorm2d(1, eps=1e-05, momentum=0.9, affine=True, track_running_stats=True)
          (relu_point): ReLU(inplace)
          (softmax): Softmax()
        )
        (arm_10): SplitArm(
          (conv_dws): Conv2d(6, 6, kernel_size=(1, 1), stride=(1, 1), groups=6)
          (bn_dws): BatchNorm2d(6, eps=1e-05, momentum=0.9, affine=True, track_running_stats=True)
          (relu_dws): ReLU(inplace)
          (maxpool): MaxPool2d(kernel_size=3, stride=1, padding=1, dilation=1, ceil_mode=False)
          (conv_point): Conv2d(6, 1, kernel_size=(1, 1), stride=(1, 1))
          (bn_point): BatchNorm2d(1, eps=1e-05, momentum=0.9, affine=True, track_running_stats=True)
          (relu_point): ReLU(inplace)
          (softmax): Softmax()
        )
        (arm_11): SplitArm(
          (conv_dws): Conv2d(6, 6, kernel_size=(1, 1), stride=(1, 1), groups=6)
          (bn_dws): BatchNorm2d(6, eps=1e-05, momentum=0.9, affine=True, track_running_stats=True)
          (relu_dws): ReLU(inplace)
          (maxpool): MaxPool2d(kernel_size=3, stride=1, padding=1, dilation=1, ceil_mode=False)
          (conv_point): Conv2d(6, 1, kernel_size=(1, 1), stride=(1, 1))
          (bn_point): BatchNorm2d(1, eps=1e-05, momentum=0.9, affine=True, track_running_stats=True)
          (relu_point): ReLU(inplace)
          (softmax): Softmax()
        )
        (arm_12): SplitArm(
          (conv_dws): Conv2d(6, 6, kernel_size=(1, 1), stride=(1, 1), groups=6)
          (bn_dws): BatchNorm2d(6, eps=1e-05, momentum=0.9, affine=True, track_running_stats=True)
          (relu_dws): ReLU(inplace)
          (maxpool): MaxPool2d(kernel_size=3, stride=1, padding=1, dilation=1, ceil_mode=False)
          (conv_point): Conv2d(6, 1, kernel_size=(1, 1), stride=(1, 1))
          (bn_point): BatchNorm2d(1, eps=1e-05, momentum=0.9, affine=True, track_running_stats=True)
          (relu_point): ReLU(inplace)
          (softmax): Softmax()
        )
        (arm_13): SplitArm(
          (conv_dws): Conv2d(6, 6, kernel_size=(1, 1), stride=(1, 1), groups=6)
          (bn_dws): BatchNorm2d(6, eps=1e-05, momentum=0.9, affine=True, track_running_stats=True)
          (relu_dws): ReLU(inplace)
          (maxpool): MaxPool2d(kernel_size=3, stride=1, padding=1, dilation=1, ceil_mode=False)
          (conv_point): Conv2d(6, 1, kernel_size=(1, 1), stride=(1, 1))
          (bn_point): BatchNorm2d(1, eps=1e-05, momentum=0.9, affine=True, track_running_stats=True)
          (relu_point): ReLU(inplace)
          (softmax): Softmax()
        )
        (arm_14): SplitArm(
          (conv_dws): Conv2d(6, 6, kernel_size=(1, 1), stride=(1, 1), groups=6)
          (bn_dws): BatchNorm2d(6, eps=1e-05, momentum=0.9, affine=True, track_running_stats=True)
          (relu_dws): ReLU(inplace)
          (maxpool): MaxPool2d(kernel_size=3, stride=1, padding=1, dilation=1, ceil_mode=False)
          (conv_point): Conv2d(6, 1, kernel_size=(1, 1), stride=(1, 1))
          (bn_point): BatchNorm2d(1, eps=1e-05, momentum=0.9, affine=True, track_running_stats=True)
          (relu_point): ReLU(inplace)
          (softmax): Softmax()
        )
        (arm_15): SplitArm(
          (conv_dws): Conv2d(6, 6, kernel_size=(1, 1), stride=(1, 1), groups=6)
          (bn_dws): BatchNorm2d(6, eps=1e-05, momentum=0.9, affine=True, track_running_stats=True)
          (relu_dws): ReLU(inplace)
          (maxpool): MaxPool2d(kernel_size=3, stride=1, padding=1, dilation=1, ceil_mode=False)
          (conv_point): Conv2d(6, 1, kernel_size=(1, 1), stride=(1, 1))
          (bn_point): BatchNorm2d(1, eps=1e-05, momentum=0.9, affine=True, track_running_stats=True)
          (relu_point): ReLU(inplace)
          (softmax): Softmax()
        )
        (arm_16): SplitArm(
          (conv_dws): Conv2d(6, 6, kernel_size=(1, 1), stride=(1, 1), groups=6)
          (bn_dws): BatchNorm2d(6, eps=1e-05, momentum=0.9, affine=True, track_running_stats=True)
          (relu_dws): ReLU(inplace)
          (maxpool): MaxPool2d(kernel_size=3, stride=1, padding=1, dilation=1, ceil_mode=False)
          (conv_point): Conv2d(6, 1, kernel_size=(1, 1), stride=(1, 1))
          (bn_point): BatchNorm2d(1, eps=1e-05, momentum=0.9, affine=True, track_running_stats=True)
          (relu_point): ReLU(inplace)
          (softmax): Softmax()
        )
      )
    )
    (Bottlenecks_5): Sequential(
      (LinearBottleneck5_0): LinearBottleneck(
        (conv1): Conv2d(96, 576, kernel_size=(1, 1), stride=(1, 1), bias=False)
        (bn1): BatchNorm2d(576, eps=1e-05, momentum=0.1, affine=True, track_running_stats=True)
        (conv2): Conv2d(576, 576, kernel_size=(3, 3), stride=(2, 2), padding=(1, 1), groups=576, bias=False)
        (bn2): BatchNorm2d(576, eps=1e-05, momentum=0.1, affine=True, track_running_stats=True)
        (conv3): Conv2d(576, 160, kernel_size=(1, 1), stride=(1, 1), bias=False)
        (bn3): BatchNorm2d(160, eps=1e-05, momentum=0.1, affine=True, track_running_stats=True)
        (activation): ReLU6(inplace)
      )
      (LinearBottleneck5_2): LinearBottleneck(
        (conv1): Conv2d(160, 960, kernel_size=(1, 1), stride=(1, 1), bias=False)
        (bn1): BatchNorm2d(960, eps=1e-05, momentum=0.1, affine=True, track_running_stats=True)
        (conv2): Conv2d(960, 960, kernel_size=(3, 3), stride=(1, 1), padding=(1, 1), groups=960, bias=False)
        (bn2): BatchNorm2d(960, eps=1e-05, momentum=0.1, affine=True, track_running_stats=True)
        (conv3): Conv2d(960, 160, kernel_size=(1, 1), stride=(1, 1), bias=False)
        (bn3): BatchNorm2d(160, eps=1e-05, momentum=0.1, affine=True, track_running_stats=True)
        (activation): ReLU6(inplace)
      )
      (LinearBottleneck5AlphaBlock_1): AlphaBlock(
        (arm_1): SplitArm(
          (conv_dws): Conv2d(10, 10, kernel_size=(1, 1), stride=(1, 1), groups=10)
          (bn_dws): BatchNorm2d(10, eps=1e-05, momentum=0.9, affine=True, track_running_stats=True)
          (relu_dws): ReLU(inplace)
          (maxpool): MaxPool2d(kernel_size=3, stride=1, padding=1, dilation=1, ceil_mode=False)
          (conv_point): Conv2d(10, 1, kernel_size=(1, 1), stride=(1, 1))
          (bn_point): BatchNorm2d(1, eps=1e-05, momentum=0.9, affine=True, track_running_stats=True)
          (relu_point): ReLU(inplace)
          (softmax): Softmax()
        )
        (arm_2): SplitArm(
          (conv_dws): Conv2d(10, 10, kernel_size=(1, 1), stride=(1, 1), groups=10)
          (bn_dws): BatchNorm2d(10, eps=1e-05, momentum=0.9, affine=True, track_running_stats=True)
          (relu_dws): ReLU(inplace)
          (maxpool): MaxPool2d(kernel_size=3, stride=1, padding=1, dilation=1, ceil_mode=False)
          (conv_point): Conv2d(10, 1, kernel_size=(1, 1), stride=(1, 1))
          (bn_point): BatchNorm2d(1, eps=1e-05, momentum=0.9, affine=True, track_running_stats=True)
          (relu_point): ReLU(inplace)
          (softmax): Softmax()
        )
        (arm_3): SplitArm(
          (conv_dws): Conv2d(10, 10, kernel_size=(1, 1), stride=(1, 1), groups=10)
          (bn_dws): BatchNorm2d(10, eps=1e-05, momentum=0.9, affine=True, track_running_stats=True)
          (relu_dws): ReLU(inplace)
          (maxpool): MaxPool2d(kernel_size=3, stride=1, padding=1, dilation=1, ceil_mode=False)
          (conv_point): Conv2d(10, 1, kernel_size=(1, 1), stride=(1, 1))
          (bn_point): BatchNorm2d(1, eps=1e-05, momentum=0.9, affine=True, track_running_stats=True)
          (relu_point): ReLU(inplace)
          (softmax): Softmax()
        )
        (arm_4): SplitArm(
          (conv_dws): Conv2d(10, 10, kernel_size=(1, 1), stride=(1, 1), groups=10)
          (bn_dws): BatchNorm2d(10, eps=1e-05, momentum=0.9, affine=True, track_running_stats=True)
          (relu_dws): ReLU(inplace)
          (maxpool): MaxPool2d(kernel_size=3, stride=1, padding=1, dilation=1, ceil_mode=False)
          (conv_point): Conv2d(10, 1, kernel_size=(1, 1), stride=(1, 1))
          (bn_point): BatchNorm2d(1, eps=1e-05, momentum=0.9, affine=True, track_running_stats=True)
          (relu_point): ReLU(inplace)
          (softmax): Softmax()
        )
        (arm_5): SplitArm(
          (conv_dws): Conv2d(10, 10, kernel_size=(1, 1), stride=(1, 1), groups=10)
          (bn_dws): BatchNorm2d(10, eps=1e-05, momentum=0.9, affine=True, track_running_stats=True)
          (relu_dws): ReLU(inplace)
          (maxpool): MaxPool2d(kernel_size=3, stride=1, padding=1, dilation=1, ceil_mode=False)
          (conv_point): Conv2d(10, 1, kernel_size=(1, 1), stride=(1, 1))
          (bn_point): BatchNorm2d(1, eps=1e-05, momentum=0.9, affine=True, track_running_stats=True)
          (relu_point): ReLU(inplace)
          (softmax): Softmax()
        )
        (arm_6): SplitArm(
          (conv_dws): Conv2d(10, 10, kernel_size=(1, 1), stride=(1, 1), groups=10)
          (bn_dws): BatchNorm2d(10, eps=1e-05, momentum=0.9, affine=True, track_running_stats=True)
          (relu_dws): ReLU(inplace)
          (maxpool): MaxPool2d(kernel_size=3, stride=1, padding=1, dilation=1, ceil_mode=False)
          (conv_point): Conv2d(10, 1, kernel_size=(1, 1), stride=(1, 1))
          (bn_point): BatchNorm2d(1, eps=1e-05, momentum=0.9, affine=True, track_running_stats=True)
          (relu_point): ReLU(inplace)
          (softmax): Softmax()
        )
        (arm_7): SplitArm(
          (conv_dws): Conv2d(10, 10, kernel_size=(1, 1), stride=(1, 1), groups=10)
          (bn_dws): BatchNorm2d(10, eps=1e-05, momentum=0.9, affine=True, track_running_stats=True)
          (relu_dws): ReLU(inplace)
          (maxpool): MaxPool2d(kernel_size=3, stride=1, padding=1, dilation=1, ceil_mode=False)
          (conv_point): Conv2d(10, 1, kernel_size=(1, 1), stride=(1, 1))
          (bn_point): BatchNorm2d(1, eps=1e-05, momentum=0.9, affine=True, track_running_stats=True)
          (relu_point): ReLU(inplace)
          (softmax): Softmax()
        )
        (arm_8): SplitArm(
          (conv_dws): Conv2d(10, 10, kernel_size=(1, 1), stride=(1, 1), groups=10)
          (bn_dws): BatchNorm2d(10, eps=1e-05, momentum=0.9, affine=True, track_running_stats=True)
          (relu_dws): ReLU(inplace)
          (maxpool): MaxPool2d(kernel_size=3, stride=1, padding=1, dilation=1, ceil_mode=False)
          (conv_point): Conv2d(10, 1, kernel_size=(1, 1), stride=(1, 1))
          (bn_point): BatchNorm2d(1, eps=1e-05, momentum=0.9, affine=True, track_running_stats=True)
          (relu_point): ReLU(inplace)
          (softmax): Softmax()
        )
        (arm_9): SplitArm(
          (conv_dws): Conv2d(10, 10, kernel_size=(1, 1), stride=(1, 1), groups=10)
          (bn_dws): BatchNorm2d(10, eps=1e-05, momentum=0.9, affine=True, track_running_stats=True)
          (relu_dws): ReLU(inplace)
          (maxpool): MaxPool2d(kernel_size=3, stride=1, padding=1, dilation=1, ceil_mode=False)
          (conv_point): Conv2d(10, 1, kernel_size=(1, 1), stride=(1, 1))
          (bn_point): BatchNorm2d(1, eps=1e-05, momentum=0.9, affine=True, track_running_stats=True)
          (relu_point): ReLU(inplace)
          (softmax): Softmax()
        )
        (arm_10): SplitArm(
          (conv_dws): Conv2d(10, 10, kernel_size=(1, 1), stride=(1, 1), groups=10)
          (bn_dws): BatchNorm2d(10, eps=1e-05, momentum=0.9, affine=True, track_running_stats=True)
          (relu_dws): ReLU(inplace)
          (maxpool): MaxPool2d(kernel_size=3, stride=1, padding=1, dilation=1, ceil_mode=False)
          (conv_point): Conv2d(10, 1, kernel_size=(1, 1), stride=(1, 1))
          (bn_point): BatchNorm2d(1, eps=1e-05, momentum=0.9, affine=True, track_running_stats=True)
          (relu_point): ReLU(inplace)
          (softmax): Softmax()
        )
        (arm_11): SplitArm(
          (conv_dws): Conv2d(10, 10, kernel_size=(1, 1), stride=(1, 1), groups=10)
          (bn_dws): BatchNorm2d(10, eps=1e-05, momentum=0.9, affine=True, track_running_stats=True)
          (relu_dws): ReLU(inplace)
          (maxpool): MaxPool2d(kernel_size=3, stride=1, padding=1, dilation=1, ceil_mode=False)
          (conv_point): Conv2d(10, 1, kernel_size=(1, 1), stride=(1, 1))
          (bn_point): BatchNorm2d(1, eps=1e-05, momentum=0.9, affine=True, track_running_stats=True)
          (relu_point): ReLU(inplace)
          (softmax): Softmax()
        )
        (arm_12): SplitArm(
          (conv_dws): Conv2d(10, 10, kernel_size=(1, 1), stride=(1, 1), groups=10)
          (bn_dws): BatchNorm2d(10, eps=1e-05, momentum=0.9, affine=True, track_running_stats=True)
          (relu_dws): ReLU(inplace)
          (maxpool): MaxPool2d(kernel_size=3, stride=1, padding=1, dilation=1, ceil_mode=False)
          (conv_point): Conv2d(10, 1, kernel_size=(1, 1), stride=(1, 1))
          (bn_point): BatchNorm2d(1, eps=1e-05, momentum=0.9, affine=True, track_running_stats=True)
          (relu_point): ReLU(inplace)
          (softmax): Softmax()
        )
        (arm_13): SplitArm(
          (conv_dws): Conv2d(10, 10, kernel_size=(1, 1), stride=(1, 1), groups=10)
          (bn_dws): BatchNorm2d(10, eps=1e-05, momentum=0.9, affine=True, track_running_stats=True)
          (relu_dws): ReLU(inplace)
          (maxpool): MaxPool2d(kernel_size=3, stride=1, padding=1, dilation=1, ceil_mode=False)
          (conv_point): Conv2d(10, 1, kernel_size=(1, 1), stride=(1, 1))
          (bn_point): BatchNorm2d(1, eps=1e-05, momentum=0.9, affine=True, track_running_stats=True)
          (relu_point): ReLU(inplace)
          (softmax): Softmax()
        )
        (arm_14): SplitArm(
          (conv_dws): Conv2d(10, 10, kernel_size=(1, 1), stride=(1, 1), groups=10)
          (bn_dws): BatchNorm2d(10, eps=1e-05, momentum=0.9, affine=True, track_running_stats=True)
          (relu_dws): ReLU(inplace)
          (maxpool): MaxPool2d(kernel_size=3, stride=1, padding=1, dilation=1, ceil_mode=False)
          (conv_point): Conv2d(10, 1, kernel_size=(1, 1), stride=(1, 1))
          (bn_point): BatchNorm2d(1, eps=1e-05, momentum=0.9, affine=True, track_running_stats=True)
          (relu_point): ReLU(inplace)
          (softmax): Softmax()
        )
        (arm_15): SplitArm(
          (conv_dws): Conv2d(10, 10, kernel_size=(1, 1), stride=(1, 1), groups=10)
          (bn_dws): BatchNorm2d(10, eps=1e-05, momentum=0.9, affine=True, track_running_stats=True)
          (relu_dws): ReLU(inplace)
          (maxpool): MaxPool2d(kernel_size=3, stride=1, padding=1, dilation=1, ceil_mode=False)
          (conv_point): Conv2d(10, 1, kernel_size=(1, 1), stride=(1, 1))
          (bn_point): BatchNorm2d(1, eps=1e-05, momentum=0.9, affine=True, track_running_stats=True)
          (relu_point): ReLU(inplace)
          (softmax): Softmax()
        )
        (arm_16): SplitArm(
          (conv_dws): Conv2d(10, 10, kernel_size=(1, 1), stride=(1, 1), groups=10)
          (bn_dws): BatchNorm2d(10, eps=1e-05, momentum=0.9, affine=True, track_running_stats=True)
          (relu_dws): ReLU(inplace)
          (maxpool): MaxPool2d(kernel_size=3, stride=1, padding=1, dilation=1, ceil_mode=False)
          (conv_point): Conv2d(10, 1, kernel_size=(1, 1), stride=(1, 1))
          (bn_point): BatchNorm2d(1, eps=1e-05, momentum=0.9, affine=True, track_running_stats=True)
          (relu_point): ReLU(inplace)
          (softmax): Softmax()
        )
      )
    )
    (Bottlenecks_6): Sequential(
      (LinearBottleneck6_0): LinearBottleneck(
        (conv1): Conv2d(160, 960, kernel_size=(1, 1), stride=(1, 1), bias=False)
        (bn1): BatchNorm2d(960, eps=1e-05, momentum=0.1, affine=True, track_running_stats=True)
        (conv2): Conv2d(960, 960, kernel_size=(3, 3), stride=(1, 1), padding=(1, 1), groups=960, bias=False)
        (bn2): BatchNorm2d(960, eps=1e-05, momentum=0.1, affine=True, track_running_stats=True)
        (conv3): Conv2d(960, 320, kernel_size=(1, 1), stride=(1, 1), bias=False)
        (bn3): BatchNorm2d(320, eps=1e-05, momentum=0.1, affine=True, track_running_stats=True)
        (activation): ReLU6(inplace)
      )
    )
  )
  (conv_last): Conv2d(320, 1280, kernel_size=(1, 1), stride=(1, 1), bias=False)
  (bn_last): BatchNorm2d(1280, eps=1e-05, momentum=0.1, affine=True, track_running_stats=True)
  (avgpool): AdaptiveAvgPool2d(output_size=1)
  (dropout): Dropout(p=0.2, inplace)
  (fc): Linear(in_features=1280, out_features=200, bias=True)
)
Ep: 1   EpTime: 55.6803  Trainloss: 5.3495   Testloss: 6.3202  TrainAcc: 0.75   Top1: 0.8846    Top5: 3.2013	lr:0.045000
Checkpoint saved!!!
Ep: 2   EpTime: 40.2405  Trainloss: 4.9905   Testloss: 4.8152  TrainAcc: 2.22   Top1: 2.6537    Top5: 13.0160	lr:0.045000
Checkpoint saved!!!
Ep: 3   EpTime: 29.1265  Trainloss: 4.7046   Testloss: 4.9291  TrainAcc: 3.48   Top1: 4.0017    Top5: 14.5746	lr:0.044100
Checkpoint saved!!!
Ep: 4   EpTime: 48.3148  Trainloss: 4.4661   Testloss: 4.6655  TrainAcc: 5.35   Top1: 4.3387    Top5: 19.8399	lr:0.043218
Checkpoint saved!!!
Ep: 5   EpTime: 50.6924  Trainloss: 4.3049   Testloss: 4.5135  TrainAcc: 7.02   Top1: 7.4979    Top5: 24.4313	lr:0.042354
Checkpoint saved!!!
Ep: 6   EpTime: 48.9822  Trainloss: 4.1257   Testloss: 3.7823  TrainAcc: 9.63   Top1: 13.1845    Top5: 36.1837	lr:0.041507
Checkpoint saved!!!
Ep: 7   EpTime: 49.3192  Trainloss: 3.9714   Testloss: 3.8113  TrainAcc: 11.52   Top1: 13.0581    Top5: 38.0792	lr:0.040676
Ep: 8   EpTime: 49.8369  Trainloss: 3.8090   Testloss: 3.6068  TrainAcc: 13.58   Top1: 15.1222    Top5: 43.3867	lr:0.039863
Checkpoint saved!!!
Ep: 9   EpTime: 49.2869  Trainloss: 3.6830   Testloss: 3.8981  TrainAcc: 15.28   Top1: 14.4061    Top5: 39.5956	lr:0.039066
Ep: 10   EpTime: 48.8957  Trainloss: 3.5507   Testloss: 3.5199  TrainAcc: 18.10   Top1: 18.9553    Top5: 44.7767	lr:0.038284
Checkpoint saved!!!
Ep: 11   EpTime: 50.7348  Trainloss: 3.3952   Testloss: 3.2255  TrainAcc: 20.13   Top1: 21.8618    Top5: 51.8534	lr:0.037519
Checkpoint saved!!!
Ep: 12   EpTime: 48.8039  Trainloss: 3.2955   Testloss: 3.2296  TrainAcc: 22.43   Top1: 23.0413    Top5: 53.1592	lr:0.036768
Checkpoint saved!!!
Ep: 13   EpTime: 51.9779  Trainloss: 3.1977   Testloss: 3.0941  TrainAcc: 23.72   Top1: 26.2005    Top5: 55.0969	lr:0.036033
Checkpoint saved!!!
Ep: 14   EpTime: 49.9618  Trainloss: 3.0644   Testloss: 3.3971  TrainAcc: 26.92   Top1: 21.6933    Top5: 51.5164	lr:0.035312
Ep: 15   EpTime: 50.3596  Trainloss: 2.9517   Testloss: 2.7853  TrainAcc: 28.67   Top1: 30.9183    Top5: 61.7944	lr:0.034606
Checkpoint saved!!!
Ep: 16   EpTime: 50.4195  Trainloss: 2.8711   Testloss: 2.6064  TrainAcc: 30.19   Top1: 34.0775    Top5: 65.0379	lr:0.033914
Checkpoint saved!!!
Ep: 17   EpTime: 50.4354  Trainloss: 2.8020   Testloss: 2.6956  TrainAcc: 32.90   Top1: 33.9511    Top5: 64.5324	lr:0.033236
Ep: 18   EpTime: 49.8378  Trainloss: 2.6687   Testloss: 2.5066  TrainAcc: 35.13   Top1: 36.7313    Top5: 67.5653	lr:0.032571
Checkpoint saved!!!
Ep: 19   EpTime: 50.0448  Trainloss: 2.5743   Testloss: 2.4169  TrainAcc: 36.35   Top1: 37.9107    Top5: 71.1457	lr:0.031919
Checkpoint saved!!!
Ep: 20   EpTime: 49.9192  Trainloss: 2.5251   Testloss: 2.3634  TrainAcc: 37.54   Top1: 39.2165    Top5: 71.0194	lr:0.031281
Checkpoint saved!!!
Ep: 21   EpTime: 49.5161  Trainloss: 2.4184   Testloss: 2.3855  TrainAcc: 39.56   Top1: 40.6066    Top5: 70.3875	lr:0.030655
Checkpoint saved!!!
Ep: 22   EpTime: 32.1320  Trainloss: 2.3650   Testloss: 2.4225  TrainAcc: 40.96   Top1: 39.5114    Top5: 72.5779	lr:0.030042
Ep: 23   EpTime: 29.0752  Trainloss: 2.3038   Testloss: 2.2219  TrainAcc: 42.64   Top1: 43.5131    Top5: 74.0101	lr:0.029442
Checkpoint saved!!!
Ep: 24   EpTime: 28.6908  Trainloss: 2.2494   Testloss: 2.1557  TrainAcc: 43.13   Top1: 44.0607    Top5: 74.3050	lr:0.028853
Checkpoint saved!!!
Ep: 25   EpTime: 28.9653  Trainloss: 2.1779   Testloss: 2.0908  TrainAcc: 45.49   Top1: 47.8096    Top5: 76.5796	lr:0.028276
Checkpoint saved!!!
Ep: 26   EpTime: 28.8221  Trainloss: 2.0922   Testloss: 2.0902  TrainAcc: 46.89   Top1: 46.5459    Top5: 75.4002	lr:0.027710
Ep: 27   EpTime: 28.4648  Trainloss: 2.0656   Testloss: 2.0179  TrainAcc: 48.11   Top1: 48.0623    Top5: 76.2005	lr:0.027156
Checkpoint saved!!!
Ep: 28   EpTime: 28.6121  Trainloss: 2.0204   Testloss: 2.1565  TrainAcc: 48.93   Top1: 46.4195    Top5: 76.2847	lr:0.026613
Ep: 29   EpTime: 28.7628  Trainloss: 1.9451   Testloss: 1.9678  TrainAcc: 50.91   Top1: 49.6630    Top5: 78.1382	lr:0.026081
Checkpoint saved!!!
Ep: 30   EpTime: 28.6456  Trainloss: 1.9502   Testloss: 1.9461  TrainAcc: 50.54   Top1: 50.5055    Top5: 79.1491	lr:0.025559
Checkpoint saved!!!
Ep: 31   EpTime: 28.9118  Trainloss: 1.8866   Testloss: 1.9810  TrainAcc: 51.89   Top1: 49.8736    Top5: 78.7279	lr:0.025048
Ep: 32   EpTime: 28.3839  Trainloss: 1.8578   Testloss: 1.9239  TrainAcc: 52.59   Top1: 51.8955    Top5: 80.5392	lr:0.024547
Checkpoint saved!!!
Ep: 33   EpTime: 28.7196  Trainloss: 1.7924   Testloss: 1.9850  TrainAcc: 54.11   Top1: 52.4431    Top5: 79.4440	lr:0.024056
Checkpoint saved!!!
Ep: 34   EpTime: 29.0018  Trainloss: 1.7414   Testloss: 1.9463  TrainAcc: 55.26   Top1: 51.6849    Top5: 79.3176	lr:0.023575
Ep: 35   EpTime: 28.4515  Trainloss: 1.6890   Testloss: 1.7323  TrainAcc: 56.20   Top1: 55.7708    Top5: 82.8559	lr:0.023103
Checkpoint saved!!!
Ep: 36   EpTime: 28.8856  Trainloss: 1.6597   Testloss: 1.7624  TrainAcc: 57.26   Top1: 54.4650    Top5: 82.2241	lr:0.022641
Ep: 37   EpTime: 28.0183  Trainloss: 1.6402   Testloss: 1.8245  TrainAcc: 58.09   Top1: 53.8332    Top5: 81.8029	lr:0.022188
Ep: 38   EpTime: 29.0528  Trainloss: 1.5935   Testloss: 1.7570  TrainAcc: 58.94   Top1: 56.8239    Top5: 82.0135	lr:0.021745
Checkpoint saved!!!
Ep: 39   EpTime: 28.5114  Trainloss: 1.5531   Testloss: 1.8159  TrainAcc: 60.58   Top1: 53.7068    Top5: 81.8029	lr:0.021310
Ep: 40   EpTime: 28.6471  Trainloss: 1.5556   Testloss: 1.7395  TrainAcc: 59.51   Top1: 56.4448    Top5: 82.1398	lr:0.020884
Ep: 41   EpTime: 28.6068  Trainloss: 1.5166   Testloss: 1.8354  TrainAcc: 60.97   Top1: 55.3075    Top5: 81.8029	lr:0.020466
Ep: 42   EpTime: 28.9297  Trainloss: 1.4897   Testloss: 1.7614  TrainAcc: 61.78   Top1: 56.8239    Top5: 82.6032	lr:0.020057
Ep: 43   EpTime: 29.0261  Trainloss: 1.4605   Testloss: 1.7238  TrainAcc: 62.36   Top1: 57.7085    Top5: 83.3614	lr:0.019655
Checkpoint saved!!!
Ep: 44   EpTime: 29.2698  Trainloss: 1.4417   Testloss: 1.7804  TrainAcc: 63.01   Top1: 57.8349    Top5: 83.0666	lr:0.019262
Checkpoint saved!!!
Ep: 45   EpTime: 50.0341  Trainloss: 1.3914   Testloss: 1.6873  TrainAcc: 64.24   Top1: 58.8880    Top5: 83.6563	lr:0.018877
Checkpoint saved!!!
Ep: 46   EpTime: 48.7021  Trainloss: 1.3781   Testloss: 1.7747  TrainAcc: 65.32   Top1: 56.6133    Top5: 83.3193	lr:0.018499
Ep: 47   EpTime: 50.7407  Trainloss: 1.3579   Testloss: 1.6739  TrainAcc: 65.61   Top1: 58.2561    Top5: 83.5299	lr:0.018130
Ep: 48   EpTime: 50.1216  Trainloss: 1.3307   Testloss: 1.6875  TrainAcc: 65.58   Top1: 58.3404    Top5: 84.2881	lr:0.017767
Ep: 49   EpTime: 50.1418  Trainloss: 1.3180   Testloss: 1.7831  TrainAcc: 66.27   Top1: 56.9082    Top5: 82.6874	lr:0.017412
Ep: 50   EpTime: 50.4072  Trainloss: 1.2839   Testloss: 1.6685  TrainAcc: 67.17   Top1: 57.4558    Top5: 83.8669	lr:0.017063
Ep: 51   EpTime: 50.5501  Trainloss: 1.2677   Testloss: 1.7003  TrainAcc: 67.76   Top1: 58.5088    Top5: 84.3724	lr:0.016722
Ep: 52   EpTime: 50.0675  Trainloss: 1.2488   Testloss: 1.6646  TrainAcc: 68.34   Top1: 59.3513    Top5: 84.1196	lr:0.016388
Checkpoint saved!!!
Ep: 53   EpTime: 47.6051  Trainloss: 1.2277   Testloss: 1.6748  TrainAcc: 68.80   Top1: 58.8037    Top5: 83.7405	lr:0.016060
Ep: 54   EpTime: 50.4405  Trainloss: 1.2208   Testloss: 1.7065  TrainAcc: 69.35   Top1: 58.1297    Top5: 84.4987	lr:0.015739
Ep: 55   EpTime: 50.0181  Trainloss: 1.1856   Testloss: 1.6815  TrainAcc: 69.70   Top1: 58.7195    Top5: 84.0775	lr:0.015424
Ep: 56   EpTime: 50.4912  Trainloss: 1.1577   Testloss: 1.6258  TrainAcc: 70.34   Top1: 60.7414    Top5: 84.2881	lr:0.015115
Checkpoint saved!!!
Ep: 57   EpTime: 49.4627  Trainloss: 1.1330   Testloss: 1.6665  TrainAcc: 70.71   Top1: 60.1516    Top5: 84.4566	lr:0.014813
Ep: 58   EpTime: 50.4738  Trainloss: 1.1062   Testloss: 1.6418  TrainAcc: 71.58   Top1: 58.8037    Top5: 84.0775	lr:0.014517
Ep: 59   EpTime: 50.3917  Trainloss: 1.0827   Testloss: 1.6343  TrainAcc: 72.45   Top1: 59.6883    Top5: 84.7093	lr:0.014227
Ep: 60   EpTime: 50.1397  Trainloss: 1.0737   Testloss: 1.7872  TrainAcc: 72.75   Top1: 59.0143    Top5: 82.5611	lr:0.013942
Ep: 61   EpTime: 48.9941  Trainloss: 1.0659   Testloss: 1.6338  TrainAcc: 72.90   Top1: 60.7414    Top5: 84.8357	lr:0.013663
Checkpoint saved!!!
Ep: 62   EpTime: 49.8273  Trainloss: 1.0758   Testloss: 1.6560  TrainAcc: 72.60   Top1: 61.0362    Top5: 83.5299	lr:0.013390
Checkpoint saved!!!
Ep: 63   EpTime: 32.2977  Trainloss: 1.0306   Testloss: 1.6694  TrainAcc: 74.12   Top1: 61.2047    Top5: 84.4145	lr:0.013122
Checkpoint saved!!!
Ep: 64   EpTime: 28.3492  Trainloss: 1.0445   Testloss: 1.6816  TrainAcc: 73.67   Top1: 60.1095    Top5: 84.7515	lr:0.012860
Ep: 65   EpTime: 28.5177  Trainloss: 0.9770   Testloss: 1.6579  TrainAcc: 75.35   Top1: 61.6681    Top5: 84.4145	lr:0.012602
Checkpoint saved!!!
Ep: 66   EpTime: 28.5689  Trainloss: 1.0223   Testloss: 1.6193  TrainAcc: 74.37   Top1: 62.1735    Top5: 85.5097	lr:0.012350
Checkpoint saved!!!
Ep: 67   EpTime: 28.6608  Trainloss: 0.9852   Testloss: 1.6621  TrainAcc: 75.43   Top1: 61.6259    Top5: 84.4566	lr:0.012103
Ep: 68   EpTime: 29.1270  Trainloss: 0.9666   Testloss: 1.5981  TrainAcc: 76.00   Top1: 61.5417    Top5: 84.7936	lr:0.011861
Ep: 69   EpTime: 30.8310  Trainloss: 0.9659   Testloss: 1.6602  TrainAcc: 75.80   Top1: 60.8677    Top5: 84.7515	lr:0.011624
Ep: 70   EpTime: 30.9983  Trainloss: 0.9466   Testloss: 1.6427  TrainAcc: 76.21   Top1: 61.1205    Top5: 84.8778	lr:0.011392
Ep: 71   EpTime: 31.3717  Trainloss: 0.9423   Testloss: 1.6424  TrainAcc: 75.77   Top1: 60.9941    Top5: 84.4987	lr:0.011164
Ep: 72   EpTime: 30.7292  Trainloss: 0.9283   Testloss: 1.6012  TrainAcc: 77.03   Top1: 62.0893    Top5: 85.4676	lr:0.010941
Ep: 73   EpTime: 31.0948  Trainloss: 0.9157   Testloss: 1.6127  TrainAcc: 76.85   Top1: 62.5948    Top5: 84.8778	lr:0.010722
Checkpoint saved!!!
Ep: 74   EpTime: 31.1081  Trainloss: 0.9018   Testloss: 1.6051  TrainAcc: 77.51   Top1: 62.8896    Top5: 85.6782	lr:0.010507
Checkpoint saved!!!
Ep: 75   EpTime: 30.7143  Trainloss: 0.8548   Testloss: 1.6241  TrainAcc: 78.95   Top1: 61.5838    Top5: 85.5939	lr:0.010297
Ep: 76   EpTime: 30.8900  Trainloss: 0.8860   Testloss: 1.6349  TrainAcc: 78.30   Top1: 61.7944    Top5: 85.2991	lr:0.010091
Ep: 77   EpTime: 30.5314  Trainloss: 0.8688   Testloss: 1.5770  TrainAcc: 78.15   Top1: 61.5417    Top5: 85.8467	lr:0.009889
Ep: 78   EpTime: 31.2103  Trainloss: 0.8392   Testloss: 1.6747  TrainAcc: 79.36   Top1: 61.0362    Top5: 84.7515	lr:0.009692
Ep: 79   EpTime: 30.7938  Trainloss: 0.8577   Testloss: 1.6091  TrainAcc: 79.10   Top1: 62.8054    Top5: 85.3412	lr:0.009498
Ep: 80   EpTime: 30.7697  Trainloss: 0.8300   Testloss: 1.6339  TrainAcc: 79.24   Top1: 61.5838    Top5: 85.8888	lr:0.009308
Ep: 81   EpTime: 30.8099  Trainloss: 0.8467   Testloss: 1.6233  TrainAcc: 79.19   Top1: 62.1735    Top5: 85.3833	lr:0.009122
Ep: 82   EpTime: 30.9151  Trainloss: 0.8340   Testloss: 1.6009  TrainAcc: 79.88   Top1: 63.0581    Top5: 85.4254	lr:0.008939
Checkpoint saved!!!
Ep: 83   EpTime: 31.1138  Trainloss: 0.8462   Testloss: 1.6714  TrainAcc: 79.49   Top1: 62.0472    Top5: 84.7936	lr:0.008760
Ep: 84   EpTime: 30.6380  Trainloss: 0.8154   Testloss: 1.6494  TrainAcc: 79.93   Top1: 62.2999    Top5: 85.4254	lr:0.008585
Ep: 85   EpTime: 31.1157  Trainloss: 0.8047   Testloss: 1.6703  TrainAcc: 80.35   Top1: 61.5838    Top5: 85.4254	lr:0.008414
Ep: 86   EpTime: 30.6160  Trainloss: 0.7533   Testloss: 1.6291  TrainAcc: 81.47   Top1: 62.3420    Top5: 85.4676	lr:0.008245
Ep: 87   EpTime: 30.8168  Trainloss: 0.7763   Testloss: 1.6359  TrainAcc: 80.56   Top1: 62.0472    Top5: 85.7203	lr:0.008080
Ep: 88   EpTime: 30.6189  Trainloss: 0.7472   Testloss: 1.6347  TrainAcc: 81.70   Top1: 61.6259    Top5: 85.2569	lr:0.007919
Ep: 89   EpTime: 30.8638  Trainloss: 0.7761   Testloss: 1.6253  TrainAcc: 80.82   Top1: 63.1003    Top5: 85.4676	lr:0.007760
Checkpoint saved!!!
Ep: 90   EpTime: 30.7696  Trainloss: 0.7712   Testloss: 1.6644  TrainAcc: 81.35   Top1: 61.8366    Top5: 85.3412	lr:0.007605
Ep: 91   EpTime: 30.4791  Trainloss: 0.7669   Testloss: 1.6220  TrainAcc: 80.90   Top1: 63.3951    Top5: 85.2148	lr:0.007453
Checkpoint saved!!!
Ep: 92   EpTime: 30.4326  Trainloss: 0.7631   Testloss: 1.6480  TrainAcc: 81.15   Top1: 62.2578    Top5: 85.2569	lr:0.007304
Ep: 93   EpTime: 30.5902  Trainloss: 0.7390   Testloss: 1.6336  TrainAcc: 82.16   Top1: 62.4684    Top5: 85.3412	lr:0.007158
Ep: 94   EpTime: 30.7050  Trainloss: 0.7402   Testloss: 1.6491  TrainAcc: 82.04   Top1: 62.6790    Top5: 85.1727	lr:0.007015
Ep: 95   EpTime: 30.9126  Trainloss: 0.7472   Testloss: 1.6546  TrainAcc: 81.63   Top1: 62.6369    Top5: 85.5939	lr:0.006874
Ep: 96   EpTime: 30.3858  Trainloss: 0.7141   Testloss: 1.6500  TrainAcc: 82.39   Top1: 62.8054    Top5: 85.1727	lr:0.006737
Ep: 97   EpTime: 30.6879  Trainloss: 0.7312   Testloss: 1.6040  TrainAcc: 82.35   Top1: 62.6790    Top5: 86.0573	lr:0.006602
Ep: 98   EpTime: 30.4982  Trainloss: 0.7109   Testloss: 1.6380  TrainAcc: 82.69   Top1: 61.7102    Top5: 85.4676	lr:0.006470
Ep: 99   EpTime: 30.6184  Trainloss: 0.7067   Testloss: 1.6170  TrainAcc: 83.06   Top1: 63.0160    Top5: 85.3412	lr:0.006341
Ep: 100   EpTime: 30.8799  Trainloss: 0.7160   Testloss: 1.6017  TrainAcc: 82.55   Top1: 62.0472    Top5: 85.7624	lr:0.006214
Ep: 101   EpTime: 31.5283  Trainloss: 0.6809   Testloss: 1.6423  TrainAcc: 83.48   Top1: 62.0472    Top5: 85.4254	lr:0.006090
Ep: 102   EpTime: 30.6460  Trainloss: 0.7003   Testloss: 1.6270  TrainAcc: 82.94   Top1: 63.2687    Top5: 84.8357	lr:0.005968
Ep: 103   EpTime: 31.1020  Trainloss: 0.6640   Testloss: 1.5941  TrainAcc: 83.96   Top1: 62.8896    Top5: 86.0994	lr:0.005849
Ep: 104   EpTime: 30.7844  Trainloss: 0.6769   Testloss: 1.6546  TrainAcc: 83.45   Top1: 62.1735    Top5: 85.2148	lr:0.005732
Ep: 105   EpTime: 31.1531  Trainloss: 0.6678   Testloss: 1.6541  TrainAcc: 84.18   Top1: 62.2157    Top5: 85.2991	lr:0.005617
Ep: 106   EpTime: 31.0217  Trainloss: 0.6616   Testloss: 1.6273  TrainAcc: 84.08   Top1: 62.6369    Top5: 85.5097	lr:0.005505
Ep: 107   EpTime: 31.5050  Trainloss: 0.6420   Testloss: 1.6363  TrainAcc: 84.31   Top1: 62.0472    Top5: 85.3833	lr:0.005394
Ep: 108   EpTime: 31.3384  Trainloss: 0.6881   Testloss: 1.6013  TrainAcc: 83.34   Top1: 62.7633    Top5: 85.4676	lr:0.005287
Ep: 109   EpTime: 30.6241  Trainloss: 0.6398   Testloss: 1.6376  TrainAcc: 84.62   Top1: 62.9318    Top5: 85.5518	lr:0.005181
Ep: 110   EpTime: 31.0066  Trainloss: 0.6441   Testloss: 1.6708  TrainAcc: 84.53   Top1: 63.6900    Top5: 85.2148	lr:0.005077
Checkpoint saved!!!
Ep: 111   EpTime: 31.0415  Trainloss: 0.6549   Testloss: 1.6884  TrainAcc: 84.34   Top1: 62.9318    Top5: 84.7936	lr:0.004976
Ep: 112   EpTime: 30.8064  Trainloss: 0.6659   Testloss: 1.6236  TrainAcc: 83.93   Top1: 64.1533    Top5: 84.8778	lr:0.004876
Checkpoint saved!!!
Ep: 113   EpTime: 31.1927  Trainloss: 0.6331   Testloss: 1.6156  TrainAcc: 84.94   Top1: 63.3951    Top5: 86.0573	lr:0.004779
Ep: 114   EpTime: 31.2186  Trainloss: 0.6432   Testloss: 1.6188  TrainAcc: 84.50   Top1: 63.8585    Top5: 85.2991	lr:0.004683
Ep: 115   EpTime: 30.7850  Trainloss: 0.6400   Testloss: 1.6382  TrainAcc: 84.79   Top1: 63.1424    Top5: 85.5097	lr:0.004589
Ep: 116   EpTime: 30.3579  Trainloss: 0.6439   Testloss: 1.6044  TrainAcc: 84.73   Top1: 62.8054    Top5: 85.7203	lr:0.004498
Ep: 117   EpTime: 30.9861  Trainloss: 0.6382   Testloss: 1.6170  TrainAcc: 84.90   Top1: 62.6790    Top5: 86.0994	lr:0.004408
Ep: 118   EpTime: 31.2617  Trainloss: 0.6230   Testloss: 1.6283  TrainAcc: 85.08   Top1: 62.6369    Top5: 85.1727	lr:0.004320
Ep: 119   EpTime: 31.0167  Trainloss: 0.6457   Testloss: 1.6453  TrainAcc: 85.06   Top1: 62.7211    Top5: 85.7624	lr:0.004233
Ep: 120   EpTime: 30.9531  Trainloss: 0.6142   Testloss: 1.6420  TrainAcc: 85.19   Top1: 63.2687    Top5: 85.1727	lr:0.004148
Ep: 121   EpTime: 30.8410  Trainloss: 0.6288   Testloss: 1.6185  TrainAcc: 85.23   Top1: 63.2266    Top5: 85.6361	lr:0.004066
Ep: 122   EpTime: 31.4186  Trainloss: 0.6189   Testloss: 1.6287  TrainAcc: 85.58   Top1: 63.5215    Top5: 85.6361	lr:0.003984
Ep: 123   EpTime: 31.2213  Trainloss: 0.6111   Testloss: 1.6155  TrainAcc: 85.37   Top1: 63.2266    Top5: 85.7203	lr:0.003905
Ep: 124   EpTime: 30.8755  Trainloss: 0.6068   Testloss: 1.6110  TrainAcc: 85.54   Top1: 64.0270    Top5: 85.7203	lr:0.003826
Ep: 125   EpTime: 30.5757  Trainloss: 0.5887   Testloss: 1.6321  TrainAcc: 86.18   Top1: 63.9427    Top5: 85.5939	lr:0.003750
Ep: 126   EpTime: 30.6302  Trainloss: 0.5982   Testloss: 1.6459  TrainAcc: 85.59   Top1: 63.4794    Top5: 85.5939	lr:0.003675
Ep: 127   EpTime: 30.7678  Trainloss: 0.6022   Testloss: 1.6112  TrainAcc: 85.57   Top1: 63.5636    Top5: 85.6782	lr:0.003601
Ep: 128   EpTime: 30.9816  Trainloss: 0.5907   Testloss: 1.6423  TrainAcc: 86.09   Top1: 63.0160    Top5: 85.5097	lr:0.003529
Ep: 129   EpTime: 30.7963  Trainloss: 0.6048   Testloss: 1.6101  TrainAcc: 85.68   Top1: 64.2797    Top5: 85.6782	lr:0.003459
Checkpoint saved!!!
Ep: 130   EpTime: 30.8368  Trainloss: 0.5952   Testloss: 1.6288  TrainAcc: 86.05   Top1: 63.4794    Top5: 85.6361	lr:0.003390
Ep: 131   EpTime: 30.5979  Trainloss: 0.5938   Testloss: 1.6554  TrainAcc: 85.76   Top1: 63.5215    Top5: 85.4676	lr:0.003322
Ep: 132   EpTime: 30.7009  Trainloss: 0.6010   Testloss: 1.6357  TrainAcc: 85.78   Top1: 63.6478    Top5: 85.9309	lr:0.003255
Ep: 133   EpTime: 31.0102  Trainloss: 0.5790   Testloss: 1.6371  TrainAcc: 86.01   Top1: 63.6900    Top5: 85.9309	lr:0.003190
Ep: 134   EpTime: 30.9978  Trainloss: 0.5892   Testloss: 1.6393  TrainAcc: 86.11   Top1: 63.6057    Top5: 85.7203	lr:0.003126
Ep: 135   EpTime: 30.3406  Trainloss: 0.5771   Testloss: 1.6373  TrainAcc: 86.06   Top1: 63.7742    Top5: 86.2679	lr:0.003064
Ep: 136   EpTime: 31.2985  Trainloss: 0.5840   Testloss: 1.6646  TrainAcc: 86.02   Top1: 63.5636    Top5: 85.5518	lr:0.003003
Ep: 137   EpTime: 30.5337  Trainloss: 0.5617   Testloss: 1.6362  TrainAcc: 86.50   Top1: 63.6478    Top5: 86.2679	lr:0.002943
Ep: 138   EpTime: 30.4468  Trainloss: 0.5706   Testloss: 1.6589  TrainAcc: 86.30   Top1: 63.1845    Top5: 85.5939	lr:0.002884
Ep: 139   EpTime: 31.3385  Trainloss: 0.5654   Testloss: 1.6520  TrainAcc: 86.22   Top1: 62.8054    Top5: 85.2991	lr:0.002826
Ep: 140   EpTime: 30.5121  Trainloss: 0.5624   Testloss: 1.6381  TrainAcc: 86.67   Top1: 63.3951    Top5: 85.2569	lr:0.002770
Ep: 141   EpTime: 30.5915  Trainloss: 0.5663   Testloss: 1.6398  TrainAcc: 86.30   Top1: 63.5636    Top5: 85.4254	lr:0.002714
Ep: 142   EpTime: 31.2216  Trainloss: 0.5548   Testloss: 1.6326  TrainAcc: 86.64   Top1: 63.7742    Top5: 85.4676	lr:0.002660
Ep: 143   EpTime: 30.9007  Trainloss: 0.5460   Testloss: 1.6412  TrainAcc: 86.68   Top1: 63.9427    Top5: 85.3833	lr:0.002607
Ep: 144   EpTime: 30.9124  Trainloss: 0.5548   Testloss: 1.6482  TrainAcc: 86.61   Top1: 64.0270    Top5: 85.0463	lr:0.002555
Ep: 145   EpTime: 31.3567  Trainloss: 0.5748   Testloss: 1.6364  TrainAcc: 86.67   Top1: 64.0691    Top5: 85.0463	lr:0.002503
Ep: 146   EpTime: 30.8756  Trainloss: 0.5754   Testloss: 1.6472  TrainAcc: 86.55   Top1: 63.9427    Top5: 85.4254	lr:0.002453
Ep: 147   EpTime: 31.7223  Trainloss: 0.5674   Testloss: 1.6668  TrainAcc: 86.67   Top1: 63.0160    Top5: 85.1306	lr:0.002404
Ep: 148   EpTime: 30.8077  Trainloss: 0.5547   Testloss: 1.6515  TrainAcc: 86.74   Top1: 63.6057    Top5: 85.6361	lr:0.002356
Ep: 149   EpTime: 30.9868  Trainloss: 0.5445   Testloss: 1.6472  TrainAcc: 87.02   Top1: 62.8054    Top5: 85.3833	lr:0.002309
Ep: 150   EpTime: 31.5499  Trainloss: 0.5570   Testloss: 1.6529  TrainAcc: 87.10   Top1: 63.3109    Top5: 85.2569	lr:0.002263
Ep: 151   EpTime: 30.5626  Trainloss: 0.5355   Testloss: 1.6275  TrainAcc: 87.28   Top1: 62.7633    Top5: 85.8467	lr:0.002218
Ep: 152   EpTime: 31.2015  Trainloss: 0.5627   Testloss: 1.6348  TrainAcc: 86.60   Top1: 64.1112    Top5: 85.5097	lr:0.002173
Ep: 153   EpTime: 31.6375  Trainloss: 0.5397   Testloss: 1.6386  TrainAcc: 87.39   Top1: 63.9006    Top5: 85.5518	lr:0.002130
Ep: 154   EpTime: 30.5757  Trainloss: 0.5489   Testloss: 1.6585  TrainAcc: 87.23   Top1: 63.5215    Top5: 84.9621	lr:0.002087
Ep: 155   EpTime: 30.8076  Trainloss: 0.5440   Testloss: 1.6574  TrainAcc: 87.40   Top1: 63.2687    Top5: 84.8778	lr:0.002046
Ep: 156   EpTime: 31.2898  Trainloss: 0.5356   Testloss: 1.6388  TrainAcc: 87.54   Top1: 63.9006    Top5: 86.0152	lr:0.002005
Ep: 157   EpTime: 30.9217  Trainloss: 0.5297   Testloss: 1.6470  TrainAcc: 87.54   Top1: 63.4372    Top5: 85.4254	lr:0.001965
Ep: 158   EpTime: 30.8101  Trainloss: 0.5262   Testloss: 1.6511  TrainAcc: 87.46   Top1: 63.6900    Top5: 85.3833	lr:0.001925
Ep: 159   EpTime: 30.6269  Trainloss: 0.5090   Testloss: 1.6526  TrainAcc: 87.94   Top1: 63.1845    Top5: 84.9621	lr:0.001887
Ep: 160   EpTime: 31.3550  Trainloss: 0.5345   Testloss: 1.6473  TrainAcc: 87.30   Top1: 64.1112    Top5: 85.6361	lr:0.001849
Ep: 161   EpTime: 31.1773  Trainloss: 0.5259   Testloss: 1.6521  TrainAcc: 87.46   Top1: 63.3951    Top5: 85.3412	lr:0.001812
Ep: 162   EpTime: 30.8823  Trainloss: 0.5281   Testloss: 1.6650  TrainAcc: 87.58   Top1: 62.5948    Top5: 85.0042	lr:0.001776
Ep: 163   EpTime: 30.5514  Trainloss: 0.5407   Testloss: 1.6597  TrainAcc: 87.31   Top1: 63.5636    Top5: 85.2148	lr:0.001740
Ep: 164   EpTime: 31.1042  Trainloss: 0.5378   Testloss: 1.6587  TrainAcc: 87.52   Top1: 62.8054    Top5: 85.0463	lr:0.001705
Ep: 165   EpTime: 30.8617  Trainloss: 0.5248   Testloss: 1.6580  TrainAcc: 87.77   Top1: 62.9318    Top5: 84.6251	lr:0.001671
Ep: 166   EpTime: 30.9280  Trainloss: 0.5298   Testloss: 1.6733  TrainAcc: 87.42   Top1: 62.4684    Top5: 84.9200	lr:0.001638
Ep: 167   EpTime: 31.2561  Trainloss: 0.5301   Testloss: 1.6750  TrainAcc: 87.58   Top1: 63.0581    Top5: 84.9200	lr:0.001605
Ep: 168   EpTime: 30.7946  Trainloss: 0.5543   Testloss: 1.6654  TrainAcc: 86.92   Top1: 63.0581    Top5: 85.4676	lr:0.001573
Ep: 169   EpTime: 31.0930  Trainloss: 0.5209   Testloss: 1.6713  TrainAcc: 87.68   Top1: 63.1003    Top5: 85.5097	lr:0.001542
Ep: 170   EpTime: 30.3428  Trainloss: 0.5084   Testloss: 1.6495  TrainAcc: 88.09   Top1: 63.9006    Top5: 85.2148	lr:0.001511
Ep: 171   EpTime: 30.8480  Trainloss: 0.5507   Testloss: 1.6537  TrainAcc: 87.07   Top1: 63.0581    Top5: 85.5097	lr:0.001481
Ep: 172   EpTime: 31.4337  Trainloss: 0.5297   Testloss: 1.6554  TrainAcc: 87.37   Top1: 63.1003    Top5: 85.5939	lr:0.001451
Ep: 173   EpTime: 31.0842  Trainloss: 0.5177   Testloss: 1.6560  TrainAcc: 88.09   Top1: 62.8475    Top5: 85.1306	lr:0.001422
Ep: 174   EpTime: 30.7093  Trainloss: 0.5298   Testloss: 1.6699  TrainAcc: 87.40   Top1: 63.0160    Top5: 84.9200	lr:0.001393
Ep: 175   EpTime: 30.7844  Trainloss: 0.5434   Testloss: 1.6602  TrainAcc: 87.05   Top1: 63.4372    Top5: 85.2569	lr:0.001366
Ep: 176   EpTime: 30.9324  Trainloss: 0.5296   Testloss: 1.6572  TrainAcc: 87.44   Top1: 63.5215    Top5: 85.2569	lr:0.001338
Ep: 177   EpTime: 30.8239  Trainloss: 0.5006   Testloss: 1.6579  TrainAcc: 88.34   Top1: 63.3530    Top5: 85.0885	lr:0.001312
Ep: 178   EpTime: 30.2995  Trainloss: 0.5279   Testloss: 1.6528  TrainAcc: 87.67   Top1: 63.0160    Top5: 85.2148	lr:0.001285
Ep: 179   EpTime: 30.6187  Trainloss: 0.5222   Testloss: 1.6513  TrainAcc: 88.07   Top1: 63.6478    Top5: 85.3412	lr:0.001260
Ep: 180   EpTime: 31.2400  Trainloss: 0.5082   Testloss: 1.6515  TrainAcc: 87.77   Top1: 63.1003    Top5: 85.2569	lr:0.001234
Ep: 181   EpTime: 31.2952  Trainloss: 0.5245   Testloss: 1.6665  TrainAcc: 87.65   Top1: 63.2266    Top5: 85.3833	lr:0.001210
Ep: 182   EpTime: 31.0282  Trainloss: 0.5209   Testloss: 1.6633  TrainAcc: 87.67   Top1: 63.1424    Top5: 85.4676	lr:0.001186
Ep: 183   EpTime: 30.6008  Trainloss: 0.4919   Testloss: 1.6482  TrainAcc: 88.84   Top1: 63.4372    Top5: 85.4254	lr:0.001162
Ep: 184   EpTime: 31.1405  Trainloss: 0.5184   Testloss: 1.6500  TrainAcc: 87.54   Top1: 63.3530    Top5: 85.4254	lr:0.001139
Ep: 185   EpTime: 29.9635  Trainloss: 0.4940   Testloss: 1.6631  TrainAcc: 88.27   Top1: 63.0581    Top5: 85.0463	lr:0.001116
Ep: 186   EpTime: 30.5834  Trainloss: 0.4897   Testloss: 1.6512  TrainAcc: 89.01   Top1: 63.4372    Top5: 85.0042	lr:0.001093
Ep: 187   EpTime: 31.0421  Trainloss: 0.4914   Testloss: 1.6658  TrainAcc: 88.46   Top1: 63.0160    Top5: 85.1727	lr:0.001072
Ep: 188   EpTime: 31.0228  Trainloss: 0.5040   Testloss: 1.6533  TrainAcc: 88.29   Top1: 62.9739    Top5: 85.1306	lr:0.001050
Ep: 189   EpTime: 31.2798  Trainloss: 0.5045   Testloss: 1.6637  TrainAcc: 88.27   Top1: 63.3951    Top5: 85.2148	lr:0.001029
Ep: 190   EpTime: 31.1340  Trainloss: 0.5294   Testloss: 1.6636  TrainAcc: 87.48   Top1: 63.4794    Top5: 85.2148	lr:0.001009
Ep: 191   EpTime: 31.2536  Trainloss: 0.5039   Testloss: 1.6597  TrainAcc: 88.09   Top1: 63.8163    Top5: 85.1727	lr:0.000988
Ep: 192   EpTime: 30.4638  Trainloss: 0.5219   Testloss: 1.6803  TrainAcc: 87.49   Top1: 63.1424    Top5: 85.1306	lr:0.000969
Ep: 193   EpTime: 30.6962  Trainloss: 0.5090   Testloss: 1.6636  TrainAcc: 87.90   Top1: 63.6900    Top5: 84.7515	lr:0.000949
Ep: 194   EpTime: 30.6216  Trainloss: 0.5124   Testloss: 1.6696  TrainAcc: 87.75   Top1: 63.2687    Top5: 85.0042	lr:0.000930
Ep: 195   EpTime: 31.7947  Trainloss: 0.4931   Testloss: 1.6595  TrainAcc: 88.35   Top1: 63.1003    Top5: 85.1306	lr:0.000912
Ep: 196   EpTime: 30.8836  Trainloss: 0.5151   Testloss: 1.6706  TrainAcc: 87.73   Top1: 63.9006    Top5: 85.0463	lr:0.000893
Ep: 197   EpTime: 30.9365  Trainloss: 0.5044   Testloss: 1.6638  TrainAcc: 88.17   Top1: 63.6057    Top5: 85.0885	lr:0.000876
Ep: 198   EpTime: 31.1455  Trainloss: 0.4668   Testloss: 1.6753  TrainAcc: 88.83   Top1: 62.9739    Top5: 85.0463	lr:0.000858
Ep: 199   EpTime: 30.7620  Trainloss: 0.5103   Testloss: 1.6639  TrainAcc: 87.94   Top1: 63.8585    Top5: 84.9621	lr:0.000841
Ep: 200   EpTime: 30.8080  Trainloss: 0.4983   Testloss: 1.6627  TrainAcc: 88.24   Top1: 63.4794    Top5: 85.1306	lr:0.000824
Ep: 201   EpTime: 30.9687  Trainloss: 0.5072   Testloss: 1.6524  TrainAcc: 88.21   Top1: 63.1845    Top5: 84.9200	lr:0.000808
Ep: 202   EpTime: 30.4945  Trainloss: 0.4854   Testloss: 1.6537  TrainAcc: 88.46   Top1: 63.2687    Top5: 85.0463	lr:0.000791
Ep: 203   EpTime: 30.7576  Trainloss: 0.4915   Testloss: 1.6633  TrainAcc: 88.38   Top1: 63.3951    Top5: 85.3833	lr:0.000776
Ep: 204   EpTime: 30.8442  Trainloss: 0.4968   Testloss: 1.6587  TrainAcc: 88.14   Top1: 63.1424    Top5: 85.2148	lr:0.000760
Ep: 205   EpTime: 30.3452  Trainloss: 0.5122   Testloss: 1.6737  TrainAcc: 87.80   Top1: 63.2687    Top5: 85.2991	lr:0.000745
Ep: 206   EpTime: 30.6772  Trainloss: 0.4712   Testloss: 1.6640  TrainAcc: 89.10   Top1: 63.4794    Top5: 85.3833	lr:0.000730
Ep: 207   EpTime: 30.5817  Trainloss: 0.4819   Testloss: 1.6713  TrainAcc: 88.54   Top1: 63.4794    Top5: 85.0042	lr:0.000715
Ep: 208   EpTime: 30.4481  Trainloss: 0.4900   Testloss: 1.6567  TrainAcc: 88.41   Top1: 63.8163    Top5: 85.4254	lr:0.000701
Ep: 209   EpTime: 30.9912  Trainloss: 0.4876   Testloss: 1.6637  TrainAcc: 88.59   Top1: 63.6057    Top5: 85.2148	lr:0.000687
Ep: 210   EpTime: 30.7597  Trainloss: 0.4840   Testloss: 1.6585  TrainAcc: 88.54   Top1: 63.5215    Top5: 85.0042	lr:0.000673
Ep: 211   EpTime: 30.7597  Trainloss: 0.5109   Testloss: 1.6549  TrainAcc: 87.66   Top1: 63.4372    Top5: 85.4254	lr:0.000660
Ep: 212   EpTime: 31.0131  Trainloss: 0.5050   Testloss: 1.6604  TrainAcc: 88.06   Top1: 63.6900    Top5: 85.1306	lr:0.000647
Ep: 213   EpTime: 30.9359  Trainloss: 0.5122   Testloss: 1.6649  TrainAcc: 87.92   Top1: 63.1003    Top5: 85.1306	lr:0.000634
Ep: 214   EpTime: 30.7434  Trainloss: 0.4968   Testloss: 1.6631  TrainAcc: 88.34   Top1: 63.6057    Top5: 85.1306	lr:0.000621
Ep: 215   EpTime: 30.8717  Trainloss: 0.5060   Testloss: 1.6504  TrainAcc: 87.78   Top1: 63.5636    Top5: 85.0885	lr:0.000609
Ep: 216   EpTime: 30.8018  Trainloss: 0.4936   Testloss: 1.6629  TrainAcc: 88.34   Top1: 63.3951    Top5: 84.9621	lr:0.000596
Ep: 217   EpTime: 30.5245  Trainloss: 0.4708   Testloss: 1.6519  TrainAcc: 88.95   Top1: 63.3109    Top5: 85.3412	lr:0.000585
Ep: 218   EpTime: 31.4843  Trainloss: 0.5119   Testloss: 1.6554  TrainAcc: 88.05   Top1: 63.5215    Top5: 85.4254	lr:0.000573
Ep: 219   EpTime: 30.6302  Trainloss: 0.4831   Testloss: 1.6632  TrainAcc: 88.71   Top1: 63.0581    Top5: 85.0042	lr:0.000561
Ep: 220   EpTime: 30.5755  Trainloss: 0.4915   Testloss: 1.6723  TrainAcc: 88.59   Top1: 62.7633    Top5: 85.0463	lr:0.000550
