[32, 16, 24, 32, 64, 96, 160, 320]
MobileNet2(
  (activation): ReLU6(inplace)
  (conv1): Conv2d(3, 32, kernel_size=(3, 3), stride=(2, 2), padding=(1, 1), bias=False)
  (bn1): BatchNorm2d(32, eps=1e-05, momentum=0.1, affine=True, track_running_stats=True)
  (bottlenecks): Sequential(
    (Bottlenecks_0): Sequential(
      (LinearBottleneck0_0): LinearBottleneck(
        (conv1): Conv2d(32, 32, kernel_size=(1, 1), stride=(1, 1), bias=False)
        (bn1): BatchNorm2d(32, eps=1e-05, momentum=0.1, affine=True, track_running_stats=True)
        (conv2): Conv2d(32, 32, kernel_size=(3, 3), stride=(1, 1), padding=(1, 1), groups=32, bias=False)
        (bn2): BatchNorm2d(32, eps=1e-05, momentum=0.1, affine=True, track_running_stats=True)
        (conv3): Conv2d(32, 16, kernel_size=(1, 1), stride=(1, 1), bias=False)
        (bn3): BatchNorm2d(16, eps=1e-05, momentum=0.1, affine=True, track_running_stats=True)
        (activation): ReLU6(inplace)
      )
    )
    (Bottlenecks_1): Sequential(
      (LinearBottleneck1_0): LinearBottleneck(
        (conv1): Conv2d(16, 96, kernel_size=(1, 1), stride=(1, 1), bias=False)
        (bn1): BatchNorm2d(96, eps=1e-05, momentum=0.1, affine=True, track_running_stats=True)
        (conv2): Conv2d(96, 96, kernel_size=(3, 3), stride=(2, 2), padding=(1, 1), groups=96, bias=False)
        (bn2): BatchNorm2d(96, eps=1e-05, momentum=0.1, affine=True, track_running_stats=True)
        (conv3): Conv2d(96, 24, kernel_size=(1, 1), stride=(1, 1), bias=False)
        (bn3): BatchNorm2d(24, eps=1e-05, momentum=0.1, affine=True, track_running_stats=True)
        (activation): ReLU6(inplace)
      )
      (LinearBottleneck1_1): LinearBottleneck(
        (conv1): Conv2d(24, 144, kernel_size=(1, 1), stride=(1, 1), bias=False)
        (bn1): BatchNorm2d(144, eps=1e-05, momentum=0.1, affine=True, track_running_stats=True)
        (conv2): Conv2d(144, 144, kernel_size=(3, 3), stride=(1, 1), padding=(1, 1), groups=144, bias=False)
        (bn2): BatchNorm2d(144, eps=1e-05, momentum=0.1, affine=True, track_running_stats=True)
        (conv3): Conv2d(144, 24, kernel_size=(1, 1), stride=(1, 1), bias=False)
        (bn3): BatchNorm2d(24, eps=1e-05, momentum=0.1, affine=True, track_running_stats=True)
        (activation): ReLU6(inplace)
      )
    )
    (Bottlenecks_2): Sequential(
      (LinearBottleneck2_0): LinearBottleneck(
        (conv1): Conv2d(24, 144, kernel_size=(1, 1), stride=(1, 1), bias=False)
        (bn1): BatchNorm2d(144, eps=1e-05, momentum=0.1, affine=True, track_running_stats=True)
        (conv2): Conv2d(144, 144, kernel_size=(3, 3), stride=(2, 2), padding=(1, 1), groups=144, bias=False)
        (bn2): BatchNorm2d(144, eps=1e-05, momentum=0.1, affine=True, track_running_stats=True)
        (conv3): Conv2d(144, 32, kernel_size=(1, 1), stride=(1, 1), bias=False)
        (bn3): BatchNorm2d(32, eps=1e-05, momentum=0.1, affine=True, track_running_stats=True)
        (activation): ReLU6(inplace)
      )
      (LinearBottleneck2_1): LinearBottleneck(
        (conv1): Conv2d(32, 192, kernel_size=(1, 1), stride=(1, 1), bias=False)
        (bn1): BatchNorm2d(192, eps=1e-05, momentum=0.1, affine=True, track_running_stats=True)
        (conv2): Conv2d(192, 192, kernel_size=(3, 3), stride=(1, 1), padding=(1, 1), groups=192, bias=False)
        (bn2): BatchNorm2d(192, eps=1e-05, momentum=0.1, affine=True, track_running_stats=True)
        (conv3): Conv2d(192, 32, kernel_size=(1, 1), stride=(1, 1), bias=False)
        (bn3): BatchNorm2d(32, eps=1e-05, momentum=0.1, affine=True, track_running_stats=True)
        (activation): ReLU6(inplace)
      )
      (LinearBottleneck2_2): LinearBottleneck(
        (conv1): Conv2d(32, 192, kernel_size=(1, 1), stride=(1, 1), bias=False)
        (bn1): BatchNorm2d(192, eps=1e-05, momentum=0.1, affine=True, track_running_stats=True)
        (conv2): Conv2d(192, 192, kernel_size=(3, 3), stride=(1, 1), padding=(1, 1), groups=192, bias=False)
        (bn2): BatchNorm2d(192, eps=1e-05, momentum=0.1, affine=True, track_running_stats=True)
        (conv3): Conv2d(192, 32, kernel_size=(1, 1), stride=(1, 1), bias=False)
        (bn3): BatchNorm2d(32, eps=1e-05, momentum=0.1, affine=True, track_running_stats=True)
        (activation): ReLU6(inplace)
      )
    )
    (Bottlenecks_3): Sequential(
      (LinearBottleneck3_0): LinearBottleneck(
        (conv1): Conv2d(32, 192, kernel_size=(1, 1), stride=(1, 1), bias=False)
        (bn1): BatchNorm2d(192, eps=1e-05, momentum=0.1, affine=True, track_running_stats=True)
        (conv2): Conv2d(192, 192, kernel_size=(3, 3), stride=(2, 2), padding=(1, 1), groups=192, bias=False)
        (bn2): BatchNorm2d(192, eps=1e-05, momentum=0.1, affine=True, track_running_stats=True)
        (conv3): Conv2d(192, 64, kernel_size=(1, 1), stride=(1, 1), bias=False)
        (bn3): BatchNorm2d(64, eps=1e-05, momentum=0.1, affine=True, track_running_stats=True)
        (activation): ReLU6(inplace)
      )
      (LinearBottleneck3AlphaBlock_1): AlphaBlock(
        (arm_1): SplitArm(
          (conv_dws): Conv2d(8, 8, kernel_size=(1, 1), stride=(1, 1), groups=8)
          (bn_dws): BatchNorm2d(8, eps=1e-05, momentum=0.9, affine=True, track_running_stats=True)
          (relu_dws): ReLU(inplace)
          (maxpool): MaxPool2d(kernel_size=3, stride=1, padding=1, dilation=1, ceil_mode=False)
          (conv_point): Conv2d(8, 1, kernel_size=(1, 1), stride=(1, 1))
          (bn_point): BatchNorm2d(1, eps=1e-05, momentum=0.9, affine=True, track_running_stats=True)
          (relu_point): ReLU(inplace)
          (softmax): Softmax()
        )
        (arm_2): SplitArm(
          (conv_dws): Conv2d(8, 8, kernel_size=(1, 1), stride=(1, 1), groups=8)
          (bn_dws): BatchNorm2d(8, eps=1e-05, momentum=0.9, affine=True, track_running_stats=True)
          (relu_dws): ReLU(inplace)
          (maxpool): MaxPool2d(kernel_size=3, stride=1, padding=1, dilation=1, ceil_mode=False)
          (conv_point): Conv2d(8, 1, kernel_size=(1, 1), stride=(1, 1))
          (bn_point): BatchNorm2d(1, eps=1e-05, momentum=0.9, affine=True, track_running_stats=True)
          (relu_point): ReLU(inplace)
          (softmax): Softmax()
        )
        (arm_3): SplitArm(
          (conv_dws): Conv2d(8, 8, kernel_size=(1, 1), stride=(1, 1), groups=8)
          (bn_dws): BatchNorm2d(8, eps=1e-05, momentum=0.9, affine=True, track_running_stats=True)
          (relu_dws): ReLU(inplace)
          (maxpool): MaxPool2d(kernel_size=3, stride=1, padding=1, dilation=1, ceil_mode=False)
          (conv_point): Conv2d(8, 1, kernel_size=(1, 1), stride=(1, 1))
          (bn_point): BatchNorm2d(1, eps=1e-05, momentum=0.9, affine=True, track_running_stats=True)
          (relu_point): ReLU(inplace)
          (softmax): Softmax()
        )
        (arm_4): SplitArm(
          (conv_dws): Conv2d(8, 8, kernel_size=(1, 1), stride=(1, 1), groups=8)
          (bn_dws): BatchNorm2d(8, eps=1e-05, momentum=0.9, affine=True, track_running_stats=True)
          (relu_dws): ReLU(inplace)
          (maxpool): MaxPool2d(kernel_size=3, stride=1, padding=1, dilation=1, ceil_mode=False)
          (conv_point): Conv2d(8, 1, kernel_size=(1, 1), stride=(1, 1))
          (bn_point): BatchNorm2d(1, eps=1e-05, momentum=0.9, affine=True, track_running_stats=True)
          (relu_point): ReLU(inplace)
          (softmax): Softmax()
        )
        (arm_5): SplitArm(
          (conv_dws): Conv2d(8, 8, kernel_size=(1, 1), stride=(1, 1), groups=8)
          (bn_dws): BatchNorm2d(8, eps=1e-05, momentum=0.9, affine=True, track_running_stats=True)
          (relu_dws): ReLU(inplace)
          (maxpool): MaxPool2d(kernel_size=3, stride=1, padding=1, dilation=1, ceil_mode=False)
          (conv_point): Conv2d(8, 1, kernel_size=(1, 1), stride=(1, 1))
          (bn_point): BatchNorm2d(1, eps=1e-05, momentum=0.9, affine=True, track_running_stats=True)
          (relu_point): ReLU(inplace)
          (softmax): Softmax()
        )
        (arm_6): SplitArm(
          (conv_dws): Conv2d(8, 8, kernel_size=(1, 1), stride=(1, 1), groups=8)
          (bn_dws): BatchNorm2d(8, eps=1e-05, momentum=0.9, affine=True, track_running_stats=True)
          (relu_dws): ReLU(inplace)
          (maxpool): MaxPool2d(kernel_size=3, stride=1, padding=1, dilation=1, ceil_mode=False)
          (conv_point): Conv2d(8, 1, kernel_size=(1, 1), stride=(1, 1))
          (bn_point): BatchNorm2d(1, eps=1e-05, momentum=0.9, affine=True, track_running_stats=True)
          (relu_point): ReLU(inplace)
          (softmax): Softmax()
        )
        (arm_7): SplitArm(
          (conv_dws): Conv2d(8, 8, kernel_size=(1, 1), stride=(1, 1), groups=8)
          (bn_dws): BatchNorm2d(8, eps=1e-05, momentum=0.9, affine=True, track_running_stats=True)
          (relu_dws): ReLU(inplace)
          (maxpool): MaxPool2d(kernel_size=3, stride=1, padding=1, dilation=1, ceil_mode=False)
          (conv_point): Conv2d(8, 1, kernel_size=(1, 1), stride=(1, 1))
          (bn_point): BatchNorm2d(1, eps=1e-05, momentum=0.9, affine=True, track_running_stats=True)
          (relu_point): ReLU(inplace)
          (softmax): Softmax()
        )
        (arm_8): SplitArm(
          (conv_dws): Conv2d(8, 8, kernel_size=(1, 1), stride=(1, 1), groups=8)
          (bn_dws): BatchNorm2d(8, eps=1e-05, momentum=0.9, affine=True, track_running_stats=True)
          (relu_dws): ReLU(inplace)
          (maxpool): MaxPool2d(kernel_size=3, stride=1, padding=1, dilation=1, ceil_mode=False)
          (conv_point): Conv2d(8, 1, kernel_size=(1, 1), stride=(1, 1))
          (bn_point): BatchNorm2d(1, eps=1e-05, momentum=0.9, affine=True, track_running_stats=True)
          (relu_point): ReLU(inplace)
          (softmax): Softmax()
        )
      )
      (LinearBottleneck3_2): LinearBottleneck(
        (conv1): Conv2d(64, 384, kernel_size=(1, 1), stride=(1, 1), bias=False)
        (bn1): BatchNorm2d(384, eps=1e-05, momentum=0.1, affine=True, track_running_stats=True)
        (conv2): Conv2d(384, 384, kernel_size=(3, 3), stride=(1, 1), padding=(1, 1), groups=384, bias=False)
        (bn2): BatchNorm2d(384, eps=1e-05, momentum=0.1, affine=True, track_running_stats=True)
        (conv3): Conv2d(384, 64, kernel_size=(1, 1), stride=(1, 1), bias=False)
        (bn3): BatchNorm2d(64, eps=1e-05, momentum=0.1, affine=True, track_running_stats=True)
        (activation): ReLU6(inplace)
      )
      (LinearBottleneck3_3): LinearBottleneck(
        (conv1): Conv2d(64, 384, kernel_size=(1, 1), stride=(1, 1), bias=False)
        (bn1): BatchNorm2d(384, eps=1e-05, momentum=0.1, affine=True, track_running_stats=True)
        (conv2): Conv2d(384, 384, kernel_size=(3, 3), stride=(1, 1), padding=(1, 1), groups=384, bias=False)
        (bn2): BatchNorm2d(384, eps=1e-05, momentum=0.1, affine=True, track_running_stats=True)
        (conv3): Conv2d(384, 64, kernel_size=(1, 1), stride=(1, 1), bias=False)
        (bn3): BatchNorm2d(64, eps=1e-05, momentum=0.1, affine=True, track_running_stats=True)
        (activation): ReLU6(inplace)
      )
    )
    (Bottlenecks_4): Sequential(
      (LinearBottleneck4_0): LinearBottleneck(
        (conv1): Conv2d(64, 384, kernel_size=(1, 1), stride=(1, 1), bias=False)
        (bn1): BatchNorm2d(384, eps=1e-05, momentum=0.1, affine=True, track_running_stats=True)
        (conv2): Conv2d(384, 384, kernel_size=(3, 3), stride=(1, 1), padding=(1, 1), groups=384, bias=False)
        (bn2): BatchNorm2d(384, eps=1e-05, momentum=0.1, affine=True, track_running_stats=True)
        (conv3): Conv2d(384, 96, kernel_size=(1, 1), stride=(1, 1), bias=False)
        (bn3): BatchNorm2d(96, eps=1e-05, momentum=0.1, affine=True, track_running_stats=True)
        (activation): ReLU6(inplace)
      )
      (LinearBottleneck4AlphaBlock_1): AlphaBlock(
        (arm_1): SplitArm(
          (conv_dws): Conv2d(12, 12, kernel_size=(1, 1), stride=(1, 1), groups=12)
          (bn_dws): BatchNorm2d(12, eps=1e-05, momentum=0.9, affine=True, track_running_stats=True)
          (relu_dws): ReLU(inplace)
          (maxpool): MaxPool2d(kernel_size=3, stride=1, padding=1, dilation=1, ceil_mode=False)
          (conv_point): Conv2d(12, 1, kernel_size=(1, 1), stride=(1, 1))
          (bn_point): BatchNorm2d(1, eps=1e-05, momentum=0.9, affine=True, track_running_stats=True)
          (relu_point): ReLU(inplace)
          (softmax): Softmax()
        )
        (arm_2): SplitArm(
          (conv_dws): Conv2d(12, 12, kernel_size=(1, 1), stride=(1, 1), groups=12)
          (bn_dws): BatchNorm2d(12, eps=1e-05, momentum=0.9, affine=True, track_running_stats=True)
          (relu_dws): ReLU(inplace)
          (maxpool): MaxPool2d(kernel_size=3, stride=1, padding=1, dilation=1, ceil_mode=False)
          (conv_point): Conv2d(12, 1, kernel_size=(1, 1), stride=(1, 1))
          (bn_point): BatchNorm2d(1, eps=1e-05, momentum=0.9, affine=True, track_running_stats=True)
          (relu_point): ReLU(inplace)
          (softmax): Softmax()
        )
        (arm_3): SplitArm(
          (conv_dws): Conv2d(12, 12, kernel_size=(1, 1), stride=(1, 1), groups=12)
          (bn_dws): BatchNorm2d(12, eps=1e-05, momentum=0.9, affine=True, track_running_stats=True)
          (relu_dws): ReLU(inplace)
          (maxpool): MaxPool2d(kernel_size=3, stride=1, padding=1, dilation=1, ceil_mode=False)
          (conv_point): Conv2d(12, 1, kernel_size=(1, 1), stride=(1, 1))
          (bn_point): BatchNorm2d(1, eps=1e-05, momentum=0.9, affine=True, track_running_stats=True)
          (relu_point): ReLU(inplace)
          (softmax): Softmax()
        )
        (arm_4): SplitArm(
          (conv_dws): Conv2d(12, 12, kernel_size=(1, 1), stride=(1, 1), groups=12)
          (bn_dws): BatchNorm2d(12, eps=1e-05, momentum=0.9, affine=True, track_running_stats=True)
          (relu_dws): ReLU(inplace)
          (maxpool): MaxPool2d(kernel_size=3, stride=1, padding=1, dilation=1, ceil_mode=False)
          (conv_point): Conv2d(12, 1, kernel_size=(1, 1), stride=(1, 1))
          (bn_point): BatchNorm2d(1, eps=1e-05, momentum=0.9, affine=True, track_running_stats=True)
          (relu_point): ReLU(inplace)
          (softmax): Softmax()
        )
        (arm_5): SplitArm(
          (conv_dws): Conv2d(12, 12, kernel_size=(1, 1), stride=(1, 1), groups=12)
          (bn_dws): BatchNorm2d(12, eps=1e-05, momentum=0.9, affine=True, track_running_stats=True)
          (relu_dws): ReLU(inplace)
          (maxpool): MaxPool2d(kernel_size=3, stride=1, padding=1, dilation=1, ceil_mode=False)
          (conv_point): Conv2d(12, 1, kernel_size=(1, 1), stride=(1, 1))
          (bn_point): BatchNorm2d(1, eps=1e-05, momentum=0.9, affine=True, track_running_stats=True)
          (relu_point): ReLU(inplace)
          (softmax): Softmax()
        )
        (arm_6): SplitArm(
          (conv_dws): Conv2d(12, 12, kernel_size=(1, 1), stride=(1, 1), groups=12)
          (bn_dws): BatchNorm2d(12, eps=1e-05, momentum=0.9, affine=True, track_running_stats=True)
          (relu_dws): ReLU(inplace)
          (maxpool): MaxPool2d(kernel_size=3, stride=1, padding=1, dilation=1, ceil_mode=False)
          (conv_point): Conv2d(12, 1, kernel_size=(1, 1), stride=(1, 1))
          (bn_point): BatchNorm2d(1, eps=1e-05, momentum=0.9, affine=True, track_running_stats=True)
          (relu_point): ReLU(inplace)
          (softmax): Softmax()
        )
        (arm_7): SplitArm(
          (conv_dws): Conv2d(12, 12, kernel_size=(1, 1), stride=(1, 1), groups=12)
          (bn_dws): BatchNorm2d(12, eps=1e-05, momentum=0.9, affine=True, track_running_stats=True)
          (relu_dws): ReLU(inplace)
          (maxpool): MaxPool2d(kernel_size=3, stride=1, padding=1, dilation=1, ceil_mode=False)
          (conv_point): Conv2d(12, 1, kernel_size=(1, 1), stride=(1, 1))
          (bn_point): BatchNorm2d(1, eps=1e-05, momentum=0.9, affine=True, track_running_stats=True)
          (relu_point): ReLU(inplace)
          (softmax): Softmax()
        )
        (arm_8): SplitArm(
          (conv_dws): Conv2d(12, 12, kernel_size=(1, 1), stride=(1, 1), groups=12)
          (bn_dws): BatchNorm2d(12, eps=1e-05, momentum=0.9, affine=True, track_running_stats=True)
          (relu_dws): ReLU(inplace)
          (maxpool): MaxPool2d(kernel_size=3, stride=1, padding=1, dilation=1, ceil_mode=False)
          (conv_point): Conv2d(12, 1, kernel_size=(1, 1), stride=(1, 1))
          (bn_point): BatchNorm2d(1, eps=1e-05, momentum=0.9, affine=True, track_running_stats=True)
          (relu_point): ReLU(inplace)
          (softmax): Softmax()
        )
      )
      (LinearBottleneck4_2): LinearBottleneck(
        (conv1): Conv2d(96, 576, kernel_size=(1, 1), stride=(1, 1), bias=False)
        (bn1): BatchNorm2d(576, eps=1e-05, momentum=0.1, affine=True, track_running_stats=True)
        (conv2): Conv2d(576, 576, kernel_size=(3, 3), stride=(1, 1), padding=(1, 1), groups=576, bias=False)
        (bn2): BatchNorm2d(576, eps=1e-05, momentum=0.1, affine=True, track_running_stats=True)
        (conv3): Conv2d(576, 96, kernel_size=(1, 1), stride=(1, 1), bias=False)
        (bn3): BatchNorm2d(96, eps=1e-05, momentum=0.1, affine=True, track_running_stats=True)
        (activation): ReLU6(inplace)
      )
    )
    (Bottlenecks_5): Sequential(
      (LinearBottleneck5_0): LinearBottleneck(
        (conv1): Conv2d(96, 576, kernel_size=(1, 1), stride=(1, 1), bias=False)
        (bn1): BatchNorm2d(576, eps=1e-05, momentum=0.1, affine=True, track_running_stats=True)
        (conv2): Conv2d(576, 576, kernel_size=(3, 3), stride=(2, 2), padding=(1, 1), groups=576, bias=False)
        (bn2): BatchNorm2d(576, eps=1e-05, momentum=0.1, affine=True, track_running_stats=True)
        (conv3): Conv2d(576, 160, kernel_size=(1, 1), stride=(1, 1), bias=False)
        (bn3): BatchNorm2d(160, eps=1e-05, momentum=0.1, affine=True, track_running_stats=True)
        (activation): ReLU6(inplace)
      )
      (LinearBottleneck5_1): LinearBottleneck(
        (conv1): Conv2d(160, 960, kernel_size=(1, 1), stride=(1, 1), bias=False)
        (bn1): BatchNorm2d(960, eps=1e-05, momentum=0.1, affine=True, track_running_stats=True)
        (conv2): Conv2d(960, 960, kernel_size=(3, 3), stride=(1, 1), padding=(1, 1), groups=960, bias=False)
        (bn2): BatchNorm2d(960, eps=1e-05, momentum=0.1, affine=True, track_running_stats=True)
        (conv3): Conv2d(960, 160, kernel_size=(1, 1), stride=(1, 1), bias=False)
        (bn3): BatchNorm2d(160, eps=1e-05, momentum=0.1, affine=True, track_running_stats=True)
        (activation): ReLU6(inplace)
      )
      (LinearBottleneck5_2): LinearBottleneck(
        (conv1): Conv2d(160, 960, kernel_size=(1, 1), stride=(1, 1), bias=False)
        (bn1): BatchNorm2d(960, eps=1e-05, momentum=0.1, affine=True, track_running_stats=True)
        (conv2): Conv2d(960, 960, kernel_size=(3, 3), stride=(1, 1), padding=(1, 1), groups=960, bias=False)
        (bn2): BatchNorm2d(960, eps=1e-05, momentum=0.1, affine=True, track_running_stats=True)
        (conv3): Conv2d(960, 160, kernel_size=(1, 1), stride=(1, 1), bias=False)
        (bn3): BatchNorm2d(160, eps=1e-05, momentum=0.1, affine=True, track_running_stats=True)
        (activation): ReLU6(inplace)
      )
    )
    (Bottlenecks_6): Sequential(
      (LinearBottleneck6_0): LinearBottleneck(
        (conv1): Conv2d(160, 960, kernel_size=(1, 1), stride=(1, 1), bias=False)
        (bn1): BatchNorm2d(960, eps=1e-05, momentum=0.1, affine=True, track_running_stats=True)
        (conv2): Conv2d(960, 960, kernel_size=(3, 3), stride=(1, 1), padding=(1, 1), groups=960, bias=False)
        (bn2): BatchNorm2d(960, eps=1e-05, momentum=0.1, affine=True, track_running_stats=True)
        (conv3): Conv2d(960, 320, kernel_size=(1, 1), stride=(1, 1), bias=False)
        (bn3): BatchNorm2d(320, eps=1e-05, momentum=0.1, affine=True, track_running_stats=True)
        (activation): ReLU6(inplace)
      )
    )
  )
  (conv_last): Conv2d(320, 1280, kernel_size=(1, 1), stride=(1, 1), bias=False)
  (bn_last): BatchNorm2d(1280, eps=1e-05, momentum=0.1, affine=True, track_running_stats=True)
  (avgpool): AdaptiveAvgPool2d(output_size=1)
  (dropout): Dropout(p=0.2, inplace)
  (fc): Linear(in_features=1280, out_features=200, bias=True)
)
Ep: 1   EpTime: 27.6473  Trainloss: 5.3705   Testloss: 6.9385  TrainAcc: 0.89   Top1: 0.5897    Top5: 2.6537	lr:0.045000
Checkpoint saved!!!
Ep: 2   EpTime: 24.6845  Trainloss: 4.9673   Testloss: 4.9363  TrainAcc: 2.27   Top1: 2.8644    Top5: 11.0783	lr:0.045000
Checkpoint saved!!!
Ep: 3   EpTime: 25.0857  Trainloss: 4.6813   Testloss: 4.6125  TrainAcc: 3.73   Top1: 4.2123    Top5: 17.2283	lr:0.044100
Checkpoint saved!!!
Ep: 4   EpTime: 24.9367  Trainloss: 4.4597   Testloss: 4.3073  TrainAcc: 6.29   Top1: 6.0236    Top5: 24.0522	lr:0.043218
Checkpoint saved!!!
Ep: 5   EpTime: 25.0008  Trainloss: 4.2673   Testloss: 4.3647  TrainAcc: 7.98   Top1: 7.4979    Top5: 23.4204	lr:0.042354
Checkpoint saved!!!
Ep: 6   EpTime: 25.0520  Trainloss: 4.0970   Testloss: 4.0866  TrainAcc: 9.67   Top1: 9.7304    Top5: 30.8762	lr:0.041507
Checkpoint saved!!!
Ep: 7   EpTime: 24.9235  Trainloss: 3.9268   Testloss: 3.8144  TrainAcc: 11.84   Top1: 14.1112    Top5: 39.1323	lr:0.040676
Checkpoint saved!!!
Ep: 8   EpTime: 25.1152  Trainloss: 3.8030   Testloss: 3.7811  TrainAcc: 13.74   Top1: 13.7321    Top5: 39.3429	lr:0.039863
Ep: 9   EpTime: 25.4014  Trainloss: 3.6511   Testloss: 3.7397  TrainAcc: 15.74   Top1: 15.0379    Top5: 39.7641	lr:0.039066
Checkpoint saved!!!
Ep: 10   EpTime: 25.7967  Trainloss: 3.4930   Testloss: 3.4854  TrainAcc: 18.36   Top1: 18.6605    Top5: 45.8719	lr:0.038284
Checkpoint saved!!!
Ep: 11   EpTime: 25.5472  Trainloss: 3.3532   Testloss: 3.7211  TrainAcc: 21.23   Top1: 18.6184    Top5: 45.2822	lr:0.037519
Ep: 12   EpTime: 24.9745  Trainloss: 3.2609   Testloss: 3.1330  TrainAcc: 23.02   Top1: 24.9789    Top5: 54.8020	lr:0.036768
Checkpoint saved!!!
Ep: 13   EpTime: 25.4625  Trainloss: 3.1709   Testloss: 3.6195  TrainAcc: 24.66   Top1: 20.3033    Top5: 45.6192	lr:0.036033
Ep: 14   EpTime: 26.1464  Trainloss: 3.0356   Testloss: 3.0503  TrainAcc: 26.73   Top1: 26.8323    Top5: 57.0767	lr:0.035312
Checkpoint saved!!!
Ep: 15   EpTime: 25.2304  Trainloss: 2.9548   Testloss: 2.7273  TrainAcc: 28.71   Top1: 31.9714    Top5: 64.2376	lr:0.034606
Checkpoint saved!!!
Ep: 16   EpTime: 25.7574  Trainloss: 2.8481   Testloss: 2.8573  TrainAcc: 29.80   Top1: 30.3707    Top5: 62.5105	lr:0.033914
Ep: 17   EpTime: 24.9702  Trainloss: 2.7665   Testloss: 2.8962  TrainAcc: 32.14   Top1: 29.4861    Top5: 59.8989	lr:0.033236
Ep: 18   EpTime: 24.8155  Trainloss: 2.6583   Testloss: 2.9629  TrainAcc: 34.69   Top1: 30.5813    Top5: 62.2999	lr:0.032571
Ep: 19   EpTime: 25.3731  Trainloss: 2.5773   Testloss: 2.5186  TrainAcc: 36.29   Top1: 37.9528    Top5: 68.8290	lr:0.031919
Checkpoint saved!!!
Ep: 20   EpTime: 25.3822  Trainloss: 2.4839   Testloss: 2.7046  TrainAcc: 38.02   Top1: 34.6251    Top5: 65.7961	lr:0.031281
Ep: 21   EpTime: 25.3977  Trainloss: 2.4334   Testloss: 2.3248  TrainAcc: 38.85   Top1: 40.9014    Top5: 72.1567	lr:0.030655
Checkpoint saved!!!
Ep: 22   EpTime: 25.6177  Trainloss: 2.3377   Testloss: 2.3147  TrainAcc: 42.36   Top1: 42.6285    Top5: 71.9461	lr:0.030042
Checkpoint saved!!!
Ep: 23   EpTime: 25.1725  Trainloss: 2.2859   Testloss: 2.3132  TrainAcc: 43.08   Top1: 41.7439    Top5: 74.1786	lr:0.029442
Ep: 24   EpTime: 25.2926  Trainloss: 2.2169   Testloss: 2.1805  TrainAcc: 44.16   Top1: 43.8079    Top5: 74.5998	lr:0.028853
Checkpoint saved!!!
Ep: 25   EpTime: 24.9294  Trainloss: 2.1760   Testloss: 2.1248  TrainAcc: 45.11   Top1: 45.3665    Top5: 76.7481	lr:0.028276
Checkpoint saved!!!
Ep: 26   EpTime: 25.1326  Trainloss: 2.1215   Testloss: 2.0189  TrainAcc: 46.08   Top1: 47.4305    Top5: 77.0430	lr:0.027710
Checkpoint saved!!!
Ep: 27   EpTime: 25.0740  Trainloss: 2.0774   Testloss: 2.0573  TrainAcc: 47.58   Top1: 46.7987    Top5: 77.8012	lr:0.027156
Ep: 28   EpTime: 25.5685  Trainloss: 2.0244   Testloss: 2.0954  TrainAcc: 48.27   Top1: 46.0404    Top5: 76.1584	lr:0.026613
Ep: 29   EpTime: 25.2821  Trainloss: 1.9673   Testloss: 2.0331  TrainAcc: 50.69   Top1: 47.5147    Top5: 77.4221	lr:0.026081
Checkpoint saved!!!
Ep: 30   EpTime: 25.2533  Trainloss: 1.8843   Testloss: 1.9961  TrainAcc: 52.07   Top1: 47.7675    Top5: 77.8854	lr:0.025559
Checkpoint saved!!!
Ep: 31   EpTime: 25.2930  Trainloss: 1.8577   Testloss: 1.8754  TrainAcc: 52.57   Top1: 53.1592    Top5: 79.1912	lr:0.025048
Checkpoint saved!!!
Ep: 32   EpTime: 25.5636  Trainloss: 1.8320   Testloss: 1.9212  TrainAcc: 53.02   Top1: 51.0531    Top5: 80.4549	lr:0.024547
Ep: 33   EpTime: 25.1867  Trainloss: 1.7630   Testloss: 2.0027  TrainAcc: 55.08   Top1: 50.0000    Top5: 79.3176	lr:0.024056
Ep: 34   EpTime: 25.3310  Trainloss: 1.7284   Testloss: 1.7972  TrainAcc: 55.78   Top1: 52.6959    Top5: 81.4238	lr:0.023575
Ep: 35   EpTime: 25.3420  Trainloss: 1.6806   Testloss: 1.7959  TrainAcc: 56.24   Top1: 53.7068    Top5: 81.2131	lr:0.023103
Checkpoint saved!!!
Ep: 36   EpTime: 25.2941  Trainloss: 1.6425   Testloss: 1.8233  TrainAcc: 58.04   Top1: 53.6226    Top5: 80.9604	lr:0.022641
Ep: 37   EpTime: 25.4449  Trainloss: 1.6430   Testloss: 1.7458  TrainAcc: 57.89   Top1: 56.3184    Top5: 81.9714	lr:0.022188
Checkpoint saved!!!
Ep: 38   EpTime: 25.5465  Trainloss: 1.5832   Testloss: 1.7621  TrainAcc: 59.19   Top1: 55.3075    Top5: 82.1820	lr:0.021745
Ep: 39   EpTime: 25.6673  Trainloss: 1.5640   Testloss: 1.8739  TrainAcc: 59.96   Top1: 53.9174    Top5: 80.8340	lr:0.021310
Ep: 40   EpTime: 25.4645  Trainloss: 1.4844   Testloss: 1.7867  TrainAcc: 61.52   Top1: 55.7287    Top5: 82.0135	lr:0.020884
Ep: 41   EpTime: 25.1001  Trainloss: 1.5272   Testloss: 1.7480  TrainAcc: 61.25   Top1: 56.1500    Top5: 81.9292	lr:0.020466
Ep: 42   EpTime: 25.7804  Trainloss: 1.4562   Testloss: 1.7817  TrainAcc: 62.39   Top1: 55.3075    Top5: 81.4238	lr:0.020057
Ep: 43   EpTime: 25.5613  Trainloss: 1.4122   Testloss: 1.7829  TrainAcc: 63.75   Top1: 55.9815    Top5: 82.9402	lr:0.019655
Ep: 44   EpTime: 25.5747  Trainloss: 1.3603   Testloss: 1.7251  TrainAcc: 65.04   Top1: 56.6133    Top5: 82.6453	lr:0.019262
Checkpoint saved!!!
Ep: 45   EpTime: 25.2700  Trainloss: 1.3300   Testloss: 1.7480  TrainAcc: 65.57   Top1: 57.1188    Top5: 82.2662	lr:0.018877
Checkpoint saved!!!
Ep: 46   EpTime: 25.0735  Trainloss: 1.3313   Testloss: 1.8231  TrainAcc: 65.77   Top1: 56.0657    Top5: 82.0135	lr:0.018499
Ep: 47   EpTime: 25.5384  Trainloss: 1.3073   Testloss: 1.7082  TrainAcc: 66.49   Top1: 56.9924    Top5: 83.6142	lr:0.018130
Ep: 48   EpTime: 25.1691  Trainloss: 1.3401   Testloss: 1.7450  TrainAcc: 66.05   Top1: 58.0876    Top5: 83.2350	lr:0.017767
Checkpoint saved!!!
Ep: 49   EpTime: 25.0124  Trainloss: 1.2833   Testloss: 1.7079  TrainAcc: 67.40   Top1: 57.8349    Top5: 83.2772	lr:0.017412
Ep: 50   EpTime: 25.4776  Trainloss: 1.2645   Testloss: 1.7241  TrainAcc: 67.96   Top1: 58.0455    Top5: 83.0244	lr:0.017063
Ep: 51   EpTime: 25.2924  Trainloss: 1.2241   Testloss: 1.6989  TrainAcc: 68.93   Top1: 58.1297    Top5: 83.9933	lr:0.016722
Checkpoint saved!!!
Ep: 52   EpTime: 25.2834  Trainloss: 1.1582   Testloss: 1.6987  TrainAcc: 70.26   Top1: 58.0034    Top5: 84.0775	lr:0.016388
Ep: 53   EpTime: 25.7841  Trainloss: 1.1968   Testloss: 1.6733  TrainAcc: 69.69   Top1: 58.6773    Top5: 84.2039	lr:0.016060
Checkpoint saved!!!
Ep: 54   EpTime: 25.6952  Trainloss: 1.1795   Testloss: 1.6953  TrainAcc: 69.39   Top1: 59.6040    Top5: 84.2881	lr:0.015739
Checkpoint saved!!!
Ep: 55   EpTime: 25.4596  Trainloss: 1.1440   Testloss: 1.6729  TrainAcc: 70.81   Top1: 58.8458    Top5: 84.7093	lr:0.015424
Ep: 56   EpTime: 25.5933  Trainloss: 1.1021   Testloss: 1.6688  TrainAcc: 72.21   Top1: 59.3513    Top5: 84.4566	lr:0.015115
Ep: 57   EpTime: 25.4107  Trainloss: 1.1303   Testloss: 1.6473  TrainAcc: 71.21   Top1: 60.4044    Top5: 84.4987	lr:0.014813
Checkpoint saved!!!
Ep: 58   EpTime: 25.4623  Trainloss: 1.1024   Testloss: 1.6894  TrainAcc: 72.22   Top1: 60.4465    Top5: 83.7826	lr:0.014517
Checkpoint saved!!!
Ep: 59   EpTime: 25.1909  Trainloss: 1.0774   Testloss: 1.6701  TrainAcc: 72.53   Top1: 59.3934    Top5: 84.6251	lr:0.014227
Ep: 60   EpTime: 25.5128  Trainloss: 1.0487   Testloss: 1.6430  TrainAcc: 73.39   Top1: 59.2671    Top5: 84.1196	lr:0.013942
Ep: 61   EpTime: 25.4850  Trainloss: 1.0267   Testloss: 1.7054  TrainAcc: 74.17   Top1: 59.4355    Top5: 83.9933	lr:0.013663
Ep: 62   EpTime: 25.3148  Trainloss: 0.9970   Testloss: 1.6633  TrainAcc: 74.57   Top1: 59.3934    Top5: 84.7936	lr:0.013390
Ep: 63   EpTime: 25.6119  Trainloss: 0.9926   Testloss: 1.7309  TrainAcc: 75.67   Top1: 58.5931    Top5: 84.2039	lr:0.013122
Ep: 64   EpTime: 25.5632  Trainloss: 0.9852   Testloss: 1.6819  TrainAcc: 75.14   Top1: 60.7414    Top5: 85.2569	lr:0.012860
Checkpoint saved!!!
Ep: 65   EpTime: 25.7207  Trainloss: 0.9842   Testloss: 1.7318  TrainAcc: 75.45   Top1: 59.0564    Top5: 84.2460	lr:0.012602
Ep: 66   EpTime: 25.4334  Trainloss: 0.9521   Testloss: 1.6321  TrainAcc: 75.95   Top1: 60.8256    Top5: 85.0885	lr:0.012350
Checkpoint saved!!!
Ep: 67   EpTime: 25.3827  Trainloss: 0.9375   Testloss: 1.6434  TrainAcc: 76.55   Top1: 60.4465    Top5: 85.4254	lr:0.012103
Ep: 68   EpTime: 25.5083  Trainloss: 0.9446   Testloss: 1.6709  TrainAcc: 76.57   Top1: 59.9831    Top5: 84.9621	lr:0.011861
Ep: 69   EpTime: 25.2994  Trainloss: 0.9201   Testloss: 1.6960  TrainAcc: 76.68   Top1: 59.7304    Top5: 84.7093	lr:0.011624
Ep: 70   EpTime: 25.5423  Trainloss: 0.9147   Testloss: 1.7616  TrainAcc: 77.39   Top1: 59.5198    Top5: 83.9090	lr:0.011392
Ep: 71   EpTime: 25.1656  Trainloss: 0.8849   Testloss: 1.6560  TrainAcc: 78.04   Top1: 60.0674    Top5: 85.2148	lr:0.011164
Ep: 72   EpTime: 25.6051  Trainloss: 0.8999   Testloss: 1.6672  TrainAcc: 77.81   Top1: 60.6571    Top5: 85.2991	lr:0.010941
Ep: 73   EpTime: 25.4428  Trainloss: 0.9130   Testloss: 1.6586  TrainAcc: 77.53   Top1: 60.6571    Top5: 85.6782	lr:0.010722
Ep: 74   EpTime: 25.0942  Trainloss: 0.8667   Testloss: 1.6790  TrainAcc: 78.54   Top1: 60.4886    Top5: 84.4566	lr:0.010507
Ep: 75   EpTime: 25.7421  Trainloss: 0.8394   Testloss: 1.6190  TrainAcc: 79.12   Top1: 62.0893    Top5: 85.2991	lr:0.010297
Checkpoint saved!!!
Ep: 76   EpTime: 25.9868  Trainloss: 0.8225   Testloss: 1.6724  TrainAcc: 79.98   Top1: 61.2047    Top5: 84.2881	lr:0.010091
Ep: 77   EpTime: 25.9840  Trainloss: 0.8296   Testloss: 1.6900  TrainAcc: 79.25   Top1: 60.9520    Top5: 83.8669	lr:0.009889
Ep: 78   EpTime: 25.8792  Trainloss: 0.8222   Testloss: 1.7039  TrainAcc: 79.84   Top1: 60.3623    Top5: 84.5830	lr:0.009692
Ep: 79   EpTime: 25.8137  Trainloss: 0.8116   Testloss: 1.6995  TrainAcc: 79.99   Top1: 59.3934    Top5: 84.4566	lr:0.009498
Ep: 80   EpTime: 25.5234  Trainloss: 0.8167   Testloss: 1.6625  TrainAcc: 79.60   Top1: 60.6571    Top5: 85.2991	lr:0.009308
Ep: 81   EpTime: 25.3522  Trainloss: 0.8179   Testloss: 1.7208  TrainAcc: 79.95   Top1: 59.4777    Top5: 84.8357	lr:0.009122
Ep: 82   EpTime: 25.6721  Trainloss: 0.7903   Testloss: 1.6769  TrainAcc: 80.55   Top1: 61.0362    Top5: 84.7936	lr:0.008939
Ep: 83   EpTime: 25.6088  Trainloss: 0.7758   Testloss: 1.6722  TrainAcc: 81.47   Top1: 61.1626    Top5: 85.3833	lr:0.008760
Ep: 84   EpTime: 25.8552  Trainloss: 0.7800   Testloss: 1.7057  TrainAcc: 80.62   Top1: 61.0362    Top5: 85.0042	lr:0.008585
Ep: 85   EpTime: 25.5808  Trainloss: 0.7711   Testloss: 1.6982  TrainAcc: 81.07   Top1: 61.1205    Top5: 84.9621	lr:0.008414
Ep: 86   EpTime: 25.1404  Trainloss: 0.7752   Testloss: 1.6746  TrainAcc: 80.78   Top1: 62.0051    Top5: 85.0042	lr:0.008245
Ep: 87   EpTime: 25.6424  Trainloss: 0.7502   Testloss: 1.7222  TrainAcc: 81.71   Top1: 59.6883    Top5: 84.6251	lr:0.008080
Ep: 88   EpTime: 25.1854  Trainloss: 0.7279   Testloss: 1.6650  TrainAcc: 81.98   Top1: 61.9208    Top5: 84.7515	lr:0.007919
Ep: 89   EpTime: 25.8401  Trainloss: 0.7348   Testloss: 1.7228  TrainAcc: 82.16   Top1: 61.1626    Top5: 84.3724	lr:0.007760
Ep: 90   EpTime: 25.2292  Trainloss: 0.7501   Testloss: 1.7734  TrainAcc: 81.76   Top1: 60.3201    Top5: 84.8357	lr:0.007605
Ep: 91   EpTime: 25.6626  Trainloss: 0.7442   Testloss: 1.7283  TrainAcc: 82.13   Top1: 60.6150    Top5: 84.9621	lr:0.007453
Ep: 92   EpTime: 25.5860  Trainloss: 0.6988   Testloss: 1.7219  TrainAcc: 83.04   Top1: 60.3623    Top5: 84.5409	lr:0.007304
Ep: 93   EpTime: 25.6780  Trainloss: 0.7056   Testloss: 1.7113  TrainAcc: 82.97   Top1: 60.4465    Top5: 85.0042	lr:0.007158
Ep: 94   EpTime: 25.2224  Trainloss: 0.6832   Testloss: 1.6731  TrainAcc: 83.34   Top1: 62.3420    Top5: 84.9200	lr:0.007015
Checkpoint saved!!!
Ep: 95   EpTime: 25.1533  Trainloss: 0.7188   Testloss: 1.7186  TrainAcc: 82.67   Top1: 61.4575    Top5: 84.0354	lr:0.006874
Ep: 96   EpTime: 25.5462  Trainloss: 0.6938   Testloss: 1.7241  TrainAcc: 83.34   Top1: 61.6259    Top5: 84.7515	lr:0.006737
Ep: 97   EpTime: 25.0614  Trainloss: 0.7062   Testloss: 1.7033  TrainAcc: 82.93   Top1: 61.8787    Top5: 84.4987	lr:0.006602
Ep: 98   EpTime: 25.0790  Trainloss: 0.6933   Testloss: 1.6975  TrainAcc: 83.20   Top1: 62.2999    Top5: 85.0042	lr:0.006470
Ep: 99   EpTime: 25.4517  Trainloss: 0.6770   Testloss: 1.7290  TrainAcc: 84.04   Top1: 61.9629    Top5: 84.2881	lr:0.006341
Ep: 100   EpTime: 25.1770  Trainloss: 0.6842   Testloss: 1.6867  TrainAcc: 83.63   Top1: 62.0893    Top5: 85.0042	lr:0.006214
Ep: 101   EpTime: 25.7311  Trainloss: 0.6873   Testloss: 1.7083  TrainAcc: 83.31   Top1: 61.4153    Top5: 85.2991	lr:0.006090
Ep: 102   EpTime: 25.4008  Trainloss: 0.6606   Testloss: 1.6734  TrainAcc: 84.36   Top1: 61.8787    Top5: 84.9621	lr:0.005968
Ep: 103   EpTime: 24.8295  Trainloss: 0.6383   Testloss: 1.7129  TrainAcc: 84.36   Top1: 61.2890    Top5: 84.7515	lr:0.005849
Ep: 104   EpTime: 25.1897  Trainloss: 0.6517   Testloss: 1.7131  TrainAcc: 84.44   Top1: 61.0362    Top5: 84.4145	lr:0.005732
Ep: 105   EpTime: 25.3913  Trainloss: 0.6552   Testloss: 1.7050  TrainAcc: 84.05   Top1: 62.2999    Top5: 84.8357	lr:0.005617
Ep: 106   EpTime: 24.9611  Trainloss: 0.6580   Testloss: 1.7041  TrainAcc: 84.27   Top1: 61.6681    Top5: 84.6672	lr:0.005505
Ep: 107   EpTime: 24.9488  Trainloss: 0.6272   Testloss: 1.6696  TrainAcc: 85.22   Top1: 62.6369    Top5: 85.7203	lr:0.005394
Checkpoint saved!!!
Ep: 108   EpTime: 25.1900  Trainloss: 0.6393   Testloss: 1.6870  TrainAcc: 84.77   Top1: 61.8787    Top5: 84.6672	lr:0.005287
Ep: 109   EpTime: 25.5620  Trainloss: 0.6355   Testloss: 1.7079  TrainAcc: 84.47   Top1: 62.2578    Top5: 84.0354	lr:0.005181
Ep: 110   EpTime: 25.0095  Trainloss: 0.6337   Testloss: 1.7050  TrainAcc: 84.58   Top1: 61.4575    Top5: 85.0885	lr:0.005077
Ep: 111   EpTime: 25.5555  Trainloss: 0.6277   Testloss: 1.6947  TrainAcc: 85.30   Top1: 61.6259    Top5: 84.9621	lr:0.004976
Ep: 112   EpTime: 25.2061  Trainloss: 0.6296   Testloss: 1.6990  TrainAcc: 85.24   Top1: 61.8366    Top5: 85.1727	lr:0.004876
Ep: 113   EpTime: 24.9416  Trainloss: 0.6249   Testloss: 1.6764  TrainAcc: 85.35   Top1: 62.0893    Top5: 84.9621	lr:0.004779
Ep: 114   EpTime: 25.4455  Trainloss: 0.6166   Testloss: 1.6799  TrainAcc: 85.23   Top1: 61.8366    Top5: 84.7093	lr:0.004683
Ep: 115   EpTime: 25.1430  Trainloss: 0.5997   Testloss: 1.7203  TrainAcc: 85.25   Top1: 61.2047    Top5: 84.9200	lr:0.004589
Ep: 116   EpTime: 25.0982  Trainloss: 0.6199   Testloss: 1.7076  TrainAcc: 84.84   Top1: 61.5838    Top5: 84.5830	lr:0.004498
Ep: 117   EpTime: 25.1909  Trainloss: 0.6306   Testloss: 1.7008  TrainAcc: 85.16   Top1: 61.6681    Top5: 84.9200	lr:0.004408
Ep: 118   EpTime: 25.4443  Trainloss: 0.5936   Testloss: 1.6975  TrainAcc: 85.61   Top1: 62.3842    Top5: 85.0042	lr:0.004320
Ep: 119   EpTime: 25.2825  Trainloss: 0.5927   Testloss: 1.6754  TrainAcc: 85.75   Top1: 62.0893    Top5: 85.3412	lr:0.004233
Ep: 120   EpTime: 25.2307  Trainloss: 0.6047   Testloss: 1.6854  TrainAcc: 85.53   Top1: 62.0893    Top5: 85.0042	lr:0.004148
Ep: 121   EpTime: 25.4061  Trainloss: 0.5806   Testloss: 1.6867  TrainAcc: 86.06   Top1: 62.4684    Top5: 84.4987	lr:0.004066
Ep: 122   EpTime: 25.5797  Trainloss: 0.5772   Testloss: 1.6884  TrainAcc: 86.26   Top1: 62.2157    Top5: 85.4676	lr:0.003984
Ep: 123   EpTime: 25.1808  Trainloss: 0.5841   Testloss: 1.7019  TrainAcc: 86.03   Top1: 62.4684    Top5: 84.8357	lr:0.003905
Ep: 124   EpTime: 25.1618  Trainloss: 0.5857   Testloss: 1.6937  TrainAcc: 86.23   Top1: 61.7102    Top5: 84.9621	lr:0.003826
Ep: 125   EpTime: 25.4955  Trainloss: 0.5954   Testloss: 1.7106  TrainAcc: 85.82   Top1: 61.7944    Top5: 85.0885	lr:0.003750
Ep: 126   EpTime: 24.8322  Trainloss: 0.5819   Testloss: 1.7006  TrainAcc: 86.25   Top1: 61.7102    Top5: 85.2569	lr:0.003675
Ep: 127   EpTime: 26.0528  Trainloss: 0.5718   Testloss: 1.7131  TrainAcc: 86.48   Top1: 62.1314    Top5: 85.2148	lr:0.003601
Ep: 128   EpTime: 25.3918  Trainloss: 0.5555   Testloss: 1.7252  TrainAcc: 86.82   Top1: 61.8366    Top5: 85.0042	lr:0.003529
Ep: 129   EpTime: 25.1717  Trainloss: 0.5577   Testloss: 1.7250  TrainAcc: 86.62   Top1: 62.1735    Top5: 84.5409	lr:0.003459
Ep: 130   EpTime: 25.5531  Trainloss: 0.5797   Testloss: 1.7078  TrainAcc: 86.06   Top1: 61.7944    Top5: 84.7093	lr:0.003390
Ep: 131   EpTime: 25.2311  Trainloss: 0.5601   Testloss: 1.7015  TrainAcc: 87.06   Top1: 61.7523    Top5: 84.8357	lr:0.003322
Ep: 132   EpTime: 25.7569  Trainloss: 0.5674   Testloss: 1.6985  TrainAcc: 86.36   Top1: 62.7211    Top5: 84.5409	lr:0.003255
Checkpoint saved!!!
Ep: 133   EpTime: 25.8580  Trainloss: 0.5660   Testloss: 1.7346  TrainAcc: 86.66   Top1: 61.2468    Top5: 84.5409	lr:0.003190
Ep: 134   EpTime: 25.3399  Trainloss: 0.5484   Testloss: 1.7012  TrainAcc: 87.03   Top1: 61.7102    Top5: 85.0885	lr:0.003126
Ep: 135   EpTime: 25.2047  Trainloss: 0.5585   Testloss: 1.7073  TrainAcc: 86.95   Top1: 62.3420    Top5: 84.9621	lr:0.003064
Ep: 136   EpTime: 25.1134  Trainloss: 0.5596   Testloss: 1.7194  TrainAcc: 86.84   Top1: 62.7633    Top5: 85.0885	lr:0.003003
Checkpoint saved!!!
Ep: 137   EpTime: 25.1876  Trainloss: 0.5299   Testloss: 1.7056  TrainAcc: 87.52   Top1: 62.2578    Top5: 84.7936	lr:0.002943
Ep: 138   EpTime: 25.0097  Trainloss: 0.5668   Testloss: 1.6972  TrainAcc: 86.54   Top1: 62.1735    Top5: 84.7515	lr:0.002884
Ep: 139   EpTime: 25.0631  Trainloss: 0.5613   Testloss: 1.6979  TrainAcc: 86.51   Top1: 62.2157    Top5: 85.4254	lr:0.002826
Ep: 140   EpTime: 25.3375  Trainloss: 0.5340   Testloss: 1.7099  TrainAcc: 87.14   Top1: 62.3420    Top5: 84.7936	lr:0.002770
Ep: 141   EpTime: 25.3720  Trainloss: 0.5467   Testloss: 1.7125  TrainAcc: 86.72   Top1: 62.5527    Top5: 84.3724	lr:0.002714
Ep: 142   EpTime: 25.5120  Trainloss: 0.5348   Testloss: 1.7154  TrainAcc: 87.14   Top1: 62.0893    Top5: 84.8357	lr:0.002660
Ep: 143   EpTime: 25.5010  Trainloss: 0.5475   Testloss: 1.7039  TrainAcc: 86.63   Top1: 61.8787    Top5: 84.7515	lr:0.002607
Ep: 144   EpTime: 25.4584  Trainloss: 0.5418   Testloss: 1.7210  TrainAcc: 87.03   Top1: 61.9208    Top5: 85.2148	lr:0.002555
Ep: 145   EpTime: 25.4076  Trainloss: 0.5453   Testloss: 1.7112  TrainAcc: 87.07   Top1: 62.0051    Top5: 84.7936	lr:0.002503
Ep: 146   EpTime: 25.5142  Trainloss: 0.5610   Testloss: 1.7178  TrainAcc: 86.71   Top1: 61.4575    Top5: 85.0885	lr:0.002453
Ep: 147   EpTime: 25.5037  Trainloss: 0.5296   Testloss: 1.7187  TrainAcc: 87.45   Top1: 61.5417    Top5: 84.7515	lr:0.002404
Ep: 148   EpTime: 25.6774  Trainloss: 0.5189   Testloss: 1.7377  TrainAcc: 87.87   Top1: 61.1626    Top5: 84.4145	lr:0.002356
Ep: 149   EpTime: 25.4819  Trainloss: 0.5286   Testloss: 1.7521  TrainAcc: 87.45   Top1: 61.7523    Top5: 84.7515	lr:0.002309
Ep: 150   EpTime: 25.7475  Trainloss: 0.5230   Testloss: 1.7285  TrainAcc: 87.61   Top1: 61.7523    Top5: 84.5409	lr:0.002263
Ep: 151   EpTime: 25.5222  Trainloss: 0.5192   Testloss: 1.7329  TrainAcc: 87.61   Top1: 61.4575    Top5: 84.6251	lr:0.002218
Ep: 152   EpTime: 25.3372  Trainloss: 0.5080   Testloss: 1.7342  TrainAcc: 87.93   Top1: 61.4153    Top5: 84.6251	lr:0.002173
Ep: 153   EpTime: 25.1289  Trainloss: 0.5123   Testloss: 1.7317  TrainAcc: 87.90   Top1: 61.8787    Top5: 84.6672	lr:0.002130
Ep: 154   EpTime: 25.3799  Trainloss: 0.5042   Testloss: 1.7226  TrainAcc: 87.77   Top1: 62.4263    Top5: 84.2039	lr:0.002087
Ep: 155   EpTime: 25.4205  Trainloss: 0.5196   Testloss: 1.7404  TrainAcc: 88.00   Top1: 62.0893    Top5: 84.3724	lr:0.002046
Ep: 156   EpTime: 25.6447  Trainloss: 0.5218   Testloss: 1.7289  TrainAcc: 87.75   Top1: 61.4996    Top5: 84.7093	lr:0.002005
Ep: 157   EpTime: 25.5262  Trainloss: 0.5232   Testloss: 1.7308  TrainAcc: 87.59   Top1: 61.4575    Top5: 85.0463	lr:0.001965
Ep: 158   EpTime: 25.6018  Trainloss: 0.4998   Testloss: 1.7105  TrainAcc: 88.48   Top1: 62.0893    Top5: 84.8778	lr:0.001925
Ep: 159   EpTime: 25.3580  Trainloss: 0.5307   Testloss: 1.7153  TrainAcc: 87.39   Top1: 62.2999    Top5: 85.1727	lr:0.001887
Ep: 160   EpTime: 25.6724  Trainloss: 0.5140   Testloss: 1.7228  TrainAcc: 87.84   Top1: 62.0051    Top5: 85.2148	lr:0.001849
Ep: 161   EpTime: 25.4623  Trainloss: 0.5035   Testloss: 1.7091  TrainAcc: 87.89   Top1: 62.0472    Top5: 84.4145	lr:0.001812
Ep: 162   EpTime: 25.4779  Trainloss: 0.5129   Testloss: 1.7246  TrainAcc: 87.88   Top1: 61.8787    Top5: 84.7936	lr:0.001776
Ep: 163   EpTime: 25.7385  Trainloss: 0.5307   Testloss: 1.7394  TrainAcc: 87.63   Top1: 62.5105    Top5: 84.6251	lr:0.001740
Ep: 164   EpTime: 25.6579  Trainloss: 0.5019   Testloss: 1.7203  TrainAcc: 88.30   Top1: 61.5838    Top5: 84.7515	lr:0.001705
Ep: 165   EpTime: 25.5308  Trainloss: 0.5139   Testloss: 1.7381  TrainAcc: 88.11   Top1: 62.2157    Top5: 84.4987	lr:0.001671
Ep: 166   EpTime: 25.2064  Trainloss: 0.4875   Testloss: 1.7208  TrainAcc: 88.59   Top1: 61.7944    Top5: 84.7515	lr:0.001638
Ep: 167   EpTime: 25.4919  Trainloss: 0.5136   Testloss: 1.7304  TrainAcc: 87.70   Top1: 62.0893    Top5: 84.7515	lr:0.001605
Ep: 168   EpTime: 25.1170  Trainloss: 0.4789   Testloss: 1.7156  TrainAcc: 88.58   Top1: 62.5527    Top5: 84.8778	lr:0.001573
Ep: 169   EpTime: 25.1144  Trainloss: 0.4843   Testloss: 1.7248  TrainAcc: 88.58   Top1: 61.7102    Top5: 85.1306	lr:0.001542
Ep: 170   EpTime: 26.0063  Trainloss: 0.5079   Testloss: 1.7369  TrainAcc: 87.88   Top1: 61.7944    Top5: 84.6251	lr:0.001511
Ep: 171   EpTime: 25.6049  Trainloss: 0.5023   Testloss: 1.7351  TrainAcc: 88.32   Top1: 62.3842    Top5: 84.7093	lr:0.001481
Ep: 172   EpTime: 25.1842  Trainloss: 0.4812   Testloss: 1.7340  TrainAcc: 88.73   Top1: 61.9629    Top5: 84.6672	lr:0.001451
Ep: 173   EpTime: 25.6589  Trainloss: 0.5131   Testloss: 1.7362  TrainAcc: 88.15   Top1: 61.9208    Top5: 84.6672	lr:0.001422
Ep: 174   EpTime: 25.3989  Trainloss: 0.5121   Testloss: 1.7280  TrainAcc: 87.91   Top1: 62.2999    Top5: 84.7936	lr:0.001393
Ep: 175   EpTime: 25.6993  Trainloss: 0.4819   Testloss: 1.7363  TrainAcc: 88.72   Top1: 61.8787    Top5: 85.0463	lr:0.001366
Ep: 176   EpTime: 25.2074  Trainloss: 0.4953   Testloss: 1.7251  TrainAcc: 88.38   Top1: 62.3420    Top5: 84.8778	lr:0.001338
Ep: 177   EpTime: 25.6854  Trainloss: 0.4721   Testloss: 1.7425  TrainAcc: 88.70   Top1: 62.1314    Top5: 85.1306	lr:0.001312
Ep: 178   EpTime: 25.4192  Trainloss: 0.4899   Testloss: 1.7354  TrainAcc: 88.64   Top1: 62.6369    Top5: 84.5830	lr:0.001285
Ep: 179   EpTime: 24.9457  Trainloss: 0.4862   Testloss: 1.7361  TrainAcc: 88.57   Top1: 61.4996    Top5: 84.8778	lr:0.001260
Ep: 180   EpTime: 25.1930  Trainloss: 0.4780   Testloss: 1.7380  TrainAcc: 88.54   Top1: 62.3420    Top5: 84.7936	lr:0.001234
Ep: 181   EpTime: 25.3282  Trainloss: 0.4782   Testloss: 1.7460  TrainAcc: 88.83   Top1: 62.5948    Top5: 84.7093	lr:0.001210
Ep: 182   EpTime: 25.1276  Trainloss: 0.4840   Testloss: 1.7351  TrainAcc: 88.42   Top1: 62.1735    Top5: 85.0042	lr:0.001186
Ep: 183   EpTime: 25.0447  Trainloss: 0.5038   Testloss: 1.7358  TrainAcc: 88.28   Top1: 62.0051    Top5: 84.8357	lr:0.001162
Ep: 184   EpTime: 25.2734  Trainloss: 0.4844   Testloss: 1.7245  TrainAcc: 88.46   Top1: 63.1003    Top5: 84.9621	lr:0.001139
Checkpoint saved!!!
Ep: 185   EpTime: 25.2350  Trainloss: 0.4658   Testloss: 1.7253  TrainAcc: 88.68   Top1: 62.4263    Top5: 84.6672	lr:0.001116
Ep: 186   EpTime: 25.7402  Trainloss: 0.4970   Testloss: 1.7431  TrainAcc: 88.27   Top1: 62.0893    Top5: 84.5409	lr:0.001093
Ep: 187   EpTime: 25.1094  Trainloss: 0.5053   Testloss: 1.7503  TrainAcc: 88.12   Top1: 61.9629    Top5: 84.4145	lr:0.001072
Ep: 188   EpTime: 25.5912  Trainloss: 0.4659   Testloss: 1.7358  TrainAcc: 88.75   Top1: 61.4575    Top5: 84.5830	lr:0.001050
Ep: 189   EpTime: 25.5829  Trainloss: 0.4758   Testloss: 1.7487  TrainAcc: 88.35   Top1: 61.4153    Top5: 84.5409	lr:0.001029
Ep: 190   EpTime: 25.6589  Trainloss: 0.4842   Testloss: 1.7482  TrainAcc: 88.47   Top1: 62.0893    Top5: 84.9200	lr:0.001009
Ep: 191   EpTime: 25.8213  Trainloss: 0.4785   Testloss: 1.7515  TrainAcc: 88.32   Top1: 62.0893    Top5: 84.6251	lr:0.000988
Ep: 192   EpTime: 25.4890  Trainloss: 0.4607   Testloss: 1.7450  TrainAcc: 89.09   Top1: 61.8366    Top5: 84.7093	lr:0.000969
Ep: 193   EpTime: 25.4889  Trainloss: 0.4717   Testloss: 1.7544  TrainAcc: 88.72   Top1: 62.2157    Top5: 84.6251	lr:0.000949
Ep: 194   EpTime: 25.7919  Trainloss: 0.4864   Testloss: 1.7465  TrainAcc: 88.64   Top1: 62.0472    Top5: 85.0042	lr:0.000930
Ep: 195   EpTime: 24.9451  Trainloss: 0.4726   Testloss: 1.7398  TrainAcc: 88.57   Top1: 62.2578    Top5: 84.4987	lr:0.000912
Ep: 196   EpTime: 25.7912  Trainloss: 0.4617   Testloss: 1.7386  TrainAcc: 88.84   Top1: 62.2578    Top5: 85.2991	lr:0.000893
Ep: 197   EpTime: 25.3887  Trainloss: 0.4729   Testloss: 1.7332  TrainAcc: 89.00   Top1: 61.7102    Top5: 85.1306	lr:0.000876
Ep: 198   EpTime: 25.9415  Trainloss: 0.4485   Testloss: 1.7398  TrainAcc: 89.37   Top1: 61.8787    Top5: 84.7093	lr:0.000858
Ep: 199   EpTime: 25.4628  Trainloss: 0.4655   Testloss: 1.7397  TrainAcc: 88.92   Top1: 62.5105    Top5: 84.2460	lr:0.000841
Ep: 200   EpTime: 25.6520  Trainloss: 0.4860   Testloss: 1.7365  TrainAcc: 88.48   Top1: 62.0893    Top5: 84.6251	lr:0.000824
Ep: 201   EpTime: 25.4695  Trainloss: 0.4842   Testloss: 1.7473  TrainAcc: 88.42   Top1: 61.8787    Top5: 84.7515	lr:0.000808
Ep: 202   EpTime: 25.3445  Trainloss: 0.4515   Testloss: 1.7445  TrainAcc: 89.36   Top1: 61.4153    Top5: 84.7936	lr:0.000791
Ep: 203   EpTime: 25.4648  Trainloss: 0.4878   Testloss: 1.7584  TrainAcc: 88.38   Top1: 61.6259    Top5: 84.8357	lr:0.000776
Ep: 204   EpTime: 25.9559  Trainloss: 0.4631   Testloss: 1.7379  TrainAcc: 89.17   Top1: 62.2999    Top5: 84.9621	lr:0.000760
Ep: 205   EpTime: 26.0739  Trainloss: 0.4662   Testloss: 1.7486  TrainAcc: 89.30   Top1: 61.7944    Top5: 84.3724	lr:0.000745
Ep: 206   EpTime: 25.5804  Trainloss: 0.4856   Testloss: 1.7466  TrainAcc: 88.40   Top1: 62.0893    Top5: 85.0885	lr:0.000730
Ep: 207   EpTime: 25.9057  Trainloss: 0.4769   Testloss: 1.7387  TrainAcc: 88.96   Top1: 61.7102    Top5: 85.0463	lr:0.000715
Ep: 208   EpTime: 26.0404  Trainloss: 0.4843   Testloss: 1.7553  TrainAcc: 88.37   Top1: 61.9208    Top5: 84.9621	lr:0.000701
Ep: 209   EpTime: 26.1672  Trainloss: 0.4621   Testloss: 1.7512  TrainAcc: 88.89   Top1: 61.5838    Top5: 85.0885	lr:0.000687
Ep: 210   EpTime: 26.3952  Trainloss: 0.4704   Testloss: 1.7345  TrainAcc: 89.00   Top1: 61.8366    Top5: 84.8778	lr:0.000673
Ep: 211   EpTime: 25.9368  Trainloss: 0.4747   Testloss: 1.7419  TrainAcc: 88.72   Top1: 61.9629    Top5: 84.9621	lr:0.000660
Ep: 212   EpTime: 26.1594  Trainloss: 0.4520   Testloss: 1.7376  TrainAcc: 89.37   Top1: 62.2999    Top5: 84.7936	lr:0.000647
Ep: 213   EpTime: 25.6589  Trainloss: 0.4665   Testloss: 1.7346  TrainAcc: 89.16   Top1: 61.9208    Top5: 84.9200	lr:0.000634
Ep: 214   EpTime: 25.9909  Trainloss: 0.4812   Testloss: 1.7405  TrainAcc: 88.72   Top1: 62.3420    Top5: 84.7093	lr:0.000621
Ep: 215   EpTime: 25.8129  Trainloss: 0.4581   Testloss: 1.7297  TrainAcc: 89.20   Top1: 62.4263    Top5: 84.8778	lr:0.000609
Ep: 216   EpTime: 25.4211  Trainloss: 0.4761   Testloss: 1.7395  TrainAcc: 88.60   Top1: 61.8787    Top5: 84.9200	lr:0.000596
Ep: 217   EpTime: 25.8109  Trainloss: 0.4595   Testloss: 1.7430  TrainAcc: 89.28   Top1: 62.1735    Top5: 84.7936	lr:0.000585
Ep: 218   EpTime: 25.6478  Trainloss: 0.4698   Testloss: 1.7356  TrainAcc: 89.14   Top1: 62.0893    Top5: 84.7936	lr:0.000573
Ep: 219   EpTime: 25.5326  Trainloss: 0.4657   Testloss: 1.7445  TrainAcc: 89.10   Top1: 61.6681    Top5: 84.7515	lr:0.000561
Ep: 220   EpTime: 25.1037  Trainloss: 0.4742   Testloss: 1.7420  TrainAcc: 88.88   Top1: 62.2999    Top5: 84.9200	lr:0.000550
