[32, 16, 24, 32, 64, 96, 160, 320]
MobileNet2(
  (activation): ReLU6(inplace)
  (conv1): Conv2d(3, 32, kernel_size=(3, 3), stride=(2, 2), padding=(1, 1), bias=False)
  (bn1): BatchNorm2d(32, eps=1e-05, momentum=0.1, affine=True, track_running_stats=True)
  (bottlenecks): Sequential(
    (Bottlenecks_0): Sequential(
      (LinearBottleneck0_0): LinearBottleneck(
        (conv1): Conv2d(32, 32, kernel_size=(1, 1), stride=(1, 1), bias=False)
        (bn1): BatchNorm2d(32, eps=1e-05, momentum=0.1, affine=True, track_running_stats=True)
        (conv2): Conv2d(32, 32, kernel_size=(3, 3), stride=(1, 1), padding=(1, 1), groups=32, bias=False)
        (bn2): BatchNorm2d(32, eps=1e-05, momentum=0.1, affine=True, track_running_stats=True)
        (conv3): Conv2d(32, 16, kernel_size=(1, 1), stride=(1, 1), bias=False)
        (bn3): BatchNorm2d(16, eps=1e-05, momentum=0.1, affine=True, track_running_stats=True)
        (activation): ReLU6(inplace)
      )
    )
    (Bottlenecks_1): Sequential(
      (LinearBottleneck1_0): LinearBottleneck(
        (conv1): Conv2d(16, 96, kernel_size=(1, 1), stride=(1, 1), bias=False)
        (bn1): BatchNorm2d(96, eps=1e-05, momentum=0.1, affine=True, track_running_stats=True)
        (conv2): Conv2d(96, 96, kernel_size=(3, 3), stride=(2, 2), padding=(1, 1), groups=96, bias=False)
        (bn2): BatchNorm2d(96, eps=1e-05, momentum=0.1, affine=True, track_running_stats=True)
        (conv3): Conv2d(96, 24, kernel_size=(1, 1), stride=(1, 1), bias=False)
        (bn3): BatchNorm2d(24, eps=1e-05, momentum=0.1, affine=True, track_running_stats=True)
        (activation): ReLU6(inplace)
      )
      (LinearBottleneck1_1): LinearBottleneck(
        (conv1): Conv2d(24, 144, kernel_size=(1, 1), stride=(1, 1), bias=False)
        (bn1): BatchNorm2d(144, eps=1e-05, momentum=0.1, affine=True, track_running_stats=True)
        (conv2): Conv2d(144, 144, kernel_size=(3, 3), stride=(1, 1), padding=(1, 1), groups=144, bias=False)
        (bn2): BatchNorm2d(144, eps=1e-05, momentum=0.1, affine=True, track_running_stats=True)
        (conv3): Conv2d(144, 24, kernel_size=(1, 1), stride=(1, 1), bias=False)
        (bn3): BatchNorm2d(24, eps=1e-05, momentum=0.1, affine=True, track_running_stats=True)
        (activation): ReLU6(inplace)
      )
    )
    (Bottlenecks_2): Sequential(
      (LinearBottleneck2_0): LinearBottleneck(
        (conv1): Conv2d(24, 144, kernel_size=(1, 1), stride=(1, 1), bias=False)
        (bn1): BatchNorm2d(144, eps=1e-05, momentum=0.1, affine=True, track_running_stats=True)
        (conv2): Conv2d(144, 144, kernel_size=(3, 3), stride=(2, 2), padding=(1, 1), groups=144, bias=False)
        (bn2): BatchNorm2d(144, eps=1e-05, momentum=0.1, affine=True, track_running_stats=True)
        (conv3): Conv2d(144, 32, kernel_size=(1, 1), stride=(1, 1), bias=False)
        (bn3): BatchNorm2d(32, eps=1e-05, momentum=0.1, affine=True, track_running_stats=True)
        (activation): ReLU6(inplace)
      )
      (LinearBottleneck2_1): LinearBottleneck(
        (conv1): Conv2d(32, 192, kernel_size=(1, 1), stride=(1, 1), bias=False)
        (bn1): BatchNorm2d(192, eps=1e-05, momentum=0.1, affine=True, track_running_stats=True)
        (conv2): Conv2d(192, 192, kernel_size=(3, 3), stride=(1, 1), padding=(1, 1), groups=192, bias=False)
        (bn2): BatchNorm2d(192, eps=1e-05, momentum=0.1, affine=True, track_running_stats=True)
        (conv3): Conv2d(192, 32, kernel_size=(1, 1), stride=(1, 1), bias=False)
        (bn3): BatchNorm2d(32, eps=1e-05, momentum=0.1, affine=True, track_running_stats=True)
        (activation): ReLU6(inplace)
      )
      (LinearBottleneck2_2): LinearBottleneck(
        (conv1): Conv2d(32, 192, kernel_size=(1, 1), stride=(1, 1), bias=False)
        (bn1): BatchNorm2d(192, eps=1e-05, momentum=0.1, affine=True, track_running_stats=True)
        (conv2): Conv2d(192, 192, kernel_size=(3, 3), stride=(1, 1), padding=(1, 1), groups=192, bias=False)
        (bn2): BatchNorm2d(192, eps=1e-05, momentum=0.1, affine=True, track_running_stats=True)
        (conv3): Conv2d(192, 32, kernel_size=(1, 1), stride=(1, 1), bias=False)
        (bn3): BatchNorm2d(32, eps=1e-05, momentum=0.1, affine=True, track_running_stats=True)
        (activation): ReLU6(inplace)
      )
    )
    (Bottlenecks_3): Sequential(
      (LinearBottleneck3_0): LinearBottleneck(
        (conv1): Conv2d(32, 192, kernel_size=(1, 1), stride=(1, 1), bias=False)
        (bn1): BatchNorm2d(192, eps=1e-05, momentum=0.1, affine=True, track_running_stats=True)
        (conv2): Conv2d(192, 192, kernel_size=(3, 3), stride=(2, 2), padding=(1, 1), groups=192, bias=False)
        (bn2): BatchNorm2d(192, eps=1e-05, momentum=0.1, affine=True, track_running_stats=True)
        (conv3): Conv2d(192, 64, kernel_size=(1, 1), stride=(1, 1), bias=False)
        (bn3): BatchNorm2d(64, eps=1e-05, momentum=0.1, affine=True, track_running_stats=True)
        (activation): ReLU6(inplace)
      )
      (LinearBottleneck3_PSABlockV5_1): PooledSpatialAttentionBlockV5(
        (conv_dws): Conv2d(64, 64, kernel_size=(1, 1), stride=(1, 1), groups=64)
        (bn_dws): BatchNorm2d(64, eps=1e-05, momentum=0.9, affine=True, track_running_stats=True)
        (relu_dws): ReLU6(inplace)
        (maxpool): MaxPool2d(kernel_size=3, stride=1, padding=1, dilation=1, ceil_mode=False)
        (conv_point): Conv2d(64, 1, kernel_size=(1, 1), stride=(1, 1))
        (bn_point): BatchNorm2d(1, eps=1e-05, momentum=0.9, affine=True, track_running_stats=True)
        (relu_point): ReLU6(inplace)
        (softmax): Softmax()
      )
      (LinearBottleneck3_2): LinearBottleneck(
        (conv1): Conv2d(64, 384, kernel_size=(1, 1), stride=(1, 1), bias=False)
        (bn1): BatchNorm2d(384, eps=1e-05, momentum=0.1, affine=True, track_running_stats=True)
        (conv2): Conv2d(384, 384, kernel_size=(3, 3), stride=(1, 1), padding=(1, 1), groups=384, bias=False)
        (bn2): BatchNorm2d(384, eps=1e-05, momentum=0.1, affine=True, track_running_stats=True)
        (conv3): Conv2d(384, 64, kernel_size=(1, 1), stride=(1, 1), bias=False)
        (bn3): BatchNorm2d(64, eps=1e-05, momentum=0.1, affine=True, track_running_stats=True)
        (activation): ReLU6(inplace)
      )
      (LinearBottleneck3_3): LinearBottleneck(
        (conv1): Conv2d(64, 384, kernel_size=(1, 1), stride=(1, 1), bias=False)
        (bn1): BatchNorm2d(384, eps=1e-05, momentum=0.1, affine=True, track_running_stats=True)
        (conv2): Conv2d(384, 384, kernel_size=(3, 3), stride=(1, 1), padding=(1, 1), groups=384, bias=False)
        (bn2): BatchNorm2d(384, eps=1e-05, momentum=0.1, affine=True, track_running_stats=True)
        (conv3): Conv2d(384, 64, kernel_size=(1, 1), stride=(1, 1), bias=False)
        (bn3): BatchNorm2d(64, eps=1e-05, momentum=0.1, affine=True, track_running_stats=True)
        (activation): ReLU6(inplace)
      )
    )
    (Bottlenecks_4): Sequential(
      (LinearBottleneck4_0): LinearBottleneck(
        (conv1): Conv2d(64, 384, kernel_size=(1, 1), stride=(1, 1), bias=False)
        (bn1): BatchNorm2d(384, eps=1e-05, momentum=0.1, affine=True, track_running_stats=True)
        (conv2): Conv2d(384, 384, kernel_size=(3, 3), stride=(1, 1), padding=(1, 1), groups=384, bias=False)
        (bn2): BatchNorm2d(384, eps=1e-05, momentum=0.1, affine=True, track_running_stats=True)
        (conv3): Conv2d(384, 96, kernel_size=(1, 1), stride=(1, 1), bias=False)
        (bn3): BatchNorm2d(96, eps=1e-05, momentum=0.1, affine=True, track_running_stats=True)
        (activation): ReLU6(inplace)
      )
      (LinearBottleneck4_PSABlockV5_1): PooledSpatialAttentionBlockV5(
        (conv_dws): Conv2d(96, 96, kernel_size=(1, 1), stride=(1, 1), groups=96)
        (bn_dws): BatchNorm2d(96, eps=1e-05, momentum=0.9, affine=True, track_running_stats=True)
        (relu_dws): ReLU6(inplace)
        (maxpool): MaxPool2d(kernel_size=3, stride=1, padding=1, dilation=1, ceil_mode=False)
        (conv_point): Conv2d(96, 1, kernel_size=(1, 1), stride=(1, 1))
        (bn_point): BatchNorm2d(1, eps=1e-05, momentum=0.9, affine=True, track_running_stats=True)
        (relu_point): ReLU6(inplace)
        (softmax): Softmax()
      )
      (LinearBottleneck4_2): LinearBottleneck(
        (conv1): Conv2d(96, 576, kernel_size=(1, 1), stride=(1, 1), bias=False)
        (bn1): BatchNorm2d(576, eps=1e-05, momentum=0.1, affine=True, track_running_stats=True)
        (conv2): Conv2d(576, 576, kernel_size=(3, 3), stride=(1, 1), padding=(1, 1), groups=576, bias=False)
        (bn2): BatchNorm2d(576, eps=1e-05, momentum=0.1, affine=True, track_running_stats=True)
        (conv3): Conv2d(576, 96, kernel_size=(1, 1), stride=(1, 1), bias=False)
        (bn3): BatchNorm2d(96, eps=1e-05, momentum=0.1, affine=True, track_running_stats=True)
        (activation): ReLU6(inplace)
      )
    )
    (Bottlenecks_5): Sequential(
      (LinearBottleneck5_0): LinearBottleneck(
        (conv1): Conv2d(96, 576, kernel_size=(1, 1), stride=(1, 1), bias=False)
        (bn1): BatchNorm2d(576, eps=1e-05, momentum=0.1, affine=True, track_running_stats=True)
        (conv2): Conv2d(576, 576, kernel_size=(3, 3), stride=(2, 2), padding=(1, 1), groups=576, bias=False)
        (bn2): BatchNorm2d(576, eps=1e-05, momentum=0.1, affine=True, track_running_stats=True)
        (conv3): Conv2d(576, 160, kernel_size=(1, 1), stride=(1, 1), bias=False)
        (bn3): BatchNorm2d(160, eps=1e-05, momentum=0.1, affine=True, track_running_stats=True)
        (activation): ReLU6(inplace)
      )
      (LinearBottleneck5_1): LinearBottleneck(
        (conv1): Conv2d(160, 960, kernel_size=(1, 1), stride=(1, 1), bias=False)
        (bn1): BatchNorm2d(960, eps=1e-05, momentum=0.1, affine=True, track_running_stats=True)
        (conv2): Conv2d(960, 960, kernel_size=(3, 3), stride=(1, 1), padding=(1, 1), groups=960, bias=False)
        (bn2): BatchNorm2d(960, eps=1e-05, momentum=0.1, affine=True, track_running_stats=True)
        (conv3): Conv2d(960, 160, kernel_size=(1, 1), stride=(1, 1), bias=False)
        (bn3): BatchNorm2d(160, eps=1e-05, momentum=0.1, affine=True, track_running_stats=True)
        (activation): ReLU6(inplace)
      )
      (LinearBottleneck5_2): LinearBottleneck(
        (conv1): Conv2d(160, 960, kernel_size=(1, 1), stride=(1, 1), bias=False)
        (bn1): BatchNorm2d(960, eps=1e-05, momentum=0.1, affine=True, track_running_stats=True)
        (conv2): Conv2d(960, 960, kernel_size=(3, 3), stride=(1, 1), padding=(1, 1), groups=960, bias=False)
        (bn2): BatchNorm2d(960, eps=1e-05, momentum=0.1, affine=True, track_running_stats=True)
        (conv3): Conv2d(960, 160, kernel_size=(1, 1), stride=(1, 1), bias=False)
        (bn3): BatchNorm2d(160, eps=1e-05, momentum=0.1, affine=True, track_running_stats=True)
        (activation): ReLU6(inplace)
      )
    )
    (Bottlenecks_6): Sequential(
      (LinearBottleneck6_0): LinearBottleneck(
        (conv1): Conv2d(160, 960, kernel_size=(1, 1), stride=(1, 1), bias=False)
        (bn1): BatchNorm2d(960, eps=1e-05, momentum=0.1, affine=True, track_running_stats=True)
        (conv2): Conv2d(960, 960, kernel_size=(3, 3), stride=(1, 1), padding=(1, 1), groups=960, bias=False)
        (bn2): BatchNorm2d(960, eps=1e-05, momentum=0.1, affine=True, track_running_stats=True)
        (conv3): Conv2d(960, 320, kernel_size=(1, 1), stride=(1, 1), bias=False)
        (bn3): BatchNorm2d(320, eps=1e-05, momentum=0.1, affine=True, track_running_stats=True)
        (activation): ReLU6(inplace)
      )
    )
  )
  (conv_last): Conv2d(320, 1280, kernel_size=(1, 1), stride=(1, 1), bias=False)
  (bn_last): BatchNorm2d(1280, eps=1e-05, momentum=0.1, affine=True, track_running_stats=True)
  (avgpool): AdaptiveAvgPool2d(output_size=1)
  (dropout): Dropout(p=0.2, inplace)
  (fc): Linear(in_features=1280, out_features=150, bias=True)
)
Ep: 1   EpTime: 186.7433  Trainloss: 4.3819   Testloss: 3.8253  TrainAcc: 6.15   Top1: 12.7368    Top5: 35.2782
Ep: 2   EpTime: 186.4813  Trainloss: 3.6946   Testloss: 3.5655  TrainAcc: 14.54   Top1: 17.6291    Top5: 44.9424
Ep: 3   EpTime: 184.2338  Trainloss: 3.3055   Testloss: 3.0865  TrainAcc: 21.43   Top1: 24.8271    Top5: 54.7820
Ep: 4   EpTime: 184.0240  Trainloss: 2.9937   Testloss: 2.6314  TrainAcc: 27.51   Top1: 34.3208    Top5: 65.5489
Ep: 5   EpTime: 185.5561  Trainloss: 2.7808   Testloss: 2.5009  TrainAcc: 32.12   Top1: 37.3383    Top5: 67.9248
Ep: 6   EpTime: 182.8085  Trainloss: 2.6228   Testloss: 2.3718  TrainAcc: 35.85   Top1: 40.8772    Top5: 70.2707
Ep: 7   EpTime: 185.5185  Trainloss: 2.4981   Testloss: 2.1809  TrainAcc: 38.52   Top1: 45.4286    Top5: 73.7644
Ep: 8   EpTime: 184.5510  Trainloss: 2.3958   Testloss: 2.0886  TrainAcc: 40.82   Top1: 47.4386    Top5: 76.1654
Ep: 9   EpTime: 183.9859  Trainloss: 2.3072   Testloss: 1.9953  TrainAcc: 42.67   Top1: 48.9774    Top5: 77.5439
Ep: 10   EpTime: 183.6387  Trainloss: 2.2427   Testloss: 1.9971  TrainAcc: 44.17   Top1: 49.5589    Top5: 77.7093
Ep: 11   EpTime: 186.4072  Trainloss: 2.1852   Testloss: 1.8317  TrainAcc: 45.36   Top1: 52.8622    Top5: 79.8496
Ep: 12   EpTime: 183.8200  Trainloss: 2.1265   Testloss: 1.8211  TrainAcc: 46.59   Top1: 53.2682    Top5: 80.2005
Ep: 13   EpTime: 183.9891  Trainloss: 2.0759   Testloss: 1.9423  TrainAcc: 48.03   Top1: 50.1353    Top5: 78.1103
Ep: 14   EpTime: 184.1245  Trainloss: 2.0421   Testloss: 1.7547  TrainAcc: 48.82   Top1: 55.3634    Top5: 81.0376
Ep: 15   EpTime: 183.3460  Trainloss: 2.0062   Testloss: 1.7604  TrainAcc: 49.71   Top1: 54.6767    Top5: 81.2682
Ep: 16   EpTime: 186.1867  Trainloss: 1.9722   Testloss: 1.6640  TrainAcc: 50.52   Top1: 57.0977    Top5: 82.3509
Ep: 17   EpTime: 184.7723  Trainloss: 1.9542   Testloss: 1.7124  TrainAcc: 51.00   Top1: 56.6867    Top5: 81.9599
Ep: 18   EpTime: 184.6026  Trainloss: 1.9261   Testloss: 1.6602  TrainAcc: 51.38   Top1: 57.4135    Top5: 82.6466
Ep: 19   EpTime: 184.3688  Trainloss: 1.8954   Testloss: 1.6770  TrainAcc: 52.13   Top1: 57.1278    Top5: 82.4361
Ep: 20   EpTime: 187.2972  Trainloss: 1.8802   Testloss: 1.5796  TrainAcc: 52.58   Top1: 59.3434    Top5: 83.8396
Ep: 21   EpTime: 184.1653  Trainloss: 1.8603   Testloss: 1.5898  TrainAcc: 52.80   Top1: 59.1078    Top5: 83.8246
Ep: 22   EpTime: 185.0894  Trainloss: 1.8398   Testloss: 1.6409  TrainAcc: 53.23   Top1: 57.2982    Top5: 83.0476
Ep: 23   EpTime: 185.1606  Trainloss: 1.8214   Testloss: 1.5866  TrainAcc: 53.65   Top1: 59.1278    Top5: 84.1353
Ep: 24   EpTime: 182.8197  Trainloss: 1.8054   Testloss: 1.5754  TrainAcc: 54.13   Top1: 58.9323    Top5: 84.1805
Ep: 25   EpTime: 186.2734  Trainloss: 1.7948   Testloss: 1.5548  TrainAcc: 54.29   Top1: 59.8997    Top5: 84.2055
Ep: 26   EpTime: 184.1882  Trainloss: 1.7771   Testloss: 1.6947  TrainAcc: 54.67   Top1: 56.8772    Top5: 82.1754
Ep: 27   EpTime: 184.7135  Trainloss: 1.7742   Testloss: 1.5833  TrainAcc: 54.90   Top1: 58.6917    Top5: 84.3358
Ep: 28   EpTime: 184.5961  Trainloss: 1.7610   Testloss: 1.5719  TrainAcc: 55.06   Top1: 58.9474    Top5: 84.2306
Ep: 29   EpTime: 185.3026  Trainloss: 1.7529   Testloss: 1.4508  TrainAcc: 55.35   Top1: 62.3308    Top5: 85.8747
Ep: 30   EpTime: 184.5575  Trainloss: 1.4446   Testloss: 1.1533  TrainAcc: 62.81   Top1: 69.8596    Top5: 89.6241
Ep: 31   EpTime: 185.6844  Trainloss: 1.3523   Testloss: 1.1172  TrainAcc: 65.04   Top1: 70.7469    Top5: 89.8997
Ep: 32   EpTime: 184.8608  Trainloss: 1.3112   Testloss: 1.1106  TrainAcc: 66.09   Top1: 70.9273    Top5: 89.9749
Ep: 33   EpTime: 184.2090  Trainloss: 1.2942   Testloss: 1.0978  TrainAcc: 66.56   Top1: 71.2782    Top5: 89.9799
Ep: 34   EpTime: 185.5304  Trainloss: 1.2699   Testloss: 1.0930  TrainAcc: 67.14   Top1: 71.5338    Top5: 90.1303
Ep: 35   EpTime: 184.5832  Trainloss: 1.2592   Testloss: 1.0822  TrainAcc: 67.07   Top1: 71.7093    Top5: 90.3910
Ep: 36   EpTime: 184.0525  Trainloss: 1.2347   Testloss: 1.0776  TrainAcc: 67.86   Top1: 71.8145    Top5: 90.4311
Ep: 37   EpTime: 183.8320  Trainloss: 1.2270   Testloss: 1.0667  TrainAcc: 67.93   Top1: 71.9148    Top5: 90.5514
Ep: 38   EpTime: 186.0867  Trainloss: 1.2228   Testloss: 1.0671  TrainAcc: 67.98   Top1: 71.9348    Top5: 90.5313
Ep: 39   EpTime: 183.4106  Trainloss: 1.2081   Testloss: 1.0615  TrainAcc: 68.61   Top1: 72.1003    Top5: 90.5764
Ep: 40   EpTime: 184.4485  Trainloss: 1.1925   Testloss: 1.0558  TrainAcc: 68.73   Top1: 72.2907    Top5: 90.5915
Ep: 41   EpTime: 183.8037  Trainloss: 1.1741   Testloss: 1.0530  TrainAcc: 69.26   Top1: 72.3459    Top5: 90.6717
Ep: 42   EpTime: 187.2501  Trainloss: 1.1755   Testloss: 1.0449  TrainAcc: 69.22   Top1: 72.5363    Top5: 90.7769
Ep: 43   EpTime: 184.8244  Trainloss: 1.1621   Testloss: 1.0486  TrainAcc: 69.41   Top1: 72.7419    Top5: 90.8471
Ep: 44   EpTime: 183.7270  Trainloss: 1.1578   Testloss: 1.0462  TrainAcc: 69.62   Top1: 72.6617    Top5: 90.8772
Ep: 45   EpTime: 183.8171  Trainloss: 1.1477   Testloss: 1.0397  TrainAcc: 69.90   Top1: 72.7920    Top5: 90.9173
Ep: 46   EpTime: 183.9602  Trainloss: 1.1457   Testloss: 1.0388  TrainAcc: 69.95   Top1: 72.7569    Top5: 90.7719
Ep: 47   EpTime: 185.5820  Trainloss: 1.1372   Testloss: 1.0432  TrainAcc: 70.21   Top1: 72.4010    Top5: 90.6366
Ep: 48   EpTime: 184.1517  Trainloss: 1.1346   Testloss: 1.0352  TrainAcc: 70.31   Top1: 72.9173    Top5: 90.9123
Ep: 49   EpTime: 183.5975  Trainloss: 1.1255   Testloss: 1.0318  TrainAcc: 70.47   Top1: 72.9023    Top5: 91.0226
Ep: 50   EpTime: 183.6659  Trainloss: 1.1148   Testloss: 1.0355  TrainAcc: 70.61   Top1: 73.0526    Top5: 90.9875
Ep: 51   EpTime: 188.1745  Trainloss: 1.1102   Testloss: 1.0362  TrainAcc: 70.86   Top1: 72.8421    Top5: 91.0576
Ep: 52   EpTime: 184.5400  Trainloss: 1.1040   Testloss: 1.0318  TrainAcc: 70.95   Top1: 73.1679    Top5: 91.1479
Ep: 53   EpTime: 184.8472  Trainloss: 1.0961   Testloss: 1.0335  TrainAcc: 71.15   Top1: 72.9073    Top5: 91.1078
Ep: 54   EpTime: 184.8470  Trainloss: 1.0906   Testloss: 1.0335  TrainAcc: 71.46   Top1: 72.8922    Top5: 91.1579
Ep: 55   EpTime: 184.2440  Trainloss: 1.0878   Testloss: 1.0299  TrainAcc: 71.23   Top1: 72.9724    Top5: 91.1278
Ep: 56   EpTime: 185.7443  Trainloss: 1.0796   Testloss: 1.0392  TrainAcc: 71.56   Top1: 72.8571    Top5: 90.9323
Ep: 57   EpTime: 184.3073  Trainloss: 1.0769   Testloss: 1.0255  TrainAcc: 71.55   Top1: 73.0426    Top5: 91.2030
Ep: 58   EpTime: 184.5269  Trainloss: 1.0654   Testloss: 1.0323  TrainAcc: 71.93   Top1: 73.0426    Top5: 91.0526
Ep: 59   EpTime: 185.0532  Trainloss: 1.0603   Testloss: 1.0373  TrainAcc: 71.98   Top1: 73.1028    Top5: 91.0125
Ep: 60   EpTime: 183.8247  Trainloss: 1.0099   Testloss: 0.9941  TrainAcc: 73.28   Top1: 74.0602    Top5: 91.4386
Ep: 61   EpTime: 184.9324  Trainloss: 0.9866   Testloss: 0.9872  TrainAcc: 73.99   Top1: 74.4612    Top5: 91.5188
Ep: 62   EpTime: 183.6948  Trainloss: 0.9821   Testloss: 0.9857  TrainAcc: 74.18   Top1: 74.3960    Top5: 91.6241
Ep: 63   EpTime: 184.1972  Trainloss: 0.9776   Testloss: 0.9837  TrainAcc: 74.38   Top1: 74.2456    Top5: 91.6140
Ep: 64   EpTime: 183.2880  Trainloss: 0.9708   Testloss: 0.9837  TrainAcc: 74.34   Top1: 74.4962    Top5: 91.6842
Ep: 65   EpTime: 186.0344  Trainloss: 0.9664   Testloss: 0.9826  TrainAcc: 74.56   Top1: 74.3709    Top5: 91.7343
Ep: 66   EpTime: 183.5469  Trainloss: 0.9649   Testloss: 0.9796  TrainAcc: 74.45   Top1: 74.5514    Top5: 91.6491
Ep: 67   EpTime: 184.7484  Trainloss: 0.9710   Testloss: 0.9819  TrainAcc: 74.47   Top1: 74.5313    Top5: 91.7193
Ep: 68   EpTime: 184.5377  Trainloss: 0.9589   Testloss: 0.9863  TrainAcc: 74.82   Top1: 74.3960    Top5: 91.6792
Ep: 69   EpTime: 184.0850  Trainloss: 0.9574   Testloss: 0.9818  TrainAcc: 74.82   Top1: 74.6566    Top5: 91.6090
Ep: 70   EpTime: 184.8560  Trainloss: 0.9575   Testloss: 0.9824  TrainAcc: 74.70   Top1: 74.7018    Top5: 91.7343
Ep: 71   EpTime: 184.5740  Trainloss: 0.9537   Testloss: 0.9796  TrainAcc: 74.81   Top1: 74.5865    Top5: 91.7694
Ep: 72   EpTime: 184.5603  Trainloss: 0.9550   Testloss: 0.9819  TrainAcc: 74.71   Top1: 74.6466    Top5: 91.6591
Ep: 73   EpTime: 182.8894  Trainloss: 0.9590   Testloss: 0.9790  TrainAcc: 74.72   Top1: 74.4160    Top5: 91.6692
Ep: 74   EpTime: 186.2534  Trainloss: 0.9440   Testloss: 0.9799  TrainAcc: 75.12   Top1: 74.6366    Top5: 91.7694
Ep: 75   EpTime: 184.7211  Trainloss: 0.9474   Testloss: 0.9816  TrainAcc: 74.99   Top1: 74.5514    Top5: 91.6742
Ep: 76   EpTime: 184.8375  Trainloss: 0.9407   Testloss: 0.9769  TrainAcc: 75.01   Top1: 74.7118    Top5: 91.6441
Ep: 77   EpTime: 184.0268  Trainloss: 0.9411   Testloss: 0.9780  TrainAcc: 75.16   Top1: 74.8221    Top5: 91.7143
Ep: 78   EpTime: 185.3550  Trainloss: 0.9401   Testloss: 0.9777  TrainAcc: 75.18   Top1: 74.7018    Top5: 91.6391
Ep: 79   EpTime: 185.9812  Trainloss: 0.9346   Testloss: 0.9805  TrainAcc: 75.06   Top1: 74.6516    Top5: 91.7694
Ep: 80   EpTime: 183.9787  Trainloss: 0.9384   Testloss: 0.9792  TrainAcc: 75.26   Top1: 74.6115    Top5: 91.7243
Ep: 81   EpTime: 184.2624  Trainloss: 0.9329   Testloss: 0.9837  TrainAcc: 75.22   Top1: 74.6617    Top5: 91.6491
Ep: 82   EpTime: 183.0328  Trainloss: 0.9373   Testloss: 0.9820  TrainAcc: 75.23   Top1: 74.4862    Top5: 91.7444
Ep: 83   EpTime: 186.1932  Trainloss: 0.9352   Testloss: 0.9764  TrainAcc: 75.23   Top1: 74.7569    Top5: 91.7544
Ep: 84   EpTime: 184.2403  Trainloss: 0.9277   Testloss: 0.9778  TrainAcc: 75.55   Top1: 74.5514    Top5: 91.7594
Ep: 85   EpTime: 184.5761  Trainloss: 0.9288   Testloss: 0.9770  TrainAcc: 75.34   Top1: 74.5865    Top5: 91.6792
Ep: 86   EpTime: 183.9333  Trainloss: 0.9317   Testloss: 0.9788  TrainAcc: 75.38   Top1: 74.7368    Top5: 91.7343
Ep: 87   EpTime: 190.0886  Trainloss: 0.9264   Testloss: 0.9766  TrainAcc: 75.39   Top1: 74.6767    Top5: 91.7594
Ep: 88   EpTime: 184.8718  Trainloss: 0.9299   Testloss: 0.9814  TrainAcc: 75.41   Top1: 74.5815    Top5: 91.7845
Ep: 89   EpTime: 184.2528  Trainloss: 0.9277   Testloss: 0.9745  TrainAcc: 75.37   Top1: 74.7218    Top5: 91.8446
Ep: 90   EpTime: 185.0283  Trainloss: 0.9153   Testloss: 0.9762  TrainAcc: 75.62   Top1: 74.7519    Top5: 91.7694
Ep: 91   EpTime: 182.8576  Trainloss: 0.9180   Testloss: 0.9797  TrainAcc: 75.80   Top1: 74.7419    Top5: 91.7845
Ep: 92   EpTime: 185.3806  Trainloss: 0.9162   Testloss: 0.9771  TrainAcc: 75.58   Top1: 74.7920    Top5: 91.7794
Ep: 93   EpTime: 184.5375  Trainloss: 0.9182   Testloss: 0.9741  TrainAcc: 75.66   Top1: 74.9273    Top5: 91.7694
Ep: 94   EpTime: 184.5423  Trainloss: 0.9173   Testloss: 0.9772  TrainAcc: 75.83   Top1: 74.7118    Top5: 91.7444
Ep: 95   EpTime: 184.5056  Trainloss: 0.9152   Testloss: 0.9726  TrainAcc: 75.68   Top1: 74.8221    Top5: 91.7845
Ep: 96   EpTime: 189.8300  Trainloss: 0.9140   Testloss: 0.9759  TrainAcc: 75.74   Top1: 74.8321    Top5: 91.7945
Ep: 97   EpTime: 185.0436  Trainloss: 0.9097   Testloss: 0.9737  TrainAcc: 75.81   Top1: 74.8221    Top5: 91.8145
Ep: 98   EpTime: 184.8219  Trainloss: 0.9121   Testloss: 0.9758  TrainAcc: 75.79   Top1: 74.6065    Top5: 91.8396
Ep: 99   EpTime: 185.1275  Trainloss: 0.9124   Testloss: 0.9770  TrainAcc: 75.81   Top1: 74.7268    Top5: 91.7895
Ep: 100   EpTime: 183.0837  Trainloss: 0.9104   Testloss: 0.9751  TrainAcc: 75.79   Top1: 74.5664    Top5: 91.7444
Ep: 101   EpTime: 185.8409  Trainloss: 0.9144   Testloss: 0.9745  TrainAcc: 75.93   Top1: 74.7970    Top5: 91.8045
Ep: 102   EpTime: 184.3613  Trainloss: 0.9068   Testloss: 0.9765  TrainAcc: 76.06   Top1: 74.7870    Top5: 91.7744
Ep: 103   EpTime: 184.9506  Trainloss: 0.9159   Testloss: 0.9759  TrainAcc: 75.76   Top1: 74.7619    Top5: 91.8246
Ep: 104   EpTime: 184.8539  Trainloss: 0.9148   Testloss: 0.9748  TrainAcc: 75.76   Top1: 74.8822    Top5: 91.7243
Ep: 105   EpTime: 186.0751  Trainloss: 0.9160   Testloss: 0.9745  TrainAcc: 75.79   Top1: 74.7619    Top5: 91.8246
Ep: 106   EpTime: 184.5118  Trainloss: 0.9100   Testloss: 0.9735  TrainAcc: 75.81   Top1: 74.9373    Top5: 91.8747
Ep: 107   EpTime: 184.2894  Trainloss: 0.9123   Testloss: 0.9784  TrainAcc: 75.99   Top1: 74.7268    Top5: 91.7694
Ep: 108   EpTime: 185.2851  Trainloss: 0.9077   Testloss: 0.9780  TrainAcc: 75.84   Top1: 74.7519    Top5: 91.8546
Ep: 109   EpTime: 183.0744  Trainloss: 0.9157   Testloss: 0.9766  TrainAcc: 75.81   Top1: 74.7719    Top5: 91.7594
Ep: 110   EpTime: 185.0047  Trainloss: 0.9155   Testloss: 0.9775  TrainAcc: 75.85   Top1: 74.7719    Top5: 91.7744
Ep: 111   EpTime: 184.8837  Trainloss: 0.9134   Testloss: 0.9736  TrainAcc: 75.99   Top1: 74.8271    Top5: 91.7594
Ep: 112   EpTime: 184.7154  Trainloss: 0.9056   Testloss: 0.9724  TrainAcc: 75.91   Top1: 74.9875    Top5: 91.7945
Ep: 113   EpTime: 185.0091  Trainloss: 0.9152   Testloss: 0.9768  TrainAcc: 75.78   Top1: 74.8421    Top5: 91.7694
Ep: 114   EpTime: 184.1795  Trainloss: 0.9153   Testloss: 0.9724  TrainAcc: 75.69   Top1: 74.8672    Top5: 91.8396
Ep: 115   EpTime: 184.4953  Trainloss: 0.9085   Testloss: 0.9797  TrainAcc: 75.98   Top1: 74.7769    Top5: 91.7293
Ep: 116   EpTime: 184.2419  Trainloss: 0.9130   Testloss: 0.9747  TrainAcc: 75.77   Top1: 74.7268    Top5: 91.8246
Ep: 117   EpTime: 184.5157  Trainloss: 0.9077   Testloss: 0.9749  TrainAcc: 75.92   Top1: 74.7168    Top5: 91.7594
Ep: 118   EpTime: 183.5814  Trainloss: 0.9040   Testloss: 0.9807  TrainAcc: 75.98   Top1: 74.7469    Top5: 91.7343
Ep: 119   EpTime: 186.3633  Trainloss: 0.9075   Testloss: 0.9783  TrainAcc: 76.04   Top1: 74.7669    Top5: 91.8045
Ep: 120   EpTime: 185.5530  Trainloss: 0.9059   Testloss: 0.9733  TrainAcc: 75.93   Top1: 74.8271    Top5: 91.7794
