Ep: 1   EpTime: 171.3177  Trainloss: 4.2599   Testloss: 3.7189  TrainAcc: 7.62   Top1: 14.2757    Top5: 38.9223
Ep: 2   EpTime: 176.5401  Trainloss: 3.4799   Testloss: 3.4460  TrainAcc: 18.84   Top1: 19.6742    Top5: 47.7794
Ep: 3   EpTime: 174.1504  Trainloss: 3.1057   Testloss: 2.8478  TrainAcc: 25.91   Top1: 30.5113    Top5: 60.7268
Ep: 4   EpTime: 170.7494  Trainloss: 2.8434   Testloss: 2.6944  TrainAcc: 31.19   Top1: 34.4311    Top5: 63.5890
Ep: 5   EpTime: 172.6515  Trainloss: 2.6664   Testloss: 2.4750  TrainAcc: 34.81   Top1: 38.8221    Top5: 67.8947
Ep: 6   EpTime: 172.2893  Trainloss: 2.5283   Testloss: 2.4843  TrainAcc: 37.86   Top1: 39.4837    Top5: 69.2231
Ep: 7   EpTime: 173.9020  Trainloss: 2.4073   Testloss: 2.1845  TrainAcc: 40.54   Top1: 45.4436    Top5: 74.1855
Ep: 8   EpTime: 173.5540  Trainloss: 2.3181   Testloss: 2.4043  TrainAcc: 42.39   Top1: 41.6391    Top5: 70.4361
Ep: 9   EpTime: 171.3339  Trainloss: 2.2319   Testloss: 2.0628  TrainAcc: 44.42   Top1: 48.6566    Top5: 76.1103
Ep: 10   EpTime: 170.3347  Trainloss: 2.1615   Testloss: 2.1671  TrainAcc: 46.02   Top1: 47.3885    Top5: 76.1604
Ep: 11   EpTime: 172.8012  Trainloss: 2.0986   Testloss: 1.9551  TrainAcc: 47.44   Top1: 50.6717    Top5: 78.4662
Ep: 12   EpTime: 170.1571  Trainloss: 2.0446   Testloss: 1.8667  TrainAcc: 48.82   Top1: 52.4511    Top5: 79.5088
Ep: 13   EpTime: 172.1201  Trainloss: 1.9907   Testloss: 1.9041  TrainAcc: 50.05   Top1: 51.7895    Top5: 79.2130
Ep: 14   EpTime: 172.1771  Trainloss: 1.9495   Testloss: 1.8819  TrainAcc: 50.98   Top1: 52.0301    Top5: 79.6892
Ep: 15   EpTime: 171.0251  Trainloss: 1.9085   Testloss: 1.7242  TrainAcc: 51.97   Top1: 55.7343    Top5: 81.8697
Ep: 16   EpTime: 172.0225  Trainloss: 1.8722   Testloss: 1.7211  TrainAcc: 52.80   Top1: 56.1504    Top5: 82.3509
Ep: 17   EpTime: 174.3526  Trainloss: 1.8336   Testloss: 1.8213  TrainAcc: 53.52   Top1: 54.0802    Top5: 80.9825
Ep: 18   EpTime: 170.6967  Trainloss: 1.8067   Testloss: 1.6679  TrainAcc: 54.28   Top1: 56.9624    Top5: 82.7619
Ep: 19   EpTime: 171.1697  Trainloss: 1.7867   Testloss: 1.7685  TrainAcc: 54.59   Top1: 56.2657    Top5: 82.6216
Ep: 20   EpTime: 169.9242  Trainloss: 1.7550   Testloss: 1.6284  TrainAcc: 55.45   Top1: 58.0301    Top5: 83.4085
Ep: 21   EpTime: 169.9185  Trainloss: 1.7298   Testloss: 1.6460  TrainAcc: 56.05   Top1: 58.8872    Top5: 83.9549
Ep: 22   EpTime: 170.8532  Trainloss: 1.7106   Testloss: 1.5823  TrainAcc: 56.42   Top1: 59.7945    Top5: 84.3358
Ep: 23   EpTime: 173.6235  Trainloss: 1.6867   Testloss: 1.5405  TrainAcc: 57.03   Top1: 60.3709    Top5: 84.5664
Ep: 24   EpTime: 170.8675  Trainloss: 1.6751   Testloss: 1.4554  TrainAcc: 57.34   Top1: 62.4010    Top5: 85.9198
Ep: 25   EpTime: 171.1543  Trainloss: 1.6515   Testloss: 1.5795  TrainAcc: 57.88   Top1: 59.3083    Top5: 84.5213
Ep: 26   EpTime: 172.7133  Trainloss: 1.6354   Testloss: 1.7546  TrainAcc: 58.24   Top1: 56.2707    Top5: 82.1805
Ep: 27   EpTime: 171.7712  Trainloss: 1.6256   Testloss: 1.4942  TrainAcc: 58.58   Top1: 62.0201    Top5: 85.3033
Ep: 28   EpTime: 169.6832  Trainloss: 1.6062   Testloss: 1.4645  TrainAcc: 58.84   Top1: 62.3258    Top5: 85.8095
Ep: 29   EpTime: 170.2380  Trainloss: 1.5913   Testloss: 1.5396  TrainAcc: 59.23   Top1: 60.6115    Top5: 84.8722
Ep: 30   EpTime: 170.0683  Trainloss: 1.5744   Testloss: 1.6796  TrainAcc: 59.65   Top1: 57.4336    Top5: 82.3158
Ep: 31   EpTime: 170.9806  Trainloss: 1.5661   Testloss: 1.4885  TrainAcc: 60.07   Top1: 61.8847    Top5: 85.5388
Ep: 32   EpTime: 171.3572  Trainloss: 1.5576   Testloss: 1.5633  TrainAcc: 60.10   Top1: 60.2155    Top5: 84.3960
Ep: 33   EpTime: 170.2165  Trainloss: 1.5453   Testloss: 1.5003  TrainAcc: 60.35   Top1: 61.5388    Top5: 85.6190
Ep: 34   EpTime: 170.2335  Trainloss: 1.5263   Testloss: 1.4552  TrainAcc: 60.85   Top1: 62.5313    Top5: 85.8446
Ep: 35   EpTime: 172.9291  Trainloss: 1.2544   Testloss: 1.0725  TrainAcc: 67.76   Top1: 71.8045    Top5: 90.6115
Ep: 36   EpTime: 169.3872  Trainloss: 1.1743   Testloss: 1.0506  TrainAcc: 69.74   Top1: 72.3810    Top5: 90.7368
Ep: 37   EpTime: 168.2661  Trainloss: 1.1429   Testloss: 1.0375  TrainAcc: 70.36   Top1: 73.0627    Top5: 90.9574
Ep: 38   EpTime: 169.2137  Trainloss: 1.1210   Testloss: 1.0323  TrainAcc: 71.04   Top1: 72.9223    Top5: 91.1328
Ep: 39   EpTime: 168.3407  Trainloss: 1.1114   Testloss: 1.0298  TrainAcc: 71.33   Top1: 73.3233    Top5: 90.9624
Ep: 40   EpTime: 169.7275  Trainloss: 1.0931   Testloss: 1.0243  TrainAcc: 71.70   Top1: 73.5388    Top5: 91.1128
Ep: 41   EpTime: 168.9477  Trainloss: 1.0734   Testloss: 1.0126  TrainAcc: 72.27   Top1: 73.4486    Top5: 91.3383
Ep: 42   EpTime: 168.6988  Trainloss: 1.0621   Testloss: 1.0153  TrainAcc: 72.66   Top1: 73.8697    Top5: 91.2281
Ep: 43   EpTime: 168.6950  Trainloss: 1.0386   Testloss: 1.0081  TrainAcc: 73.01   Top1: 73.9699    Top5: 91.2632
Ep: 44   EpTime: 169.8618  Trainloss: 1.0334   Testloss: 1.0137  TrainAcc: 73.22   Top1: 73.6742    Top5: 91.2531
Ep: 45   EpTime: 168.8462  Trainloss: 1.0351   Testloss: 1.0000  TrainAcc: 73.13   Top1: 74.2456    Top5: 91.2481
Ep: 46   EpTime: 169.4352  Trainloss: 1.0213   Testloss: 1.0034  TrainAcc: 73.44   Top1: 74.1153    Top5: 91.3584
Ep: 47   EpTime: 169.1061  Trainloss: 1.0163   Testloss: 0.9943  TrainAcc: 73.61   Top1: 74.3358    Top5: 91.4787
Ep: 48   EpTime: 168.6560  Trainloss: 1.0128   Testloss: 0.9956  TrainAcc: 73.71   Top1: 74.3358    Top5: 91.4486
Ep: 49   EpTime: 169.7595  Trainloss: 1.0065   Testloss: 0.9878  TrainAcc: 73.80   Top1: 74.3058    Top5: 91.4536
Ep: 50   EpTime: 168.9171  Trainloss: 0.9907   Testloss: 0.9883  TrainAcc: 74.25   Top1: 74.4511    Top5: 91.5840
Ep: 51   EpTime: 169.8084  Trainloss: 0.9865   Testloss: 0.9885  TrainAcc: 74.16   Top1: 74.3960    Top5: 91.6341
Ep: 52   EpTime: 169.6119  Trainloss: 0.9767   Testloss: 0.9911  TrainAcc: 74.60   Top1: 74.5464    Top5: 91.5940
Ep: 53   EpTime: 170.1719  Trainloss: 0.9682   Testloss: 0.9925  TrainAcc: 74.68   Top1: 74.3208    Top5: 91.5388
Ep: 54   EpTime: 170.5691  Trainloss: 0.9667   Testloss: 0.9910  TrainAcc: 74.82   Top1: 74.3960    Top5: 91.5288
Ep: 55   EpTime: 169.6619  Trainloss: 0.9626   Testloss: 0.9934  TrainAcc: 74.98   Top1: 74.3609    Top5: 91.4035
Ep: 56   EpTime: 170.0516  Trainloss: 0.9488   Testloss: 0.9901  TrainAcc: 75.22   Top1: 74.5263    Top5: 91.6491
Ep: 57   EpTime: 170.3093  Trainloss: 0.9482   Testloss: 0.9955  TrainAcc: 75.24   Top1: 74.4712    Top5: 91.3033
Ep: 58   EpTime: 168.8833  Trainloss: 0.9412   Testloss: 0.9944  TrainAcc: 75.40   Top1: 74.3008    Top5: 91.4787
Ep: 59   EpTime: 169.1752  Trainloss: 0.9360   Testloss: 0.9918  TrainAcc: 75.43   Top1: 74.5915    Top5: 91.3484
Ep: 60   EpTime: 169.6721  Trainloss: 0.9295   Testloss: 0.9881  TrainAcc: 75.65   Top1: 74.5464    Top5: 91.6241
Ep: 61   EpTime: 169.1520  Trainloss: 0.9281   Testloss: 0.9999  TrainAcc: 75.77   Top1: 74.3810    Top5: 91.2381
Ep: 62   EpTime: 169.5013  Trainloss: 0.9146   Testloss: 0.9877  TrainAcc: 76.17   Top1: 74.6867    Top5: 91.5789
Ep: 63   EpTime: 169.0739  Trainloss: 0.9183   Testloss: 0.9997  TrainAcc: 75.99   Top1: 74.4411    Top5: 91.3835
Ep: 64   EpTime: 170.2973  Trainloss: 0.9121   Testloss: 0.9842  TrainAcc: 76.07   Top1: 74.7419    Top5: 91.6692
Ep: 65   EpTime: 168.5725  Trainloss: 0.9050   Testloss: 0.9757  TrainAcc: 76.30   Top1: 74.7419    Top5: 91.6491
Ep: 66   EpTime: 169.4218  Trainloss: 0.8959   Testloss: 1.0023  TrainAcc: 76.59   Top1: 74.4612    Top5: 91.5388
Ep: 67   EpTime: 169.5723  Trainloss: 0.8944   Testloss: 1.0095  TrainAcc: 76.55   Top1: 74.2857    Top5: 91.2581
Ep: 68   EpTime: 169.5840  Trainloss: 0.8887   Testloss: 0.9706  TrainAcc: 76.68   Top1: 75.2030    Top5: 91.8396
Ep: 69   EpTime: 169.9588  Trainloss: 0.8931   Testloss: 0.9908  TrainAcc: 76.55   Top1: 74.3459    Top5: 91.6642
Ep: 70   EpTime: 170.1510  Trainloss: 0.8245   Testloss: 0.9463  TrainAcc: 78.58   Top1: 75.6090    Top5: 92.0652
Ep: 71   EpTime: 169.9016  Trainloss: 0.8077   Testloss: 0.9478  TrainAcc: 79.07   Top1: 75.7243    Top5: 92.0100
Ep: 72   EpTime: 169.1975  Trainloss: 0.8030   Testloss: 0.9459  TrainAcc: 78.97   Top1: 75.8496    Top5: 92.0251
Ep: 73   EpTime: 169.7612  Trainloss: 0.7940   Testloss: 0.9414  TrainAcc: 79.34   Top1: 76.0351    Top5: 92.1805
Ep: 74   EpTime: 170.1479  Trainloss: 0.8002   Testloss: 0.9415  TrainAcc: 79.17   Top1: 75.8596    Top5: 92.1303
Ep: 75   EpTime: 169.7221  Trainloss: 0.7904   Testloss: 0.9527  TrainAcc: 79.39   Top1: 75.7594    Top5: 92.0201
Ep: 76   EpTime: 169.5160  Trainloss: 0.7893   Testloss: 0.9459  TrainAcc: 79.51   Top1: 76.0952    Top5: 92.0451
Ep: 77   EpTime: 168.9838  Trainloss: 0.7876   Testloss: 0.9430  TrainAcc: 79.58   Top1: 75.8346    Top5: 92.0602
Ep: 78   EpTime: 169.4608  Trainloss: 0.7822   Testloss: 0.9449  TrainAcc: 79.71   Top1: 75.8246    Top5: 92.1353
Ep: 79   EpTime: 169.2166  Trainloss: 0.7755   Testloss: 0.9385  TrainAcc: 79.87   Top1: 76.0351    Top5: 92.2155
Ep: 80   EpTime: 169.8531  Trainloss: 0.7784   Testloss: 0.9405  TrainAcc: 79.72   Top1: 75.9398    Top5: 92.2206
Ep: 81   EpTime: 168.9884  Trainloss: 0.7732   Testloss: 0.9439  TrainAcc: 79.85   Top1: 75.9499    Top5: 92.1805
Ep: 82   EpTime: 169.4850  Trainloss: 0.7818   Testloss: 0.9438  TrainAcc: 79.73   Top1: 75.9850    Top5: 92.1454
Ep: 83   EpTime: 171.6143  Trainloss: 0.7800   Testloss: 0.9401  TrainAcc: 79.73   Top1: 76.0100    Top5: 92.2055
Ep: 84   EpTime: 169.7795  Trainloss: 0.7734   Testloss: 0.9381  TrainAcc: 79.96   Top1: 75.9348    Top5: 92.2707
Ep: 85   EpTime: 170.1823  Trainloss: 0.7747   Testloss: 0.9433  TrainAcc: 79.93   Top1: 75.7794    Top5: 92.1103
Ep: 86   EpTime: 169.5082  Trainloss: 0.7628   Testloss: 0.9422  TrainAcc: 80.10   Top1: 76.1454    Top5: 92.0652
Ep: 87   EpTime: 170.2335  Trainloss: 0.7588   Testloss: 0.9432  TrainAcc: 80.26   Top1: 75.9398    Top5: 92.0602
Ep: 88   EpTime: 169.4973  Trainloss: 0.7608   Testloss: 0.9418  TrainAcc: 80.31   Top1: 76.0201    Top5: 92.0351
Ep: 89   EpTime: 169.6945  Trainloss: 0.7600   Testloss: 0.9438  TrainAcc: 80.29   Top1: 75.8246    Top5: 92.1203
Ep: 90   EpTime: 169.8156  Trainloss: 0.7596   Testloss: 0.9401  TrainAcc: 80.35   Top1: 76.0301    Top5: 92.1303
Ep: 91   EpTime: 169.2174  Trainloss: 0.7613   Testloss: 0.9485  TrainAcc: 80.30   Top1: 75.9649    Top5: 92.1855
Ep: 92   EpTime: 172.2763  Trainloss: 0.7599   Testloss: 0.9429  TrainAcc: 80.23   Top1: 75.8145    Top5: 92.1053
Ep: 93   EpTime: 177.8125  Trainloss: 0.7602   Testloss: 0.9478  TrainAcc: 80.23   Top1: 75.8195    Top5: 92.1053
Ep: 94   EpTime: 174.4637  Trainloss: 0.7559   Testloss: 0.9465  TrainAcc: 80.37   Top1: 75.9699    Top5: 92.0100
Ep: 95   EpTime: 170.6697  Trainloss: 0.7514   Testloss: 0.9458  TrainAcc: 80.41   Top1: 75.7043    Top5: 92.1754
Ep: 96   EpTime: 170.5321  Trainloss: 0.7519   Testloss: 0.9479  TrainAcc: 80.30   Top1: 75.8697    Top5: 92.0752
Ep: 97   EpTime: 170.3463  Trainloss: 0.7603   Testloss: 0.9446  TrainAcc: 80.23   Top1: 75.9850    Top5: 92.0702
Ep: 98   EpTime: 169.5420  Trainloss: 0.7564   Testloss: 0.9455  TrainAcc: 80.28   Top1: 76.0100    Top5: 91.8947
Ep: 99   EpTime: 169.1240  Trainloss: 0.7489   Testloss: 0.9417  TrainAcc: 80.54   Top1: 76.0551    Top5: 92.1303
Ep: 100   EpTime: 169.3848  Trainloss: 0.7500   Testloss: 0.9506  TrainAcc: 80.49   Top1: 76.0000    Top5: 92.0702
Ep: 101   EpTime: 169.7441  Trainloss: 0.7524   Testloss: 0.9477  TrainAcc: 80.52   Top1: 76.0752    Top5: 92.1203
Ep: 102   EpTime: 169.9845  Trainloss: 0.7447   Testloss: 0.9436  TrainAcc: 80.53   Top1: 75.8997    Top5: 92.1253
Ep: 103   EpTime: 170.1139  Trainloss: 0.7440   Testloss: 0.9433  TrainAcc: 80.57   Top1: 76.1454    Top5: 92.0150
Ep: 104   EpTime: 168.7410  Trainloss: 0.7480   Testloss: 0.9424  TrainAcc: 80.72   Top1: 76.0952    Top5: 91.9850
Ep: 105   EpTime: 168.2181  Trainloss: 0.7386   Testloss: 0.9402  TrainAcc: 80.77   Top1: 76.1704    Top5: 92.0501
Ep: 106   EpTime: 169.0177  Trainloss: 0.7424   Testloss: 0.9394  TrainAcc: 80.74   Top1: 76.2757    Top5: 92.1955
Ep: 107   EpTime: 168.8963  Trainloss: 0.7406   Testloss: 0.9406  TrainAcc: 81.01   Top1: 76.0602    Top5: 91.9549
Ep: 108   EpTime: 173.3750  Trainloss: 0.7354   Testloss: 0.9458  TrainAcc: 80.79   Top1: 75.8446    Top5: 92.0050
Ep: 109   EpTime: 173.3844  Trainloss: 0.7372   Testloss: 0.9422  TrainAcc: 80.93   Top1: 75.9799    Top5: 92.0251
Ep: 110   EpTime: 169.4804  Trainloss: 0.7316   Testloss: 0.9418  TrainAcc: 80.96   Top1: 76.0150    Top5: 92.0652
Ep: 111   EpTime: 169.1540  Trainloss: 0.7345   Testloss: 0.9417  TrainAcc: 80.89   Top1: 76.1053    Top5: 91.9499
Ep: 112   EpTime: 176.9158  Trainloss: 0.7360   Testloss: 0.9446  TrainAcc: 80.99   Top1: 76.0652    Top5: 92.0551
Ep: 113   EpTime: 176.3826  Trainloss: 0.7343   Testloss: 0.9447  TrainAcc: 80.95   Top1: 76.0852    Top5: 92.0551
Ep: 114   EpTime: 170.4787  Trainloss: 0.7359   Testloss: 0.9413  TrainAcc: 80.81   Top1: 76.0802    Top5: 91.9850
Ep: 115   EpTime: 171.5574  Trainloss: 0.7341   Testloss: 0.9480  TrainAcc: 80.88   Top1: 75.9749    Top5: 92.0501
Ep: 116   EpTime: 171.9593  Trainloss: 0.7318   Testloss: 0.9393  TrainAcc: 81.03   Top1: 76.2456    Top5: 92.0702
Ep: 117   EpTime: 171.1493  Trainloss: 0.7355   Testloss: 0.9405  TrainAcc: 80.92   Top1: 76.1454    Top5: 92.1704
Ep: 118   EpTime: 169.5792  Trainloss: 0.7374   Testloss: 0.9446  TrainAcc: 80.81   Top1: 76.0602    Top5: 92.0602
Ep: 119   EpTime: 169.2707  Trainloss: 0.7317   Testloss: 0.9385  TrainAcc: 81.09   Top1: 76.3308    Top5: 92.2055
Ep: 120   EpTime: 169.3744  Trainloss: 0.7330   Testloss: 0.9391  TrainAcc: 81.03   Top1: 76.0802    Top5: 92.1103
Ep: 121   EpTime: 168.9441  Trainloss: 0.7318   Testloss: 0.9423  TrainAcc: 81.21   Top1: 76.1604    Top5: 92.0952
Ep: 122   EpTime: 169.5430  Trainloss: 0.7348   Testloss: 0.9421  TrainAcc: 80.98   Top1: 76.0351    Top5: 92.0752
Ep: 123   EpTime: 169.0309  Trainloss: 0.7401   Testloss: 0.9452  TrainAcc: 80.85   Top1: 75.9900    Top5: 92.1153
Ep: 124   EpTime: 168.9392  Trainloss: 0.7258   Testloss: 0.9413  TrainAcc: 81.11   Top1: 76.1303    Top5: 92.0852
Ep: 125   EpTime: 168.9154  Trainloss: 0.7361   Testloss: 0.9411  TrainAcc: 80.88   Top1: 75.9649    Top5: 92.0652
Ep: 126   EpTime: 169.4070  Trainloss: 0.7318   Testloss: 0.9469  TrainAcc: 81.10   Top1: 75.9850    Top5: 91.9799
Ep: 127   EpTime: 168.9795  Trainloss: 0.7276   Testloss: 0.9389  TrainAcc: 81.29   Top1: 76.1454    Top5: 92.1805
Ep: 128   EpTime: 168.8850  Trainloss: 0.7254   Testloss: 0.9413  TrainAcc: 81.22   Top1: 75.9449    Top5: 92.1454
Ep: 129   EpTime: 168.1948  Trainloss: 0.7341   Testloss: 0.9477  TrainAcc: 80.87   Top1: 75.6942    Top5: 91.9699
Ep: 130   EpTime: 169.9270  Trainloss: 0.7302   Testloss: 0.9394  TrainAcc: 80.91   Top1: 76.2456    Top5: 92.1203
