Ep: 1   EpTime: 155.2875  Trainloss: 4.4914   Testloss: 4.1222  TrainAcc: 5.26   Top1: 9.0576    Top5: 28.7820
Ep: 2   EpTime: 154.2916  Trainloss: 3.9144   Testloss: 4.2849  TrainAcc: 12.73   Top1: 10.7018    Top5: 29.0025
Ep: 3   EpTime: 193.9221  Trainloss: 3.6203   Testloss: 3.4923  TrainAcc: 17.23   Top1: 19.4185    Top5: 45.3634
Ep: 4   EpTime: 221.6031  Trainloss: 3.4393   Testloss: 3.3319  TrainAcc: 20.60   Top1: 22.3108    Top5: 48.9323
Ep: 5   EpTime: 220.5091  Trainloss: 3.2997   Testloss: 3.0959  TrainAcc: 23.19   Top1: 26.8321    Top5: 55.0977
Ep: 6   EpTime: 221.2610  Trainloss: 3.1837   Testloss: 2.9914  TrainAcc: 25.55   Top1: 28.3208    Top5: 57.6942
Ep: 7   EpTime: 222.4516  Trainloss: 3.0699   Testloss: 2.7832  TrainAcc: 27.60   Top1: 32.3008    Top5: 62.3308
Ep: 8   EpTime: 220.7429  Trainloss: 2.9909   Testloss: 2.8459  TrainAcc: 29.15   Top1: 31.9048    Top5: 61.1078
Ep: 9   EpTime: 223.9115  Trainloss: 2.9114   Testloss: 2.8387  TrainAcc: 30.73   Top1: 33.0426    Top5: 61.0376
Ep: 10   EpTime: 220.8306  Trainloss: 2.8436   Testloss: 2.7573  TrainAcc: 32.37   Top1: 34.4361    Top5: 62.6717
Ep: 11   EpTime: 222.3689  Trainloss: 2.7816   Testloss: 2.7923  TrainAcc: 33.44   Top1: 34.4862    Top5: 62.9424
Ep: 12   EpTime: 221.1271  Trainloss: 2.7149   Testloss: 2.4612  TrainAcc: 34.79   Top1: 40.1955    Top5: 68.9474
Ep: 13   EpTime: 221.2551  Trainloss: 2.6666   Testloss: 2.5427  TrainAcc: 35.77   Top1: 38.0100    Top5: 67.5038
Ep: 14   EpTime: 221.0547  Trainloss: 2.6135   Testloss: 2.5833  TrainAcc: 36.77   Top1: 37.5338    Top5: 66.4511
Ep: 15   EpTime: 220.5926  Trainloss: 2.5732   Testloss: 2.5597  TrainAcc: 37.66   Top1: 38.5464    Top5: 67.1328
Ep: 16   EpTime: 221.6800  Trainloss: 2.5259   Testloss: 2.4125  TrainAcc: 38.69   Top1: 40.6316    Top5: 69.3684
Ep: 17   EpTime: 222.1523  Trainloss: 2.4889   Testloss: 2.3686  TrainAcc: 39.51   Top1: 41.6040    Top5: 70.1754
Ep: 18   EpTime: 221.6706  Trainloss: 2.4618   Testloss: 2.4210  TrainAcc: 40.15   Top1: 41.3835    Top5: 69.3885
Ep: 19   EpTime: 220.9515  Trainloss: 2.4246   Testloss: 2.2334  TrainAcc: 40.72   Top1: 44.8521    Top5: 72.6817
Ep: 20   EpTime: 219.2689  Trainloss: 2.4082   Testloss: 2.4506  TrainAcc: 41.33   Top1: 40.0702    Top5: 68.8972
Ep: 21   EpTime: 220.3799  Trainloss: 2.3771   Testloss: 2.1335  TrainAcc: 42.02   Top1: 46.9624    Top5: 74.1805
Ep: 22   EpTime: 222.3557  Trainloss: 2.3520   Testloss: 2.3700  TrainAcc: 42.44   Top1: 42.4862    Top5: 70.2607
Ep: 23   EpTime: 318.8429  Trainloss: 2.3357   Testloss: 2.0324  TrainAcc: 42.73   Top1: 49.2531    Top5: 76.6917
Ep: 24   EpTime: 332.3602  Trainloss: 2.3196   Testloss: 2.2215  TrainAcc: 43.17   Top1: 45.3033    Top5: 73.0125
Ep: 25   EpTime: 333.0832  Trainloss: 2.3092   Testloss: 2.3952  TrainAcc: 43.45   Top1: 41.8145    Top5: 70.6917
Ep: 26   EpTime: 333.2195  Trainloss: 2.2884   Testloss: 2.2467  TrainAcc: 43.85   Top1: 45.4536    Top5: 72.5414
Ep: 27   EpTime: 334.1420  Trainloss: 2.2803   Testloss: 2.1233  TrainAcc: 44.13   Top1: 47.4687    Top5: 74.3409
Ep: 28   EpTime: 333.0768  Trainloss: 2.2584   Testloss: 1.9587  TrainAcc: 44.37   Top1: 50.8521    Top5: 77.7694
Ep: 29   EpTime: 333.8671  Trainloss: 2.2517   Testloss: 2.1607  TrainAcc: 44.52   Top1: 46.9524    Top5: 74.1404
Ep: 30   EpTime: 334.9747  Trainloss: 1.7672   Testloss: 1.4352  TrainAcc: 55.71   Top1: 62.8421    Top5: 85.5940
Ep: 31   EpTime: 335.3899  Trainloss: 1.6378   Testloss: 1.3734  TrainAcc: 58.67   Top1: 64.7870    Top5: 86.4612
Ep: 32   EpTime: 336.1646  Trainloss: 1.5908   Testloss: 1.3685  TrainAcc: 59.83   Top1: 64.5163    Top5: 86.4662
Ep: 33   EpTime: 335.3515  Trainloss: 1.5444   Testloss: 1.3253  TrainAcc: 60.92   Top1: 65.7393    Top5: 87.2882
Ep: 34   EpTime: 334.8994  Trainloss: 1.5091   Testloss: 1.3080  TrainAcc: 62.02   Top1: 66.3459    Top5: 87.3383
Ep: 35   EpTime: 332.8349  Trainloss: 1.4903   Testloss: 1.3132  TrainAcc: 62.02   Top1: 65.9749    Top5: 87.2180
Ep: 36   EpTime: 334.5591  Trainloss: 1.4704   Testloss: 1.3009  TrainAcc: 62.52   Top1: 66.2556    Top5: 87.3634
Ep: 37   EpTime: 334.5591  Trainloss: 1.4471   Testloss: 1.3180  TrainAcc: 63.18   Top1: 65.7343    Top5: 87.2281
Ep: 38   EpTime: 334.4957  Trainloss: 1.4358   Testloss: 1.2721  TrainAcc: 63.40   Top1: 66.9825    Top5: 87.8145
Ep: 39   EpTime: 332.9559  Trainloss: 1.4228   Testloss: 1.2467  TrainAcc: 63.78   Top1: 67.4436    Top5: 88.2506
Ep: 40   EpTime: 334.4922  Trainloss: 1.4083   Testloss: 1.2639  TrainAcc: 64.06   Top1: 67.1378    Top5: 87.7343
Ep: 41   EpTime: 333.9462  Trainloss: 1.4011   Testloss: 1.2820  TrainAcc: 64.36   Top1: 66.7368    Top5: 87.5840
Ep: 42   EpTime: 332.3162  Trainloss: 1.3823   Testloss: 1.2591  TrainAcc: 64.45   Top1: 67.1830    Top5: 88.1153
Ep: 43   EpTime: 335.2188  Trainloss: 1.3799   Testloss: 1.2805  TrainAcc: 64.72   Top1: 66.7870    Top5: 87.4687
Ep: 44   EpTime: 336.3164  Trainloss: 1.3764   Testloss: 1.2589  TrainAcc: 64.67   Top1: 66.9023    Top5: 88.0050
Ep: 45   EpTime: 336.3367  Trainloss: 1.3656   Testloss: 1.2557  TrainAcc: 65.03   Top1: 67.5288    Top5: 88.2607
Ep: 46   EpTime: 336.1461  Trainloss: 1.3587   Testloss: 1.2843  TrainAcc: 64.99   Top1: 66.9223    Top5: 87.8446
Ep: 47   EpTime: 340.5320  Trainloss: 1.3483   Testloss: 1.2667  TrainAcc: 65.47   Top1: 67.3333    Top5: 88.0952
Ep: 48   EpTime: 340.9334  Trainloss: 1.3443   Testloss: 1.2653  TrainAcc: 65.53   Top1: 67.0727    Top5: 87.7694
Ep: 49   EpTime: 339.1187  Trainloss: 1.3402   Testloss: 1.2309  TrainAcc: 65.46   Top1: 67.8947    Top5: 88.4912
Ep: 50   EpTime: 339.2006  Trainloss: 1.3279   Testloss: 1.2448  TrainAcc: 65.91   Top1: 67.7293    Top5: 88.2807
Ep: 51   EpTime: 337.8213  Trainloss: 1.3167   Testloss: 1.2698  TrainAcc: 66.16   Top1: 67.3183    Top5: 88.1704
Ep: 52   EpTime: 337.2617  Trainloss: 1.3147   Testloss: 1.2776  TrainAcc: 66.24   Top1: 66.8321    Top5: 87.8747
Ep: 53   EpTime: 337.0697  Trainloss: 1.3150   Testloss: 1.2685  TrainAcc: 65.99   Top1: 66.8622    Top5: 87.9348
Ep: 54   EpTime: 334.3991  Trainloss: 1.3097   Testloss: 1.2489  TrainAcc: 66.36   Top1: 67.6842    Top5: 88.2005
Ep: 55   EpTime: 333.4525  Trainloss: 1.2963   Testloss: 1.2680  TrainAcc: 66.60   Top1: 67.4837    Top5: 87.8596
Ep: 56   EpTime: 335.1593  Trainloss: 1.2963   Testloss: 1.2590  TrainAcc: 66.56   Top1: 67.5288    Top5: 88.1855
Ep: 57   EpTime: 333.7943  Trainloss: 1.2873   Testloss: 1.2253  TrainAcc: 66.81   Top1: 68.2256    Top5: 88.5313
Ep: 58   EpTime: 335.3397  Trainloss: 1.2847   Testloss: 1.2847  TrainAcc: 66.74   Top1: 67.0526    Top5: 88.0752
Ep: 59   EpTime: 333.7083  Trainloss: 1.2820   Testloss: 1.3140  TrainAcc: 66.87   Top1: 66.6566    Top5: 87.7243
Ep: 60   EpTime: 332.2454  Trainloss: 1.0907   Testloss: 1.0792  TrainAcc: 72.15   Top1: 71.9348    Top5: 90.3308
Ep: 61   EpTime: 333.7480  Trainloss: 1.0325   Testloss: 1.0564  TrainAcc: 73.71   Top1: 72.2456    Top5: 90.7519
Ep: 62   EpTime: 334.2704  Trainloss: 1.0143   Testloss: 1.0573  TrainAcc: 74.04   Top1: 72.3960    Top5: 90.6165
Ep: 63   EpTime: 332.7008  Trainloss: 0.9933   Testloss: 1.0535  TrainAcc: 74.54   Top1: 72.4912    Top5: 90.6466
Ep: 64   EpTime: 331.2172  Trainloss: 0.9800   Testloss: 1.0489  TrainAcc: 74.84   Top1: 72.5063    Top5: 90.8271
Ep: 65   EpTime: 332.2994  Trainloss: 0.9809   Testloss: 1.0418  TrainAcc: 74.76   Top1: 73.0326    Top5: 90.8922
Ep: 66   EpTime: 332.9662  Trainloss: 0.9703   Testloss: 1.0428  TrainAcc: 75.08   Top1: 72.7769    Top5: 90.8120
Ep: 67   EpTime: 332.7550  Trainloss: 0.9519   Testloss: 1.0374  TrainAcc: 75.43   Top1: 72.9023    Top5: 90.8972
Ep: 68   EpTime: 332.2772  Trainloss: 0.9441   Testloss: 1.0374  TrainAcc: 75.85   Top1: 73.1880    Top5: 90.9323
Ep: 69   EpTime: 332.4870  Trainloss: 0.9458   Testloss: 1.0425  TrainAcc: 75.58   Top1: 73.0276    Top5: 90.9574
Ep: 70   EpTime: 332.1450  Trainloss: 0.9431   Testloss: 1.0371  TrainAcc: 75.76   Top1: 73.1228    Top5: 90.8772
Ep: 71   EpTime: 332.0518  Trainloss: 0.9189   Testloss: 1.0405  TrainAcc: 76.50   Top1: 73.0877    Top5: 90.8221
Ep: 72   EpTime: 333.3151  Trainloss: 0.9208   Testloss: 1.0506  TrainAcc: 76.16   Top1: 72.7870    Top5: 90.7268
Ep: 73   EpTime: 334.7355  Trainloss: 0.9231   Testloss: 1.0397  TrainAcc: 76.30   Top1: 73.1880    Top5: 90.8170
Ep: 74   EpTime: 334.5519  Trainloss: 0.9148   Testloss: 1.0331  TrainAcc: 76.63   Top1: 72.9825    Top5: 91.0075
Ep: 75   EpTime: 334.6620  Trainloss: 0.9067   Testloss: 1.0412  TrainAcc: 76.75   Top1: 73.1880    Top5: 90.8521
Ep: 76   EpTime: 336.5137  Trainloss: 0.9014   Testloss: 1.0371  TrainAcc: 76.81   Top1: 73.3383    Top5: 90.9273
Ep: 77   EpTime: 337.0639  Trainloss: 0.9040   Testloss: 1.0422  TrainAcc: 76.87   Top1: 73.1629    Top5: 90.8722
Ep: 78   EpTime: 337.2384  Trainloss: 0.8953   Testloss: 1.0353  TrainAcc: 76.96   Top1: 73.2281    Top5: 90.8020
Ep: 79   EpTime: 339.8314  Trainloss: 0.8885   Testloss: 1.0308  TrainAcc: 77.05   Top1: 73.3033    Top5: 90.9724
Ep: 80   EpTime: 339.2627  Trainloss: 0.8775   Testloss: 1.0407  TrainAcc: 77.34   Top1: 73.0877    Top5: 90.9223
Ep: 81   EpTime: 337.0384  Trainloss: 0.8873   Testloss: 1.0345  TrainAcc: 77.20   Top1: 73.2080    Top5: 90.9273
Ep: 82   EpTime: 340.9083  Trainloss: 0.8736   Testloss: 1.0322  TrainAcc: 77.45   Top1: 73.4637    Top5: 91.0727
Ep: 83   EpTime: 342.2982  Trainloss: 0.8746   Testloss: 1.0464  TrainAcc: 77.60   Top1: 72.8571    Top5: 90.8170
Ep: 84   EpTime: 341.5380  Trainloss: 0.8690   Testloss: 1.0327  TrainAcc: 77.61   Top1: 73.4436    Top5: 90.9474
Ep: 85   EpTime: 340.4008  Trainloss: 0.8673   Testloss: 1.0426  TrainAcc: 77.85   Top1: 73.1579    Top5: 90.9474
Ep: 86   EpTime: 338.5389  Trainloss: 0.8598   Testloss: 1.0338  TrainAcc: 77.71   Top1: 73.3283    Top5: 90.9574
Ep: 87   EpTime: 336.4808  Trainloss: 0.8592   Testloss: 1.0414  TrainAcc: 78.10   Top1: 73.2130    Top5: 91.0025
Ep: 88   EpTime: 335.6162  Trainloss: 0.8507   Testloss: 1.0418  TrainAcc: 78.10   Top1: 73.4586    Top5: 90.9724
Ep: 89   EpTime: 333.9225  Trainloss: 0.8390   Testloss: 1.0399  TrainAcc: 78.27   Top1: 73.3985    Top5: 90.9023
Ep: 90   EpTime: 333.0371  Trainloss: 0.8266   Testloss: 1.0269  TrainAcc: 78.82   Top1: 73.7043    Top5: 91.0376
Ep: 91   EpTime: 332.9664  Trainloss: 0.8137   Testloss: 1.0312  TrainAcc: 79.16   Top1: 73.5739    Top5: 91.0476
Ep: 92   EpTime: 333.9432  Trainloss: 0.8082   Testloss: 1.0294  TrainAcc: 79.29   Top1: 73.6692    Top5: 91.1228
Ep: 93   EpTime: 335.0767  Trainloss: 0.8090   Testloss: 1.0210  TrainAcc: 79.06   Top1: 73.7293    Top5: 91.1579
Ep: 94   EpTime: 334.4745  Trainloss: 0.8101   Testloss: 1.0225  TrainAcc: 79.22   Top1: 73.8246    Top5: 91.0576
Ep: 95   EpTime: 334.9993  Trainloss: 0.8090   Testloss: 1.0173  TrainAcc: 79.30   Top1: 73.9699    Top5: 91.1729
Ep: 96   EpTime: 330.9897  Trainloss: 0.8059   Testloss: 1.0221  TrainAcc: 79.46   Top1: 73.8847    Top5: 91.2732
Ep: 97   EpTime: 334.0317  Trainloss: 0.8011   Testloss: 1.0240  TrainAcc: 79.38   Top1: 73.7544    Top5: 91.1429
Ep: 98   EpTime: 333.4180  Trainloss: 0.8012   Testloss: 1.0172  TrainAcc: 79.36   Top1: 73.9499    Top5: 91.2231
Ep: 99   EpTime: 331.8442  Trainloss: 0.8022   Testloss: 1.0194  TrainAcc: 79.52   Top1: 73.9298    Top5: 91.1328
Ep: 100   EpTime: 335.8647  Trainloss: 0.7897   Testloss: 1.0155  TrainAcc: 79.77   Top1: 73.9298    Top5: 91.0777
