Ep: 1   EpTime: 152.1058 	 Trainloss: 4.6855   Testloss: 4.6792  trainAcc 3.39 top1 4.6115   top5 18.2155
Ep: 2   EpTime: 137.6439 	 Trainloss: 4.2056   Testloss: 4.3217  trainAcc 8.32 top1 9.5439   top5 28.8922
Ep: 3   EpTime: 126.7309 	 Trainloss: 3.7957   Testloss: 3.6869  trainAcc 13.60 top1 15.2632   top5 40.9123
Ep: 4   EpTime: 146.0871 	 Trainloss: 3.4953   Testloss: 3.6797  trainAcc 18.44 top1 16.7719   top5 42.9373
Ep: 5   EpTime: 144.5452 	 Trainloss: 3.2533   Testloss: 3.8661  trainAcc 23.14 top1 18.6266   top5 44.6065
Ep: 6   EpTime: 140.4242 	 Trainloss: 3.0521   Testloss: 3.4628  trainAcc 27.08 top1 23.4336   top5 50.8321
Ep: 7   EpTime: 136.4007 	 Trainloss: 2.8877   Testloss: 2.9398  trainAcc 30.16 top1 30.3409   top5 59.5990
Ep: 8   EpTime: 141.1884 	 Trainloss: 2.7442   Testloss: 2.9078  trainAcc 33.41 top1 31.5238   top5 60.6717
Ep: 9   EpTime: 168.6068 	 Trainloss: 2.6335   Testloss: 3.0964  trainAcc 35.87 top1 31.4135   top5 58.1955
Ep: 10   EpTime: 169.9917 	 Trainloss: 2.5345   Testloss: 2.7137  trainAcc 37.90 top1 36.6767   top5 65.2080
Ep: 11   EpTime: 181.1606 	 Trainloss: 2.4341   Testloss: 2.7725  trainAcc 40.18 top1 35.7794   top5 64.8421
Ep: 12   EpTime: 183.3796 	 Trainloss: 2.3591   Testloss: 2.5261  trainAcc 41.79 top1 41.1078   top5 69.4987
Ep: 13   EpTime: 187.6451 	 Trainloss: 2.2859   Testloss: 2.4092  trainAcc 43.38 top1 42.2607   top5 70.9173
Ep: 14   EpTime: 184.8512 	 Trainloss: 2.2235   Testloss: 2.4035  trainAcc 45.03 top1 43.4085   top5 71.0727
Ep: 15   EpTime: 191.6464 	 Trainloss: 2.1645   Testloss: 2.0717  trainAcc 46.11 top1 47.5138   top5 76.2907
Ep: 16   EpTime: 190.8667 	 Trainloss: 2.1086   Testloss: 2.5065  trainAcc 47.71 top1 42.4411   top5 69.8045
Ep: 17   EpTime: 196.7465 	 Trainloss: 2.0622   Testloss: 3.1224  trainAcc 48.67 top1 36.3709   top5 63.3584
Ep: 18   EpTime: 193.3562 	 Trainloss: 2.0272   Testloss: 2.1756  trainAcc 49.39 top1 47.7995   top5 75.3183
Ep: 19   EpTime: 199.6789 	 Trainloss: 1.9811   Testloss: 2.3562  trainAcc 50.28 top1 44.8972   top5 71.9799
Ep: 20   EpTime: 200.0985 	 Trainloss: 1.9356   Testloss: 2.3076  trainAcc 51.39 top1 46.0200   top5 73.0376
Ep: 21   EpTime: 200.0674 	 Trainloss: 1.9114   Testloss: 2.3008  trainAcc 52.07 top1 44.9524   top5 73.3083
Ep: 22   EpTime: 191.9871 	 Trainloss: 1.8839   Testloss: 1.9763  trainAcc 52.71 top1 52.8170   top5 78.2757
Ep: 23   EpTime: 193.4222 	 Trainloss: 1.8439   Testloss: 1.8702  trainAcc 53.89 top1 54.3659   top5 79.7644
Ep: 24   EpTime: 194.1325 	 Trainloss: 1.8341   Testloss: 2.2577  trainAcc 53.82 top1 47.3835   top5 73.8095
Ep: 25   EpTime: 182.4105 	 Trainloss: 1.7989   Testloss: 1.8892  trainAcc 54.70 top1 53.7393   top5 79.6792
Ep: 26   EpTime: 184.4568 	 Trainloss: 1.7768   Testloss: 2.3596  trainAcc 55.28 top1 46.9273   top5 74.7068
Ep: 27   EpTime: 195.2348 	 Trainloss: 1.7524   Testloss: 2.0288  trainAcc 55.90 top1 52.5013   top5 77.4085
Ep: 28   EpTime: 205.9778 	 Trainloss: 1.7310   Testloss: 1.9194  trainAcc 56.27 top1 53.2632   top5 78.9674
Ep: 29   EpTime: 203.4949 	 Trainloss: 1.7148   Testloss: 1.8980  trainAcc 56.74 top1 54.2757   top5 79.7744
Ep: 30   EpTime: 205.3412 	 Trainloss: 1.6954   Testloss: 1.8030  trainAcc 57.00 top1 55.9749   top5 80.9023
Ep: 31   EpTime: 211.7741 	 Trainloss: 1.6869   Testloss: 1.8466  trainAcc 57.28 top1 54.2005   top5 81.0075
Ep: 32   EpTime: 206.3915 	 Trainloss: 1.6599   Testloss: 1.8111  trainAcc 57.97 top1 55.7945   top5 80.6115
Ep: 33   EpTime: 206.5621 	 Trainloss: 1.6481   Testloss: 1.8347  trainAcc 58.18 top1 56.4561   top5 81.1028
Ep: 34   EpTime: 182.8064 	 Trainloss: 1.6240   Testloss: 1.7382  trainAcc 58.65 top1 56.2406   top5 81.6992
Ep: 35   EpTime: 174.4967 	 Trainloss: 1.6260   Testloss: 2.0155  trainAcc 58.80 top1 53.0226   top5 78.7669
Ep: 36   EpTime: 167.0534 	 Trainloss: 1.6078   Testloss: 2.3456  trainAcc 59.16 top1 49.7644   top5 76.1504
Ep: 37   EpTime: 167.1899 	 Trainloss: 1.5992   Testloss: 1.9222  trainAcc 59.39 top1 53.7945   top5 79.7744
Ep: 38   EpTime: 168.8637 	 Trainloss: 1.5765   Testloss: 1.8686  trainAcc 60.03 top1 54.8321   top5 80.4612
Ep: 39   EpTime: 171.9775 	 Trainloss: 1.5802   Testloss: 1.7659  trainAcc 59.83 top1 57.5539   top5 81.4486
Ep: 40   EpTime: 168.3057 	 Trainloss: 1.3033   Testloss: 1.5309  trainAcc 66.97 top1 61.6892   top5 84.8170
Ep: 41   EpTime: 175.0802 	 Trainloss: 1.2160   Testloss: 1.8392  trainAcc 68.84 top1 57.6140   top5 81.7594
Ep: 42   EpTime: 182.9254 	 Trainloss: 1.1867   Testloss: 1.6260  trainAcc 69.67 top1 60.2005   top5 83.2882
Ep: 43   EpTime: 182.2887 	 Trainloss: 1.1663   Testloss: 1.5754  trainAcc 70.21 top1 61.3684   top5 84.0601
Ep: 44   EpTime: 186.1967 	 Trainloss: 1.1364   Testloss: 1.6536  trainAcc 70.76 top1 61.0476   top5 83.4336
Ep: 45   EpTime: 189.8321 	 Trainloss: 1.1342   Testloss: 1.8347  trainAcc 70.85 top1 58.1754   top5 81.5689
Ep: 46   EpTime: 174.4969 	 Trainloss: 1.1149   Testloss: 1.2729  trainAcc 71.34 top1 68.2657   top5 88.3960
Ep: 47   EpTime: 167.7861 	 Trainloss: 1.1150   Testloss: 1.5444  trainAcc 71.28 top1 63.3383   top5 84.6165
Ep: 48   EpTime: 167.0898 	 Trainloss: 1.0962   Testloss: 1.4215  trainAcc 71.63 top1 65.2331   top5 86.5664
Ep: 49   EpTime: 169.0318 	 Trainloss: 1.0890   Testloss: 1.5685  trainAcc 71.69 top1 63.0226   top5 84.8922
Ep: 50   EpTime: 162.1607 	 Trainloss: 1.0767   Testloss: 1.4784  trainAcc 72.17 top1 63.3484   top5 85.5088
Ep: 51   EpTime: 162.9546 	 Trainloss: 1.0665   Testloss: 1.7154  trainAcc 72.46 top1 60.7068   top5 83.2832
Ep: 52   EpTime: 166.4898 	 Trainloss: 1.0635   Testloss: 1.3841  trainAcc 72.51 top1 65.5589   top5 86.6216
Ep: 53   EpTime: 167.5648 	 Trainloss: 1.0592   Testloss: 1.3491  trainAcc 72.56 top1 65.9699   top5 86.9424
Ep: 54   EpTime: 182.4300 	 Trainloss: 1.0488   Testloss: 1.5610  trainAcc 73.01 top1 63.8897   top5 85.6742
Ep: 55   EpTime: 185.0486 	 Trainloss: 1.0436   Testloss: 1.3637  trainAcc 73.11 top1 66.2356   top5 86.9574
Ep: 56   EpTime: 189.2675 	 Trainloss: 1.0349   Testloss: 1.3147  trainAcc 73.29 top1 67.8346   top5 87.6491
Ep: 57   EpTime: 183.4097 	 Trainloss: 1.0335   Testloss: 1.3207  trainAcc 73.09 top1 67.7093   top5 87.5489
Ep: 58   EpTime: 179.5289 	 Trainloss: 1.0212   Testloss: 1.3382  trainAcc 73.60 top1 66.5263   top5 87.5639
Ep: 59   EpTime: 172.5121 	 Trainloss: 1.0197   Testloss: 1.8803  trainAcc 73.41 top1 57.6892   top5 81.2632
Ep: 60   EpTime: 169.7672 	 Trainloss: 1.0097   Testloss: 2.1934  trainAcc 73.73 top1 52.0401   top5 76.0852
Ep: 61   EpTime: 173.3916 	 Trainloss: 1.0037   Testloss: 1.3570  trainAcc 73.83 top1 66.3509   top5 87.3333
Ep: 62   EpTime: 164.9089 	 Trainloss: 1.0014   Testloss: 1.4743  trainAcc 74.23 top1 65.0827   top5 86.1153
Ep: 63   EpTime: 162.1772 	 Trainloss: 0.9913   Testloss: 1.4453  trainAcc 74.27 top1 66.1754   top5 86.3809
Ep: 64   EpTime: 165.4679 	 Trainloss: 0.9969   Testloss: 1.4398  trainAcc 74.12 top1 65.7393   top5 86.7870
Ep: 65   EpTime: 169.7239 	 Trainloss: 0.9879   Testloss: 1.4150  trainAcc 74.44 top1 66.0451   top5 86.8571
Ep: 66   EpTime: 170.7753 	 Trainloss: 0.9847   Testloss: 1.3437  trainAcc 74.41 top1 67.7444   top5 87.8195
Ep: 67   EpTime: 180.2501 	 Trainloss: 0.9759   Testloss: 1.3996  trainAcc 74.60 top1 66.3960   top5 86.7018
Ep: 68   EpTime: 180.3225 	 Trainloss: 0.9688   Testloss: 1.4998  trainAcc 74.81 top1 63.6792   top5 84.9774
Ep: 69   EpTime: 195.6235 	 Trainloss: 0.9739   Testloss: 1.5092  trainAcc 74.90 top1 63.8747   top5 85.1378
Ep: 70   EpTime: 189.2683 	 Trainloss: 0.9631   Testloss: 1.3968  trainAcc 75.03 top1 65.8947   top5 86.5013
Ep: 71   EpTime: 190.6254 	 Trainloss: 0.9564   Testloss: 1.5198  trainAcc 74.95 top1 64.1504   top5 85.1679
Ep: 72   EpTime: 180.9892 	 Trainloss: 0.9532   Testloss: 1.4111  trainAcc 75.17 top1 65.8647   top5 86.9123
Ep: 73   EpTime: 172.9677 	 Trainloss: 0.9476   Testloss: 1.6844  trainAcc 75.32 top1 62.1604   top5 84.4812
Ep: 74   EpTime: 172.9636 	 Trainloss: 0.9400   Testloss: 1.4059  trainAcc 75.52 top1 65.6491   top5 86.9975
Ep: 75   EpTime: 166.1938 	 Trainloss: 0.9372   Testloss: 1.5041  trainAcc 75.48 top1 63.7093   top5 85.2932
Ep: 76   EpTime: 174.2052 	 Trainloss: 0.9326   Testloss: 1.4634  trainAcc 75.79 top1 65.2682   top5 85.6090
Ep: 77   EpTime: 162.8505 	 Trainloss: 0.9320   Testloss: 1.7824  trainAcc 75.64 top1 61.1529   top5 83.8596
Ep: 78   EpTime: 159.6895 	 Trainloss: 0.9347   Testloss: 1.3744  trainAcc 75.68 top1 66.6266   top5 87.2381
Ep: 79   EpTime: 162.8888 	 Trainloss: 0.9314   Testloss: 1.5173  trainAcc 75.64 top1 64.7218   top5 86.0752
Ep: 80   EpTime: 180.8638 	 Trainloss: 0.8872   Testloss: 1.4847  trainAcc 76.96 top1 65.3985   top5 86.0100
Ep: 81   EpTime: 182.3953 	 Trainloss: 0.8625   Testloss: 1.4270  trainAcc 77.68 top1 65.5739   top5 86.3659
Ep: 82   EpTime: 187.3249 	 Trainloss: 0.8584   Testloss: 1.6437  trainAcc 77.69 top1 61.7243   top5 83.7243
Ep: 83   EpTime: 187.3506 	 Trainloss: 0.8557   Testloss: 1.5469  trainAcc 77.96 top1 64.9323   top5 86.1303
Ep: 84   EpTime: 186.2739 	 Trainloss: 0.8501   Testloss: 1.4773  trainAcc 78.00 top1 66.2055   top5 86.6416
Ep: 85   EpTime: 183.5483 	 Trainloss: 0.8422   Testloss: 1.4692  trainAcc 78.26 top1 64.7068   top5 85.7694
Ep: 86   EpTime: 175.2824 	 Trainloss: 0.8495   Testloss: 1.4086  trainAcc 78.03 top1 65.6642   top5 86.5113
Ep: 87   EpTime: 174.7107 	 Trainloss: 0.8513   Testloss: 1.3542  trainAcc 77.91 top1 67.2030   top5 87.4737
Ep: 88   EpTime: 174.8179 	 Trainloss: 0.8478   Testloss: 1.4685  trainAcc 78.18 top1 65.5088   top5 86.1754
Ep: 89   EpTime: 171.4805 	 Trainloss: 0.8357   Testloss: 1.6302  trainAcc 78.29 top1 62.3559   top5 84.3007
Ep: 90   EpTime: 172.0016 	 Trainloss: 0.8400   Testloss: 1.4697  trainAcc 78.17 top1 65.3283   top5 85.9398
Ep: 91   EpTime: 166.2655 	 Trainloss: 0.8345   Testloss: 1.6085  trainAcc 78.39 top1 63.7243   top5 84.8070
Ep: 92   EpTime: 163.5835 	 Trainloss: 0.8336   Testloss: 1.4293  trainAcc 78.42 top1 65.8546   top5 86.9373
Ep: 93   EpTime: 162.6580 	 Trainloss: 0.8381   Testloss: 1.6120  trainAcc 78.47 top1 62.1905   top5 83.9449
Ep: 94   EpTime: 182.3607 	 Trainloss: 0.8314   Testloss: 1.3975  trainAcc 78.43 top1 66.0902   top5 87.0827
Ep: 95   EpTime: 180.9865 	 Trainloss: 0.8291   Testloss: 1.5566  trainAcc 78.55 top1 64.8521   top5 85.5940
Ep: 96   EpTime: 195.2169 	 Trainloss: 0.8328   Testloss: 1.5173  trainAcc 78.45 top1 64.5313   top5 85.4035
Ep: 97   EpTime: 186.1109 	 Trainloss: 0.8306   Testloss: 1.3773  trainAcc 78.44 top1 68.2707   top5 87.9148
Ep: 98   EpTime: 171.3774 	 Trainloss: 0.8315   Testloss: 1.4146  trainAcc 78.53 top1 65.8546   top5 86.7419
Ep: 99   EpTime: 175.0931 	 Trainloss: 0.8242   Testloss: 1.3316  trainAcc 78.75 top1 68.3358   top5 87.8647
Ep: 100   EpTime: 168.0240 	 Trainloss: 0.8345   Testloss: 1.3822  trainAcc 78.38 top1 67.2982   top5 87.4336
Ep: 101   EpTime: 163.8592 	 Trainloss: 0.8294   Testloss: 1.8803  trainAcc 78.58 top1 57.8246   top5 81.2231
Ep: 102   EpTime: 159.5655 	 Trainloss: 0.8285   Testloss: 1.5146  trainAcc 78.50 top1 64.1654   top5 85.4887
Ep: 103   EpTime: 168.6175 	 Trainloss: 0.8270   Testloss: 1.7571  trainAcc 78.52 top1 60.0050   top5 82.9774
Ep: 104   EpTime: 179.7599 	 Trainloss: 0.8230   Testloss: 1.3388  trainAcc 78.73 top1 67.8797   top5 87.8847
Ep: 105   EpTime: 177.7351 	 Trainloss: 0.8237   Testloss: 1.3950  trainAcc 78.76 top1 66.9724   top5 87.1078
Ep: 106   EpTime: 181.3605 	 Trainloss: 0.8218   Testloss: 1.4114  trainAcc 78.78 top1 66.5915   top5 86.7118
Ep: 107   EpTime: 175.7395 	 Trainloss: 0.8191   Testloss: 1.4424  trainAcc 78.59 top1 65.4687   top5 86.2406
Ep: 108   EpTime: 182.4009 	 Trainloss: 0.8199   Testloss: 1.4313  trainAcc 78.98 top1 66.2707   top5 87.0977
Ep: 109   EpTime: 171.0091 	 Trainloss: 0.8285   Testloss: 1.2856  trainAcc 78.56 top1 68.3810   top5 88.0150
Ep: 110   EpTime: 175.5433 	 Trainloss: 0.8206   Testloss: 1.5778  trainAcc 78.86 top1 63.5388   top5 85.4085
Ep: 111   EpTime: 173.6775 	 Trainloss: 0.8232   Testloss: 1.3770  trainAcc 78.80 top1 66.5865   top5 87.1679
Ep: 112   EpTime: 165.1503 	 Trainloss: 0.8201   Testloss: 1.5968  trainAcc 78.89 top1 63.4687   top5 84.8672
Ep: 113   EpTime: 164.6021 	 Trainloss: 0.8190   Testloss: 1.4890  trainAcc 78.83 top1 64.6566   top5 85.7143
Ep: 114   EpTime: 171.8117 	 Trainloss: 0.8233   Testloss: 1.3815  trainAcc 78.80 top1 67.7594   top5 87.8697
Ep: 115   EpTime: 183.2479 	 Trainloss: 0.8138   Testloss: 1.7377  trainAcc 78.90 top1 60.8271   top5 83.4687
Ep: 116   EpTime: 188.9464 	 Trainloss: 0.8088   Testloss: 1.4968  trainAcc 79.03 top1 64.8872   top5 85.7043
Ep: 117   EpTime: 192.7486 	 Trainloss: 0.8237   Testloss: 1.4851  trainAcc 78.85 top1 65.3283   top5 86.1554
Ep: 118   EpTime: 183.7959 	 Trainloss: 0.8153   Testloss: 1.5595  trainAcc 78.82 top1 64.2155   top5 85.2882
Ep: 119   EpTime: 179.7305 	 Trainloss: 0.8055   Testloss: 1.3571  trainAcc 79.17 top1 68.0150   top5 87.6040
Ep: 120   EpTime: 175.9207 	 Trainloss: 0.8021   Testloss: 1.3977  trainAcc 79.23 top1 66.5414   top5 86.7419
Ep: 121   EpTime: 168.9059 	 Trainloss: 0.8086   Testloss: 1.3475  trainAcc 79.10 top1 68.2406   top5 87.7093
Ep: 122   EpTime: 171.2577 	 Trainloss: 0.8034   Testloss: 1.4688  trainAcc 79.43 top1 65.3885   top5 85.7995
Ep: 123   EpTime: 173.1959 	 Trainloss: 0.8070   Testloss: 1.5625  trainAcc 79.20 top1 63.7043   top5 84.8170
Ep: 124   EpTime: 176.4319 	 Trainloss: 0.8083   Testloss: 1.5602  trainAcc 78.95 top1 64.2406   top5 85.1629
Ep: 125   EpTime: 167.8748 	 Trainloss: 0.8023   Testloss: 1.3968  trainAcc 79.24 top1 66.9424   top5 87.2431
Ep: 126   EpTime: 173.3189 	 Trainloss: 0.8040   Testloss: 1.4683  trainAcc 79.27 top1 65.9900   top5 86.6667
Ep: 127   EpTime: 172.7096 	 Trainloss: 0.8019   Testloss: 1.4095  trainAcc 79.40 top1 66.7368   top5 86.8922
Ep: 128   EpTime: 185.7775 	 Trainloss: 0.8003   Testloss: 1.4756  trainAcc 79.46 top1 64.7218   top5 85.8296
Ep: 129   EpTime: 189.8878 	 Trainloss: 0.8041   Testloss: 1.4576  trainAcc 79.20 top1 66.1454   top5 86.6266
Ep: 130   EpTime: 183.6465 	 Trainloss: 0.8074   Testloss: 1.6362  trainAcc 79.23 top1 62.3358   top5 83.9850
Ep: 131   EpTime: 174.2903 	 Trainloss: 0.8041   Testloss: 1.4547  trainAcc 79.26 top1 65.8195   top5 86.5414
Ep: 132   EpTime: 173.7880 	 Trainloss: 0.8048   Testloss: 1.6455  trainAcc 79.32 top1 62.4812   top5 84.3559
Ep: 133   EpTime: 174.5183 	 Trainloss: 0.7975   Testloss: 1.3933  trainAcc 79.26 top1 67.1128   top5 87.1278
Ep: 134   EpTime: 172.1432 	 Trainloss: 0.7979   Testloss: 1.5077  trainAcc 79.29 top1 66.1303   top5 86.6917
Ep: 135   EpTime: 166.5422 	 Trainloss: 0.8040   Testloss: 1.2977  trainAcc 79.23 top1 69.1429   top5 88.1604
Ep: 136   EpTime: 167.7165 	 Trainloss: 0.8009   Testloss: 1.5920  trainAcc 79.41 top1 62.6667   top5 84.2707
Ep: 137   EpTime: 166.4187 	 Trainloss: 0.8040   Testloss: 1.4050  trainAcc 79.23 top1 67.6742   top5 87.6942
Ep: 138   EpTime: 165.4974 	 Trainloss: 0.8051   Testloss: 1.4112  trainAcc 79.20 top1 66.2005   top5 86.7068
Ep: 139   EpTime: 179.6637 	 Trainloss: 0.8080   Testloss: 1.5375  trainAcc 78.99 top1 63.0777   top5 84.9373
Ep: 140   EpTime: 189.9411 	 Trainloss: 0.8030   Testloss: 1.3538  trainAcc 79.11 top1 67.5789   top5 87.9549
Ep: 141   EpTime: 188.6099 	 Trainloss: 0.8016   Testloss: 1.5085  trainAcc 79.28 top1 64.4812   top5 85.8396
Ep: 142   EpTime: 175.1839 	 Trainloss: 0.8000   Testloss: 1.3082  trainAcc 79.46 top1 68.0501   top5 87.8647
Ep: 143   EpTime: 176.4415 	 Trainloss: 0.8028   Testloss: 1.3482  trainAcc 79.25 top1 67.2381   top5 87.5038
Ep: 144   EpTime: 177.1332 	 Trainloss: 0.7975   Testloss: 1.4164  trainAcc 79.36 top1 67.0276   top5 87.2732
Ep: 145   EpTime: 171.0246 	 Trainloss: 0.8029   Testloss: 1.7317  trainAcc 79.28 top1 60.7068   top5 82.7218
Ep: 146   EpTime: 170.8273 	 Trainloss: 0.7958   Testloss: 1.5284  trainAcc 79.24 top1 64.2205   top5 85.2431
Ep: 147   EpTime: 167.4926 	 Trainloss: 0.8016   Testloss: 1.7925  trainAcc 79.34 top1 60.4612   top5 83.1328
Ep: 148   EpTime: 160.6106 	 Trainloss: 0.8031   Testloss: 1.4028  trainAcc 79.29 top1 66.6717   top5 86.8471
Ep: 149   EpTime: 168.8219 	 Trainloss: 0.7957   Testloss: 1.7729  trainAcc 79.40 top1 60.7268   top5 83.2231
Ep: 150   EpTime: 177.0194 	 Trainloss: 0.8012   Testloss: 1.4014  trainAcc 79.35 top1 67.9048   top5 87.9499
Ep: 151   EpTime: 176.5179 	 Trainloss: 0.7978   Testloss: 1.3434  trainAcc 79.21 top1 67.0877   top5 87.3083
Ep: 152   EpTime: 174.4520 	 Trainloss: 0.7940   Testloss: 1.2663  trainAcc 79.49 top1 69.3133   top5 88.3910
Ep: 153   EpTime: 170.1633 	 Trainloss: 0.8003   Testloss: 1.6163  trainAcc 79.26 top1 62.6416   top5 84.0401
Ep: 154   EpTime: 167.2975 	 Trainloss: 0.8041   Testloss: 1.5640  trainAcc 79.26 top1 63.4637   top5 85.3985
Ep: 155   EpTime: 174.9245 	 Trainloss: 0.8035   Testloss: 1.4612  trainAcc 79.32 top1 65.6892   top5 85.8847
Ep: 156   EpTime: 174.9400 	 Trainloss: 0.8062   Testloss: 1.6148  trainAcc 79.14 top1 62.3058   top5 84.0451
Ep: 157   EpTime: 173.2671 	 Trainloss: 0.7971   Testloss: 1.3634  trainAcc 79.44 top1 66.8772   top5 87.2782
Ep: 158   EpTime: 171.7364 	 Trainloss: 0.7923   Testloss: 1.3716  trainAcc 79.55 top1 67.6391   top5 87.4185
Ep: 159   EpTime: 175.3998 	 Trainloss: 0.8065   Testloss: 1.4874  trainAcc 79.17 top1 64.6115   top5 85.9699
Ep: 160   EpTime: 182.4668 	 Trainloss: 0.7947   Testloss: 1.6385  trainAcc 79.62 top1 62.2757   top5 83.8396
Ep: 161   EpTime: 187.6212 	 Trainloss: 0.8010   Testloss: 1.4036  trainAcc 79.29 top1 66.8371   top5 87.1930
Ep: 162   EpTime: 190.6173 	 Trainloss: 0.7978   Testloss: 1.3360  trainAcc 79.30 top1 67.8847   top5 86.9975
Ep: 163   EpTime: 187.2586 	 Trainloss: 0.7906   Testloss: 1.4915  trainAcc 79.61 top1 64.8672   top5 85.8296
Ep: 164   EpTime: 176.0584 	 Trainloss: 0.7984   Testloss: 1.6621  trainAcc 79.34 top1 62.1103   top5 83.9298
Ep: 165   EpTime: 170.4125 	 Trainloss: 0.8003   Testloss: 1.4708  trainAcc 79.37 top1 66.2757   top5 86.7769
Ep: 166   EpTime: 170.7840 	 Trainloss: 0.7963   Testloss: 1.4453  trainAcc 79.36 top1 66.6867   top5 86.6316
Ep: 167   EpTime: 167.4661 	 Trainloss: 0.8005   Testloss: 1.3453  trainAcc 79.25 top1 68.3709   top5 87.9900
Ep: 168   EpTime: 162.4779 	 Trainloss: 0.8015   Testloss: 1.5196  trainAcc 79.37 top1 63.6642   top5 85.5990
Ep: 169   EpTime: 167.2766 	 Trainloss: 0.7924   Testloss: 1.4834  trainAcc 79.60 top1 66.0351   top5 86.1053
Ep: 170   EpTime: 167.8562 	 Trainloss: 0.7972   Testloss: 1.4324  trainAcc 79.48 top1 65.6892   top5 86.5013
Ep: 171   EpTime: 182.1342 	 Trainloss: 0.7971   Testloss: 1.3174  trainAcc 79.42 top1 68.5313   top5 88.2506
Ep: 172   EpTime: 177.8118 	 Trainloss: 0.8016   Testloss: 1.5356  trainAcc 79.35 top1 63.9950   top5 85.4286
Ep: 173   EpTime: 174.5778 	 Trainloss: 0.8027   Testloss: 1.4533  trainAcc 79.32 top1 65.3133   top5 86.1504
Ep: 174   EpTime: 176.0082 	 Trainloss: 0.8005   Testloss: 1.3202  trainAcc 79.44 top1 68.1855   top5 87.6591
Ep: 175   EpTime: 179.7306 	 Trainloss: 0.7987   Testloss: 1.4049  trainAcc 79.31 top1 66.3559   top5 86.6817
Ep: 176   EpTime: 190.2431 	 Trainloss: 0.7951   Testloss: 1.5875  trainAcc 79.47 top1 63.6992   top5 84.9323
Ep: 177   EpTime: 185.6734 	 Trainloss: 0.8033   Testloss: 1.3663  trainAcc 79.14 top1 67.1830   top5 87.5088
Ep: 178   EpTime: 181.0931 	 Trainloss: 0.7986   Testloss: 1.3500  trainAcc 79.47 top1 67.6241   top5 87.7644
Ep: 179   EpTime: 188.8717 	 Trainloss: 0.8018   Testloss: 1.4728  trainAcc 79.20 top1 66.1403   top5 86.7018
Ep: 180   EpTime: 184.7094 	 Trainloss: 0.8000   Testloss: 1.4016  trainAcc 79.20 top1 66.2807   top5 86.8672
Ep: 181   EpTime: 185.1653 	 Trainloss: 0.8022   Testloss: 2.1117  trainAcc 79.30 top1 56.8020   top5 80.5714
Ep: 182   EpTime: 181.1565 	 Trainloss: 0.7883   Testloss: 1.3513  trainAcc 79.63 top1 68.1203   top5 87.7544
Ep: 183   EpTime: 177.5791 	 Trainloss: 0.7959   Testloss: 1.4206  trainAcc 79.38 top1 67.5840   top5 87.8095
Ep: 184   EpTime: 171.2707 	 Trainloss: 0.7990   Testloss: 1.4036  trainAcc 79.37 top1 67.5689   top5 87.4937
Ep: 185   EpTime: 177.7619 	 Trainloss: 0.8028   Testloss: 2.1670  trainAcc 79.43 top1 53.7794   top5 77.4286
Ep: 186   EpTime: 178.3727 	 Trainloss: 0.7996   Testloss: 1.3366  trainAcc 79.46 top1 66.9273   top5 87.4386
Ep: 187   EpTime: 170.9671 	 Trainloss: 0.7922   Testloss: 1.6200  trainAcc 79.35 top1 63.1328   top5 84.5664
Ep: 188   EpTime: 173.6927 	 Trainloss: 0.7973   Testloss: 1.4264  trainAcc 79.48 top1 65.8195   top5 86.3709
Ep: 189   EpTime: 166.0232 	 Trainloss: 0.8039   Testloss: 1.3266  trainAcc 79.14 top1 68.4311   top5 87.8296
Ep: 190   EpTime: 172.7713 	 Trainloss: 0.7972   Testloss: 1.3094  trainAcc 79.44 top1 68.1704   top5 87.5489
Ep: 191   EpTime: 185.3548 	 Trainloss: 0.8026   Testloss: 1.3587  trainAcc 79.27 top1 67.5439   top5 87.4185
Ep: 192   EpTime: 182.4747 	 Trainloss: 0.8035   Testloss: 1.5460  trainAcc 79.28 top1 64.7870   top5 85.6591
Ep: 193   EpTime: 180.3649 	 Trainloss: 0.8015   Testloss: 1.5023  trainAcc 79.24 top1 65.8095   top5 86.5013
Ep: 194   EpTime: 181.1865 	 Trainloss: 0.7995   Testloss: 1.3675  trainAcc 79.33 top1 67.3634   top5 87.1429
Ep: 195   EpTime: 187.2233 	 Trainloss: 0.8007   Testloss: 1.5793  trainAcc 79.28 top1 63.8847   top5 84.9323
Ep: 196   EpTime: 186.6893 	 Trainloss: 0.7887   Testloss: 1.3722  trainAcc 79.51 top1 66.9373   top5 87.1078
Ep: 197   EpTime: 181.8632 	 Trainloss: 0.7992   Testloss: 1.4342  trainAcc 79.34 top1 66.2005   top5 86.3759
Ep: 198   EpTime: 172.2341 	 Trainloss: 0.7936   Testloss: 1.4268  trainAcc 79.33 top1 67.2231   top5 87.1028
Ep: 199   EpTime: 172.4654 	 Trainloss: 0.8025   Testloss: 1.3085  trainAcc 79.27 top1 68.1203   top5 87.5789
Ep: 200   EpTime: 178.5055 	 Trainloss: 0.8079   Testloss: 1.6945  trainAcc 79.07 top1 62.2907   top5 83.7694
Ep: 201   EpTime: 175.8015 	 Trainloss: 0.7968   Testloss: 1.6284  trainAcc 79.39 top1 62.8922   top5 83.9499
Ep: 202   EpTime: 165.8376 	 Trainloss: 0.8072   Testloss: 1.4511  trainAcc 79.20 top1 66.4762   top5 86.7719
Ep: 203   EpTime: 175.9808 	 Trainloss: 0.7987   Testloss: 1.3688  trainAcc 79.36 top1 66.7268   top5 87.1579
Ep: 204   EpTime: 168.3245 	 Trainloss: 0.8129   Testloss: 1.5120  trainAcc 79.00 top1 63.6241   top5 85.6541
Ep: 205   EpTime: 180.9167 	 Trainloss: 0.7969   Testloss: 1.4034  trainAcc 79.50 top1 66.8521   top5 86.8321
Ep: 206   EpTime: 178.3044 	 Trainloss: 0.8005   Testloss: 1.6128  trainAcc 79.42 top1 63.4737   top5 84.6015
Ep: 207   EpTime: 184.4605 	 Trainloss: 0.7977   Testloss: 1.5398  trainAcc 79.38 top1 64.4962   top5 85.0526
Ep: 208   EpTime: 184.0847 	 Trainloss: 0.7984   Testloss: 1.3934  trainAcc 79.43 top1 66.9223   top5 87.0977
Ep: 209   EpTime: 171.3124 	 Trainloss: 0.8011   Testloss: 1.4498  trainAcc 79.44 top1 66.5564   top5 86.8571
Ep: 210   EpTime: 172.4860 	 Trainloss: 0.8003   Testloss: 1.2882  trainAcc 79.25 top1 68.6566   top5 88.4662
Ep: 211   EpTime: 165.7932 	 Trainloss: 0.7948   Testloss: 1.5124  trainAcc 79.51 top1 65.7143   top5 86.3459
Ep: 212   EpTime: 172.2675 	 Trainloss: 0.7957   Testloss: 1.3762  trainAcc 79.36 top1 66.7268   top5 87.1779
Ep: 213   EpTime: 177.1300 	 Trainloss: 0.8034   Testloss: 1.3344  trainAcc 79.32 top1 67.9198   top5 87.5088
Ep: 214   EpTime: 178.6577 	 Trainloss: 0.7986   Testloss: 1.3940  trainAcc 79.33 top1 66.7619   top5 87.1729
Ep: 215   EpTime: 175.6610 	 Trainloss: 0.7917   Testloss: 1.8159  trainAcc 79.58 top1 59.6591   top5 82.6416
Ep: 216   EpTime: 136.8548 	 Trainloss: 0.7990   Testloss: 1.4322  trainAcc 79.36 top1 65.9850   top5 86.8421
Ep: 217   EpTime: 148.5518 	 Trainloss: 0.8042   Testloss: 1.3388  trainAcc 79.23 top1 67.5238   top5 87.4286
Ep: 218   EpTime: 146.4009 	 Trainloss: 0.7928   Testloss: 1.4391  trainAcc 79.60 top1 66.0351   top5 86.4912
Ep: 219   EpTime: 146.5363 	 Trainloss: 0.8023   Testloss: 1.4475  trainAcc 79.25 top1 66.5363   top5 86.8772
Ep: 220   EpTime: 139.8368 	 Trainloss: 0.7966   Testloss: 1.4630  trainAcc 79.40 top1 65.8496   top5 86.5865
