Ep: 1   EpTime: 176.4385 	 Trainloss: 4.8166   Testloss: 4.7599  trainAcc 2.10 top1 3.0977   top5 12.2607
Ep: 2   EpTime: 150.8834 	 Trainloss: 4.4866   Testloss: 4.4580  trainAcc 5.08 top1 6.6115   top5 21.0125
Ep: 3   EpTime: 151.4925 	 Trainloss: 4.1742   Testloss: 3.9740  trainAcc 8.84 top1 11.2331   top5 32.4060
Ep: 4   EpTime: 150.5226 	 Trainloss: 3.8044   Testloss: 3.5181  trainAcc 13.70 top1 17.7393   top5 44.5714
Ep: 5   EpTime: 150.3946 	 Trainloss: 3.5530   Testloss: 3.4165  trainAcc 17.57 top1 20.4110   top5 47.8396
Ep: 6   EpTime: 150.6612 	 Trainloss: 3.3541   Testloss: 3.2197  trainAcc 21.11 top1 24.4160   top5 52.2707
Ep: 7   EpTime: 153.5202 	 Trainloss: 3.1973   Testloss: 2.9660  trainAcc 23.90 top1 28.1253   top5 57.4436
Ep: 8   EpTime: 150.9679 	 Trainloss: 3.0577   Testloss: 2.8957  trainAcc 26.68 top1 28.7519   top5 59.6241
Ep: 9   EpTime: 152.2496 	 Trainloss: 2.9371   Testloss: 2.7542  trainAcc 29.30 top1 32.7018   top5 62.4411
Ep: 10   EpTime: 157.1795 	 Trainloss: 2.8328   Testloss: 2.7926  trainAcc 31.45 top1 32.6316   top5 62.0401
Ep: 11   EpTime: 158.2656 	 Trainloss: 2.7397   Testloss: 2.5112  trainAcc 33.38 top1 37.5539   top5 67.8296
Ep: 12   EpTime: 155.5887 	 Trainloss: 2.6472   Testloss: 2.4194  trainAcc 35.29 top1 39.5789   top5 69.4787
Ep: 13   EpTime: 150.7180 	 Trainloss: 2.5783   Testloss: 2.3034  trainAcc 36.78 top1 42.1554   top5 71.6391
Ep: 14   EpTime: 151.8125 	 Trainloss: 2.5078   Testloss: 2.2422  trainAcc 38.25 top1 43.6842   top5 72.7268
Ep: 15   EpTime: 148.9895 	 Trainloss: 2.4490   Testloss: 2.1889  trainAcc 39.46 top1 45.3534   top5 73.7043
Ep: 16   EpTime: 151.0521 	 Trainloss: 2.3856   Testloss: 2.1430  trainAcc 40.80 top1 45.8095   top5 74.5263
Ep: 17   EpTime: 152.5180 	 Trainloss: 2.3467   Testloss: 2.0900  trainAcc 41.67 top1 46.9624   top5 75.7343
Ep: 18   EpTime: 151.9473 	 Trainloss: 2.2953   Testloss: 2.0909  trainAcc 42.97 top1 47.4687   top5 75.7845
Ep: 19   EpTime: 158.8353 	 Trainloss: 2.2495   Testloss: 2.0448  trainAcc 44.03 top1 48.3559   top5 76.3609
Ep: 20   EpTime: 174.2995 	 Trainloss: 2.2060   Testloss: 1.9948  trainAcc 44.88 top1 49.6291   top5 77.0476
Ep: 21   EpTime: 166.7711 	 Trainloss: 2.1781   Testloss: 1.9855  trainAcc 45.60 top1 50.0100   top5 77.2231
Ep: 22   EpTime: 168.4532 	 Trainloss: 2.1459   Testloss: 1.9612  trainAcc 46.18 top1 50.5163   top5 77.8346
Ep: 23   EpTime: 174.4561 	 Trainloss: 2.1112   Testloss: 1.8966  trainAcc 47.13 top1 52.1504   top5 79.0777
Ep: 24   EpTime: 171.0219 	 Trainloss: 2.0817   Testloss: 1.8652  trainAcc 47.68 top1 52.7669   top5 79.3584
Ep: 25   EpTime: 173.7548 	 Trainloss: 2.0577   Testloss: 1.9387  trainAcc 48.23 top1 51.2832   top5 78.1855
Ep: 26   EpTime: 165.4457 	 Trainloss: 2.0237   Testloss: 1.8975  trainAcc 49.12 top1 51.8797   top5 78.6266
Ep: 27   EpTime: 173.4965 	 Trainloss: 2.0066   Testloss: 1.7825  trainAcc 49.54 top1 55.1980   top5 80.3108
Ep: 28   EpTime: 167.2809 	 Trainloss: 1.9731   Testloss: 1.8193  trainAcc 50.13 top1 53.1028   top5 80.0301
Ep: 29   EpTime: 170.1920 	 Trainloss: 1.9532   Testloss: 1.8316  trainAcc 50.86 top1 53.6040   top5 80.0952
Ep: 30   EpTime: 171.8536 	 Trainloss: 1.9182   Testloss: 1.7266  trainAcc 51.50 top1 55.5840   top5 81.7393
Ep: 31   EpTime: 162.7373 	 Trainloss: 1.9143   Testloss: 1.7812  trainAcc 51.79 top1 55.1128   top5 80.6416
Ep: 32   EpTime: 175.3988 	 Trainloss: 1.8765   Testloss: 1.7114  trainAcc 52.51 top1 56.4160   top5 81.5138
Ep: 33   EpTime: 179.0346 	 Trainloss: 1.8608   Testloss: 1.7314  trainAcc 52.91 top1 55.8747   top5 81.4286
Ep: 34   EpTime: 175.6873 	 Trainloss: 1.8578   Testloss: 1.7630  trainAcc 52.85 top1 55.4586   top5 81.7343
Ep: 35   EpTime: 179.3900 	 Trainloss: 1.8407   Testloss: 1.7189  trainAcc 53.34 top1 55.9850   top5 81.6642
Ep: 36   EpTime: 170.2587 	 Trainloss: 1.8257   Testloss: 1.7145  trainAcc 53.86 top1 56.4511   top5 81.7243
Ep: 37   EpTime: 157.1235 	 Trainloss: 1.8113   Testloss: 1.7541  trainAcc 53.90 top1 56.2556   top5 81.3333
Ep: 38   EpTime: 160.6866 	 Trainloss: 1.7953   Testloss: 1.6561  trainAcc 54.45 top1 57.9699   top5 82.6366
Ep: 39   EpTime: 170.1884 	 Trainloss: 1.7869   Testloss: 1.6962  trainAcc 54.69 top1 56.8070   top5 82.0100
Ep: 40   EpTime: 171.0122 	 Trainloss: 1.5422   Testloss: 1.5027  trainAcc 60.57 top1 61.7794   top5 84.7870
Ep: 41   EpTime: 166.9097 	 Trainloss: 1.4718   Testloss: 1.4138  trainAcc 62.25 top1 63.4286   top5 85.7544
Ep: 42   EpTime: 167.4505 	 Trainloss: 1.4380   Testloss: 1.3986  trainAcc 62.96 top1 63.8496   top5 86.0952
Ep: 43   EpTime: 168.2689 	 Trainloss: 1.4227   Testloss: 1.4112  trainAcc 63.34 top1 63.7093   top5 86.1955
Ep: 44   EpTime: 167.8005 	 Trainloss: 1.4065   Testloss: 1.3884  trainAcc 63.78 top1 64.1905   top5 86.4010
Ep: 45   EpTime: 169.4010 	 Trainloss: 1.3948   Testloss: 1.3799  trainAcc 64.07 top1 64.3058   top5 86.2155
Ep: 46   EpTime: 165.1186 	 Trainloss: 1.3868   Testloss: 1.3968  trainAcc 63.98 top1 64.1353   top5 86.1504
Ep: 47   EpTime: 166.6554 	 Trainloss: 1.3768   Testloss: 1.3691  trainAcc 64.62 top1 64.9674   top5 86.6115
Ep: 48   EpTime: 178.5750 	 Trainloss: 1.3697   Testloss: 1.4053  trainAcc 64.60 top1 64.4160   top5 86.0201
Ep: 49   EpTime: 172.2154 	 Trainloss: 1.3552   Testloss: 1.3476  trainAcc 64.95 top1 65.2832   top5 86.7419
Ep: 50   EpTime: 165.8097 	 Trainloss: 1.3479   Testloss: 1.3267  trainAcc 65.07 top1 65.7393   top5 87.3584
Ep: 51   EpTime: 161.9895 	 Trainloss: 1.3436   Testloss: 1.3746  trainAcc 65.29 top1 64.5414   top5 86.6216
Ep: 52   EpTime: 166.2351 	 Trainloss: 1.3344   Testloss: 1.3193  trainAcc 65.35 top1 65.8246   top5 87.2932
Ep: 53   EpTime: 178.1439 	 Trainloss: 1.3303   Testloss: 1.3579  trainAcc 65.39 top1 65.2481   top5 86.7168
Ep: 54   EpTime: 170.5202 	 Trainloss: 1.3295   Testloss: 1.3187  trainAcc 65.71 top1 66.0602   top5 87.2782
Ep: 55   EpTime: 168.9287 	 Trainloss: 1.3199   Testloss: 1.3132  trainAcc 65.89 top1 66.0501   top5 87.5489
Ep: 56   EpTime: 163.5164 	 Trainloss: 1.3077   Testloss: 1.3440  trainAcc 66.00 top1 65.3935   top5 87.0827
Ep: 57   EpTime: 173.6577 	 Trainloss: 1.3058   Testloss: 1.3475  trainAcc 66.18 top1 65.3183   top5 86.9624
Ep: 58   EpTime: 163.1327 	 Trainloss: 1.3035   Testloss: 1.3024  trainAcc 66.37 top1 66.2707   top5 87.4637
Ep: 59   EpTime: 166.2444 	 Trainloss: 1.2932   Testloss: 1.3401  trainAcc 66.39 top1 65.3584   top5 87.2882
Ep: 60   EpTime: 172.0555 	 Trainloss: 1.2927   Testloss: 1.3277  trainAcc 66.42 top1 65.8145   top5 87.2030
Ep: 61   EpTime: 168.1954 	 Trainloss: 1.2879   Testloss: 1.3230  trainAcc 66.55 top1 65.8847   top5 87.3083
Ep: 62   EpTime: 161.1534 	 Trainloss: 1.2688   Testloss: 1.3611  trainAcc 66.97 top1 65.2381   top5 86.8020
Ep: 63   EpTime: 169.3880 	 Trainloss: 1.2688   Testloss: 1.3304  trainAcc 66.80 top1 66.0301   top5 87.4286
Ep: 64   EpTime: 163.9209 	 Trainloss: 1.2698   Testloss: 1.3054  trainAcc 67.07 top1 66.4812   top5 87.5388
Ep: 65   EpTime: 169.7094 	 Trainloss: 1.2579   Testloss: 1.3898  trainAcc 67.31 top1 64.4962   top5 86.4812
Ep: 66   EpTime: 176.2425 	 Trainloss: 1.2593   Testloss: 1.3416  trainAcc 67.13 top1 65.7845   top5 87.0025
Ep: 67   EpTime: 167.8787 	 Trainloss: 1.2586   Testloss: 1.3067  trainAcc 67.23 top1 66.3860   top5 87.4085
Ep: 68   EpTime: 172.0366 	 Trainloss: 1.2511   Testloss: 1.3036  trainAcc 67.49 top1 66.4010   top5 87.8145
Ep: 69   EpTime: 181.8991 	 Trainloss: 1.2485   Testloss: 1.3283  trainAcc 67.58 top1 66.2506   top5 87.3734
Ep: 70   EpTime: 179.7166 	 Trainloss: 1.2509   Testloss: 1.3214  trainAcc 67.48 top1 65.8747   top5 87.4135
Ep: 71   EpTime: 185.7171 	 Trainloss: 1.2402   Testloss: 1.2821  trainAcc 67.71 top1 67.1529   top5 87.9398
Ep: 72   EpTime: 177.1691 	 Trainloss: 1.2387   Testloss: 1.3394  trainAcc 67.78 top1 65.6241   top5 86.9825
Ep: 73   EpTime: 181.6615 	 Trainloss: 1.2327   Testloss: 1.2944  trainAcc 67.94 top1 66.7068   top5 87.4937
Ep: 74   EpTime: 188.3716 	 Trainloss: 1.2266   Testloss: 1.2915  trainAcc 67.82 top1 67.0977   top5 87.7093
Ep: 75   EpTime: 178.2558 	 Trainloss: 1.2222   Testloss: 1.2746  trainAcc 67.99 top1 67.1629   top5 87.8296
Ep: 76   EpTime: 177.8764 	 Trainloss: 1.2130   Testloss: 1.3178  trainAcc 68.19 top1 66.6316   top5 87.3885
Ep: 77   EpTime: 179.6508 	 Trainloss: 1.2190   Testloss: 1.2916  trainAcc 68.19 top1 66.8120   top5 87.9699
Ep: 78   EpTime: 185.9590 	 Trainloss: 1.2059   Testloss: 1.3166  trainAcc 68.50 top1 66.7068   top5 87.2180
Ep: 79   EpTime: 179.5040 	 Trainloss: 1.2103   Testloss: 1.3226  trainAcc 68.37 top1 66.7870   top5 87.7143
Ep: 80   EpTime: 175.9992 	 Trainloss: 1.1599   Testloss: 1.2857  trainAcc 69.67 top1 67.2331   top5 87.9649
Ep: 81   EpTime: 182.4934 	 Trainloss: 1.1535   Testloss: 1.2407  trainAcc 69.68 top1 68.0952   top5 88.0602
Ep: 82   EpTime: 183.0645 	 Trainloss: 1.1460   Testloss: 1.2399  trainAcc 69.96 top1 68.0401   top5 88.3308
Ep: 83   EpTime: 175.7940 	 Trainloss: 1.1383   Testloss: 1.2398  trainAcc 70.20 top1 68.0852   top5 88.4511
Ep: 84   EpTime: 174.4617 	 Trainloss: 1.1357   Testloss: 1.3021  trainAcc 70.27 top1 66.5614   top5 87.4787
Ep: 85   EpTime: 182.9247 	 Trainloss: 1.1370   Testloss: 1.3025  trainAcc 70.35 top1 66.7368   top5 87.3734
Ep: 86   EpTime: 182.1537 	 Trainloss: 1.1405   Testloss: 1.2862  trainAcc 70.16 top1 66.9574   top5 87.9348
Ep: 87   EpTime: 173.8805 	 Trainloss: 1.1389   Testloss: 1.2375  trainAcc 70.31 top1 67.9850   top5 88.1153
Ep: 88   EpTime: 187.9383 	 Trainloss: 1.1328   Testloss: 1.2371  trainAcc 70.58 top1 68.3158   top5 88.6416
Ep: 89   EpTime: 186.2093 	 Trainloss: 1.1292   Testloss: 1.2530  trainAcc 70.54 top1 67.7845   top5 88.1353
Ep: 90   EpTime: 179.5478 	 Trainloss: 1.1298   Testloss: 1.2542  trainAcc 70.48 top1 67.4486   top5 88.1604
Ep: 91   EpTime: 181.0054 	 Trainloss: 1.1311   Testloss: 1.2529  trainAcc 70.41 top1 67.4937   top5 88.2556
Ep: 92   EpTime: 181.3781 	 Trainloss: 1.1255   Testloss: 1.3046  trainAcc 70.46 top1 66.2957   top5 87.3183
Ep: 93   EpTime: 182.8628 	 Trainloss: 1.1157   Testloss: 1.2395  trainAcc 70.87 top1 68.3108   top5 88.3810
Ep: 94   EpTime: 174.5376 	 Trainloss: 1.1203   Testloss: 1.2744  trainAcc 70.61 top1 67.5188   top5 87.8346
Ep: 95   EpTime: 185.8147 	 Trainloss: 1.1221   Testloss: 1.2703  trainAcc 70.72 top1 67.3584   top5 87.9749
Ep: 96   EpTime: 188.6499 	 Trainloss: 1.1207   Testloss: 1.2458  trainAcc 70.67 top1 67.8997   top5 88.2957
Ep: 97   EpTime: 176.3000 	 Trainloss: 1.1233   Testloss: 1.3339  trainAcc 70.51 top1 66.5514   top5 87.4035
Ep: 98   EpTime: 180.7891 	 Trainloss: 1.1212   Testloss: 1.2435  trainAcc 70.61 top1 68.0100   top5 88.2155
Ep: 99   EpTime: 181.4108 	 Trainloss: 1.1181   Testloss: 1.3063  trainAcc 70.82 top1 66.5263   top5 87.2632
Ep: 100   EpTime: 178.5339 	 Trainloss: 1.1195   Testloss: 1.2494  trainAcc 70.78 top1 68.2155   top5 88.2957
Ep: 101   EpTime: 173.3582 	 Trainloss: 1.1271   Testloss: 1.2823  trainAcc 70.47 top1 66.9373   top5 87.8246
Ep: 102   EpTime: 177.1899 	 Trainloss: 1.1175   Testloss: 1.2651  trainAcc 70.59 top1 68.0551   top5 88.4160
Ep: 103   EpTime: 169.8999 	 Trainloss: 1.1156   Testloss: 1.3075  trainAcc 70.84 top1 66.8922   top5 87.3383
Ep: 104   EpTime: 175.9159 	 Trainloss: 1.1196   Testloss: 1.3180  trainAcc 70.73 top1 66.3158   top5 87.5639
Ep: 105   EpTime: 179.6273 	 Trainloss: 1.1132   Testloss: 1.2536  trainAcc 70.89 top1 68.1855   top5 88.2907
Ep: 106   EpTime: 175.6590 	 Trainloss: 1.1077   Testloss: 1.2405  trainAcc 71.01 top1 68.0100   top5 88.4261
Ep: 107   EpTime: 176.6146 	 Trainloss: 1.1139   Testloss: 1.2601  trainAcc 70.86 top1 67.5138   top5 88.0752
Ep: 108   EpTime: 169.1167 	 Trainloss: 1.1113   Testloss: 1.2561  trainAcc 70.99 top1 68.0451   top5 88.0702
Ep: 109   EpTime: 178.8375 	 Trainloss: 1.1112   Testloss: 1.2992  trainAcc 71.01 top1 67.3885   top5 88.0602
Ep: 110   EpTime: 177.6305 	 Trainloss: 1.1109   Testloss: 1.2887  trainAcc 70.74 top1 67.4386   top5 88.0351
Ep: 111   EpTime: 173.7347 	 Trainloss: 1.1177   Testloss: 1.3155  trainAcc 70.85 top1 66.6617   top5 87.6341
Ep: 112   EpTime: 178.8393 	 Trainloss: 1.1083   Testloss: 1.2673  trainAcc 70.92 top1 68.4411   top5 88.5464
Ep: 113   EpTime: 166.5507 	 Trainloss: 1.1107   Testloss: 1.2449  trainAcc 71.05 top1 68.0551   top5 88.2206
Ep: 114   EpTime: 174.6978 	 Trainloss: 1.1090   Testloss: 1.2732  trainAcc 70.74 top1 67.4286   top5 87.8396
Ep: 115   EpTime: 181.8835 	 Trainloss: 1.1034   Testloss: 1.2478  trainAcc 71.23 top1 68.2256   top5 88.3860
Ep: 116   EpTime: 178.0775 	 Trainloss: 1.1122   Testloss: 1.2968  trainAcc 70.91 top1 67.1579   top5 87.5639
Ep: 117   EpTime: 176.9958 	 Trainloss: 1.1080   Testloss: 1.2648  trainAcc 71.07 top1 67.5589   top5 87.8446
Ep: 118   EpTime: 168.3803 	 Trainloss: 1.0963   Testloss: 1.2369  trainAcc 71.14 top1 68.0401   top5 88.3759
Ep: 119   EpTime: 177.9001 	 Trainloss: 1.1096   Testloss: 1.2663  trainAcc 71.06 top1 67.5789   top5 87.8296
Ep: 120   EpTime: 176.4584 	 Trainloss: 1.1013   Testloss: 1.2634  trainAcc 71.30 top1 67.8296   top5 88.3058
Ep: 121   EpTime: 176.0817 	 Trainloss: 1.0986   Testloss: 1.2926  trainAcc 71.32 top1 67.2231   top5 88.0351
Ep: 122   EpTime: 180.8718 	 Trainloss: 1.0889   Testloss: 1.2679  trainAcc 71.36 top1 67.6241   top5 88.0401
Ep: 123   EpTime: 174.2946 	 Trainloss: 1.0979   Testloss: 1.2630  trainAcc 71.29 top1 67.4737   top5 88.1003
Ep: 124   EpTime: 178.0526 	 Trainloss: 1.1033   Testloss: 1.2710  trainAcc 71.22 top1 67.5288   top5 88.2657
Ep: 125   EpTime: 171.1763 	 Trainloss: 1.0929   Testloss: 1.2583  trainAcc 71.37 top1 68.3208   top5 88.3659
Ep: 126   EpTime: 173.5023 	 Trainloss: 1.0996   Testloss: 1.2949  trainAcc 71.23 top1 66.7469   top5 87.8296
Ep: 127   EpTime: 179.4133 	 Trainloss: 1.0979   Testloss: 1.2420  trainAcc 71.29 top1 68.2657   top5 88.2406
Ep: 128   EpTime: 178.2147 	 Trainloss: 1.0934   Testloss: 1.3110  trainAcc 71.40 top1 66.4712   top5 87.3033
Ep: 129   EpTime: 177.3480 	 Trainloss: 1.0908   Testloss: 1.2591  trainAcc 71.54 top1 68.1955   top5 88.4561
Ep: 130   EpTime: 167.8132 	 Trainloss: 1.0936   Testloss: 1.2526  trainAcc 71.41 top1 67.8246   top5 88.2406
Ep: 131   EpTime: 173.9574 	 Trainloss: 1.0963   Testloss: 1.3133  trainAcc 71.34 top1 66.9424   top5 87.4386
Ep: 132   EpTime: 180.4622 	 Trainloss: 1.0868   Testloss: 1.2699  trainAcc 71.42 top1 67.5689   top5 87.8346
Ep: 133   EpTime: 174.0249 	 Trainloss: 1.0982   Testloss: 1.2452  trainAcc 71.31 top1 68.3509   top5 88.5213
Ep: 134   EpTime: 180.3436 	 Trainloss: 1.0970   Testloss: 1.2775  trainAcc 71.34 top1 67.8797   top5 88.0000
Ep: 135   EpTime: 166.2136 	 Trainloss: 1.1016   Testloss: 1.3359  trainAcc 71.20 top1 66.5414   top5 87.7293
Ep: 136   EpTime: 184.9972 	 Trainloss: 1.0947   Testloss: 1.2405  trainAcc 71.40 top1 68.3759   top5 88.4311
Ep: 137   EpTime: 171.7744 	 Trainloss: 1.0906   Testloss: 1.2687  trainAcc 71.40 top1 67.1479   top5 87.9499
Ep: 138   EpTime: 173.7867 	 Trainloss: 1.0984   Testloss: 1.2584  trainAcc 71.32 top1 67.4937   top5 88.3208
Ep: 139   EpTime: 181.1505 	 Trainloss: 1.0950   Testloss: 1.2640  trainAcc 71.30 top1 68.0201   top5 88.1203
Ep: 140   EpTime: 172.0800 	 Trainloss: 1.0925   Testloss: 1.2689  trainAcc 71.53 top1 67.4637   top5 88.1353
Ep: 141   EpTime: 180.1122 	 Trainloss: 1.0945   Testloss: 1.2837  trainAcc 71.39 top1 67.0627   top5 87.8847
Ep: 142   EpTime: 174.1890 	 Trainloss: 1.0973   Testloss: 1.3129  trainAcc 71.28 top1 66.2506   top5 87.3835
Ep: 143   EpTime: 175.5577 	 Trainloss: 1.0962   Testloss: 1.2703  trainAcc 71.35 top1 67.1278   top5 88.0952
Ep: 144   EpTime: 177.7363 	 Trainloss: 1.0981   Testloss: 1.2403  trainAcc 71.36 top1 68.1153   top5 88.5514
Ep: 145   EpTime: 171.3291 	 Trainloss: 1.0963   Testloss: 1.2517  trainAcc 71.37 top1 67.7444   top5 88.3208
Ep: 146   EpTime: 183.2680 	 Trainloss: 1.0876   Testloss: 1.2539  trainAcc 71.52 top1 68.1454   top5 88.2657
Ep: 147   EpTime: 173.9256 	 Trainloss: 1.0925   Testloss: 1.2459  trainAcc 71.26 top1 67.8747   top5 88.2256
Ep: 148   EpTime: 174.2332 	 Trainloss: 1.0986   Testloss: 1.2353  trainAcc 71.14 top1 68.2707   top5 88.6516
Ep: 149   EpTime: 174.4463 	 Trainloss: 1.0937   Testloss: 1.2811  trainAcc 71.46 top1 67.6942   top5 88.0602
Ep: 150   EpTime: 170.8197 	 Trainloss: 1.1009   Testloss: 1.3076  trainAcc 71.16 top1 66.9724   top5 87.5840
Ep: 151   EpTime: 175.1718 	 Trainloss: 1.0876   Testloss: 1.2858  trainAcc 71.32 top1 67.4236   top5 87.8947
Ep: 152   EpTime: 178.0729 	 Trainloss: 1.0894   Testloss: 1.2309  trainAcc 71.37 top1 68.3358   top5 88.5764
Ep: 153   EpTime: 175.5641 	 Trainloss: 1.0869   Testloss: 1.2110  trainAcc 71.60 top1 68.2957   top5 88.7970
Ep: 154   EpTime: 179.5501 	 Trainloss: 1.0946   Testloss: 1.2977  trainAcc 71.32 top1 67.0727   top5 87.9699
Ep: 155   EpTime: 166.0663 	 Trainloss: 1.0929   Testloss: 1.2563  trainAcc 71.45 top1 67.5238   top5 87.8797
Ep: 156   EpTime: 179.5622 	 Trainloss: 1.0953   Testloss: 1.2359  trainAcc 71.29 top1 68.0451   top5 88.4762
Ep: 157   EpTime: 178.1588 	 Trainloss: 1.0842   Testloss: 1.2467  trainAcc 71.52 top1 68.4311   top5 88.2857
Ep: 158   EpTime: 176.4412 	 Trainloss: 1.0871   Testloss: 1.2249  trainAcc 71.54 top1 68.4762   top5 88.7018
Ep: 159   EpTime: 177.8007 	 Trainloss: 1.1009   Testloss: 1.2421  trainAcc 71.25 top1 68.0050   top5 88.3910
Ep: 160   EpTime: 171.6523 	 Trainloss: 1.0869   Testloss: 1.2601  trainAcc 71.66 top1 68.1353   top5 88.2155
Ep: 161   EpTime: 176.1426 	 Trainloss: 1.0892   Testloss: 1.2648  trainAcc 71.56 top1 67.9348   top5 88.0100
Ep: 162   EpTime: 178.4008 	 Trainloss: 1.0929   Testloss: 1.2454  trainAcc 71.27 top1 68.6266   top5 88.5915
Ep: 163   EpTime: 177.6235 	 Trainloss: 1.0959   Testloss: 1.2418  trainAcc 71.23 top1 68.1654   top5 88.5464
Ep: 164   EpTime: 175.1455 	 Trainloss: 1.0850   Testloss: 1.2499  trainAcc 71.56 top1 67.8045   top5 88.1353
Ep: 165   EpTime: 178.3900 	 Trainloss: 1.0880   Testloss: 1.2218  trainAcc 71.52 top1 68.6366   top5 88.7719
Ep: 166   EpTime: 177.6100 	 Trainloss: 1.0849   Testloss: 1.2481  trainAcc 71.49 top1 68.0251   top5 88.2356
Ep: 167   EpTime: 170.3497 	 Trainloss: 1.1077   Testloss: 1.2299  trainAcc 71.08 top1 68.2707   top5 88.4812
Ep: 168   EpTime: 178.8401 	 Trainloss: 1.0883   Testloss: 1.2848  trainAcc 71.67 top1 67.6441   top5 88.0702
Ep: 169   EpTime: 174.8907 	 Trainloss: 1.0886   Testloss: 1.2405  trainAcc 71.33 top1 68.4812   top5 88.3910
Ep: 170   EpTime: 172.9200 	 Trainloss: 1.0978   Testloss: 1.2902  trainAcc 71.26 top1 67.6692   top5 87.6892
Ep: 171   EpTime: 179.7806 	 Trainloss: 1.0876   Testloss: 1.2409  trainAcc 71.44 top1 67.9900   top5 88.2757
Ep: 172   EpTime: 168.9239 	 Trainloss: 1.0882   Testloss: 1.2971  trainAcc 71.53 top1 67.4987   top5 88.2105
Ep: 173   EpTime: 178.1160 	 Trainloss: 1.0880   Testloss: 1.2676  trainAcc 71.58 top1 67.5288   top5 88.0852
Ep: 174   EpTime: 177.5120 	 Trainloss: 1.0894   Testloss: 1.3042  trainAcc 71.43 top1 66.9223   top5 87.5890
Ep: 175   EpTime: 172.9177 	 Trainloss: 1.0901   Testloss: 1.2682  trainAcc 71.53 top1 67.7444   top5 87.8697
Ep: 176   EpTime: 178.8002 	 Trainloss: 1.0929   Testloss: 1.2496  trainAcc 71.44 top1 68.6165   top5 88.3358
Ep: 177   EpTime: 172.9162 	 Trainloss: 1.0969   Testloss: 1.2614  trainAcc 71.47 top1 67.6942   top5 87.8396
Ep: 178   EpTime: 193.7679 	 Trainloss: 1.0900   Testloss: 1.2724  trainAcc 71.46 top1 67.4637   top5 87.9248
Ep: 179   EpTime: 193.6016 	 Trainloss: 1.0902   Testloss: 1.2209  trainAcc 71.53 top1 68.5564   top5 88.7068
Ep: 180   EpTime: 205.9746 	 Trainloss: 1.0848   Testloss: 1.2812  trainAcc 71.55 top1 66.9875   top5 87.5840
Ep: 181   EpTime: 200.7493 	 Trainloss: 1.0919   Testloss: 1.2571  trainAcc 71.34 top1 67.8546   top5 88.2055
Ep: 182   EpTime: 184.1908 	 Trainloss: 1.0916   Testloss: 1.2679  trainAcc 71.53 top1 67.8997   top5 88.0952
Ep: 183   EpTime: 191.5324 	 Trainloss: 1.0940   Testloss: 1.2573  trainAcc 71.29 top1 67.8947   top5 88.1604
Ep: 184   EpTime: 186.0898 	 Trainloss: 1.0886   Testloss: 1.2596  trainAcc 71.48 top1 68.3108   top5 88.2406
Ep: 185   EpTime: 194.9766 	 Trainloss: 1.0905   Testloss: 1.2492  trainAcc 71.32 top1 67.8847   top5 88.2055
Ep: 186   EpTime: 201.5431 	 Trainloss: 1.0895   Testloss: 1.2287  trainAcc 71.52 top1 68.2907   top5 88.4461
Ep: 187   EpTime: 202.1205 	 Trainloss: 1.0886   Testloss: 1.2347  trainAcc 71.41 top1 67.9499   top5 88.3810
Ep: 188   EpTime: 198.5785 	 Trainloss: 1.0881   Testloss: 1.2838  trainAcc 71.52 top1 66.9624   top5 87.7644
Ep: 189   EpTime: 195.8211 	 Trainloss: 1.0951   Testloss: 1.2728  trainAcc 71.35 top1 67.3333   top5 88.0451
Ep: 190   EpTime: 203.6501 	 Trainloss: 1.0918   Testloss: 1.2674  trainAcc 71.54 top1 67.7193   top5 88.0551
Ep: 191   EpTime: 200.2617 	 Trainloss: 1.0862   Testloss: 1.2793  trainAcc 71.52 top1 66.8471   top5 87.4937
Ep: 192   EpTime: 213.6619 	 Trainloss: 1.0977   Testloss: 1.2607  trainAcc 71.10 top1 68.0351   top5 88.2256
Ep: 193   EpTime: 212.2393 	 Trainloss: 1.0891   Testloss: 1.2374  trainAcc 71.37 top1 68.7118   top5 88.6416
Ep: 194   EpTime: 201.6841 	 Trainloss: 1.0825   Testloss: 1.2295  trainAcc 71.58 top1 68.3108   top5 88.3559
Ep: 195   EpTime: 196.1091 	 Trainloss: 1.0914   Testloss: 1.2906  trainAcc 71.45 top1 67.5840   top5 87.7343
Ep: 196   EpTime: 190.6432 	 Trainloss: 1.0859   Testloss: 1.2674  trainAcc 71.68 top1 67.6992   top5 88.1504
Ep: 197   EpTime: 191.2105 	 Trainloss: 1.0956   Testloss: 1.2557  trainAcc 71.39 top1 67.9248   top5 88.2607
Ep: 198   EpTime: 203.7685 	 Trainloss: 1.0906   Testloss: 1.2552  trainAcc 71.53 top1 67.9649   top5 88.1754
Ep: 199   EpTime: 198.7459 	 Trainloss: 1.0987   Testloss: 1.2200  trainAcc 71.20 top1 68.6466   top5 88.5764
Ep: 200   EpTime: 196.1754 	 Trainloss: 1.0995   Testloss: 1.3128  trainAcc 71.18 top1 66.7719   top5 87.3584
Ep: 201   EpTime: 190.0040 	 Trainloss: 1.0864   Testloss: 1.3255  trainAcc 71.60 top1 66.2155   top5 87.2932
Ep: 202   EpTime: 189.2751 	 Trainloss: 1.0898   Testloss: 1.2335  trainAcc 71.49 top1 68.3409   top5 88.3709
Ep: 203   EpTime: 195.9345 	 Trainloss: 1.0880   Testloss: 1.2693  trainAcc 71.50 top1 67.5138   top5 88.0000
Ep: 204   EpTime: 197.7824 	 Trainloss: 1.0894   Testloss: 1.2552  trainAcc 71.54 top1 68.0150   top5 88.2356
Ep: 205   EpTime: 204.6308 	 Trainloss: 1.0876   Testloss: 1.2754  trainAcc 71.44 top1 67.9398   top5 88.1253
Ep: 206   EpTime: 203.5045 	 Trainloss: 1.0958   Testloss: 1.2700  trainAcc 71.20 top1 67.9749   top5 88.1153
Ep: 207   EpTime: 192.1512 	 Trainloss: 1.0893   Testloss: 1.2842  trainAcc 71.42 top1 67.6441   top5 87.7043
Ep: 208   EpTime: 193.3803 	 Trainloss: 1.0860   Testloss: 1.2286  trainAcc 71.46 top1 68.3509   top5 88.5764
Ep: 209   EpTime: 196.3030 	 Trainloss: 1.0862   Testloss: 1.2674  trainAcc 71.55 top1 67.4687   top5 88.1103
Ep: 210   EpTime: 202.7432 	 Trainloss: 1.0907   Testloss: 1.2821  trainAcc 71.36 top1 67.5739   top5 88.1103
Ep: 211   EpTime: 208.8359 	 Trainloss: 1.0896   Testloss: 1.2629  trainAcc 71.53 top1 67.7243   top5 88.1704
Ep: 212   EpTime: 197.6659 	 Trainloss: 1.0879   Testloss: 1.2652  trainAcc 71.48 top1 67.6792   top5 88.0301
Ep: 213   EpTime: 193.1132 	 Trainloss: 1.0894   Testloss: 1.2737  trainAcc 71.57 top1 67.1980   top5 87.9398
Ep: 214   EpTime: 199.5989 	 Trainloss: 1.0834   Testloss: 1.2719  trainAcc 71.54 top1 67.5739   top5 87.8847
Ep: 215   EpTime: 206.0278 	 Trainloss: 1.0907   Testloss: 1.2502  trainAcc 71.43 top1 67.8246   top5 88.3409
Ep: 216   EpTime: 213.6046 	 Trainloss: 1.0944   Testloss: 1.2850  trainAcc 71.44 top1 67.4236   top5 87.9148
Ep: 217   EpTime: 201.4666 	 Trainloss: 1.0925   Testloss: 1.2515  trainAcc 71.36 top1 67.8095   top5 88.2556
Ep: 218   EpTime: 193.0143 	 Trainloss: 1.0882   Testloss: 1.2320  trainAcc 71.57 top1 68.5865   top5 88.4110
Ep: 219   EpTime: 198.6573 	 Trainloss: 1.0921   Testloss: 1.3029  trainAcc 71.52 top1 67.2180   top5 87.8045
Ep: 220   EpTime: 207.3769 	 Trainloss: 1.0909   Testloss: 1.2805  trainAcc 71.53 top1 67.5388   top5 87.7293
