Ep:1  EpTime:91.4382  Trainloss: 4.5671  Testloss: 4.2504  TrainAcc 4.55 top1 7.8897   top5 25.0777
Ep:2  EpTime:82.3046  Trainloss: 4.0299  Testloss: 4.0831  TrainAcc 10.73 top1 11.8847   top5 33.9098
Ep:3  EpTime:83.1463  Trainloss: 3.6272  Testloss: 3.3398  TrainAcc 16.64 top1 21.7845   top5 48.9925
Ep:4  EpTime:83.4068  Trainloss: 3.3363  Testloss: 3.1204  TrainAcc 22.13 top1 25.9850   top5 54.3910
Ep:5  EpTime:83.0587  Trainloss: 3.1067  Testloss: 2.9770  TrainAcc 26.64 top1 29.1178   top5 57.8145
Ep:6  EpTime:82.6237  Trainloss: 2.9312  Testloss: 2.9131  TrainAcc 30.01 top1 32.7669   top5 61.2732
Ep:7  EpTime:82.8223  Trainloss: 2.7864  Testloss: 2.9602  TrainAcc 33.12 top1 33.6642   top5 62.9624
Ep:8  EpTime:82.3173  Trainloss: 2.6530  Testloss: 2.3933  TrainAcc 35.75 top1 41.2080   top5 70.0652
Ep:9  EpTime:83.3643  Trainloss: 2.5428  Testloss: 2.4998  TrainAcc 38.31 top1 40.0401   top5 69.1429
Ep:10  EpTime:82.6133  Trainloss: 2.4557  Testloss: 2.3610  TrainAcc 40.08 top1 42.9724   top5 70.5764
Ep:11  EpTime:82.8032  Trainloss: 2.3860  Testloss: 2.4224  TrainAcc 41.72 top1 41.3133   top5 70.1253
Ep:12  EpTime:82.7779  Trainloss: 2.3131  Testloss: 2.2083  TrainAcc 43.22 top1 46.3208   top5 74.4411
Ep:13  EpTime:82.9979  Trainloss: 2.2512  Testloss: 2.1502  TrainAcc 44.65 top1 47.5489   top5 74.7920
Ep:14  EpTime:82.9342  Trainloss: 2.2077  Testloss: 2.1310  TrainAcc 45.53 top1 48.0702   top5 75.8446
Ep:15  EpTime:83.9211  Trainloss: 2.1556  Testloss: 2.0680  TrainAcc 47.00 top1 49.3133   top5 76.3709
Ep:16  EpTime:82.6764  Trainloss: 2.1233  Testloss: 2.1939  TrainAcc 47.76 top1 46.3258   top5 73.9699
Ep:17  EpTime:82.1689  Trainloss: 2.0875  Testloss: 2.5448  TrainAcc 48.41 top1 43.7694   top5 72.0652
Ep:18  EpTime:83.7322  Trainloss: 2.0561  Testloss: 1.9460  TrainAcc 48.92 top1 51.6992   top5 78.7519
Ep:19  EpTime:82.3782  Trainloss: 2.0229  Testloss: 1.9993  TrainAcc 49.78 top1 50.5313   top5 77.0977
Ep:20  EpTime:82.2104  Trainloss: 1.9970  Testloss: 1.9011  TrainAcc 50.08 top1 52.7769   top5 79.1429
Ep:21  EpTime:83.0257  Trainloss: 1.9722  Testloss: 1.8169  TrainAcc 51.12 top1 54.5464   top5 80.3308
Ep:22  EpTime:83.3294  Trainloss: 1.9501  Testloss: 1.8053  TrainAcc 51.39 top1 55.5689   top5 81.0075
Ep:23  EpTime:82.7348  Trainloss: 1.9388  Testloss: 1.9940  TrainAcc 51.68 top1 51.9499   top5 77.6842
Ep:24  EpTime:82.8083  Trainloss: 1.9056  Testloss: 2.0004  TrainAcc 52.36 top1 51.6591   top5 78.0601
Ep:25  EpTime:82.6011  Trainloss: 1.8860  Testloss: 1.7560  TrainAcc 52.80 top1 55.7694   top5 81.2481
Ep:26  EpTime:83.2198  Trainloss: 1.8722  Testloss: 1.7470  TrainAcc 53.16 top1 56.4511   top5 81.1880
Ep:27  EpTime:82.5481  Trainloss: 1.8586  Testloss: 1.8698  TrainAcc 53.55 top1 53.7343   top5 79.4085
Ep:28  EpTime:83.2431  Trainloss: 1.8375  Testloss: 1.7412  TrainAcc 54.14 top1 56.7569   top5 81.7193
Ep:29  EpTime:82.6881  Trainloss: 1.8275  Testloss: 1.6945  TrainAcc 54.18 top1 58.0351   top5 82.3960
Ep:30  EpTime:84.1090  Trainloss: 1.8198  Testloss: 1.7084  TrainAcc 54.47 top1 57.1178   top5 82.0702
Ep:31  EpTime:83.1470  Trainloss: 1.7942  Testloss: 1.8451  TrainAcc 55.18 top1 55.6190   top5 80.0702
Ep:32  EpTime:82.3097  Trainloss: 1.7885  Testloss: 1.6940  TrainAcc 55.15 top1 57.8045   top5 82.5113
Ep:33  EpTime:83.4570  Trainloss: 1.7735  Testloss: 1.7446  TrainAcc 55.46 top1 56.5013   top5 81.5589
Ep:34  EpTime:83.3211  Trainloss: 1.7743  Testloss: 1.8403  TrainAcc 55.51 top1 55.6642   top5 81.1479
Ep:35  EpTime:81.9113  Trainloss: 1.4512  Testloss: 1.3632  TrainAcc 63.36 top1 65.9048   top5 86.8170
Ep:36  EpTime:84.1681  Trainloss: 1.3561  Testloss: 1.4047  TrainAcc 65.69 top1 65.0075   top5 86.0601
Ep:37  EpTime:82.7740  Trainloss: 1.3199  Testloss: 1.3842  TrainAcc 66.70 top1 65.1779   top5 86.0050
Ep:38  EpTime:82.6365  Trainloss: 1.2905  Testloss: 1.3665  TrainAcc 67.18 top1 65.7945   top5 86.5414
Ep:39  EpTime:83.2303  Trainloss: 1.2715  Testloss: 1.4196  TrainAcc 67.57 top1 64.8321   top5 85.9048
Ep:40  EpTime:83.0746  Trainloss: 1.2545  Testloss: 1.3603  TrainAcc 67.94 top1 66.2356   top5 87.0125
Ep:41  EpTime:82.1284  Trainloss: 1.2446  Testloss: 1.3764  TrainAcc 68.25 top1 65.5990   top5 86.6266
Ep:42  EpTime:82.7888  Trainloss: 1.2245  Testloss: 1.5318  TrainAcc 68.68 top1 63.0677   top5 85.1479
Ep:43  EpTime:83.0109  Trainloss: 1.2056  Testloss: 1.3360  TrainAcc 69.10 top1 65.9298   top5 87.2531
Ep:44  EpTime:83.2696  Trainloss: 1.2009  Testloss: 1.2839  TrainAcc 69.39 top1 68.0652   top5 87.7043
Ep:45  EpTime:83.5434  Trainloss: 1.1818  Testloss: 1.4106  TrainAcc 69.69 top1 64.3459   top5 86.0301
Ep:46  EpTime:83.2498  Trainloss: 1.1812  Testloss: 1.5099  TrainAcc 69.67 top1 63.9549   top5 85.1479
Ep:47  EpTime:83.6022  Trainloss: 1.1676  Testloss: 1.2204  TrainAcc 70.07 top1 68.8922   top5 88.8371
Ep:48  EpTime:83.1085  Trainloss: 1.1646  Testloss: 1.2823  TrainAcc 70.17 top1 67.9348   top5 88.2606
Ep:49  EpTime:82.1628  Trainloss: 1.1509  Testloss: 1.2981  TrainAcc 70.47 top1 67.4737   top5 88.0652
Ep:50  EpTime:82.3277  Trainloss: 1.1435  Testloss: 1.3635  TrainAcc 70.33 top1 66.2456   top5 87.0125
Ep:51  EpTime:83.7384  Trainloss: 1.1306  Testloss: 1.4144  TrainAcc 70.95 top1 64.8922   top5 85.8296
Ep:52  EpTime:82.9035  Trainloss: 1.1284  Testloss: 1.3497  TrainAcc 71.04 top1 66.9273   top5 86.9825
Ep:53  EpTime:82.4539  Trainloss: 1.1187  Testloss: 1.3399  TrainAcc 71.14 top1 66.4461   top5 87.1378
Ep:54  EpTime:83.4849  Trainloss: 1.1121  Testloss: 1.4699  TrainAcc 71.38 top1 64.8922   top5 85.8346
Ep:55  EpTime:82.9595  Trainloss: 1.1167  Testloss: 1.3665  TrainAcc 71.42 top1 66.5714   top5 87.1880
Ep:56  EpTime:83.7667  Trainloss: 1.1007  Testloss: 1.4055  TrainAcc 71.58 top1 66.1454   top5 86.2907
Ep:57  EpTime:82.6136  Trainloss: 1.1017  Testloss: 1.3025  TrainAcc 71.54 top1 67.1579   top5 87.4737
Ep:58  EpTime:83.3838  Trainloss: 1.0946  Testloss: 1.3050  TrainAcc 71.64 top1 67.5088   top5 87.6792
Ep:59  EpTime:83.6973  Trainloss: 1.0790  Testloss: 1.3980  TrainAcc 71.95 top1 66.2155   top5 86.6115
Ep:60  EpTime:83.0896  Trainloss: 1.0800  Testloss: 1.4160  TrainAcc 71.99 top1 65.8296   top5 86.2857
Ep:61  EpTime:83.0669  Trainloss: 1.0776  Testloss: 1.3480  TrainAcc 72.24 top1 66.5013   top5 87.1779
Ep:62  EpTime:83.2344  Trainloss: 1.0699  Testloss: 1.4746  TrainAcc 72.43 top1 65.0376   top5 86.3007
Ep:63  EpTime:83.6297  Trainloss: 1.0712  Testloss: 1.4162  TrainAcc 72.14 top1 66.3158   top5 86.6566
Ep:64  EpTime:82.9794  Trainloss: 1.0649  Testloss: 1.3415  TrainAcc 72.48 top1 67.3183   top5 87.6241
Ep:65  EpTime:83.0556  Trainloss: 1.0533  Testloss: 1.3665  TrainAcc 72.77 top1 66.1754   top5 87.1679
Ep:66  EpTime:83.2170  Trainloss: 1.0583  Testloss: 1.3580  TrainAcc 72.56 top1 67.1378   top5 87.6642
Ep:67  EpTime:82.8512  Trainloss: 1.0416  Testloss: 1.3714  TrainAcc 73.07 top1 67.0025   top5 87.4987
Ep:68  EpTime:82.1977  Trainloss: 1.0422  Testloss: 1.3095  TrainAcc 72.98 top1 67.1980   top5 87.6441
Ep:69  EpTime:82.3180  Trainloss: 1.0448  Testloss: 1.2839  TrainAcc 72.90 top1 68.1253   top5 87.8697
Ep:70  EpTime:82.9683  Trainloss: 0.9622  Testloss: 1.3356  TrainAcc 75.18 top1 67.8797   top5 87.7945
Ep:71  EpTime:83.0314  Trainloss: 0.9358  Testloss: 1.2169  TrainAcc 75.96 top1 69.4887   top5 88.8221
Ep:72  EpTime:82.1074  Trainloss: 0.9307  Testloss: 1.3069  TrainAcc 75.98 top1 67.8546   top5 87.9649
Ep:73  EpTime:83.1469  Trainloss: 0.9220  Testloss: 1.3344  TrainAcc 76.42 top1 67.2481   top5 87.4286
Ep:74  EpTime:82.5643  Trainloss: 0.9165  Testloss: 1.2942  TrainAcc 76.43 top1 68.1554   top5 87.8596
Ep:75  EpTime:82.6925  Trainloss: 0.9135  Testloss: 1.2705  TrainAcc 76.45 top1 68.9073   top5 88.5664
Ep:76  EpTime:81.9170  Trainloss: 0.9126  Testloss: 1.2870  TrainAcc 76.65 top1 68.4511   top5 87.9850
Ep:77  EpTime:82.6641  Trainloss: 0.9139  Testloss: 1.3596  TrainAcc 76.60 top1 68.4561   top5 87.8647
Ep:78  EpTime:81.9839  Trainloss: 0.9075  Testloss: 1.3296  TrainAcc 76.77 top1 67.6792   top5 87.4185
Ep:79  EpTime:82.6942  Trainloss: 0.9081  Testloss: 1.2962  TrainAcc 76.57 top1 68.6015   top5 88.3158
Ep:80  EpTime:83.0238  Trainloss: 0.8978  Testloss: 1.3234  TrainAcc 77.01 top1 68.7268   top5 88.2556
Ep:81  EpTime:84.3108  Trainloss: 0.8978  Testloss: 1.2966  TrainAcc 76.83 top1 68.6867   top5 87.8346
Ep:82  EpTime:82.1794  Trainloss: 0.8955  Testloss: 1.2451  TrainAcc 77.04 top1 69.2331   top5 88.6566
Ep:83  EpTime:82.1454  Trainloss: 0.8932  Testloss: 1.2119  TrainAcc 77.18 top1 69.9950   top5 88.8672
Ep:84  EpTime:82.6214  Trainloss: 0.8846  Testloss: 1.3258  TrainAcc 77.42 top1 67.7644   top5 87.9549
Ep:85  EpTime:81.7901  Trainloss: 0.8920  Testloss: 1.3072  TrainAcc 77.04 top1 68.2957   top5 87.8145
Ep:86  EpTime:81.0838  Trainloss: 0.8927  Testloss: 1.1853  TrainAcc 77.26 top1 70.3960   top5 89.1830
Ep:87  EpTime:81.9634  Trainloss: 0.8904  Testloss: 1.3268  TrainAcc 77.07 top1 68.1754   top5 87.7043
Ep:88  EpTime:81.2828  Trainloss: 0.8861  Testloss: 1.2642  TrainAcc 77.23 top1 68.9323   top5 88.0952
Ep:89  EpTime:82.3951  Trainloss: 0.8756  Testloss: 1.2199  TrainAcc 77.56 top1 69.5038   top5 88.7970
Ep:90  EpTime:80.9602  Trainloss: 0.8861  Testloss: 1.2351  TrainAcc 77.50 top1 69.5288   top5 88.9123
Ep:91  EpTime:81.7401  Trainloss: 0.8801  Testloss: 1.2614  TrainAcc 77.57 top1 68.4361   top5 88.2807
Ep:92  EpTime:81.1708  Trainloss: 0.8802  Testloss: 1.2673  TrainAcc 77.39 top1 69.0276   top5 88.3308
Ep:93  EpTime:81.5405  Trainloss: 0.8788  Testloss: 1.2464  TrainAcc 77.33 top1 69.2982   top5 88.5263
Ep:94  EpTime:82.4641  Trainloss: 0.8693  Testloss: 1.2755  TrainAcc 77.63 top1 68.6617   top5 88.0200
Ep:95  EpTime:81.2418  Trainloss: 0.8711  Testloss: 1.3295  TrainAcc 77.56 top1 67.4737   top5 87.5840
Ep:96  EpTime:81.3959  Trainloss: 0.8745  Testloss: 1.3597  TrainAcc 77.51 top1 67.2882   top5 87.4687
Ep:97  EpTime:82.1491  Trainloss: 0.8788  Testloss: 1.2999  TrainAcc 77.59 top1 67.9248   top5 87.8145
Ep:98  EpTime:82.4257  Trainloss: 0.8624  Testloss: 1.3234  TrainAcc 77.83 top1 67.8346   top5 87.5038
Ep:99  EpTime:81.5357  Trainloss: 0.8639  Testloss: 1.2890  TrainAcc 77.74 top1 68.9474   top5 88.2757
Ep:100  EpTime:82.1667  Trainloss: 0.8592  Testloss: 1.3533  TrainAcc 77.76 top1 67.3584   top5 87.3935
Ep:101  EpTime:82.0023  Trainloss: 0.8639  Testloss: 1.2375  TrainAcc 77.86 top1 69.3233   top5 88.4461
Ep:102  EpTime:82.0352  Trainloss: 0.8647  Testloss: 1.3090  TrainAcc 77.96 top1 68.1654   top5 87.8145
Ep:103  EpTime:81.6919  Trainloss: 0.8655  Testloss: 1.3686  TrainAcc 77.78 top1 67.2632   top5 87.3283
Ep:104  EpTime:82.5305  Trainloss: 0.8654  Testloss: 1.2720  TrainAcc 77.92 top1 69.5940   top5 88.5213
Ep:105  EpTime:82.8130  Trainloss: 0.8552  Testloss: 1.3851  TrainAcc 78.08 top1 67.3033   top5 87.3784
Ep:106  EpTime:80.5474  Trainloss: 0.8445  Testloss: 1.3004  TrainAcc 78.18 top1 68.5815   top5 88.1504
Ep:107  EpTime:81.2123  Trainloss: 0.8504  Testloss: 1.2467  TrainAcc 78.30 top1 69.5890   top5 88.6366
Ep:108  EpTime:81.3118  Trainloss: 0.8498  Testloss: 1.3027  TrainAcc 78.05 top1 68.5664   top5 87.7644
Ep:109  EpTime:80.5433  Trainloss: 0.8526  Testloss: 1.2906  TrainAcc 78.15 top1 68.7870   top5 88.1103
Ep:110  EpTime:81.2379  Trainloss: 0.8413  Testloss: 1.2723  TrainAcc 78.37 top1 69.2381   top5 88.5263
Ep:111  EpTime:80.8364  Trainloss: 0.8478  Testloss: 1.2332  TrainAcc 78.36 top1 69.6692   top5 88.9073
Ep:112  EpTime:82.0766  Trainloss: 0.8457  Testloss: 1.2325  TrainAcc 78.37 top1 70.1804   top5 88.8922
Ep:113  EpTime:83.1124  Trainloss: 0.8441  Testloss: 1.2709  TrainAcc 78.31 top1 68.6266   top5 88.2306
Ep:114  EpTime:81.6013  Trainloss: 0.8419  Testloss: 1.4284  TrainAcc 78.35 top1 66.6065   top5 86.6767
Ep:115  EpTime:81.1122  Trainloss: 0.8471  Testloss: 1.2952  TrainAcc 78.37 top1 68.2556   top5 88.3308
Ep:116  EpTime:80.4691  Trainloss: 0.8448  Testloss: 1.3263  TrainAcc 78.41 top1 68.1554   top5 88.0601
Ep:117  EpTime:81.6367  Trainloss: 0.8473  Testloss: 1.3690  TrainAcc 78.30 top1 67.9048   top5 87.5840
Ep:118  EpTime:81.6042  Trainloss: 0.8508  Testloss: 1.2586  TrainAcc 78.20 top1 67.9198   top5 88.1504
Ep:119  EpTime:81.3724  Trainloss: 0.8486  Testloss: 1.2908  TrainAcc 78.28 top1 68.6967   top5 87.8446
Ep:120  EpTime:83.4292  Trainloss: 0.8529  Testloss: 1.2245  TrainAcc 78.26 top1 69.9298   top5 88.6065
Ep:121  EpTime:81.0264  Trainloss: 0.8421  Testloss: 1.3152  TrainAcc 78.38 top1 67.9850   top5 87.7243
Ep:122  EpTime:81.1400  Trainloss: 0.8444  Testloss: 1.2342  TrainAcc 78.43 top1 69.8596   top5 88.8922
Ep:123  EpTime:80.6402  Trainloss: 0.8378  Testloss: 1.3151  TrainAcc 78.59 top1 68.2205   top5 88.1103
Ep:124  EpTime:82.2424  Trainloss: 0.8447  Testloss: 1.2869  TrainAcc 78.28 top1 68.5063   top5 88.1153
Ep:125  EpTime:81.1615  Trainloss: 0.8393  Testloss: 1.2667  TrainAcc 78.45 top1 68.7870   top5 88.3459
Ep:126  EpTime:81.5212  Trainloss: 0.8423  Testloss: 1.2506  TrainAcc 78.28 top1 69.1479   top5 88.5564
Ep:127  EpTime:80.4994  Trainloss: 0.8418  Testloss: 1.3165  TrainAcc 78.45 top1 68.1905   top5 87.6692
Ep:128  EpTime:81.7204  Trainloss: 0.8346  Testloss: 1.2659  TrainAcc 78.57 top1 68.3308   top5 88.1203
Ep:129  EpTime:80.5133  Trainloss: 0.8405  Testloss: 1.4262  TrainAcc 78.47 top1 65.5990   top5 86.4612
Ep:130  EpTime:81.2550  Trainloss: 0.8476  Testloss: 1.2471  TrainAcc 78.33 top1 68.8571   top5 88.3659
Ep:131  EpTime:80.9533  Trainloss: 0.8415  Testloss: 1.2727  TrainAcc 78.53 top1 68.5063   top5 87.9198
Ep:132  EpTime:82.2760  Trainloss: 0.8395  Testloss: 1.2005  TrainAcc 78.46 top1 69.9449   top5 88.9073
Ep:133  EpTime:82.2261  Trainloss: 0.8423  Testloss: 1.2334  TrainAcc 78.41 top1 70.2356   top5 89.0627
Ep:134  EpTime:81.1342  Trainloss: 0.8434  Testloss: 1.2992  TrainAcc 78.30 top1 68.2807   top5 87.6441
Ep:135  EpTime:80.1102  Trainloss: 0.8377  Testloss: 1.3662  TrainAcc 78.56 top1 67.4185   top5 87.5088
Ep:136  EpTime:81.0909  Trainloss: 0.8417  Testloss: 1.2356  TrainAcc 78.57 top1 69.6190   top5 88.5163
Ep:137  EpTime:80.9226  Trainloss: 0.8373  Testloss: 1.3175  TrainAcc 78.46 top1 67.1930   top5 87.7945
Ep:138  EpTime:80.8654  Trainloss: 0.8449  Testloss: 1.3375  TrainAcc 78.25 top1 67.7694   top5 87.9348
Ep:139  EpTime:81.2535  Trainloss: 0.8434  Testloss: 1.1945  TrainAcc 78.39 top1 70.6767   top5 89.2832
Ep:140  EpTime:80.2525  Trainloss: 0.8399  Testloss: 1.3814  TrainAcc 78.43 top1 67.6792   top5 87.0175
Ep:141  EpTime:73.6359  Trainloss: 0.8342  Testloss: 1.2837  TrainAcc 78.52 top1 68.8772   top5 88.2757
Ep:142  EpTime:64.9719  Trainloss: 0.8436  Testloss: 1.2692  TrainAcc 78.42 top1 68.7168   top5 88.4461
Ep:143  EpTime:64.8726  Trainloss: 0.8386  Testloss: 1.2519  TrainAcc 78.53 top1 69.5940   top5 88.2707
Ep:144  EpTime:64.0971  Trainloss: 0.8424  Testloss: 1.2616  TrainAcc 78.23 top1 68.9925   top5 88.4511
Ep:145  EpTime:65.4302  Trainloss: 0.8424  Testloss: 1.3177  TrainAcc 78.45 top1 68.2556   top5 88.0050
Ep:146  EpTime:65.2497  Trainloss: 0.8393  Testloss: 1.2765  TrainAcc 78.59 top1 68.1754   top5 88.0952
Ep:147  EpTime:65.2586  Trainloss: 0.8419  Testloss: 1.3272  TrainAcc 78.39 top1 67.6341   top5 87.6892
Ep:148  EpTime:67.2792  Trainloss: 0.8359  Testloss: 1.3103  TrainAcc 78.67 top1 68.7068   top5 87.9749
Ep:149  EpTime:64.6176  Trainloss: 0.8394  Testloss: 1.3338  TrainAcc 78.49 top1 67.5589   top5 87.3133
Ep:150  EpTime:67.5795  Trainloss: 0.8392  Testloss: 1.2418  TrainAcc 78.67 top1 69.5138   top5 88.7068
