[32, 16, 24, 32, 64, 96, 160, 320]
MobileNet2(
  (activation): ReLU6(inplace)
  (conv1): Conv2d(3, 32, kernel_size=(3, 3), stride=(2, 2), padding=(1, 1), bias=False)
  (bn1): BatchNorm2d(32, eps=1e-05, momentum=0.1, affine=True, track_running_stats=True)
  (bottlenecks): Sequential(
    (Bottlenecks_0): Sequential(
      (LinearBottleneck0_0): LinearBottleneck(
        (conv1): Conv2d(32, 32, kernel_size=(1, 1), stride=(1, 1), bias=False)
        (bn1): BatchNorm2d(32, eps=1e-05, momentum=0.1, affine=True, track_running_stats=True)
        (conv2): Conv2d(32, 32, kernel_size=(3, 3), stride=(1, 1), padding=(1, 1), groups=32, bias=False)
        (bn2): BatchNorm2d(32, eps=1e-05, momentum=0.1, affine=True, track_running_stats=True)
        (conv3): Conv2d(32, 16, kernel_size=(1, 1), stride=(1, 1), bias=False)
        (bn3): BatchNorm2d(16, eps=1e-05, momentum=0.1, affine=True, track_running_stats=True)
        (activation): ReLU6(inplace)
      )
    )
    (Bottlenecks_1): Sequential(
      (LinearBottleneck1_0): LinearBottleneck(
        (conv1): Conv2d(16, 96, kernel_size=(1, 1), stride=(1, 1), bias=False)
        (bn1): BatchNorm2d(96, eps=1e-05, momentum=0.1, affine=True, track_running_stats=True)
        (conv2): Conv2d(96, 96, kernel_size=(3, 3), stride=(2, 2), padding=(1, 1), groups=96, bias=False)
        (bn2): BatchNorm2d(96, eps=1e-05, momentum=0.1, affine=True, track_running_stats=True)
        (conv3): Conv2d(96, 24, kernel_size=(1, 1), stride=(1, 1), bias=False)
        (bn3): BatchNorm2d(24, eps=1e-05, momentum=0.1, affine=True, track_running_stats=True)
        (activation): ReLU6(inplace)
      )
      (LinearBottleneck1_1): LinearBottleneck(
        (conv1): Conv2d(24, 144, kernel_size=(1, 1), stride=(1, 1), bias=False)
        (bn1): BatchNorm2d(144, eps=1e-05, momentum=0.1, affine=True, track_running_stats=True)
        (conv2): Conv2d(144, 144, kernel_size=(3, 3), stride=(1, 1), padding=(1, 1), groups=144, bias=False)
        (bn2): BatchNorm2d(144, eps=1e-05, momentum=0.1, affine=True, track_running_stats=True)
        (conv3): Conv2d(144, 24, kernel_size=(1, 1), stride=(1, 1), bias=False)
        (bn3): BatchNorm2d(24, eps=1e-05, momentum=0.1, affine=True, track_running_stats=True)
        (activation): ReLU6(inplace)
      )
    )
    (Bottlenecks_2): Sequential(
      (LinearBottleneck2_0): LinearBottleneck(
        (conv1): Conv2d(24, 144, kernel_size=(1, 1), stride=(1, 1), bias=False)
        (bn1): BatchNorm2d(144, eps=1e-05, momentum=0.1, affine=True, track_running_stats=True)
        (conv2): Conv2d(144, 144, kernel_size=(3, 3), stride=(2, 2), padding=(1, 1), groups=144, bias=False)
        (bn2): BatchNorm2d(144, eps=1e-05, momentum=0.1, affine=True, track_running_stats=True)
        (conv3): Conv2d(144, 32, kernel_size=(1, 1), stride=(1, 1), bias=False)
        (bn3): BatchNorm2d(32, eps=1e-05, momentum=0.1, affine=True, track_running_stats=True)
        (activation): ReLU6(inplace)
      )
      (LinearBottleneck2_1): LinearBottleneck(
        (conv1): Conv2d(32, 192, kernel_size=(1, 1), stride=(1, 1), bias=False)
        (bn1): BatchNorm2d(192, eps=1e-05, momentum=0.1, affine=True, track_running_stats=True)
        (conv2): Conv2d(192, 192, kernel_size=(3, 3), stride=(1, 1), padding=(1, 1), groups=192, bias=False)
        (bn2): BatchNorm2d(192, eps=1e-05, momentum=0.1, affine=True, track_running_stats=True)
        (conv3): Conv2d(192, 32, kernel_size=(1, 1), stride=(1, 1), bias=False)
        (bn3): BatchNorm2d(32, eps=1e-05, momentum=0.1, affine=True, track_running_stats=True)
        (activation): ReLU6(inplace)
      )
      (LinearBottleneck2_2): LinearBottleneck(
        (conv1): Conv2d(32, 192, kernel_size=(1, 1), stride=(1, 1), bias=False)
        (bn1): BatchNorm2d(192, eps=1e-05, momentum=0.1, affine=True, track_running_stats=True)
        (conv2): Conv2d(192, 192, kernel_size=(3, 3), stride=(1, 1), padding=(1, 1), groups=192, bias=False)
        (bn2): BatchNorm2d(192, eps=1e-05, momentum=0.1, affine=True, track_running_stats=True)
        (conv3): Conv2d(192, 32, kernel_size=(1, 1), stride=(1, 1), bias=False)
        (bn3): BatchNorm2d(32, eps=1e-05, momentum=0.1, affine=True, track_running_stats=True)
        (activation): ReLU6(inplace)
      )
    )
    (Bottlenecks_3): Sequential(
      (LinearBottleneck3_0): LinearBottleneck(
        (conv1): Conv2d(32, 192, kernel_size=(1, 1), stride=(1, 1), bias=False)
        (bn1): BatchNorm2d(192, eps=1e-05, momentum=0.1, affine=True, track_running_stats=True)
        (conv2): Conv2d(192, 192, kernel_size=(3, 3), stride=(2, 2), padding=(1, 1), groups=192, bias=False)
        (bn2): BatchNorm2d(192, eps=1e-05, momentum=0.1, affine=True, track_running_stats=True)
        (conv3): Conv2d(192, 64, kernel_size=(1, 1), stride=(1, 1), bias=False)
        (bn3): BatchNorm2d(64, eps=1e-05, momentum=0.1, affine=True, track_running_stats=True)
        (activation): ReLU6(inplace)
      )
      (LinearBottleneck3AlphaBlock_1): AlphaBlock(
        (arm_1): SplitArm(
          (conv_dws): Conv2d(16, 16, kernel_size=(1, 1), stride=(1, 1), groups=16)
          (bn_dws): BatchNorm2d(16, eps=1e-05, momentum=0.9, affine=True, track_running_stats=True)
          (relu_dws): ReLU(inplace)
          (maxpool): MaxPool2d(kernel_size=3, stride=1, padding=1, dilation=1, ceil_mode=False)
          (conv_point): Conv2d(16, 1, kernel_size=(1, 1), stride=(1, 1))
          (bn_point): BatchNorm2d(1, eps=1e-05, momentum=0.9, affine=True, track_running_stats=True)
          (relu_point): ReLU(inplace)
          (softmax): Softmax()
        )
        (arm_2): SplitArm(
          (conv_dws): Conv2d(16, 16, kernel_size=(1, 1), stride=(1, 1), groups=16)
          (bn_dws): BatchNorm2d(16, eps=1e-05, momentum=0.9, affine=True, track_running_stats=True)
          (relu_dws): ReLU(inplace)
          (maxpool): MaxPool2d(kernel_size=3, stride=1, padding=1, dilation=1, ceil_mode=False)
          (conv_point): Conv2d(16, 1, kernel_size=(1, 1), stride=(1, 1))
          (bn_point): BatchNorm2d(1, eps=1e-05, momentum=0.9, affine=True, track_running_stats=True)
          (relu_point): ReLU(inplace)
          (softmax): Softmax()
        )
        (arm_3): SplitArm(
          (conv_dws): Conv2d(16, 16, kernel_size=(1, 1), stride=(1, 1), groups=16)
          (bn_dws): BatchNorm2d(16, eps=1e-05, momentum=0.9, affine=True, track_running_stats=True)
          (relu_dws): ReLU(inplace)
          (maxpool): MaxPool2d(kernel_size=3, stride=1, padding=1, dilation=1, ceil_mode=False)
          (conv_point): Conv2d(16, 1, kernel_size=(1, 1), stride=(1, 1))
          (bn_point): BatchNorm2d(1, eps=1e-05, momentum=0.9, affine=True, track_running_stats=True)
          (relu_point): ReLU(inplace)
          (softmax): Softmax()
        )
        (arm_4): SplitArm(
          (conv_dws): Conv2d(16, 16, kernel_size=(1, 1), stride=(1, 1), groups=16)
          (bn_dws): BatchNorm2d(16, eps=1e-05, momentum=0.9, affine=True, track_running_stats=True)
          (relu_dws): ReLU(inplace)
          (maxpool): MaxPool2d(kernel_size=3, stride=1, padding=1, dilation=1, ceil_mode=False)
          (conv_point): Conv2d(16, 1, kernel_size=(1, 1), stride=(1, 1))
          (bn_point): BatchNorm2d(1, eps=1e-05, momentum=0.9, affine=True, track_running_stats=True)
          (relu_point): ReLU(inplace)
          (softmax): Softmax()
        )
      )
      (LinearBottleneck3_2): LinearBottleneck(
        (conv1): Conv2d(64, 384, kernel_size=(1, 1), stride=(1, 1), bias=False)
        (bn1): BatchNorm2d(384, eps=1e-05, momentum=0.1, affine=True, track_running_stats=True)
        (conv2): Conv2d(384, 384, kernel_size=(3, 3), stride=(1, 1), padding=(1, 1), groups=384, bias=False)
        (bn2): BatchNorm2d(384, eps=1e-05, momentum=0.1, affine=True, track_running_stats=True)
        (conv3): Conv2d(384, 64, kernel_size=(1, 1), stride=(1, 1), bias=False)
        (bn3): BatchNorm2d(64, eps=1e-05, momentum=0.1, affine=True, track_running_stats=True)
        (activation): ReLU6(inplace)
      )
      (LinearBottleneck3_3): LinearBottleneck(
        (conv1): Conv2d(64, 384, kernel_size=(1, 1), stride=(1, 1), bias=False)
        (bn1): BatchNorm2d(384, eps=1e-05, momentum=0.1, affine=True, track_running_stats=True)
        (conv2): Conv2d(384, 384, kernel_size=(3, 3), stride=(1, 1), padding=(1, 1), groups=384, bias=False)
        (bn2): BatchNorm2d(384, eps=1e-05, momentum=0.1, affine=True, track_running_stats=True)
        (conv3): Conv2d(384, 64, kernel_size=(1, 1), stride=(1, 1), bias=False)
        (bn3): BatchNorm2d(64, eps=1e-05, momentum=0.1, affine=True, track_running_stats=True)
        (activation): ReLU6(inplace)
      )
    )
    (Bottlenecks_4): Sequential(
      (LinearBottleneck4_0): LinearBottleneck(
        (conv1): Conv2d(64, 384, kernel_size=(1, 1), stride=(1, 1), bias=False)
        (bn1): BatchNorm2d(384, eps=1e-05, momentum=0.1, affine=True, track_running_stats=True)
        (conv2): Conv2d(384, 384, kernel_size=(3, 3), stride=(1, 1), padding=(1, 1), groups=384, bias=False)
        (bn2): BatchNorm2d(384, eps=1e-05, momentum=0.1, affine=True, track_running_stats=True)
        (conv3): Conv2d(384, 96, kernel_size=(1, 1), stride=(1, 1), bias=False)
        (bn3): BatchNorm2d(96, eps=1e-05, momentum=0.1, affine=True, track_running_stats=True)
        (activation): ReLU6(inplace)
      )
      (LinearBottleneck4_1): LinearBottleneck(
        (conv1): Conv2d(96, 576, kernel_size=(1, 1), stride=(1, 1), bias=False)
        (bn1): BatchNorm2d(576, eps=1e-05, momentum=0.1, affine=True, track_running_stats=True)
        (conv2): Conv2d(576, 576, kernel_size=(3, 3), stride=(1, 1), padding=(1, 1), groups=576, bias=False)
        (bn2): BatchNorm2d(576, eps=1e-05, momentum=0.1, affine=True, track_running_stats=True)
        (conv3): Conv2d(576, 96, kernel_size=(1, 1), stride=(1, 1), bias=False)
        (bn3): BatchNorm2d(96, eps=1e-05, momentum=0.1, affine=True, track_running_stats=True)
        (activation): ReLU6(inplace)
      )
      (LinearBottleneck4_2): LinearBottleneck(
        (conv1): Conv2d(96, 576, kernel_size=(1, 1), stride=(1, 1), bias=False)
        (bn1): BatchNorm2d(576, eps=1e-05, momentum=0.1, affine=True, track_running_stats=True)
        (conv2): Conv2d(576, 576, kernel_size=(3, 3), stride=(1, 1), padding=(1, 1), groups=576, bias=False)
        (bn2): BatchNorm2d(576, eps=1e-05, momentum=0.1, affine=True, track_running_stats=True)
        (conv3): Conv2d(576, 96, kernel_size=(1, 1), stride=(1, 1), bias=False)
        (bn3): BatchNorm2d(96, eps=1e-05, momentum=0.1, affine=True, track_running_stats=True)
        (activation): ReLU6(inplace)
      )
    )
    (Bottlenecks_5): Sequential(
      (LinearBottleneck5_0): LinearBottleneck(
        (conv1): Conv2d(96, 576, kernel_size=(1, 1), stride=(1, 1), bias=False)
        (bn1): BatchNorm2d(576, eps=1e-05, momentum=0.1, affine=True, track_running_stats=True)
        (conv2): Conv2d(576, 576, kernel_size=(3, 3), stride=(2, 2), padding=(1, 1), groups=576, bias=False)
        (bn2): BatchNorm2d(576, eps=1e-05, momentum=0.1, affine=True, track_running_stats=True)
        (conv3): Conv2d(576, 160, kernel_size=(1, 1), stride=(1, 1), bias=False)
        (bn3): BatchNorm2d(160, eps=1e-05, momentum=0.1, affine=True, track_running_stats=True)
        (activation): ReLU6(inplace)
      )
      (LinearBottleneck5_1): LinearBottleneck(
        (conv1): Conv2d(160, 960, kernel_size=(1, 1), stride=(1, 1), bias=False)
        (bn1): BatchNorm2d(960, eps=1e-05, momentum=0.1, affine=True, track_running_stats=True)
        (conv2): Conv2d(960, 960, kernel_size=(3, 3), stride=(1, 1), padding=(1, 1), groups=960, bias=False)
        (bn2): BatchNorm2d(960, eps=1e-05, momentum=0.1, affine=True, track_running_stats=True)
        (conv3): Conv2d(960, 160, kernel_size=(1, 1), stride=(1, 1), bias=False)
        (bn3): BatchNorm2d(160, eps=1e-05, momentum=0.1, affine=True, track_running_stats=True)
        (activation): ReLU6(inplace)
      )
      (LinearBottleneck5_2): LinearBottleneck(
        (conv1): Conv2d(160, 960, kernel_size=(1, 1), stride=(1, 1), bias=False)
        (bn1): BatchNorm2d(960, eps=1e-05, momentum=0.1, affine=True, track_running_stats=True)
        (conv2): Conv2d(960, 960, kernel_size=(3, 3), stride=(1, 1), padding=(1, 1), groups=960, bias=False)
        (bn2): BatchNorm2d(960, eps=1e-05, momentum=0.1, affine=True, track_running_stats=True)
        (conv3): Conv2d(960, 160, kernel_size=(1, 1), stride=(1, 1), bias=False)
        (bn3): BatchNorm2d(160, eps=1e-05, momentum=0.1, affine=True, track_running_stats=True)
        (activation): ReLU6(inplace)
      )
    )
    (Bottlenecks_6): Sequential(
      (LinearBottleneck6_0): LinearBottleneck(
        (conv1): Conv2d(160, 960, kernel_size=(1, 1), stride=(1, 1), bias=False)
        (bn1): BatchNorm2d(960, eps=1e-05, momentum=0.1, affine=True, track_running_stats=True)
        (conv2): Conv2d(960, 960, kernel_size=(3, 3), stride=(1, 1), padding=(1, 1), groups=960, bias=False)
        (bn2): BatchNorm2d(960, eps=1e-05, momentum=0.1, affine=True, track_running_stats=True)
        (conv3): Conv2d(960, 320, kernel_size=(1, 1), stride=(1, 1), bias=False)
        (bn3): BatchNorm2d(320, eps=1e-05, momentum=0.1, affine=True, track_running_stats=True)
        (activation): ReLU6(inplace)
      )
    )
  )
  (conv_last): Conv2d(320, 1280, kernel_size=(1, 1), stride=(1, 1), bias=False)
  (bn_last): BatchNorm2d(1280, eps=1e-05, momentum=0.1, affine=True, track_running_stats=True)
  (avgpool): AdaptiveAvgPool2d(output_size=1)
  (dropout): Dropout(p=0.2, inplace)
  (fc): Linear(in_features=1280, out_features=120, bias=True)
)
Ep: 1   EpTime: 39.8587  Trainloss: 4.8482   Testloss: 4.7881  TrainAcc: 1.72   Top1: 2.5000    Top5: 11.4167	lr:0.045000
Checkpoint saved!!!
Ep: 2   EpTime: 37.3214  Trainloss: 4.4949   Testloss: 4.4561  TrainAcc: 3.98   Top1: 3.7500    Top5: 15.7833	lr:0.045000
Checkpoint saved!!!
Ep: 3   EpTime: 37.3988  Trainloss: 4.2987   Testloss: 4.4078  TrainAcc: 5.21   Top1: 4.9167    Top5: 20.2833	lr:0.044100
Checkpoint saved!!!
Ep: 4   EpTime: 37.3899  Trainloss: 4.1707   Testloss: 3.9951  TrainAcc: 6.80   Top1: 8.2167    Top5: 27.5333	lr:0.043218
Checkpoint saved!!!
Ep: 5   EpTime: 37.4394  Trainloss: 4.0511   Testloss: 3.9136  TrainAcc: 8.00   Top1: 9.1000    Top5: 30.1000	lr:0.042354
Checkpoint saved!!!
Ep: 6   EpTime: 37.3504  Trainloss: 3.9558   Testloss: 4.0656  TrainAcc: 9.02   Top1: 9.0333    Top5: 29.8833	lr:0.041507
Ep: 7   EpTime: 37.1309  Trainloss: 3.8584   Testloss: 3.8853  TrainAcc: 10.80   Top1: 9.9000    Top5: 31.6167	lr:0.040676
Checkpoint saved!!!
Ep: 8   EpTime: 37.3072  Trainloss: 3.7717   Testloss: 3.6418  TrainAcc: 12.07   Top1: 12.1667    Top5: 38.7167	lr:0.039863
Checkpoint saved!!!
Ep: 9   EpTime: 37.3642  Trainloss: 3.6798   Testloss: 3.6159  TrainAcc: 13.26   Top1: 14.3000    Top5: 39.3500	lr:0.039066
Checkpoint saved!!!
Ep: 10   EpTime: 37.6450  Trainloss: 3.5855   Testloss: 3.4681  TrainAcc: 15.19   Top1: 16.5333    Top5: 43.3667	lr:0.038284
Checkpoint saved!!!
Ep: 11   EpTime: 37.4833  Trainloss: 3.4775   Testloss: 3.5202  TrainAcc: 16.46   Top1: 16.3833    Top5: 44.1333	lr:0.037519
Ep: 12   EpTime: 37.5679  Trainloss: 3.4003   Testloss: 3.4121  TrainAcc: 18.35   Top1: 18.0167    Top5: 48.9500	lr:0.036768
Checkpoint saved!!!
Ep: 13   EpTime: 37.8825  Trainloss: 3.3178   Testloss: 3.3102  TrainAcc: 19.68   Top1: 19.7833    Top5: 48.7333	lr:0.036033
Checkpoint saved!!!
Ep: 14   EpTime: 37.1865  Trainloss: 3.2020   Testloss: 3.1811  TrainAcc: 21.95   Top1: 22.2167    Top5: 53.3167	lr:0.035312
Checkpoint saved!!!
Ep: 15   EpTime: 37.4125  Trainloss: 3.1278   Testloss: 3.4582  TrainAcc: 22.94   Top1: 19.9500    Top5: 49.6833	lr:0.034606
Ep: 16   EpTime: 37.4391  Trainloss: 3.0301   Testloss: 2.9968  TrainAcc: 24.83   Top1: 24.7833    Top5: 57.2167	lr:0.033914
Checkpoint saved!!!
Ep: 17   EpTime: 37.3981  Trainloss: 2.9611   Testloss: 3.2563  TrainAcc: 26.39   Top1: 22.7167    Top5: 53.7333	lr:0.033236
Ep: 18   EpTime: 37.5015  Trainloss: 2.9022   Testloss: 2.6663  TrainAcc: 27.67   Top1: 30.6333    Top5: 65.3500	lr:0.032571
Checkpoint saved!!!
Ep: 19   EpTime: 37.6120  Trainloss: 2.7981   Testloss: 2.8238  TrainAcc: 29.44   Top1: 28.0000    Top5: 61.6667	lr:0.031919
Ep: 20   EpTime: 37.5140  Trainloss: 2.7160   Testloss: 2.6454  TrainAcc: 31.68   Top1: 32.3667    Top5: 65.6500	lr:0.031281
Checkpoint saved!!!
Ep: 21   EpTime: 37.5790  Trainloss: 2.6417   Testloss: 2.5341  TrainAcc: 32.73   Top1: 34.5167    Top5: 68.6500	lr:0.030655
Checkpoint saved!!!
Ep: 22   EpTime: 37.4206  Trainloss: 2.5655   Testloss: 2.5922  TrainAcc: 34.64   Top1: 34.2500    Top5: 67.1333	lr:0.030042
Ep: 23   EpTime: 37.4280  Trainloss: 2.5152   Testloss: 2.3396  TrainAcc: 35.29   Top1: 40.0500    Top5: 72.2667	lr:0.029442
Checkpoint saved!!!
Ep: 24   EpTime: 37.7160  Trainloss: 2.4137   Testloss: 2.3406  TrainAcc: 37.50   Top1: 38.1000    Top5: 73.1833	lr:0.028853
Ep: 25   EpTime: 37.5237  Trainloss: 2.3850   Testloss: 2.2409  TrainAcc: 38.21   Top1: 40.8167    Top5: 73.9333	lr:0.028276
Checkpoint saved!!!
Ep: 26   EpTime: 37.7242  Trainloss: 2.3259   Testloss: 2.1652  TrainAcc: 39.20   Top1: 42.8000    Top5: 75.5833	lr:0.027710
Checkpoint saved!!!
Ep: 27   EpTime: 37.5762  Trainloss: 2.2690   Testloss: 2.2921  TrainAcc: 41.17   Top1: 40.1500    Top5: 74.4167	lr:0.027156
Ep: 28   EpTime: 37.7099  Trainloss: 2.2205   Testloss: 2.1037  TrainAcc: 42.09   Top1: 43.9667    Top5: 77.1333	lr:0.026613
Checkpoint saved!!!
Ep: 29   EpTime: 37.6982  Trainloss: 2.1469   Testloss: 2.1556  TrainAcc: 43.67   Top1: 43.0167    Top5: 76.1833	lr:0.026081
Ep: 30   EpTime: 37.7622  Trainloss: 2.1202   Testloss: 2.1059  TrainAcc: 43.81   Top1: 44.0333    Top5: 77.1833	lr:0.025559
Checkpoint saved!!!
Ep: 31   EpTime: 37.5960  Trainloss: 2.0383   Testloss: 1.9580  TrainAcc: 45.91   Top1: 47.2500    Top5: 79.5500	lr:0.025048
Checkpoint saved!!!
Ep: 32   EpTime: 37.5199  Trainloss: 2.0160   Testloss: 2.0513  TrainAcc: 46.22   Top1: 46.0000    Top5: 77.6167	lr:0.024547
Ep: 33   EpTime: 37.7123  Trainloss: 1.9818   Testloss: 1.9300  TrainAcc: 47.45   Top1: 48.0833    Top5: 80.0500	lr:0.024056
Checkpoint saved!!!
Ep: 34   EpTime: 37.5414  Trainloss: 1.9324   Testloss: 1.9557  TrainAcc: 47.86   Top1: 47.5000    Top5: 79.8667	lr:0.023575
Ep: 35   EpTime: 37.7811  Trainloss: 1.9145   Testloss: 1.9061  TrainAcc: 48.93   Top1: 49.2833    Top5: 81.0500	lr:0.023103
Checkpoint saved!!!
Ep: 36   EpTime: 37.3841  Trainloss: 1.8578   Testloss: 1.8736  TrainAcc: 50.91   Top1: 49.2667    Top5: 81.4000	lr:0.022641
Ep: 37   EpTime: 37.6393  Trainloss: 1.8289   Testloss: 1.8483  TrainAcc: 51.58   Top1: 49.7333    Top5: 82.4000	lr:0.022188
Checkpoint saved!!!
Ep: 38   EpTime: 37.4416  Trainloss: 1.7891   Testloss: 1.8986  TrainAcc: 52.55   Top1: 49.1667    Top5: 80.8000	lr:0.021745
Ep: 39   EpTime: 37.8286  Trainloss: 1.7662   Testloss: 1.7953  TrainAcc: 52.32   Top1: 51.2833    Top5: 82.6667	lr:0.021310
Checkpoint saved!!!
Ep: 40   EpTime: 37.4018  Trainloss: 1.7295   Testloss: 1.8450  TrainAcc: 53.47   Top1: 49.9167    Top5: 81.7167	lr:0.020884
Ep: 41   EpTime: 37.4220  Trainloss: 1.6983   Testloss: 1.8115  TrainAcc: 54.42   Top1: 51.6333    Top5: 82.1333	lr:0.020466
Checkpoint saved!!!
Ep: 42   EpTime: 37.4203  Trainloss: 1.6243   Testloss: 1.8177  TrainAcc: 56.36   Top1: 51.6000    Top5: 82.5500	lr:0.020057
Ep: 43   EpTime: 37.4460  Trainloss: 1.6350   Testloss: 1.7782  TrainAcc: 55.87   Top1: 51.8833    Top5: 82.8333	lr:0.019655
Checkpoint saved!!!
Ep: 44   EpTime: 37.5002  Trainloss: 1.6035   Testloss: 1.7474  TrainAcc: 56.68   Top1: 53.4000    Top5: 83.5333	lr:0.019262
Checkpoint saved!!!
Ep: 45   EpTime: 37.0545  Trainloss: 1.5643   Testloss: 1.7614  TrainAcc: 57.55   Top1: 52.8500    Top5: 83.8167	lr:0.018877
Ep: 46   EpTime: 37.5449  Trainloss: 1.5411   Testloss: 1.6875  TrainAcc: 58.71   Top1: 55.2500    Top5: 84.5333	lr:0.018499
Checkpoint saved!!!
Ep: 47   EpTime: 37.0509  Trainloss: 1.5097   Testloss: 1.6786  TrainAcc: 59.27   Top1: 54.4333    Top5: 85.3833	lr:0.018130
Ep: 48   EpTime: 36.9613  Trainloss: 1.4724   Testloss: 1.7230  TrainAcc: 60.36   Top1: 53.6833    Top5: 84.6333	lr:0.017767
Ep: 49   EpTime: 38.5733  Trainloss: 1.4619   Testloss: 1.7092  TrainAcc: 60.67   Top1: 54.1000    Top5: 84.6167	lr:0.017412
Ep: 50   EpTime: 37.5275  Trainloss: 1.4463   Testloss: 1.7219  TrainAcc: 60.93   Top1: 54.7000    Top5: 84.1667	lr:0.017063
Ep: 51   EpTime: 39.4855  Trainloss: 1.4004   Testloss: 1.7028  TrainAcc: 62.22   Top1: 55.0333    Top5: 84.9167	lr:0.016722
Ep: 52   EpTime: 38.3817  Trainloss: 1.4066   Testloss: 1.6705  TrainAcc: 62.02   Top1: 55.7500    Top5: 85.0500	lr:0.016388
Checkpoint saved!!!
Ep: 53   EpTime: 37.5280  Trainloss: 1.3710   Testloss: 1.6648  TrainAcc: 62.85   Top1: 56.3000    Top5: 85.5667	lr:0.016060
Checkpoint saved!!!
Ep: 54   EpTime: 37.5104  Trainloss: 1.3410   Testloss: 1.6587  TrainAcc: 63.20   Top1: 56.0500    Top5: 85.4000	lr:0.015739
Ep: 55   EpTime: 37.9460  Trainloss: 1.3143   Testloss: 1.6904  TrainAcc: 63.80   Top1: 56.3167    Top5: 85.0833	lr:0.015424
Checkpoint saved!!!
Ep: 56   EpTime: 37.7533  Trainloss: 1.3157   Testloss: 1.6484  TrainAcc: 64.39   Top1: 56.6500    Top5: 85.7833	lr:0.015115
Checkpoint saved!!!
Ep: 57   EpTime: 37.8001  Trainloss: 1.2915   Testloss: 1.6628  TrainAcc: 64.88   Top1: 56.0000    Top5: 85.7333	lr:0.014813
Ep: 58   EpTime: 37.7228  Trainloss: 1.2593   Testloss: 1.6111  TrainAcc: 65.80   Top1: 58.0000    Top5: 86.6333	lr:0.014517
Checkpoint saved!!!
Ep: 59   EpTime: 37.7630  Trainloss: 1.2487   Testloss: 1.6417  TrainAcc: 66.34   Top1: 57.4500    Top5: 86.5667	lr:0.014227
Ep: 60   EpTime: 37.9090  Trainloss: 1.2018   Testloss: 1.6811  TrainAcc: 67.04   Top1: 57.1000    Top5: 86.0500	lr:0.013942
Ep: 61   EpTime: 37.5296  Trainloss: 1.2153   Testloss: 1.6274  TrainAcc: 67.22   Top1: 57.9333    Top5: 86.0667	lr:0.013663
Ep: 62   EpTime: 37.5535  Trainloss: 1.1974   Testloss: 1.5454  TrainAcc: 67.55   Top1: 59.3167    Top5: 87.1667	lr:0.013390
Checkpoint saved!!!
Ep: 63   EpTime: 37.5511  Trainloss: 1.1864   Testloss: 1.6382  TrainAcc: 68.50   Top1: 57.2333    Top5: 85.9500	lr:0.013122
Ep: 64   EpTime: 37.4909  Trainloss: 1.1589   Testloss: 1.5874  TrainAcc: 68.74   Top1: 58.3833    Top5: 87.0667	lr:0.012860
Ep: 65   EpTime: 37.6456  Trainloss: 1.1341   Testloss: 1.6071  TrainAcc: 69.79   Top1: 58.1333    Top5: 86.6667	lr:0.012602
Ep: 66   EpTime: 37.4253  Trainloss: 1.1282   Testloss: 1.6440  TrainAcc: 69.89   Top1: 58.2167    Top5: 86.3000	lr:0.012350
Ep: 67   EpTime: 37.8172  Trainloss: 1.1091   Testloss: 1.5921  TrainAcc: 69.92   Top1: 58.6000    Top5: 87.1167	lr:0.012103
Ep: 68   EpTime: 37.9092  Trainloss: 1.0825   Testloss: 1.6492  TrainAcc: 70.98   Top1: 57.4167    Top5: 85.8500	lr:0.011861
Ep: 69   EpTime: 38.4008  Trainloss: 1.0655   Testloss: 1.6158  TrainAcc: 70.90   Top1: 58.5667    Top5: 87.1167	lr:0.011624
Ep: 70   EpTime: 38.4961  Trainloss: 1.0556   Testloss: 1.6423  TrainAcc: 71.52   Top1: 57.8000    Top5: 87.0667	lr:0.011392
Ep: 71   EpTime: 38.8307  Trainloss: 1.0582   Testloss: 1.6777  TrainAcc: 71.77   Top1: 58.0167    Top5: 86.5333	lr:0.011164
Ep: 72   EpTime: 38.5291  Trainloss: 1.0299   Testloss: 1.5831  TrainAcc: 72.54   Top1: 58.7833    Top5: 86.7000	lr:0.010941
Ep: 73   EpTime: 38.9788  Trainloss: 1.0070   Testloss: 1.6132  TrainAcc: 72.65   Top1: 58.6833    Top5: 86.8500	lr:0.010722
Ep: 74   EpTime: 38.8427  Trainloss: 1.0106   Testloss: 1.6386  TrainAcc: 72.37   Top1: 58.4167    Top5: 86.4667	lr:0.010507
Ep: 75   EpTime: 39.0398  Trainloss: 0.9811   Testloss: 1.5912  TrainAcc: 73.72   Top1: 59.5167    Top5: 86.9667	lr:0.010297
Checkpoint saved!!!
Ep: 76   EpTime: 38.1434  Trainloss: 0.9713   Testloss: 1.6637  TrainAcc: 73.94   Top1: 57.4500    Top5: 86.8833	lr:0.010091
Ep: 77   EpTime: 38.3722  Trainloss: 0.9804   Testloss: 1.6106  TrainAcc: 73.93   Top1: 59.3667    Top5: 87.3333	lr:0.009889
Ep: 78   EpTime: 38.6794  Trainloss: 0.9418   Testloss: 1.5730  TrainAcc: 74.83   Top1: 59.1167    Top5: 87.4000	lr:0.009692
Ep: 79   EpTime: 39.4306  Trainloss: 0.9429   Testloss: 1.6332  TrainAcc: 74.14   Top1: 59.4000    Top5: 86.9833	lr:0.009498
Ep: 80   EpTime: 38.5715  Trainloss: 0.9225   Testloss: 1.6124  TrainAcc: 75.45   Top1: 59.4500    Top5: 87.2500	lr:0.009308
Ep: 81   EpTime: 38.9234  Trainloss: 0.9054   Testloss: 1.6105  TrainAcc: 75.92   Top1: 60.3333    Top5: 87.4167	lr:0.009122
Checkpoint saved!!!
Ep: 82   EpTime: 39.2724  Trainloss: 0.9013   Testloss: 1.6239  TrainAcc: 75.91   Top1: 59.0833    Top5: 86.8333	lr:0.008939
Ep: 83   EpTime: 38.6959  Trainloss: 0.8900   Testloss: 1.6195  TrainAcc: 76.43   Top1: 59.5667    Top5: 87.1333	lr:0.008760
Ep: 84   EpTime: 39.0877  Trainloss: 0.8809   Testloss: 1.6057  TrainAcc: 76.77   Top1: 59.9000    Top5: 87.0500	lr:0.008585
Ep: 85   EpTime: 39.2540  Trainloss: 0.8583   Testloss: 1.7138  TrainAcc: 77.62   Top1: 58.5000    Top5: 86.0667	lr:0.008414
Ep: 86   EpTime: 38.9186  Trainloss: 0.8674   Testloss: 1.6517  TrainAcc: 76.95   Top1: 59.7333    Top5: 87.0333	lr:0.008245
Ep: 87   EpTime: 39.1610  Trainloss: 0.8612   Testloss: 1.6769  TrainAcc: 76.91   Top1: 59.3167    Top5: 86.4667	lr:0.008080
Ep: 88   EpTime: 39.3079  Trainloss: 0.8463   Testloss: 1.6809  TrainAcc: 77.89   Top1: 59.8167    Top5: 86.2500	lr:0.007919
Ep: 89   EpTime: 38.4825  Trainloss: 0.8507   Testloss: 1.6351  TrainAcc: 77.35   Top1: 59.5500    Top5: 87.1833	lr:0.007760
Ep: 90   EpTime: 37.8914  Trainloss: 0.8314   Testloss: 1.6574  TrainAcc: 77.87   Top1: 59.7667    Top5: 86.8333	lr:0.007605
Ep: 91   EpTime: 37.9603  Trainloss: 0.8337   Testloss: 1.6383  TrainAcc: 78.36   Top1: 59.9333    Top5: 86.6667	lr:0.007453
Ep: 92   EpTime: 38.1745  Trainloss: 0.8286   Testloss: 1.6539  TrainAcc: 78.26   Top1: 60.4667    Top5: 87.0500	lr:0.007304
Checkpoint saved!!!
Ep: 93   EpTime: 38.1480  Trainloss: 0.8096   Testloss: 1.6497  TrainAcc: 79.05   Top1: 60.0500    Top5: 87.0833	lr:0.007158
Ep: 94   EpTime: 38.2022  Trainloss: 0.8082   Testloss: 1.6386  TrainAcc: 78.53   Top1: 59.9500    Top5: 87.0333	lr:0.007015
Ep: 95   EpTime: 38.1051  Trainloss: 0.8084   Testloss: 1.6536  TrainAcc: 78.88   Top1: 59.4333    Top5: 86.6833	lr:0.006874
Ep: 96   EpTime: 38.0452  Trainloss: 0.7999   Testloss: 1.6523  TrainAcc: 78.92   Top1: 60.1167    Top5: 86.8833	lr:0.006737
Ep: 97   EpTime: 38.1478  Trainloss: 0.7714   Testloss: 1.6365  TrainAcc: 79.60   Top1: 59.9667    Top5: 86.9833	lr:0.006602
Ep: 98   EpTime: 38.0662  Trainloss: 0.7572   Testloss: 1.6679  TrainAcc: 80.07   Top1: 60.0667    Top5: 86.8667	lr:0.006470
Ep: 99   EpTime: 38.1191  Trainloss: 0.7561   Testloss: 1.6692  TrainAcc: 79.87   Top1: 60.1167    Top5: 87.1000	lr:0.006341
Ep: 100   EpTime: 38.1294  Trainloss: 0.7648   Testloss: 1.6476  TrainAcc: 79.88   Top1: 59.7667    Top5: 87.4167	lr:0.006214
Ep: 101   EpTime: 38.1024  Trainloss: 0.7535   Testloss: 1.6795  TrainAcc: 80.40   Top1: 60.0667    Top5: 86.9833	lr:0.006090
Ep: 102   EpTime: 38.3173  Trainloss: 0.7443   Testloss: 1.6484  TrainAcc: 80.66   Top1: 60.1500    Top5: 87.2667	lr:0.005968
Ep: 103   EpTime: 38.2256  Trainloss: 0.7446   Testloss: 1.6942  TrainAcc: 80.75   Top1: 59.6333    Top5: 86.5833	lr:0.005849
Ep: 104   EpTime: 38.0742  Trainloss: 0.7351   Testloss: 1.7254  TrainAcc: 80.78   Top1: 59.2833    Top5: 86.6167	lr:0.005732
Ep: 105   EpTime: 38.5633  Trainloss: 0.7319   Testloss: 1.6802  TrainAcc: 80.50   Top1: 59.9833    Top5: 86.7833	lr:0.005617
Ep: 106   EpTime: 38.5465  Trainloss: 0.7266   Testloss: 1.6639  TrainAcc: 81.24   Top1: 60.1833    Top5: 87.0000	lr:0.005505
Ep: 107   EpTime: 38.6165  Trainloss: 0.7256   Testloss: 1.6858  TrainAcc: 81.33   Top1: 60.6000    Top5: 87.1000	lr:0.005394
Checkpoint saved!!!
Ep: 108   EpTime: 38.4990  Trainloss: 0.7129   Testloss: 1.6536  TrainAcc: 81.49   Top1: 60.3333    Top5: 87.3167	lr:0.005287
Ep: 109   EpTime: 38.5001  Trainloss: 0.7065   Testloss: 1.6717  TrainAcc: 81.58   Top1: 59.6333    Top5: 87.1333	lr:0.005181
Ep: 110   EpTime: 38.4774  Trainloss: 0.6877   Testloss: 1.6746  TrainAcc: 82.32   Top1: 60.2333    Top5: 87.1833	lr:0.005077
Ep: 111   EpTime: 38.2436  Trainloss: 0.6847   Testloss: 1.6874  TrainAcc: 82.06   Top1: 59.6833    Top5: 86.9500	lr:0.004976
Ep: 112   EpTime: 38.8453  Trainloss: 0.6919   Testloss: 1.6522  TrainAcc: 81.95   Top1: 61.1000    Top5: 87.3000	lr:0.004876
Checkpoint saved!!!
Ep: 113   EpTime: 38.9121  Trainloss: 0.6802   Testloss: 1.6839  TrainAcc: 82.35   Top1: 60.4167    Top5: 86.8167	lr:0.004779
Ep: 114   EpTime: 38.8152  Trainloss: 0.6938   Testloss: 1.6718  TrainAcc: 82.13   Top1: 60.6667    Top5: 87.0667	lr:0.004683
Ep: 115   EpTime: 38.3832  Trainloss: 0.6834   Testloss: 1.7103  TrainAcc: 82.13   Top1: 60.4333    Top5: 86.6500	lr:0.004589
Ep: 116   EpTime: 38.3732  Trainloss: 0.6637   Testloss: 1.6976  TrainAcc: 83.09   Top1: 60.5000    Top5: 86.8167	lr:0.004498
Ep: 117   EpTime: 38.4655  Trainloss: 0.6562   Testloss: 1.6995  TrainAcc: 82.93   Top1: 60.7333    Top5: 86.9667	lr:0.004408
Ep: 118   EpTime: 38.7067  Trainloss: 0.6510   Testloss: 1.6751  TrainAcc: 83.07   Top1: 60.5333    Top5: 87.1667	lr:0.004320
Ep: 119   EpTime: 38.5559  Trainloss: 0.6571   Testloss: 1.6600  TrainAcc: 83.26   Top1: 60.9833    Top5: 86.9833	lr:0.004233
Ep: 120   EpTime: 38.6200  Trainloss: 0.6581   Testloss: 1.6798  TrainAcc: 83.33   Top1: 60.7333    Top5: 86.7167	lr:0.004148
Ep: 121   EpTime: 38.4867  Trainloss: 0.6742   Testloss: 1.6711  TrainAcc: 82.72   Top1: 60.2500    Top5: 87.0000	lr:0.004066
Ep: 122   EpTime: 38.3295  Trainloss: 0.6498   Testloss: 1.7252  TrainAcc: 83.66   Top1: 60.4833    Top5: 86.6333	lr:0.003984
Ep: 123   EpTime: 38.3021  Trainloss: 0.6505   Testloss: 1.6899  TrainAcc: 83.09   Top1: 60.3333    Top5: 87.1167	lr:0.003905
Ep: 124   EpTime: 38.1459  Trainloss: 0.6503   Testloss: 1.6793  TrainAcc: 83.44   Top1: 60.1667    Top5: 87.0667	lr:0.003826
Ep: 125   EpTime: 38.6033  Trainloss: 0.6338   Testloss: 1.6670  TrainAcc: 83.53   Top1: 60.3167    Top5: 87.4667	lr:0.003750
Ep: 126   EpTime: 38.5736  Trainloss: 0.6299   Testloss: 1.6813  TrainAcc: 83.70   Top1: 60.9000    Top5: 87.2667	lr:0.003675
Ep: 127   EpTime: 38.4475  Trainloss: 0.6358   Testloss: 1.6378  TrainAcc: 83.61   Top1: 61.0167    Top5: 87.6500	lr:0.003601
Ep: 128   EpTime: 38.6974  Trainloss: 0.6266   Testloss: 1.6849  TrainAcc: 83.90   Top1: 61.0333    Top5: 87.0167	lr:0.003529
Ep: 129   EpTime: 38.3847  Trainloss: 0.6198   Testloss: 1.6878  TrainAcc: 84.04   Top1: 60.2000    Top5: 87.3167	lr:0.003459
Ep: 130   EpTime: 37.9971  Trainloss: 0.6107   Testloss: 1.6676  TrainAcc: 84.50   Top1: 61.1000    Top5: 87.2500	lr:0.003390
Checkpoint saved!!!
Ep: 131   EpTime: 38.4222  Trainloss: 0.6015   Testloss: 1.6587  TrainAcc: 84.42   Top1: 61.1333    Top5: 87.3000	lr:0.003322
Checkpoint saved!!!
Ep: 132   EpTime: 39.0296  Trainloss: 0.6031   Testloss: 1.6765  TrainAcc: 84.08   Top1: 60.7500    Top5: 87.1000	lr:0.003255
Ep: 133   EpTime: 38.9705  Trainloss: 0.6082   Testloss: 1.6953  TrainAcc: 84.02   Top1: 60.4000    Top5: 87.3000	lr:0.003190
Ep: 134   EpTime: 39.5954  Trainloss: 0.6042   Testloss: 1.6933  TrainAcc: 84.40   Top1: 61.3833    Top5: 87.2667	lr:0.003126
Checkpoint saved!!!
Ep: 135   EpTime: 39.2424  Trainloss: 0.5895   Testloss: 1.6813  TrainAcc: 84.91   Top1: 60.9000    Top5: 87.2167	lr:0.003064
Ep: 136   EpTime: 39.6329  Trainloss: 0.6062   Testloss: 1.6827  TrainAcc: 84.34   Top1: 60.7167    Top5: 87.1000	lr:0.003003
Ep: 137   EpTime: 39.0944  Trainloss: 0.6171   Testloss: 1.6939  TrainAcc: 83.98   Top1: 61.0667    Top5: 86.8667	lr:0.002943
Ep: 138   EpTime: 39.2924  Trainloss: 0.5909   Testloss: 1.7004  TrainAcc: 84.86   Top1: 61.0000    Top5: 87.0667	lr:0.002884
Ep: 139   EpTime: 39.5272  Trainloss: 0.5894   Testloss: 1.7185  TrainAcc: 84.88   Top1: 60.8833    Top5: 86.5667	lr:0.002826
Ep: 140   EpTime: 38.9423  Trainloss: 0.6099   Testloss: 1.7125  TrainAcc: 84.60   Top1: 60.6000    Top5: 86.9000	lr:0.002770
Ep: 141   EpTime: 38.2451  Trainloss: 0.5868   Testloss: 1.6978  TrainAcc: 85.10   Top1: 60.5333    Top5: 87.0667	lr:0.002714
Ep: 142   EpTime: 38.3116  Trainloss: 0.5812   Testloss: 1.6959  TrainAcc: 85.11   Top1: 60.7667    Top5: 86.8333	lr:0.002660
Ep: 143   EpTime: 38.1386  Trainloss: 0.5856   Testloss: 1.7044  TrainAcc: 84.74   Top1: 60.5500    Top5: 86.7667	lr:0.002607
Ep: 144   EpTime: 38.1849  Trainloss: 0.5780   Testloss: 1.7005  TrainAcc: 84.96   Top1: 61.1833    Top5: 87.0667	lr:0.002555
Ep: 145   EpTime: 38.3008  Trainloss: 0.5608   Testloss: 1.7032  TrainAcc: 85.75   Top1: 60.6333    Top5: 87.1167	lr:0.002503
Ep: 146   EpTime: 38.5312  Trainloss: 0.5477   Testloss: 1.7043  TrainAcc: 85.88   Top1: 60.5500    Top5: 87.2500	lr:0.002453
Ep: 147   EpTime: 38.3657  Trainloss: 0.5578   Testloss: 1.6861  TrainAcc: 85.47   Top1: 60.3833    Top5: 87.1833	lr:0.002404
Ep: 148   EpTime: 38.4455  Trainloss: 0.5723   Testloss: 1.6899  TrainAcc: 85.46   Top1: 61.0167    Top5: 87.2500	lr:0.002356
Ep: 149   EpTime: 37.8634  Trainloss: 0.5515   Testloss: 1.7046  TrainAcc: 85.80   Top1: 60.8333    Top5: 87.3667	lr:0.002309
Ep: 150   EpTime: 38.3189  Trainloss: 0.5646   Testloss: 1.7002  TrainAcc: 85.43   Top1: 60.8333    Top5: 87.2167	lr:0.002263
Ep: 151   EpTime: 38.6864  Trainloss: 0.5718   Testloss: 1.6900  TrainAcc: 85.47   Top1: 61.0167    Top5: 86.7833	lr:0.002218
Ep: 152   EpTime: 38.5518  Trainloss: 0.5561   Testloss: 1.6849  TrainAcc: 85.60   Top1: 61.3833    Top5: 87.2167	lr:0.002173
Checkpoint saved!!!
Ep: 153   EpTime: 38.6286  Trainloss: 0.5539   Testloss: 1.7037  TrainAcc: 85.90   Top1: 60.5667    Top5: 86.9167	lr:0.002130
Ep: 154   EpTime: 38.8288  Trainloss: 0.5485   Testloss: 1.6913  TrainAcc: 86.28   Top1: 60.8000    Top5: 87.3333	lr:0.002087
Ep: 155   EpTime: 39.0925  Trainloss: 0.5499   Testloss: 1.7096  TrainAcc: 85.95   Top1: 60.3167    Top5: 86.7000	lr:0.002046
Ep: 156   EpTime: 38.5571  Trainloss: 0.5427   Testloss: 1.7050  TrainAcc: 86.08   Top1: 60.8500    Top5: 86.9833	lr:0.002005
Ep: 157   EpTime: 38.7681  Trainloss: 0.5479   Testloss: 1.6930  TrainAcc: 85.86   Top1: 60.7167    Top5: 87.0500	lr:0.001965
Ep: 158   EpTime: 38.2830  Trainloss: 0.5243   Testloss: 1.6988  TrainAcc: 86.54   Top1: 61.1000    Top5: 87.1500	lr:0.001925
Ep: 159   EpTime: 38.8436  Trainloss: 0.5486   Testloss: 1.7105  TrainAcc: 86.04   Top1: 61.2833    Top5: 87.0000	lr:0.001887
Ep: 160   EpTime: 39.0295  Trainloss: 0.5379   Testloss: 1.7149  TrainAcc: 86.06   Top1: 61.1500    Top5: 86.9000	lr:0.001849
Ep: 161   EpTime: 38.6313  Trainloss: 0.5669   Testloss: 1.7170  TrainAcc: 85.62   Top1: 60.8333    Top5: 87.1500	lr:0.001812
Ep: 162   EpTime: 38.6743  Trainloss: 0.5452   Testloss: 1.7225  TrainAcc: 85.88   Top1: 60.6667    Top5: 86.9000	lr:0.001776
Ep: 163   EpTime: 38.6151  Trainloss: 0.5244   Testloss: 1.6944  TrainAcc: 86.44   Top1: 61.3500    Top5: 87.4000	lr:0.001740
Ep: 164   EpTime: 38.2555  Trainloss: 0.5283   Testloss: 1.7180  TrainAcc: 86.12   Top1: 60.7167    Top5: 86.5333	lr:0.001705
Ep: 165   EpTime: 38.0310  Trainloss: 0.5361   Testloss: 1.7096  TrainAcc: 86.41   Top1: 60.8000    Top5: 86.8333	lr:0.001671
Ep: 166   EpTime: 38.8993  Trainloss: 0.5353   Testloss: 1.7068  TrainAcc: 86.37   Top1: 60.9333    Top5: 86.9333	lr:0.001638
Ep: 167   EpTime: 37.9732  Trainloss: 0.5445   Testloss: 1.7063  TrainAcc: 86.02   Top1: 61.3000    Top5: 86.7333	lr:0.001605
Ep: 168   EpTime: 38.3069  Trainloss: 0.5332   Testloss: 1.7082  TrainAcc: 86.49   Top1: 60.8167    Top5: 86.7167	lr:0.001573
Ep: 169   EpTime: 38.0966  Trainloss: 0.5254   Testloss: 1.7086  TrainAcc: 86.45   Top1: 61.0167    Top5: 87.0167	lr:0.001542
Ep: 170   EpTime: 38.6357  Trainloss: 0.5380   Testloss: 1.6930  TrainAcc: 86.31   Top1: 61.2167    Top5: 86.9333	lr:0.001511
Ep: 171   EpTime: 38.3253  Trainloss: 0.5415   Testloss: 1.7082  TrainAcc: 86.02   Top1: 61.0167    Top5: 86.5667	lr:0.001481
Ep: 172   EpTime: 38.7972  Trainloss: 0.5352   Testloss: 1.7097  TrainAcc: 86.24   Top1: 61.0833    Top5: 86.7833	lr:0.001451
Ep: 173   EpTime: 38.5100  Trainloss: 0.5111   Testloss: 1.7099  TrainAcc: 87.13   Top1: 61.0833    Top5: 86.7500	lr:0.001422
Ep: 174   EpTime: 37.9883  Trainloss: 0.5156   Testloss: 1.6985  TrainAcc: 86.87   Top1: 61.3333    Top5: 86.8667	lr:0.001393
Ep: 175   EpTime: 38.2951  Trainloss: 0.5270   Testloss: 1.7092  TrainAcc: 86.36   Top1: 61.2167    Top5: 86.8333	lr:0.001366
Ep: 176   EpTime: 38.6849  Trainloss: 0.5353   Testloss: 1.7006  TrainAcc: 86.43   Top1: 61.0167    Top5: 87.1000	lr:0.001338
Ep: 177   EpTime: 37.9454  Trainloss: 0.5143   Testloss: 1.7072  TrainAcc: 86.77   Top1: 61.2500    Top5: 86.8667	lr:0.001312
Ep: 178   EpTime: 38.3220  Trainloss: 0.5065   Testloss: 1.7202  TrainAcc: 86.78   Top1: 60.9333    Top5: 86.6500	lr:0.001285
Ep: 179   EpTime: 38.3213  Trainloss: 0.5110   Testloss: 1.7118  TrainAcc: 86.95   Top1: 61.4000    Top5: 86.8667	lr:0.001260
Checkpoint saved!!!
Ep: 180   EpTime: 38.0853  Trainloss: 0.5216   Testloss: 1.7083  TrainAcc: 87.00   Top1: 61.1333    Top5: 86.8667	lr:0.001234
Ep: 181   EpTime: 38.4129  Trainloss: 0.5257   Testloss: 1.7047  TrainAcc: 86.63   Top1: 61.2500    Top5: 86.7833	lr:0.001210
Ep: 182   EpTime: 38.1593  Trainloss: 0.5178   Testloss: 1.7185  TrainAcc: 86.52   Top1: 60.9000    Top5: 86.7667	lr:0.001186
Ep: 183   EpTime: 38.5203  Trainloss: 0.4945   Testloss: 1.7207  TrainAcc: 87.64   Top1: 60.7333    Top5: 86.7000	lr:0.001162
Ep: 184   EpTime: 38.0954  Trainloss: 0.4925   Testloss: 1.7041  TrainAcc: 87.46   Top1: 61.0833    Top5: 86.9833	lr:0.001139
Ep: 185   EpTime: 38.5896  Trainloss: 0.5176   Testloss: 1.7038  TrainAcc: 86.75   Top1: 61.5333    Top5: 86.9167	lr:0.001116
Checkpoint saved!!!
Ep: 186   EpTime: 38.1799  Trainloss: 0.5056   Testloss: 1.7073  TrainAcc: 87.38   Top1: 61.4500    Top5: 86.9667	lr:0.001093
Ep: 187   EpTime: 38.3703  Trainloss: 0.5061   Testloss: 1.7072  TrainAcc: 87.08   Top1: 61.7000    Top5: 87.0167	lr:0.001072
Checkpoint saved!!!
Ep: 188   EpTime: 38.3664  Trainloss: 0.5087   Testloss: 1.7180  TrainAcc: 87.19   Top1: 61.2167    Top5: 86.8833	lr:0.001050
Ep: 189   EpTime: 38.2255  Trainloss: 0.5114   Testloss: 1.7122  TrainAcc: 86.92   Top1: 61.0167    Top5: 86.8833	lr:0.001029
Ep: 190   EpTime: 38.3917  Trainloss: 0.4940   Testloss: 1.7200  TrainAcc: 87.53   Top1: 60.7833    Top5: 86.9000	lr:0.001009
Ep: 191   EpTime: 37.8600  Trainloss: 0.5141   Testloss: 1.7102  TrainAcc: 86.79   Top1: 61.4333    Top5: 87.0333	lr:0.000988
Ep: 192   EpTime: 38.3824  Trainloss: 0.4861   Testloss: 1.7168  TrainAcc: 87.63   Top1: 61.0167    Top5: 86.6500	lr:0.000969
Ep: 193   EpTime: 38.2124  Trainloss: 0.5268   Testloss: 1.7192  TrainAcc: 86.47   Top1: 61.3167    Top5: 86.9833	lr:0.000949
Ep: 194   EpTime: 38.6658  Trainloss: 0.5031   Testloss: 1.7129  TrainAcc: 87.11   Top1: 61.0000    Top5: 86.8167	lr:0.000930
Ep: 195   EpTime: 38.3943  Trainloss: 0.5004   Testloss: 1.7142  TrainAcc: 87.38   Top1: 61.1333    Top5: 86.6667	lr:0.000912
Ep: 196   EpTime: 37.8206  Trainloss: 0.5181   Testloss: 1.7135  TrainAcc: 86.56   Top1: 61.2833    Top5: 86.7333	lr:0.000893
Ep: 197   EpTime: 38.0582  Trainloss: 0.4981   Testloss: 1.7104  TrainAcc: 87.37   Top1: 61.5333    Top5: 86.6833	lr:0.000876
Ep: 198   EpTime: 38.4609  Trainloss: 0.4926   Testloss: 1.7014  TrainAcc: 87.60   Top1: 61.3667    Top5: 86.8500	lr:0.000858
Ep: 199   EpTime: 38.6261  Trainloss: 0.4996   Testloss: 1.7139  TrainAcc: 87.05   Top1: 61.2833    Top5: 86.9500	lr:0.000841
Ep: 200   EpTime: 38.3661  Trainloss: 0.4845   Testloss: 1.7166  TrainAcc: 87.60   Top1: 61.3167    Top5: 86.9333	lr:0.000824
