[32, 16, 24, 32, 64, 96, 160, 320]
MobileNet2(
  (activation): ReLU6(inplace)
  (conv1): Conv2d(3, 32, kernel_size=(3, 3), stride=(2, 2), padding=(1, 1), bias=False)
  (bn1): BatchNorm2d(32, eps=1e-05, momentum=0.1, affine=True, track_running_stats=True)
  (bottlenecks): Sequential(
    (Bottlenecks_0): Sequential(
      (LinearBottleneck0_0): LinearBottleneck(
        (conv1): Conv2d(32, 32, kernel_size=(1, 1), stride=(1, 1), bias=False)
        (bn1): BatchNorm2d(32, eps=1e-05, momentum=0.1, affine=True, track_running_stats=True)
        (conv2): Conv2d(32, 32, kernel_size=(3, 3), stride=(1, 1), padding=(1, 1), groups=32, bias=False)
        (bn2): BatchNorm2d(32, eps=1e-05, momentum=0.1, affine=True, track_running_stats=True)
        (conv3): Conv2d(32, 16, kernel_size=(1, 1), stride=(1, 1), bias=False)
        (bn3): BatchNorm2d(16, eps=1e-05, momentum=0.1, affine=True, track_running_stats=True)
        (activation): ReLU6(inplace)
      )
    )
    (Bottlenecks_1): Sequential(
      (LinearBottleneck1_0): LinearBottleneck(
        (conv1): Conv2d(16, 96, kernel_size=(1, 1), stride=(1, 1), bias=False)
        (bn1): BatchNorm2d(96, eps=1e-05, momentum=0.1, affine=True, track_running_stats=True)
        (conv2): Conv2d(96, 96, kernel_size=(3, 3), stride=(2, 2), padding=(1, 1), groups=96, bias=False)
        (bn2): BatchNorm2d(96, eps=1e-05, momentum=0.1, affine=True, track_running_stats=True)
        (conv3): Conv2d(96, 24, kernel_size=(1, 1), stride=(1, 1), bias=False)
        (bn3): BatchNorm2d(24, eps=1e-05, momentum=0.1, affine=True, track_running_stats=True)
        (activation): ReLU6(inplace)
      )
      (LinearBottleneck1_1): LinearBottleneck(
        (conv1): Conv2d(24, 144, kernel_size=(1, 1), stride=(1, 1), bias=False)
        (bn1): BatchNorm2d(144, eps=1e-05, momentum=0.1, affine=True, track_running_stats=True)
        (conv2): Conv2d(144, 144, kernel_size=(3, 3), stride=(1, 1), padding=(1, 1), groups=144, bias=False)
        (bn2): BatchNorm2d(144, eps=1e-05, momentum=0.1, affine=True, track_running_stats=True)
        (conv3): Conv2d(144, 24, kernel_size=(1, 1), stride=(1, 1), bias=False)
        (bn3): BatchNorm2d(24, eps=1e-05, momentum=0.1, affine=True, track_running_stats=True)
        (activation): ReLU6(inplace)
      )
    )
    (Bottlenecks_2): Sequential(
      (LinearBottleneck2_0): LinearBottleneck(
        (conv1): Conv2d(24, 144, kernel_size=(1, 1), stride=(1, 1), bias=False)
        (bn1): BatchNorm2d(144, eps=1e-05, momentum=0.1, affine=True, track_running_stats=True)
        (conv2): Conv2d(144, 144, kernel_size=(3, 3), stride=(2, 2), padding=(1, 1), groups=144, bias=False)
        (bn2): BatchNorm2d(144, eps=1e-05, momentum=0.1, affine=True, track_running_stats=True)
        (conv3): Conv2d(144, 32, kernel_size=(1, 1), stride=(1, 1), bias=False)
        (bn3): BatchNorm2d(32, eps=1e-05, momentum=0.1, affine=True, track_running_stats=True)
        (activation): ReLU6(inplace)
      )
      (LinearBottleneck2_1): LinearBottleneck(
        (conv1): Conv2d(32, 192, kernel_size=(1, 1), stride=(1, 1), bias=False)
        (bn1): BatchNorm2d(192, eps=1e-05, momentum=0.1, affine=True, track_running_stats=True)
        (conv2): Conv2d(192, 192, kernel_size=(3, 3), stride=(1, 1), padding=(1, 1), groups=192, bias=False)
        (bn2): BatchNorm2d(192, eps=1e-05, momentum=0.1, affine=True, track_running_stats=True)
        (conv3): Conv2d(192, 32, kernel_size=(1, 1), stride=(1, 1), bias=False)
        (bn3): BatchNorm2d(32, eps=1e-05, momentum=0.1, affine=True, track_running_stats=True)
        (activation): ReLU6(inplace)
      )
      (LinearBottleneck2_2): LinearBottleneck(
        (conv1): Conv2d(32, 192, kernel_size=(1, 1), stride=(1, 1), bias=False)
        (bn1): BatchNorm2d(192, eps=1e-05, momentum=0.1, affine=True, track_running_stats=True)
        (conv2): Conv2d(192, 192, kernel_size=(3, 3), stride=(1, 1), padding=(1, 1), groups=192, bias=False)
        (bn2): BatchNorm2d(192, eps=1e-05, momentum=0.1, affine=True, track_running_stats=True)
        (conv3): Conv2d(192, 32, kernel_size=(1, 1), stride=(1, 1), bias=False)
        (bn3): BatchNorm2d(32, eps=1e-05, momentum=0.1, affine=True, track_running_stats=True)
        (activation): ReLU6(inplace)
      )
    )
    (Bottlenecks_3): Sequential(
      (LinearBottleneck3_0): LinearBottleneck(
        (conv1): Conv2d(32, 192, kernel_size=(1, 1), stride=(1, 1), bias=False)
        (bn1): BatchNorm2d(192, eps=1e-05, momentum=0.1, affine=True, track_running_stats=True)
        (conv2): Conv2d(192, 192, kernel_size=(3, 3), stride=(2, 2), padding=(1, 1), groups=192, bias=False)
        (bn2): BatchNorm2d(192, eps=1e-05, momentum=0.1, affine=True, track_running_stats=True)
        (conv3): Conv2d(192, 64, kernel_size=(1, 1), stride=(1, 1), bias=False)
        (bn3): BatchNorm2d(64, eps=1e-05, momentum=0.1, affine=True, track_running_stats=True)
        (activation): ReLU6(inplace)
      )
      (LinearBottleneck3AlphaBlock_1): AlphaBlock(
        (arm_1): SplitArm(
          (conv_dws): Conv2d(64, 64, kernel_size=(1, 1), stride=(1, 1), groups=64)
          (bn_dws): BatchNorm2d(64, eps=1e-05, momentum=0.9, affine=True, track_running_stats=True)
          (relu_dws): ReLU(inplace)
          (maxpool): MaxPool2d(kernel_size=3, stride=1, padding=1, dilation=1, ceil_mode=False)
          (conv_point): Conv2d(64, 1, kernel_size=(1, 1), stride=(1, 1))
          (bn_point): BatchNorm2d(1, eps=1e-05, momentum=0.9, affine=True, track_running_stats=True)
          (relu_point): ReLU(inplace)
          (softmax): Softmax()
        )
      )
      (LinearBottleneck3AlphaBlock_2): AlphaBlock(
        (arm_1): SplitArm(
          (conv_dws): Conv2d(64, 64, kernel_size=(1, 1), stride=(1, 1), groups=64)
          (bn_dws): BatchNorm2d(64, eps=1e-05, momentum=0.9, affine=True, track_running_stats=True)
          (relu_dws): ReLU(inplace)
          (maxpool): MaxPool2d(kernel_size=3, stride=1, padding=1, dilation=1, ceil_mode=False)
          (conv_point): Conv2d(64, 1, kernel_size=(1, 1), stride=(1, 1))
          (bn_point): BatchNorm2d(1, eps=1e-05, momentum=0.9, affine=True, track_running_stats=True)
          (relu_point): ReLU(inplace)
          (softmax): Softmax()
        )
      )
      (LinearBottleneck3AlphaBlock_3): AlphaBlock(
        (arm_1): SplitArm(
          (conv_dws): Conv2d(64, 64, kernel_size=(1, 1), stride=(1, 1), groups=64)
          (bn_dws): BatchNorm2d(64, eps=1e-05, momentum=0.9, affine=True, track_running_stats=True)
          (relu_dws): ReLU(inplace)
          (maxpool): MaxPool2d(kernel_size=3, stride=1, padding=1, dilation=1, ceil_mode=False)
          (conv_point): Conv2d(64, 1, kernel_size=(1, 1), stride=(1, 1))
          (bn_point): BatchNorm2d(1, eps=1e-05, momentum=0.9, affine=True, track_running_stats=True)
          (relu_point): ReLU(inplace)
          (softmax): Softmax()
        )
      )
    )
    (Bottlenecks_4): Sequential(
      (LinearBottleneck4_0): LinearBottleneck(
        (conv1): Conv2d(64, 384, kernel_size=(1, 1), stride=(1, 1), bias=False)
        (bn1): BatchNorm2d(384, eps=1e-05, momentum=0.1, affine=True, track_running_stats=True)
        (conv2): Conv2d(384, 384, kernel_size=(3, 3), stride=(1, 1), padding=(1, 1), groups=384, bias=False)
        (bn2): BatchNorm2d(384, eps=1e-05, momentum=0.1, affine=True, track_running_stats=True)
        (conv3): Conv2d(384, 96, kernel_size=(1, 1), stride=(1, 1), bias=False)
        (bn3): BatchNorm2d(96, eps=1e-05, momentum=0.1, affine=True, track_running_stats=True)
        (activation): ReLU6(inplace)
      )
      (LinearBottleneck4_1): LinearBottleneck(
        (conv1): Conv2d(96, 576, kernel_size=(1, 1), stride=(1, 1), bias=False)
        (bn1): BatchNorm2d(576, eps=1e-05, momentum=0.1, affine=True, track_running_stats=True)
        (conv2): Conv2d(576, 576, kernel_size=(3, 3), stride=(1, 1), padding=(1, 1), groups=576, bias=False)
        (bn2): BatchNorm2d(576, eps=1e-05, momentum=0.1, affine=True, track_running_stats=True)
        (conv3): Conv2d(576, 96, kernel_size=(1, 1), stride=(1, 1), bias=False)
        (bn3): BatchNorm2d(96, eps=1e-05, momentum=0.1, affine=True, track_running_stats=True)
        (activation): ReLU6(inplace)
      )
      (LinearBottleneck4_2): LinearBottleneck(
        (conv1): Conv2d(96, 576, kernel_size=(1, 1), stride=(1, 1), bias=False)
        (bn1): BatchNorm2d(576, eps=1e-05, momentum=0.1, affine=True, track_running_stats=True)
        (conv2): Conv2d(576, 576, kernel_size=(3, 3), stride=(1, 1), padding=(1, 1), groups=576, bias=False)
        (bn2): BatchNorm2d(576, eps=1e-05, momentum=0.1, affine=True, track_running_stats=True)
        (conv3): Conv2d(576, 96, kernel_size=(1, 1), stride=(1, 1), bias=False)
        (bn3): BatchNorm2d(96, eps=1e-05, momentum=0.1, affine=True, track_running_stats=True)
        (activation): ReLU6(inplace)
      )
    )
    (Bottlenecks_5): Sequential(
      (LinearBottleneck5_0): LinearBottleneck(
        (conv1): Conv2d(96, 576, kernel_size=(1, 1), stride=(1, 1), bias=False)
        (bn1): BatchNorm2d(576, eps=1e-05, momentum=0.1, affine=True, track_running_stats=True)
        (conv2): Conv2d(576, 576, kernel_size=(3, 3), stride=(2, 2), padding=(1, 1), groups=576, bias=False)
        (bn2): BatchNorm2d(576, eps=1e-05, momentum=0.1, affine=True, track_running_stats=True)
        (conv3): Conv2d(576, 160, kernel_size=(1, 1), stride=(1, 1), bias=False)
        (bn3): BatchNorm2d(160, eps=1e-05, momentum=0.1, affine=True, track_running_stats=True)
        (activation): ReLU6(inplace)
      )
      (LinearBottleneck5_1): LinearBottleneck(
        (conv1): Conv2d(160, 960, kernel_size=(1, 1), stride=(1, 1), bias=False)
        (bn1): BatchNorm2d(960, eps=1e-05, momentum=0.1, affine=True, track_running_stats=True)
        (conv2): Conv2d(960, 960, kernel_size=(3, 3), stride=(1, 1), padding=(1, 1), groups=960, bias=False)
        (bn2): BatchNorm2d(960, eps=1e-05, momentum=0.1, affine=True, track_running_stats=True)
        (conv3): Conv2d(960, 160, kernel_size=(1, 1), stride=(1, 1), bias=False)
        (bn3): BatchNorm2d(160, eps=1e-05, momentum=0.1, affine=True, track_running_stats=True)
        (activation): ReLU6(inplace)
      )
      (LinearBottleneck5_2): LinearBottleneck(
        (conv1): Conv2d(160, 960, kernel_size=(1, 1), stride=(1, 1), bias=False)
        (bn1): BatchNorm2d(960, eps=1e-05, momentum=0.1, affine=True, track_running_stats=True)
        (conv2): Conv2d(960, 960, kernel_size=(3, 3), stride=(1, 1), padding=(1, 1), groups=960, bias=False)
        (bn2): BatchNorm2d(960, eps=1e-05, momentum=0.1, affine=True, track_running_stats=True)
        (conv3): Conv2d(960, 160, kernel_size=(1, 1), stride=(1, 1), bias=False)
        (bn3): BatchNorm2d(160, eps=1e-05, momentum=0.1, affine=True, track_running_stats=True)
        (activation): ReLU6(inplace)
      )
    )
    (Bottlenecks_6): Sequential(
      (LinearBottleneck6_0): LinearBottleneck(
        (conv1): Conv2d(160, 960, kernel_size=(1, 1), stride=(1, 1), bias=False)
        (bn1): BatchNorm2d(960, eps=1e-05, momentum=0.1, affine=True, track_running_stats=True)
        (conv2): Conv2d(960, 960, kernel_size=(3, 3), stride=(1, 1), padding=(1, 1), groups=960, bias=False)
        (bn2): BatchNorm2d(960, eps=1e-05, momentum=0.1, affine=True, track_running_stats=True)
        (conv3): Conv2d(960, 320, kernel_size=(1, 1), stride=(1, 1), bias=False)
        (bn3): BatchNorm2d(320, eps=1e-05, momentum=0.1, affine=True, track_running_stats=True)
        (activation): ReLU6(inplace)
      )
    )
  )
  (conv_last): Conv2d(320, 1280, kernel_size=(1, 1), stride=(1, 1), bias=False)
  (bn_last): BatchNorm2d(1280, eps=1e-05, momentum=0.1, affine=True, track_running_stats=True)
  (avgpool): AdaptiveAvgPool2d(output_size=1)
  (dropout): Dropout(p=0.2, inplace)
  (fc): Linear(in_features=1280, out_features=120, bias=True)
)
Ep: 1   EpTime: 39.5279  Trainloss: 4.8555   Testloss: 4.8857  TrainAcc: 1.79   Top1: 2.0000    Top5: 9.1167	lr:0.045000
Checkpoint saved!!!
Ep: 2   EpTime: 38.0816  Trainloss: 4.4833   Testloss: 4.9504  TrainAcc: 4.00   Top1: 3.5000    Top5: 14.3500	lr:0.045000
Checkpoint saved!!!
Ep: 3   EpTime: 37.1405  Trainloss: 4.2746   Testloss: 4.3196  TrainAcc: 5.55   Top1: 4.7167    Top5: 19.5667	lr:0.044100
Checkpoint saved!!!
Ep: 4   EpTime: 37.3586  Trainloss: 4.1229   Testloss: 3.9171  TrainAcc: 7.20   Top1: 9.2167    Top5: 29.7167	lr:0.043218
Checkpoint saved!!!
Ep: 5   EpTime: 37.2421  Trainloss: 3.9941   Testloss: 3.8922  TrainAcc: 8.83   Top1: 9.9667    Top5: 31.6000	lr:0.042354
Checkpoint saved!!!
Ep: 6   EpTime: 37.0832  Trainloss: 3.8942   Testloss: 4.1175  TrainAcc: 10.35   Top1: 8.0000    Top5: 26.9000	lr:0.041507
Ep: 7   EpTime: 36.4514  Trainloss: 3.7817   Testloss: 3.6484  TrainAcc: 12.24   Top1: 12.8667    Top5: 39.1000	lr:0.040676
Checkpoint saved!!!
Ep: 8   EpTime: 36.4016  Trainloss: 3.6652   Testloss: 3.6537  TrainAcc: 13.48   Top1: 13.6833    Top5: 40.5333	lr:0.039863
Checkpoint saved!!!
Ep: 9   EpTime: 36.6669  Trainloss: 3.5493   Testloss: 3.3932  TrainAcc: 15.30   Top1: 16.9167    Top5: 46.7667	lr:0.039066
Checkpoint saved!!!
Ep: 10   EpTime: 36.9571  Trainloss: 3.4238   Testloss: 3.2771  TrainAcc: 17.70   Top1: 19.2500    Top5: 49.5667	lr:0.038284
Checkpoint saved!!!
Ep: 11   EpTime: 37.4246  Trainloss: 3.3371   Testloss: 3.4028  TrainAcc: 19.03   Top1: 17.4833    Top5: 48.2667	lr:0.037519
Ep: 12   EpTime: 37.0618  Trainloss: 3.2242   Testloss: 3.3043  TrainAcc: 20.95   Top1: 19.2500    Top5: 50.3333	lr:0.036768
Ep: 13   EpTime: 36.9794  Trainloss: 3.1185   Testloss: 2.9579  TrainAcc: 22.85   Top1: 24.8833    Top5: 58.7333	lr:0.036033
Checkpoint saved!!!
Ep: 14   EpTime: 37.2792  Trainloss: 3.0275   Testloss: 2.9877  TrainAcc: 24.84   Top1: 25.5000    Top5: 57.9000	lr:0.035312
Checkpoint saved!!!
Ep: 15   EpTime: 36.8241  Trainloss: 2.9301   Testloss: 2.7218  TrainAcc: 26.89   Top1: 30.2000    Top5: 64.2333	lr:0.034606
Checkpoint saved!!!
Ep: 16   EpTime: 36.9461  Trainloss: 2.8542   Testloss: 2.6601  TrainAcc: 28.33   Top1: 30.5000    Top5: 64.9333	lr:0.033914
Checkpoint saved!!!
Ep: 17   EpTime: 37.2061  Trainloss: 2.7535   Testloss: 2.6465  TrainAcc: 30.73   Top1: 31.9167    Top5: 66.7000	lr:0.033236
Checkpoint saved!!!
Ep: 18   EpTime: 37.0772  Trainloss: 2.6569   Testloss: 2.6052  TrainAcc: 32.40   Top1: 32.8833    Top5: 66.7000	lr:0.032571
Checkpoint saved!!!
Ep: 19   EpTime: 37.2671  Trainloss: 2.5909   Testloss: 2.5181  TrainAcc: 33.68   Top1: 33.5333    Top5: 69.2333	lr:0.031919
Checkpoint saved!!!
Ep: 20   EpTime: 37.1830  Trainloss: 2.4869   Testloss: 2.3582  TrainAcc: 35.98   Top1: 37.6000    Top5: 72.4167	lr:0.031281
Checkpoint saved!!!
Ep: 21   EpTime: 37.9222  Trainloss: 2.4624   Testloss: 2.5227  TrainAcc: 35.99   Top1: 34.0000    Top5: 69.1000	lr:0.030655
Ep: 22   EpTime: 38.3630  Trainloss: 2.3715   Testloss: 2.2175  TrainAcc: 38.11   Top1: 40.7167    Top5: 75.2833	lr:0.030042
Checkpoint saved!!!
Ep: 23   EpTime: 37.4171  Trainloss: 2.2857   Testloss: 2.1535  TrainAcc: 40.00   Top1: 41.9833    Top5: 76.6000	lr:0.029442
Checkpoint saved!!!
Ep: 24   EpTime: 37.1012  Trainloss: 2.2666   Testloss: 2.2398  TrainAcc: 40.97   Top1: 40.4000    Top5: 74.8833	lr:0.028853
Ep: 25   EpTime: 37.3529  Trainloss: 2.1782   Testloss: 2.0788  TrainAcc: 42.61   Top1: 43.6000    Top5: 77.5667	lr:0.028276
Checkpoint saved!!!
Ep: 26   EpTime: 37.1989  Trainloss: 2.1642   Testloss: 2.0119  TrainAcc: 43.59   Top1: 46.0333    Top5: 78.2667	lr:0.027710
Checkpoint saved!!!
Ep: 27   EpTime: 37.5251  Trainloss: 2.0705   Testloss: 1.9571  TrainAcc: 45.26   Top1: 46.1500    Top5: 79.9667	lr:0.027156
Checkpoint saved!!!
Ep: 28   EpTime: 36.6630  Trainloss: 2.0375   Testloss: 1.9866  TrainAcc: 46.39   Top1: 46.3667    Top5: 80.2833	lr:0.026613
Checkpoint saved!!!
Ep: 29   EpTime: 37.0297  Trainloss: 1.9964   Testloss: 1.9602  TrainAcc: 46.67   Top1: 47.3333    Top5: 79.8667	lr:0.026081
Checkpoint saved!!!
Ep: 30   EpTime: 37.2119  Trainloss: 1.9474   Testloss: 1.9656  TrainAcc: 47.96   Top1: 47.6500    Top5: 79.6333	lr:0.025559
Checkpoint saved!!!
Ep: 31   EpTime: 37.3253  Trainloss: 1.8860   Testloss: 1.8525  TrainAcc: 49.33   Top1: 49.2167    Top5: 81.0833	lr:0.025048
Checkpoint saved!!!
Ep: 32   EpTime: 37.2267  Trainloss: 1.8699   Testloss: 1.8018  TrainAcc: 49.60   Top1: 50.5167    Top5: 82.2667	lr:0.024547
Checkpoint saved!!!
Ep: 33   EpTime: 37.7471  Trainloss: 1.8418   Testloss: 1.8558  TrainAcc: 50.93   Top1: 49.4000    Top5: 81.8500	lr:0.024056
Ep: 34   EpTime: 37.3040  Trainloss: 1.7684   Testloss: 1.8584  TrainAcc: 52.36   Top1: 50.1333    Top5: 81.9833	lr:0.023575
Ep: 35   EpTime: 37.6867  Trainloss: 1.7654   Testloss: 1.7869  TrainAcc: 52.78   Top1: 51.7667    Top5: 83.5500	lr:0.023103
Checkpoint saved!!!
Ep: 36   EpTime: 37.9597  Trainloss: 1.7224   Testloss: 1.7974  TrainAcc: 53.57   Top1: 51.7167    Top5: 82.5667	lr:0.022641
Ep: 37   EpTime: 36.9903  Trainloss: 1.6907   Testloss: 1.7243  TrainAcc: 54.16   Top1: 53.8167    Top5: 84.3000	lr:0.022188
Checkpoint saved!!!
Ep: 38   EpTime: 36.7517  Trainloss: 1.6378   Testloss: 1.7781  TrainAcc: 55.75   Top1: 52.5667    Top5: 83.3500	lr:0.021745
Ep: 39   EpTime: 37.3205  Trainloss: 1.6164   Testloss: 1.8035  TrainAcc: 56.47   Top1: 51.0500    Top5: 83.1000	lr:0.021310
Ep: 40   EpTime: 37.0698  Trainloss: 1.5909   Testloss: 1.7188  TrainAcc: 57.28   Top1: 53.8833    Top5: 84.7167	lr:0.020884
Checkpoint saved!!!
Ep: 41   EpTime: 37.0368  Trainloss: 1.5669   Testloss: 1.7274  TrainAcc: 57.17   Top1: 54.4667    Top5: 84.5500	lr:0.020466
Checkpoint saved!!!
Ep: 42   EpTime: 36.8715  Trainloss: 1.5385   Testloss: 1.6956  TrainAcc: 58.55   Top1: 54.4167    Top5: 84.6333	lr:0.020057
Ep: 43   EpTime: 37.7380  Trainloss: 1.5042   Testloss: 1.7194  TrainAcc: 59.12   Top1: 54.4167    Top5: 84.8333	lr:0.019655
Ep: 44   EpTime: 37.7563  Trainloss: 1.5046   Testloss: 1.7044  TrainAcc: 58.97   Top1: 54.5833    Top5: 84.7333	lr:0.019262
Checkpoint saved!!!
Ep: 45   EpTime: 37.5720  Trainloss: 1.4639   Testloss: 1.6794  TrainAcc: 60.12   Top1: 54.1333    Top5: 85.0500	lr:0.018877
Ep: 46   EpTime: 37.6340  Trainloss: 1.4202   Testloss: 1.6787  TrainAcc: 61.08   Top1: 55.2667    Top5: 85.6333	lr:0.018499
Checkpoint saved!!!
Ep: 47   EpTime: 38.1561  Trainloss: 1.4100   Testloss: 1.6941  TrainAcc: 61.55   Top1: 55.6333    Top5: 85.5333	lr:0.018130
Checkpoint saved!!!
Ep: 48   EpTime: 37.6837  Trainloss: 1.3736   Testloss: 1.6583  TrainAcc: 62.88   Top1: 56.6167    Top5: 85.3500	lr:0.017767
Checkpoint saved!!!
Ep: 49   EpTime: 37.6384  Trainloss: 1.3494   Testloss: 1.6118  TrainAcc: 63.52   Top1: 57.1833    Top5: 86.1167	lr:0.017412
Checkpoint saved!!!
Ep: 50   EpTime: 37.0638  Trainloss: 1.3430   Testloss: 1.6174  TrainAcc: 63.35   Top1: 57.9333    Top5: 86.5167	lr:0.017063
Checkpoint saved!!!
Ep: 51   EpTime: 37.1023  Trainloss: 1.3052   Testloss: 1.6410  TrainAcc: 64.30   Top1: 57.3500    Top5: 86.2500	lr:0.016722
Ep: 52   EpTime: 37.2604  Trainloss: 1.3094   Testloss: 1.6554  TrainAcc: 64.72   Top1: 56.1333    Top5: 85.8667	lr:0.016388
Ep: 53   EpTime: 38.2018  Trainloss: 1.2790   Testloss: 1.6775  TrainAcc: 65.53   Top1: 55.8333    Top5: 85.3833	lr:0.016060
Ep: 54   EpTime: 37.9125  Trainloss: 1.2417   Testloss: 1.6122  TrainAcc: 65.93   Top1: 57.2500    Top5: 86.6000	lr:0.015739
Ep: 55   EpTime: 37.9727  Trainloss: 1.2266   Testloss: 1.6699  TrainAcc: 66.59   Top1: 56.7333    Top5: 86.1167	lr:0.015424
Ep: 56   EpTime: 36.8080  Trainloss: 1.2140   Testloss: 1.6335  TrainAcc: 67.53   Top1: 57.1667    Top5: 85.7500	lr:0.015115
Ep: 57   EpTime: 37.9234  Trainloss: 1.2050   Testloss: 1.6818  TrainAcc: 67.82   Top1: 56.4500    Top5: 85.7333	lr:0.014813
Ep: 58   EpTime: 38.4828  Trainloss: 1.1725   Testloss: 1.6477  TrainAcc: 68.69   Top1: 56.7833    Top5: 86.3500	lr:0.014517
Ep: 59   EpTime: 37.5368  Trainloss: 1.1534   Testloss: 1.5942  TrainAcc: 68.83   Top1: 58.5000    Top5: 86.8000	lr:0.014227
Checkpoint saved!!!
Ep: 60   EpTime: 37.2958  Trainloss: 1.1249   Testloss: 1.6232  TrainAcc: 69.65   Top1: 57.8500    Top5: 86.6833	lr:0.013942
Ep: 61   EpTime: 36.8252  Trainloss: 1.1278   Testloss: 1.6181  TrainAcc: 69.64   Top1: 58.1333    Top5: 86.3833	lr:0.013663
Ep: 62   EpTime: 37.0169  Trainloss: 1.1078   Testloss: 1.6074  TrainAcc: 69.93   Top1: 58.7167    Top5: 86.6500	lr:0.013390
Checkpoint saved!!!
Ep: 63   EpTime: 37.6789  Trainloss: 1.0764   Testloss: 1.6358  TrainAcc: 71.04   Top1: 58.4500    Top5: 86.8667	lr:0.013122
Ep: 64   EpTime: 37.8799  Trainloss: 1.0920   Testloss: 1.6235  TrainAcc: 70.28   Top1: 58.8333    Top5: 86.7500	lr:0.012860
Checkpoint saved!!!
Ep: 65   EpTime: 38.0268  Trainloss: 1.0704   Testloss: 1.6575  TrainAcc: 71.18   Top1: 57.8667    Top5: 86.7500	lr:0.012602
Ep: 66   EpTime: 37.6853  Trainloss: 1.0624   Testloss: 1.6134  TrainAcc: 71.01   Top1: 58.5000    Top5: 86.6833	lr:0.012350
Ep: 67   EpTime: 37.6023  Trainloss: 1.0507   Testloss: 1.6421  TrainAcc: 71.98   Top1: 58.6500    Top5: 86.8667	lr:0.012103
Ep: 68   EpTime: 37.0148  Trainloss: 1.0162   Testloss: 1.6250  TrainAcc: 72.41   Top1: 59.4500    Top5: 87.6000	lr:0.011861
Checkpoint saved!!!
Ep: 69   EpTime: 37.8224  Trainloss: 0.9871   Testloss: 1.6302  TrainAcc: 73.74   Top1: 59.0000    Top5: 86.9000	lr:0.011624
Ep: 70   EpTime: 36.9096  Trainloss: 0.9905   Testloss: 1.6321  TrainAcc: 73.46   Top1: 58.8833    Top5: 86.5167	lr:0.011392
Ep: 71   EpTime: 36.4802  Trainloss: 0.9703   Testloss: 1.6424  TrainAcc: 74.42   Top1: 58.8000    Top5: 86.5500	lr:0.011164
Ep: 72   EpTime: 36.9729  Trainloss: 0.9722   Testloss: 1.6316  TrainAcc: 74.06   Top1: 59.5333    Top5: 87.0500	lr:0.010941
Checkpoint saved!!!
Ep: 73   EpTime: 36.9003  Trainloss: 0.9260   Testloss: 1.6539  TrainAcc: 74.79   Top1: 59.2667    Top5: 86.9167	lr:0.010722
Ep: 74   EpTime: 37.1086  Trainloss: 0.9725   Testloss: 1.6526  TrainAcc: 73.83   Top1: 59.5667    Top5: 86.7833	lr:0.010507
Checkpoint saved!!!
Ep: 75   EpTime: 36.7782  Trainloss: 0.9316   Testloss: 1.6212  TrainAcc: 75.49   Top1: 59.5500    Top5: 86.7833	lr:0.010297
Ep: 76   EpTime: 37.0825  Trainloss: 0.9145   Testloss: 1.6397  TrainAcc: 75.38   Top1: 59.4500    Top5: 87.2500	lr:0.010091
Ep: 77   EpTime: 37.0477  Trainloss: 0.9121   Testloss: 1.6403  TrainAcc: 75.55   Top1: 59.2167    Top5: 87.0667	lr:0.009889
Ep: 78   EpTime: 36.7211  Trainloss: 0.8852   Testloss: 1.6208  TrainAcc: 76.40   Top1: 59.9500    Top5: 87.2000	lr:0.009692
Checkpoint saved!!!
Ep: 79   EpTime: 36.8543  Trainloss: 0.8851   Testloss: 1.6704  TrainAcc: 76.12   Top1: 59.3167    Top5: 86.6000	lr:0.009498
Ep: 80   EpTime: 37.0381  Trainloss: 0.8666   Testloss: 1.6543  TrainAcc: 76.80   Top1: 59.5500    Top5: 86.9167	lr:0.009308
Ep: 81   EpTime: 36.4589  Trainloss: 0.8703   Testloss: 1.6692  TrainAcc: 76.64   Top1: 58.7500    Top5: 87.0500	lr:0.009122
Ep: 82   EpTime: 36.2613  Trainloss: 0.8445   Testloss: 1.6576  TrainAcc: 77.83   Top1: 59.7500    Top5: 86.8333	lr:0.008939
Ep: 83   EpTime: 37.0009  Trainloss: 0.8692   Testloss: 1.6680  TrainAcc: 77.10   Top1: 59.5667    Top5: 87.2667	lr:0.008760
Ep: 84   EpTime: 37.0464  Trainloss: 0.8384   Testloss: 1.6560  TrainAcc: 77.73   Top1: 59.5333    Top5: 87.0833	lr:0.008585
Ep: 85   EpTime: 37.9838  Trainloss: 0.8422   Testloss: 1.6646  TrainAcc: 77.54   Top1: 60.0500    Top5: 87.4667	lr:0.008414
Checkpoint saved!!!
Ep: 86   EpTime: 37.8591  Trainloss: 0.8139   Testloss: 1.6336  TrainAcc: 78.27   Top1: 59.3167    Top5: 87.2500	lr:0.008245
Ep: 87   EpTime: 37.5492  Trainloss: 0.8091   Testloss: 1.6536  TrainAcc: 78.42   Top1: 59.6667    Top5: 87.5833	lr:0.008080
Ep: 88   EpTime: 37.6575  Trainloss: 0.8077   Testloss: 1.6349  TrainAcc: 78.69   Top1: 59.9667    Top5: 86.9333	lr:0.007919
Ep: 89   EpTime: 37.8740  Trainloss: 0.7948   Testloss: 1.6286  TrainAcc: 79.15   Top1: 60.7333    Top5: 87.1833	lr:0.007760
Checkpoint saved!!!
Ep: 90   EpTime: 37.4354  Trainloss: 0.7888   Testloss: 1.6621  TrainAcc: 79.30   Top1: 60.5500    Top5: 87.2333	lr:0.007605
Ep: 91   EpTime: 37.3482  Trainloss: 0.7903   Testloss: 1.6989  TrainAcc: 79.16   Top1: 59.6500    Top5: 86.8333	lr:0.007453
Ep: 92   EpTime: 37.4754  Trainloss: 0.7804   Testloss: 1.6732  TrainAcc: 79.37   Top1: 59.9833    Top5: 86.9167	lr:0.007304
Ep: 93   EpTime: 37.4693  Trainloss: 0.7721   Testloss: 1.6566  TrainAcc: 80.23   Top1: 60.6667    Top5: 87.3167	lr:0.007158
Ep: 94   EpTime: 37.5610  Trainloss: 0.7458   Testloss: 1.6485  TrainAcc: 80.62   Top1: 60.4833    Top5: 87.0333	lr:0.007015
Ep: 95   EpTime: 38.4475  Trainloss: 0.7483   Testloss: 1.6672  TrainAcc: 80.38   Top1: 60.6333    Top5: 87.1833	lr:0.006874
Ep: 96   EpTime: 38.0078  Trainloss: 0.7412   Testloss: 1.6445  TrainAcc: 80.31   Top1: 61.0000    Top5: 87.3500	lr:0.006737
Checkpoint saved!!!
Ep: 97   EpTime: 37.1190  Trainloss: 0.7260   Testloss: 1.6536  TrainAcc: 81.03   Top1: 60.0167    Top5: 87.2167	lr:0.006602
Ep: 98   EpTime: 37.3032  Trainloss: 0.7185   Testloss: 1.6527  TrainAcc: 81.36   Top1: 60.3333    Top5: 87.0833	lr:0.006470
Ep: 99   EpTime: 37.0384  Trainloss: 0.7199   Testloss: 1.6492  TrainAcc: 81.12   Top1: 59.9333    Top5: 87.3333	lr:0.006341
Ep: 100   EpTime: 37.1187  Trainloss: 0.7072   Testloss: 1.6422  TrainAcc: 81.56   Top1: 60.6000    Top5: 87.3667	lr:0.006214
Ep: 101   EpTime: 38.1887  Trainloss: 0.7187   Testloss: 1.6314  TrainAcc: 81.39   Top1: 61.1167    Top5: 87.4667	lr:0.006090
Checkpoint saved!!!
Ep: 102   EpTime: 39.0834  Trainloss: 0.6924   Testloss: 1.6443  TrainAcc: 81.77   Top1: 60.8000    Top5: 87.3000	lr:0.005968
Ep: 103   EpTime: 36.8362  Trainloss: 0.6918   Testloss: 1.6645  TrainAcc: 81.86   Top1: 60.8333    Top5: 87.6333	lr:0.005849
Ep: 104   EpTime: 37.1604  Trainloss: 0.7052   Testloss: 1.6763  TrainAcc: 81.82   Top1: 59.9833    Top5: 86.9667	lr:0.005732
Ep: 105   EpTime: 38.0722  Trainloss: 0.7013   Testloss: 1.6863  TrainAcc: 81.89   Top1: 61.0833    Top5: 86.8167	lr:0.005617
Ep: 106   EpTime: 37.5815  Trainloss: 0.6699   Testloss: 1.7012  TrainAcc: 82.51   Top1: 60.5000    Top5: 86.8833	lr:0.005505
Ep: 107   EpTime: 37.2897  Trainloss: 0.6836   Testloss: 1.6912  TrainAcc: 82.22   Top1: 60.7500    Top5: 87.4333	lr:0.005394
Ep: 108   EpTime: 37.1967  Trainloss: 0.6824   Testloss: 1.6935  TrainAcc: 82.42   Top1: 60.3333    Top5: 86.8500	lr:0.005287
Ep: 109   EpTime: 37.2425  Trainloss: 0.6676   Testloss: 1.6607  TrainAcc: 82.51   Top1: 61.1333    Top5: 87.2167	lr:0.005181
Checkpoint saved!!!
Ep: 110   EpTime: 37.5141  Trainloss: 0.6480   Testloss: 1.6753  TrainAcc: 82.94   Top1: 60.6167    Top5: 86.6500	lr:0.005077
Ep: 111   EpTime: 37.3872  Trainloss: 0.6532   Testloss: 1.6749  TrainAcc: 83.20   Top1: 60.4667    Top5: 86.8667	lr:0.004976
Ep: 112   EpTime: 37.5311  Trainloss: 0.6542   Testloss: 1.6810  TrainAcc: 82.69   Top1: 61.0833    Top5: 87.3167	lr:0.004876
Ep: 113   EpTime: 36.7096  Trainloss: 0.6496   Testloss: 1.6923  TrainAcc: 83.48   Top1: 60.8667    Top5: 87.0167	lr:0.004779
Ep: 114   EpTime: 37.0557  Trainloss: 0.6446   Testloss: 1.6928  TrainAcc: 83.20   Top1: 60.5000    Top5: 87.1000	lr:0.004683
Ep: 115   EpTime: 36.4909  Trainloss: 0.6202   Testloss: 1.6678  TrainAcc: 84.11   Top1: 61.3000    Top5: 87.0000	lr:0.004589
Checkpoint saved!!!
Ep: 116   EpTime: 37.1894  Trainloss: 0.6399   Testloss: 1.6891  TrainAcc: 83.73   Top1: 60.6000    Top5: 86.9333	lr:0.004498
Ep: 117   EpTime: 37.2762  Trainloss: 0.6260   Testloss: 1.6919  TrainAcc: 83.85   Top1: 60.8833    Top5: 87.2000	lr:0.004408
Ep: 118   EpTime: 37.1123  Trainloss: 0.6440   Testloss: 1.6837  TrainAcc: 83.15   Top1: 61.7167    Top5: 87.2167	lr:0.004320
Checkpoint saved!!!
Ep: 119   EpTime: 36.8908  Trainloss: 0.6418   Testloss: 1.7080  TrainAcc: 83.27   Top1: 60.9333    Top5: 87.3167	lr:0.004233
Ep: 120   EpTime: 37.4238  Trainloss: 0.6297   Testloss: 1.6926  TrainAcc: 83.72   Top1: 60.7500    Top5: 86.9333	lr:0.004148
Ep: 121   EpTime: 37.1637  Trainloss: 0.6023   Testloss: 1.7021  TrainAcc: 84.60   Top1: 60.7667    Top5: 86.9500	lr:0.004066
Ep: 122   EpTime: 37.5025  Trainloss: 0.6100   Testloss: 1.6978  TrainAcc: 84.11   Top1: 61.1667    Top5: 87.3667	lr:0.003984
Ep: 123   EpTime: 37.0717  Trainloss: 0.6100   Testloss: 1.6886  TrainAcc: 84.03   Top1: 60.9333    Top5: 87.2167	lr:0.003905
Ep: 124   EpTime: 37.3423  Trainloss: 0.6028   Testloss: 1.6896  TrainAcc: 84.49   Top1: 61.4667    Top5: 87.3500	lr:0.003826
Ep: 125   EpTime: 37.1472  Trainloss: 0.5791   Testloss: 1.6734  TrainAcc: 85.14   Top1: 61.1500    Top5: 87.3667	lr:0.003750
Ep: 126   EpTime: 38.3619  Trainloss: 0.6103   Testloss: 1.6930  TrainAcc: 83.98   Top1: 61.2333    Top5: 87.7167	lr:0.003675
Ep: 127   EpTime: 37.7400  Trainloss: 0.5966   Testloss: 1.6784  TrainAcc: 84.86   Top1: 61.1500    Top5: 87.1667	lr:0.003601
Ep: 128   EpTime: 37.2446  Trainloss: 0.6018   Testloss: 1.6784  TrainAcc: 84.54   Top1: 61.1833    Top5: 87.2333	lr:0.003529
Ep: 129   EpTime: 37.4637  Trainloss: 0.5868   Testloss: 1.6894  TrainAcc: 85.00   Top1: 61.6500    Top5: 87.5333	lr:0.003459
Ep: 130   EpTime: 36.9231  Trainloss: 0.5909   Testloss: 1.6915  TrainAcc: 84.65   Top1: 61.0500    Top5: 87.3000	lr:0.003390
Ep: 131   EpTime: 37.3081  Trainloss: 0.5819   Testloss: 1.7059  TrainAcc: 85.00   Top1: 61.1000    Top5: 87.0833	lr:0.003322
Ep: 132   EpTime: 37.1796  Trainloss: 0.5914   Testloss: 1.6956  TrainAcc: 84.84   Top1: 60.9333    Top5: 87.0833	lr:0.003255
Ep: 133   EpTime: 37.3954  Trainloss: 0.5662   Testloss: 1.6804  TrainAcc: 85.27   Top1: 61.6000    Top5: 87.1833	lr:0.003190
Ep: 134   EpTime: 37.2173  Trainloss: 0.5729   Testloss: 1.6838  TrainAcc: 85.35   Top1: 61.6000    Top5: 87.6000	lr:0.003126
Ep: 135   EpTime: 37.5098  Trainloss: 0.5796   Testloss: 1.6912  TrainAcc: 85.40   Top1: 60.8833    Top5: 87.2833	lr:0.003064
Ep: 136   EpTime: 37.2300  Trainloss: 0.5653   Testloss: 1.6958  TrainAcc: 85.67   Top1: 61.4167    Top5: 87.5500	lr:0.003003
Ep: 137   EpTime: 37.7644  Trainloss: 0.5753   Testloss: 1.6937  TrainAcc: 85.12   Top1: 61.1333    Top5: 87.1500	lr:0.002943
Ep: 138   EpTime: 38.1738  Trainloss: 0.5591   Testloss: 1.7043  TrainAcc: 85.86   Top1: 61.1167    Top5: 87.2167	lr:0.002884
Ep: 139   EpTime: 37.5960  Trainloss: 0.5719   Testloss: 1.6875  TrainAcc: 85.22   Top1: 61.4333    Top5: 87.6000	lr:0.002826
Ep: 140   EpTime: 36.6333  Trainloss: 0.5524   Testloss: 1.6902  TrainAcc: 85.82   Top1: 61.1500    Top5: 87.0333	lr:0.002770
Ep: 141   EpTime: 37.0139  Trainloss: 0.5577   Testloss: 1.6957  TrainAcc: 85.66   Top1: 60.7667    Top5: 87.3500	lr:0.002714
Ep: 142   EpTime: 36.7289  Trainloss: 0.5574   Testloss: 1.7017  TrainAcc: 85.57   Top1: 61.1667    Top5: 87.4000	lr:0.002660
Ep: 143   EpTime: 37.6999  Trainloss: 0.5712   Testloss: 1.7039  TrainAcc: 85.32   Top1: 61.1167    Top5: 87.2000	lr:0.002607
Ep: 144   EpTime: 37.1947  Trainloss: 0.5608   Testloss: 1.7178  TrainAcc: 85.47   Top1: 61.4000    Top5: 87.3167	lr:0.002555
Ep: 145   EpTime: 36.9086  Trainloss: 0.5404   Testloss: 1.6893  TrainAcc: 86.30   Top1: 61.4000    Top5: 87.2333	lr:0.002503
Ep: 146   EpTime: 37.4895  Trainloss: 0.5276   Testloss: 1.7170  TrainAcc: 85.92   Top1: 61.1500    Top5: 86.9500	lr:0.002453
Ep: 147   EpTime: 38.3022  Trainloss: 0.5400   Testloss: 1.7108  TrainAcc: 86.35   Top1: 61.3500    Top5: 87.3000	lr:0.002404
Ep: 148   EpTime: 38.2733  Trainloss: 0.5405   Testloss: 1.7121  TrainAcc: 86.21   Top1: 60.6167    Top5: 87.2000	lr:0.002356
Ep: 149   EpTime: 38.0478  Trainloss: 0.5467   Testloss: 1.7166  TrainAcc: 86.07   Top1: 60.5500    Top5: 87.1500	lr:0.002309
Ep: 150   EpTime: 37.9118  Trainloss: 0.5378   Testloss: 1.7073  TrainAcc: 86.15   Top1: 61.4500    Top5: 87.5167	lr:0.002263
Ep: 151   EpTime: 37.4148  Trainloss: 0.5284   Testloss: 1.7123  TrainAcc: 86.43   Top1: 61.1000    Top5: 87.0333	lr:0.002218
Ep: 152   EpTime: 37.4892  Trainloss: 0.5512   Testloss: 1.7191  TrainAcc: 86.19   Top1: 60.7167    Top5: 87.0667	lr:0.002173
Ep: 153   EpTime: 37.5928  Trainloss: 0.5275   Testloss: 1.7045  TrainAcc: 86.49   Top1: 61.2333    Top5: 86.9833	lr:0.002130
Ep: 154   EpTime: 37.6087  Trainloss: 0.5376   Testloss: 1.7238  TrainAcc: 86.29   Top1: 60.6667    Top5: 87.0667	lr:0.002087
Ep: 155   EpTime: 38.0253  Trainloss: 0.5277   Testloss: 1.7141  TrainAcc: 86.41   Top1: 61.1500    Top5: 86.8000	lr:0.002046
Ep: 156   EpTime: 36.9606  Trainloss: 0.5281   Testloss: 1.7349  TrainAcc: 86.43   Top1: 61.1500    Top5: 86.9167	lr:0.002005
Ep: 157   EpTime: 37.1085  Trainloss: 0.5154   Testloss: 1.6944  TrainAcc: 86.98   Top1: 61.4333    Top5: 87.3000	lr:0.001965
Ep: 158   EpTime: 37.8159  Trainloss: 0.5355   Testloss: 1.7112  TrainAcc: 86.31   Top1: 61.3167    Top5: 87.4167	lr:0.001925
Ep: 159   EpTime: 37.9120  Trainloss: 0.5251   Testloss: 1.7023  TrainAcc: 86.63   Top1: 61.4000    Top5: 87.1667	lr:0.001887
Ep: 160   EpTime: 37.7023  Trainloss: 0.5291   Testloss: 1.6996  TrainAcc: 86.32   Top1: 61.3000    Top5: 87.2833	lr:0.001849
Ep: 161   EpTime: 37.8662  Trainloss: 0.5216   Testloss: 1.7032  TrainAcc: 86.76   Top1: 61.4000    Top5: 87.1667	lr:0.001812
Ep: 162   EpTime: 37.1126  Trainloss: 0.5173   Testloss: 1.7215  TrainAcc: 86.76   Top1: 60.7667    Top5: 86.8333	lr:0.001776
Ep: 163   EpTime: 36.9986  Trainloss: 0.4910   Testloss: 1.7251  TrainAcc: 87.25   Top1: 61.0500    Top5: 86.7667	lr:0.001740
Ep: 164   EpTime: 37.2559  Trainloss: 0.5147   Testloss: 1.7191  TrainAcc: 86.93   Top1: 61.0500    Top5: 86.6833	lr:0.001705
Ep: 165   EpTime: 37.1754  Trainloss: 0.5147   Testloss: 1.7190  TrainAcc: 87.10   Top1: 61.1333    Top5: 86.5333	lr:0.001671
Ep: 166   EpTime: 36.9526  Trainloss: 0.5038   Testloss: 1.7144  TrainAcc: 87.17   Top1: 61.3333    Top5: 86.9000	lr:0.001638
Ep: 167   EpTime: 37.1260  Trainloss: 0.4978   Testloss: 1.7030  TrainAcc: 87.43   Top1: 61.2500    Top5: 86.9500	lr:0.001605
Ep: 168   EpTime: 37.2071  Trainloss: 0.5285   Testloss: 1.7112  TrainAcc: 86.40   Top1: 61.3833    Top5: 86.7167	lr:0.001573
Ep: 169   EpTime: 37.1899  Trainloss: 0.5123   Testloss: 1.7100  TrainAcc: 87.35   Top1: 61.5833    Top5: 86.9500	lr:0.001542
Ep: 170   EpTime: 37.0190  Trainloss: 0.5218   Testloss: 1.7179  TrainAcc: 86.67   Top1: 61.6000    Top5: 86.8167	lr:0.001511
Ep: 171   EpTime: 37.3944  Trainloss: 0.5134   Testloss: 1.7173  TrainAcc: 86.87   Top1: 61.1333    Top5: 86.8667	lr:0.001481
Ep: 172   EpTime: 37.6322  Trainloss: 0.5099   Testloss: 1.7249  TrainAcc: 86.95   Top1: 61.2500    Top5: 86.6833	lr:0.001451
Ep: 173   EpTime: 37.9602  Trainloss: 0.4989   Testloss: 1.7073  TrainAcc: 87.46   Top1: 61.6167    Top5: 86.7500	lr:0.001422
Ep: 174   EpTime: 38.3081  Trainloss: 0.4975   Testloss: 1.7178  TrainAcc: 87.17   Top1: 61.4833    Top5: 86.8667	lr:0.001393
Ep: 175   EpTime: 37.9780  Trainloss: 0.4984   Testloss: 1.7213  TrainAcc: 87.37   Top1: 61.6000    Top5: 86.9167	lr:0.001366
Ep: 176   EpTime: 37.8085  Trainloss: 0.5017   Testloss: 1.7196  TrainAcc: 87.06   Top1: 61.7500    Top5: 87.0833	lr:0.001338
Checkpoint saved!!!
Ep: 177   EpTime: 38.4283  Trainloss: 0.5078   Testloss: 1.7159  TrainAcc: 87.04   Top1: 61.5500    Top5: 86.8500	lr:0.001312
Ep: 178   EpTime: 37.3702  Trainloss: 0.4900   Testloss: 1.7232  TrainAcc: 87.59   Top1: 61.5500    Top5: 86.7833	lr:0.001285
Ep: 179   EpTime: 37.0859  Trainloss: 0.4990   Testloss: 1.7288  TrainAcc: 86.99   Top1: 61.6333    Top5: 86.9000	lr:0.001260
Ep: 180   EpTime: 37.6357  Trainloss: 0.5041   Testloss: 1.7190  TrainAcc: 87.12   Top1: 61.4667    Top5: 86.8500	lr:0.001234
Ep: 181   EpTime: 37.2076  Trainloss: 0.4766   Testloss: 1.7191  TrainAcc: 87.70   Top1: 61.1167    Top5: 86.9000	lr:0.001210
Ep: 182   EpTime: 37.4395  Trainloss: 0.5005   Testloss: 1.7198  TrainAcc: 87.20   Top1: 61.1333    Top5: 86.7500	lr:0.001186
Ep: 183   EpTime: 37.6879  Trainloss: 0.4900   Testloss: 1.7177  TrainAcc: 87.47   Top1: 61.1500    Top5: 86.9333	lr:0.001162
Ep: 184   EpTime: 37.1570  Trainloss: 0.4854   Testloss: 1.7205  TrainAcc: 87.76   Top1: 61.1667    Top5: 86.9500	lr:0.001139
Ep: 185   EpTime: 36.9661  Trainloss: 0.4934   Testloss: 1.7153  TrainAcc: 87.35   Top1: 61.5500    Top5: 86.9500	lr:0.001116
Ep: 186   EpTime: 37.4618  Trainloss: 0.4903   Testloss: 1.7168  TrainAcc: 87.39   Top1: 61.6333    Top5: 86.9667	lr:0.001093
Ep: 187   EpTime: 36.7486  Trainloss: 0.4986   Testloss: 1.7191  TrainAcc: 87.06   Top1: 61.9167    Top5: 86.9333	lr:0.001072
Checkpoint saved!!!
Ep: 188   EpTime: 36.9416  Trainloss: 0.4901   Testloss: 1.7041  TrainAcc: 87.47   Top1: 61.7167    Top5: 87.0833	lr:0.001050
Ep: 189   EpTime: 37.4949  Trainloss: 0.4669   Testloss: 1.7225  TrainAcc: 88.24   Top1: 61.5500    Top5: 86.8833	lr:0.001029
Ep: 190   EpTime: 36.4565  Trainloss: 0.5012   Testloss: 1.7178  TrainAcc: 87.10   Top1: 61.7333    Top5: 86.8667	lr:0.001009
Ep: 191   EpTime: 36.9455  Trainloss: 0.4818   Testloss: 1.7194  TrainAcc: 87.80   Top1: 61.4667    Top5: 87.2167	lr:0.000988
Ep: 192   EpTime: 36.8857  Trainloss: 0.4914   Testloss: 1.7172  TrainAcc: 87.37   Top1: 61.8833    Top5: 87.0667	lr:0.000969
Ep: 193   EpTime: 36.6310  Trainloss: 0.4787   Testloss: 1.7235  TrainAcc: 87.72   Top1: 61.6000    Top5: 86.9833	lr:0.000949
Ep: 194   EpTime: 36.7919  Trainloss: 0.4892   Testloss: 1.7319  TrainAcc: 87.53   Top1: 61.4333    Top5: 87.0333	lr:0.000930
Ep: 195   EpTime: 37.0115  Trainloss: 0.4959   Testloss: 1.7285  TrainAcc: 87.24   Top1: 61.3333    Top5: 86.8833	lr:0.000912
Ep: 196   EpTime: 36.2725  Trainloss: 0.4575   Testloss: 1.7292  TrainAcc: 88.37   Top1: 61.4500    Top5: 86.8167	lr:0.000893
Ep: 197   EpTime: 37.3345  Trainloss: 0.4848   Testloss: 1.7183  TrainAcc: 87.52   Top1: 61.3667    Top5: 87.0167	lr:0.000876
Ep: 198   EpTime: 36.9065  Trainloss: 0.4773   Testloss: 1.7251  TrainAcc: 87.90   Top1: 61.6167    Top5: 86.7667	lr:0.000858
Ep: 199   EpTime: 37.0908  Trainloss: 0.4776   Testloss: 1.7219  TrainAcc: 87.63   Top1: 61.3833    Top5: 86.7167	lr:0.000841
Ep: 200   EpTime: 37.2034  Trainloss: 0.4695   Testloss: 1.7185  TrainAcc: 87.98   Top1: 61.4167    Top5: 86.9000	lr:0.000824
