[32, 16, 24, 32, 64, 96, 160, 320]
MobileNet2(
  (activation): ReLU6(inplace)
  (conv1): Conv2d(3, 32, kernel_size=(3, 3), stride=(2, 2), padding=(1, 1), bias=False)
  (bn1): BatchNorm2d(32, eps=1e-05, momentum=0.1, affine=True, track_running_stats=True)
  (bottlenecks): Sequential(
    (Bottlenecks_0): Sequential(
      (LinearBottleneck0_0): LinearBottleneck(
        (conv1): Conv2d(32, 32, kernel_size=(1, 1), stride=(1, 1), bias=False)
        (bn1): BatchNorm2d(32, eps=1e-05, momentum=0.1, affine=True, track_running_stats=True)
        (conv2): Conv2d(32, 32, kernel_size=(3, 3), stride=(1, 1), padding=(1, 1), groups=32, bias=False)
        (bn2): BatchNorm2d(32, eps=1e-05, momentum=0.1, affine=True, track_running_stats=True)
        (conv3): Conv2d(32, 16, kernel_size=(1, 1), stride=(1, 1), bias=False)
        (bn3): BatchNorm2d(16, eps=1e-05, momentum=0.1, affine=True, track_running_stats=True)
        (activation): ReLU6(inplace)
      )
    )
    (Bottlenecks_1): Sequential(
      (LinearBottleneck1_0): LinearBottleneck(
        (conv1): Conv2d(16, 96, kernel_size=(1, 1), stride=(1, 1), bias=False)
        (bn1): BatchNorm2d(96, eps=1e-05, momentum=0.1, affine=True, track_running_stats=True)
        (conv2): Conv2d(96, 96, kernel_size=(3, 3), stride=(2, 2), padding=(1, 1), groups=96, bias=False)
        (bn2): BatchNorm2d(96, eps=1e-05, momentum=0.1, affine=True, track_running_stats=True)
        (conv3): Conv2d(96, 24, kernel_size=(1, 1), stride=(1, 1), bias=False)
        (bn3): BatchNorm2d(24, eps=1e-05, momentum=0.1, affine=True, track_running_stats=True)
        (activation): ReLU6(inplace)
      )
      (LinearBottleneck1_1): LinearBottleneck(
        (conv1): Conv2d(24, 144, kernel_size=(1, 1), stride=(1, 1), bias=False)
        (bn1): BatchNorm2d(144, eps=1e-05, momentum=0.1, affine=True, track_running_stats=True)
        (conv2): Conv2d(144, 144, kernel_size=(3, 3), stride=(1, 1), padding=(1, 1), groups=144, bias=False)
        (bn2): BatchNorm2d(144, eps=1e-05, momentum=0.1, affine=True, track_running_stats=True)
        (conv3): Conv2d(144, 24, kernel_size=(1, 1), stride=(1, 1), bias=False)
        (bn3): BatchNorm2d(24, eps=1e-05, momentum=0.1, affine=True, track_running_stats=True)
        (activation): ReLU6(inplace)
      )
    )
    (Bottlenecks_2): Sequential(
      (LinearBottleneck2_0): LinearBottleneck(
        (conv1): Conv2d(24, 144, kernel_size=(1, 1), stride=(1, 1), bias=False)
        (bn1): BatchNorm2d(144, eps=1e-05, momentum=0.1, affine=True, track_running_stats=True)
        (conv2): Conv2d(144, 144, kernel_size=(3, 3), stride=(2, 2), padding=(1, 1), groups=144, bias=False)
        (bn2): BatchNorm2d(144, eps=1e-05, momentum=0.1, affine=True, track_running_stats=True)
        (conv3): Conv2d(144, 32, kernel_size=(1, 1), stride=(1, 1), bias=False)
        (bn3): BatchNorm2d(32, eps=1e-05, momentum=0.1, affine=True, track_running_stats=True)
        (activation): ReLU6(inplace)
      )
      (LinearBottleneck2_1): LinearBottleneck(
        (conv1): Conv2d(32, 192, kernel_size=(1, 1), stride=(1, 1), bias=False)
        (bn1): BatchNorm2d(192, eps=1e-05, momentum=0.1, affine=True, track_running_stats=True)
        (conv2): Conv2d(192, 192, kernel_size=(3, 3), stride=(1, 1), padding=(1, 1), groups=192, bias=False)
        (bn2): BatchNorm2d(192, eps=1e-05, momentum=0.1, affine=True, track_running_stats=True)
        (conv3): Conv2d(192, 32, kernel_size=(1, 1), stride=(1, 1), bias=False)
        (bn3): BatchNorm2d(32, eps=1e-05, momentum=0.1, affine=True, track_running_stats=True)
        (activation): ReLU6(inplace)
      )
      (LinearBottleneck2_2): LinearBottleneck(
        (conv1): Conv2d(32, 192, kernel_size=(1, 1), stride=(1, 1), bias=False)
        (bn1): BatchNorm2d(192, eps=1e-05, momentum=0.1, affine=True, track_running_stats=True)
        (conv2): Conv2d(192, 192, kernel_size=(3, 3), stride=(1, 1), padding=(1, 1), groups=192, bias=False)
        (bn2): BatchNorm2d(192, eps=1e-05, momentum=0.1, affine=True, track_running_stats=True)
        (conv3): Conv2d(192, 32, kernel_size=(1, 1), stride=(1, 1), bias=False)
        (bn3): BatchNorm2d(32, eps=1e-05, momentum=0.1, affine=True, track_running_stats=True)
        (activation): ReLU6(inplace)
      )
    )
    (Bottlenecks_3): Sequential(
      (LinearBottleneck3_0): LinearBottleneck(
        (conv1): Conv2d(32, 192, kernel_size=(1, 1), stride=(1, 1), bias=False)
        (bn1): BatchNorm2d(192, eps=1e-05, momentum=0.1, affine=True, track_running_stats=True)
        (conv2): Conv2d(192, 192, kernel_size=(3, 3), stride=(2, 2), padding=(1, 1), groups=192, bias=False)
        (bn2): BatchNorm2d(192, eps=1e-05, momentum=0.1, affine=True, track_running_stats=True)
        (conv3): Conv2d(192, 64, kernel_size=(1, 1), stride=(1, 1), bias=False)
        (bn3): BatchNorm2d(64, eps=1e-05, momentum=0.1, affine=True, track_running_stats=True)
        (activation): ReLU6(inplace)
      )
      (LinearBottleneck3_1): LinearBottleneck(
        (conv1): Conv2d(64, 384, kernel_size=(1, 1), stride=(1, 1), bias=False)
        (bn1): BatchNorm2d(384, eps=1e-05, momentum=0.1, affine=True, track_running_stats=True)
        (conv2): Conv2d(384, 384, kernel_size=(3, 3), stride=(1, 1), padding=(1, 1), groups=384, bias=False)
        (bn2): BatchNorm2d(384, eps=1e-05, momentum=0.1, affine=True, track_running_stats=True)
        (conv3): Conv2d(384, 64, kernel_size=(1, 1), stride=(1, 1), bias=False)
        (bn3): BatchNorm2d(64, eps=1e-05, momentum=0.1, affine=True, track_running_stats=True)
        (activation): ReLU6(inplace)
      )
      (LinearBottleneck3_2): LinearBottleneck(
        (conv1): Conv2d(64, 384, kernel_size=(1, 1), stride=(1, 1), bias=False)
        (bn1): BatchNorm2d(384, eps=1e-05, momentum=0.1, affine=True, track_running_stats=True)
        (conv2): Conv2d(384, 384, kernel_size=(3, 3), stride=(1, 1), padding=(1, 1), groups=384, bias=False)
        (bn2): BatchNorm2d(384, eps=1e-05, momentum=0.1, affine=True, track_running_stats=True)
        (conv3): Conv2d(384, 64, kernel_size=(1, 1), stride=(1, 1), bias=False)
        (bn3): BatchNorm2d(64, eps=1e-05, momentum=0.1, affine=True, track_running_stats=True)
        (activation): ReLU6(inplace)
      )
      (LinearBottleneck3_3): LinearBottleneck(
        (conv1): Conv2d(64, 384, kernel_size=(1, 1), stride=(1, 1), bias=False)
        (bn1): BatchNorm2d(384, eps=1e-05, momentum=0.1, affine=True, track_running_stats=True)
        (conv2): Conv2d(384, 384, kernel_size=(3, 3), stride=(1, 1), padding=(1, 1), groups=384, bias=False)
        (bn2): BatchNorm2d(384, eps=1e-05, momentum=0.1, affine=True, track_running_stats=True)
        (conv3): Conv2d(384, 64, kernel_size=(1, 1), stride=(1, 1), bias=False)
        (bn3): BatchNorm2d(64, eps=1e-05, momentum=0.1, affine=True, track_running_stats=True)
        (activation): ReLU6(inplace)
      )
    )
    (Bottlenecks_4): Sequential(
      (LinearBottleneck4_0): LinearBottleneck(
        (conv1): Conv2d(64, 384, kernel_size=(1, 1), stride=(1, 1), bias=False)
        (bn1): BatchNorm2d(384, eps=1e-05, momentum=0.1, affine=True, track_running_stats=True)
        (conv2): Conv2d(384, 384, kernel_size=(3, 3), stride=(1, 1), padding=(1, 1), groups=384, bias=False)
        (bn2): BatchNorm2d(384, eps=1e-05, momentum=0.1, affine=True, track_running_stats=True)
        (conv3): Conv2d(384, 96, kernel_size=(1, 1), stride=(1, 1), bias=False)
        (bn3): BatchNorm2d(96, eps=1e-05, momentum=0.1, affine=True, track_running_stats=True)
        (activation): ReLU6(inplace)
      )
      (LinearBottleneck4_1): LinearBottleneck(
        (conv1): Conv2d(96, 576, kernel_size=(1, 1), stride=(1, 1), bias=False)
        (bn1): BatchNorm2d(576, eps=1e-05, momentum=0.1, affine=True, track_running_stats=True)
        (conv2): Conv2d(576, 576, kernel_size=(3, 3), stride=(1, 1), padding=(1, 1), groups=576, bias=False)
        (bn2): BatchNorm2d(576, eps=1e-05, momentum=0.1, affine=True, track_running_stats=True)
        (conv3): Conv2d(576, 96, kernel_size=(1, 1), stride=(1, 1), bias=False)
        (bn3): BatchNorm2d(96, eps=1e-05, momentum=0.1, affine=True, track_running_stats=True)
        (activation): ReLU6(inplace)
      )
      (LinearBottleneck4_2): LinearBottleneck(
        (conv1): Conv2d(96, 576, kernel_size=(1, 1), stride=(1, 1), bias=False)
        (bn1): BatchNorm2d(576, eps=1e-05, momentum=0.1, affine=True, track_running_stats=True)
        (conv2): Conv2d(576, 576, kernel_size=(3, 3), stride=(1, 1), padding=(1, 1), groups=576, bias=False)
        (bn2): BatchNorm2d(576, eps=1e-05, momentum=0.1, affine=True, track_running_stats=True)
        (conv3): Conv2d(576, 96, kernel_size=(1, 1), stride=(1, 1), bias=False)
        (bn3): BatchNorm2d(96, eps=1e-05, momentum=0.1, affine=True, track_running_stats=True)
        (activation): ReLU6(inplace)
      )
    )
    (Bottlenecks_5): Sequential(
      (LinearBottleneck5_0): LinearBottleneck(
        (conv1): Conv2d(96, 576, kernel_size=(1, 1), stride=(1, 1), bias=False)
        (bn1): BatchNorm2d(576, eps=1e-05, momentum=0.1, affine=True, track_running_stats=True)
        (conv2): Conv2d(576, 576, kernel_size=(3, 3), stride=(2, 2), padding=(1, 1), groups=576, bias=False)
        (bn2): BatchNorm2d(576, eps=1e-05, momentum=0.1, affine=True, track_running_stats=True)
        (conv3): Conv2d(576, 160, kernel_size=(1, 1), stride=(1, 1), bias=False)
        (bn3): BatchNorm2d(160, eps=1e-05, momentum=0.1, affine=True, track_running_stats=True)
        (activation): ReLU6(inplace)
      )
      (LinearBottleneck5AlphaBlock_1): AlphaBlock(
        (arm_1): SplitArm(
          (conv_dws): Conv2d(40, 40, kernel_size=(1, 1), stride=(1, 1), groups=40)
          (bn_dws): BatchNorm2d(40, eps=1e-05, momentum=0.9, affine=True, track_running_stats=True)
          (relu_dws): ReLU(inplace)
          (maxpool): MaxPool2d(kernel_size=3, stride=1, padding=1, dilation=1, ceil_mode=False)
          (conv_point): Conv2d(40, 1, kernel_size=(1, 1), stride=(1, 1))
          (bn_point): BatchNorm2d(1, eps=1e-05, momentum=0.9, affine=True, track_running_stats=True)
          (relu_point): ReLU(inplace)
          (softmax): Softmax()
        )
        (arm_2): SplitArm(
          (conv_dws): Conv2d(40, 40, kernel_size=(1, 1), stride=(1, 1), groups=40)
          (bn_dws): BatchNorm2d(40, eps=1e-05, momentum=0.9, affine=True, track_running_stats=True)
          (relu_dws): ReLU(inplace)
          (maxpool): MaxPool2d(kernel_size=3, stride=1, padding=1, dilation=1, ceil_mode=False)
          (conv_point): Conv2d(40, 1, kernel_size=(1, 1), stride=(1, 1))
          (bn_point): BatchNorm2d(1, eps=1e-05, momentum=0.9, affine=True, track_running_stats=True)
          (relu_point): ReLU(inplace)
          (softmax): Softmax()
        )
        (arm_3): SplitArm(
          (conv_dws): Conv2d(40, 40, kernel_size=(1, 1), stride=(1, 1), groups=40)
          (bn_dws): BatchNorm2d(40, eps=1e-05, momentum=0.9, affine=True, track_running_stats=True)
          (relu_dws): ReLU(inplace)
          (maxpool): MaxPool2d(kernel_size=3, stride=1, padding=1, dilation=1, ceil_mode=False)
          (conv_point): Conv2d(40, 1, kernel_size=(1, 1), stride=(1, 1))
          (bn_point): BatchNorm2d(1, eps=1e-05, momentum=0.9, affine=True, track_running_stats=True)
          (relu_point): ReLU(inplace)
          (softmax): Softmax()
        )
        (arm_4): SplitArm(
          (conv_dws): Conv2d(40, 40, kernel_size=(1, 1), stride=(1, 1), groups=40)
          (bn_dws): BatchNorm2d(40, eps=1e-05, momentum=0.9, affine=True, track_running_stats=True)
          (relu_dws): ReLU(inplace)
          (maxpool): MaxPool2d(kernel_size=3, stride=1, padding=1, dilation=1, ceil_mode=False)
          (conv_point): Conv2d(40, 1, kernel_size=(1, 1), stride=(1, 1))
          (bn_point): BatchNorm2d(1, eps=1e-05, momentum=0.9, affine=True, track_running_stats=True)
          (relu_point): ReLU(inplace)
          (softmax): Softmax()
        )
      )
      (LinearBottleneck5_2): LinearBottleneck(
        (conv1): Conv2d(160, 960, kernel_size=(1, 1), stride=(1, 1), bias=False)
        (bn1): BatchNorm2d(960, eps=1e-05, momentum=0.1, affine=True, track_running_stats=True)
        (conv2): Conv2d(960, 960, kernel_size=(3, 3), stride=(1, 1), padding=(1, 1), groups=960, bias=False)
        (bn2): BatchNorm2d(960, eps=1e-05, momentum=0.1, affine=True, track_running_stats=True)
        (conv3): Conv2d(960, 160, kernel_size=(1, 1), stride=(1, 1), bias=False)
        (bn3): BatchNorm2d(160, eps=1e-05, momentum=0.1, affine=True, track_running_stats=True)
        (activation): ReLU6(inplace)
      )
    )
    (Bottlenecks_6): Sequential(
      (LinearBottleneck6_0): LinearBottleneck(
        (conv1): Conv2d(160, 960, kernel_size=(1, 1), stride=(1, 1), bias=False)
        (bn1): BatchNorm2d(960, eps=1e-05, momentum=0.1, affine=True, track_running_stats=True)
        (conv2): Conv2d(960, 960, kernel_size=(3, 3), stride=(1, 1), padding=(1, 1), groups=960, bias=False)
        (bn2): BatchNorm2d(960, eps=1e-05, momentum=0.1, affine=True, track_running_stats=True)
        (conv3): Conv2d(960, 320, kernel_size=(1, 1), stride=(1, 1), bias=False)
        (bn3): BatchNorm2d(320, eps=1e-05, momentum=0.1, affine=True, track_running_stats=True)
        (activation): ReLU6(inplace)
      )
    )
  )
  (conv_last): Conv2d(320, 1280, kernel_size=(1, 1), stride=(1, 1), bias=False)
  (bn_last): BatchNorm2d(1280, eps=1e-05, momentum=0.1, affine=True, track_running_stats=True)
  (avgpool): AdaptiveAvgPool2d(output_size=1)
  (dropout): Dropout(p=0.2, inplace)
  (fc): Linear(in_features=1280, out_features=120, bias=True)
)
Ep: 1   EpTime: 39.9013  Trainloss: 4.8518   Testloss: 4.7351  TrainAcc: 1.84   Top1: 2.2000    Top5: 9.6167	lr:0.045000
Checkpoint saved!!!
Ep: 2   EpTime: 37.8535  Trainloss: 4.5106   Testloss: 4.3556  TrainAcc: 3.85   Top1: 4.8833    Top5: 17.9333	lr:0.045000
Checkpoint saved!!!
Ep: 3   EpTime: 37.7977  Trainloss: 4.3048   Testloss: 4.2635  TrainAcc: 5.54   Top1: 4.8833    Top5: 21.1833	lr:0.044100
Checkpoint saved!!!
Ep: 4   EpTime: 37.7636  Trainloss: 4.1681   Testloss: 4.0708  TrainAcc: 6.55   Top1: 7.0667    Top5: 26.4000	lr:0.043218
Checkpoint saved!!!
Ep: 5   EpTime: 37.9291  Trainloss: 4.0444   Testloss: 3.9191  TrainAcc: 8.04   Top1: 10.1000    Top5: 31.7333	lr:0.042354
Checkpoint saved!!!
Ep: 6   EpTime: 37.8613  Trainloss: 3.9305   Testloss: 3.9028  TrainAcc: 9.66   Top1: 9.8500    Top5: 32.0000	lr:0.041507
Ep: 7   EpTime: 37.7187  Trainloss: 3.8368   Testloss: 4.0990  TrainAcc: 10.82   Top1: 8.2833    Top5: 28.7167	lr:0.040676
Ep: 8   EpTime: 37.5565  Trainloss: 3.7389   Testloss: 3.7772  TrainAcc: 12.32   Top1: 12.2000    Top5: 36.3000	lr:0.039863
Checkpoint saved!!!
Ep: 9   EpTime: 37.3688  Trainloss: 3.6500   Testloss: 3.7311  TrainAcc: 14.07   Top1: 13.3833    Top5: 40.1000	lr:0.039066
Checkpoint saved!!!
Ep: 10   EpTime: 37.9745  Trainloss: 3.5709   Testloss: 3.6728  TrainAcc: 15.47   Top1: 14.2500    Top5: 40.0500	lr:0.038284
Checkpoint saved!!!
Ep: 11   EpTime: 37.8078  Trainloss: 3.4644   Testloss: 3.9289  TrainAcc: 17.15   Top1: 10.7167    Top5: 34.2167	lr:0.037519
Ep: 12   EpTime: 37.7738  Trainloss: 3.3704   Testloss: 3.4763  TrainAcc: 18.02   Top1: 16.5000    Top5: 44.0167	lr:0.036768
Checkpoint saved!!!
Ep: 13   EpTime: 38.0089  Trainloss: 3.2932   Testloss: 3.2126  TrainAcc: 20.63   Top1: 21.4000    Top5: 52.5000	lr:0.036033
Checkpoint saved!!!
Ep: 14   EpTime: 38.0533  Trainloss: 3.1881   Testloss: 3.0774  TrainAcc: 21.82   Top1: 22.8000    Top5: 54.1500	lr:0.035312
Checkpoint saved!!!
Ep: 15   EpTime: 37.7162  Trainloss: 3.1212   Testloss: 2.8805  TrainAcc: 23.00   Top1: 26.6333    Top5: 59.8333	lr:0.034606
Checkpoint saved!!!
Ep: 16   EpTime: 37.6356  Trainloss: 2.9918   Testloss: 2.8031  TrainAcc: 25.61   Top1: 28.2667    Top5: 62.0333	lr:0.033914
Checkpoint saved!!!
Ep: 17   EpTime: 37.9209  Trainloss: 2.9456   Testloss: 2.7713  TrainAcc: 26.67   Top1: 29.4500    Top5: 63.0500	lr:0.033236
Checkpoint saved!!!
Ep: 18   EpTime: 37.5732  Trainloss: 2.8660   Testloss: 2.6646  TrainAcc: 28.31   Top1: 30.9500    Top5: 65.0500	lr:0.032571
Checkpoint saved!!!
Ep: 19   EpTime: 37.7589  Trainloss: 2.7818   Testloss: 2.7231  TrainAcc: 30.39   Top1: 31.2833    Top5: 64.2500	lr:0.031919
Checkpoint saved!!!
Ep: 20   EpTime: 37.9229  Trainloss: 2.7132   Testloss: 2.4956  TrainAcc: 31.33   Top1: 34.3833    Top5: 68.0167	lr:0.031281
Checkpoint saved!!!
Ep: 21   EpTime: 38.0142  Trainloss: 2.6357   Testloss: 2.4352  TrainAcc: 32.99   Top1: 35.9000    Top5: 70.4667	lr:0.030655
Checkpoint saved!!!
Ep: 22   EpTime: 37.9545  Trainloss: 2.5559   Testloss: 2.4811  TrainAcc: 35.03   Top1: 35.6500    Top5: 68.7167	lr:0.030042
Ep: 23   EpTime: 37.6229  Trainloss: 2.4943   Testloss: 2.3591  TrainAcc: 35.74   Top1: 38.3667    Top5: 71.3667	lr:0.029442
Checkpoint saved!!!
Ep: 24   EpTime: 38.0460  Trainloss: 2.4114   Testloss: 2.4408  TrainAcc: 37.59   Top1: 36.6500    Top5: 71.0000	lr:0.028853
Ep: 25   EpTime: 37.6385  Trainloss: 2.3812   Testloss: 2.2822  TrainAcc: 38.25   Top1: 39.2333    Top5: 73.8833	lr:0.028276
Checkpoint saved!!!
Ep: 26   EpTime: 37.8565  Trainloss: 2.2818   Testloss: 2.2913  TrainAcc: 40.53   Top1: 39.8833    Top5: 74.3333	lr:0.027710
Checkpoint saved!!!
Ep: 27   EpTime: 37.8509  Trainloss: 2.2575   Testloss: 2.0929  TrainAcc: 41.08   Top1: 43.7000    Top5: 76.9500	lr:0.027156
Checkpoint saved!!!
Ep: 28   EpTime: 37.9270  Trainloss: 2.1857   Testloss: 2.1572  TrainAcc: 42.69   Top1: 42.7000    Top5: 76.8833	lr:0.026613
Ep: 29   EpTime: 38.1116  Trainloss: 2.1537   Testloss: 2.1516  TrainAcc: 43.82   Top1: 43.2000    Top5: 76.1167	lr:0.026081
Ep: 30   EpTime: 37.8444  Trainloss: 2.0770   Testloss: 2.0532  TrainAcc: 45.40   Top1: 45.7167    Top5: 78.7833	lr:0.025559
Checkpoint saved!!!
Ep: 31   EpTime: 37.9372  Trainloss: 2.0504   Testloss: 2.1908  TrainAcc: 46.15   Top1: 43.0667    Top5: 76.5500	lr:0.025048
Ep: 32   EpTime: 37.9160  Trainloss: 2.0057   Testloss: 2.1148  TrainAcc: 47.26   Top1: 45.1000    Top5: 77.6333	lr:0.024547
Ep: 33   EpTime: 37.6070  Trainloss: 1.9765   Testloss: 1.9797  TrainAcc: 47.57   Top1: 47.5833    Top5: 80.3667	lr:0.024056
Checkpoint saved!!!
Ep: 34   EpTime: 37.9665  Trainloss: 1.9217   Testloss: 1.9035  TrainAcc: 48.89   Top1: 48.7833    Top5: 81.3333	lr:0.023575
Checkpoint saved!!!
Ep: 35   EpTime: 37.6471  Trainloss: 1.8889   Testloss: 1.9142  TrainAcc: 49.38   Top1: 48.5333    Top5: 81.1167	lr:0.023103
Ep: 36   EpTime: 37.2490  Trainloss: 1.8558   Testloss: 1.8710  TrainAcc: 50.28   Top1: 49.4167    Top5: 82.0333	lr:0.022641
Checkpoint saved!!!
Ep: 37   EpTime: 37.3014  Trainloss: 1.8133   Testloss: 1.7855  TrainAcc: 51.94   Top1: 51.7000    Top5: 82.5000	lr:0.022188
Checkpoint saved!!!
Ep: 38   EpTime: 37.4782  Trainloss: 1.7746   Testloss: 1.8074  TrainAcc: 52.98   Top1: 51.1667    Top5: 81.9833	lr:0.021745
Ep: 39   EpTime: 38.1308  Trainloss: 1.7389   Testloss: 1.8542  TrainAcc: 53.53   Top1: 50.1333    Top5: 81.7500	lr:0.021310
Ep: 40   EpTime: 38.5041  Trainloss: 1.7225   Testloss: 1.8864  TrainAcc: 53.59   Top1: 50.4667    Top5: 81.4333	lr:0.020884
Ep: 41   EpTime: 37.9725  Trainloss: 1.6701   Testloss: 1.8035  TrainAcc: 54.92   Top1: 51.0667    Top5: 83.0167	lr:0.020466
Ep: 42   EpTime: 37.9528  Trainloss: 1.6630   Testloss: 1.7478  TrainAcc: 55.20   Top1: 51.5000    Top5: 83.7333	lr:0.020057
Ep: 43   EpTime: 38.0699  Trainloss: 1.6584   Testloss: 1.8317  TrainAcc: 55.30   Top1: 51.8000    Top5: 82.3333	lr:0.019655
Checkpoint saved!!!
Ep: 44   EpTime: 38.0861  Trainloss: 1.5822   Testloss: 1.7412  TrainAcc: 57.04   Top1: 52.9000    Top5: 84.0333	lr:0.019262
Checkpoint saved!!!
Ep: 45   EpTime: 38.2259  Trainloss: 1.5626   Testloss: 1.6772  TrainAcc: 57.65   Top1: 54.4000    Top5: 84.5500	lr:0.018877
Checkpoint saved!!!
Ep: 46   EpTime: 37.9108  Trainloss: 1.5508   Testloss: 1.7629  TrainAcc: 57.89   Top1: 53.8500    Top5: 84.0167	lr:0.018499
Ep: 47   EpTime: 37.7239  Trainloss: 1.5307   Testloss: 1.6836  TrainAcc: 58.57   Top1: 54.4167    Top5: 85.1833	lr:0.018130
Checkpoint saved!!!
Ep: 48   EpTime: 38.0763  Trainloss: 1.5041   Testloss: 1.7191  TrainAcc: 59.81   Top1: 54.2500    Top5: 84.6833	lr:0.017767
Ep: 49   EpTime: 37.5479  Trainloss: 1.4839   Testloss: 1.7668  TrainAcc: 59.69   Top1: 54.1167    Top5: 83.3333	lr:0.017412
Ep: 50   EpTime: 37.6528  Trainloss: 1.4361   Testloss: 1.7409  TrainAcc: 61.30   Top1: 54.1667    Top5: 83.9333	lr:0.017063
Ep: 51   EpTime: 37.9552  Trainloss: 1.4167   Testloss: 1.7191  TrainAcc: 61.39   Top1: 54.6167    Top5: 84.8667	lr:0.016722
Checkpoint saved!!!
Ep: 52   EpTime: 37.6596  Trainloss: 1.3909   Testloss: 1.6769  TrainAcc: 62.40   Top1: 55.6500    Top5: 85.2667	lr:0.016388
Checkpoint saved!!!
Ep: 53   EpTime: 38.0188  Trainloss: 1.3856   Testloss: 1.7290  TrainAcc: 62.33   Top1: 54.5667    Top5: 84.8333	lr:0.016060
Ep: 54   EpTime: 38.0231  Trainloss: 1.3474   Testloss: 1.6569  TrainAcc: 63.31   Top1: 56.1667    Top5: 85.6000	lr:0.015739
Checkpoint saved!!!
Ep: 55   EpTime: 37.8328  Trainloss: 1.3345   Testloss: 1.6722  TrainAcc: 63.61   Top1: 56.5667    Top5: 85.6833	lr:0.015424
Checkpoint saved!!!
Ep: 56   EpTime: 38.3287  Trainloss: 1.3070   Testloss: 1.6548  TrainAcc: 64.52   Top1: 56.4333    Top5: 85.8333	lr:0.015115
Ep: 57   EpTime: 38.2094  Trainloss: 1.2894   Testloss: 1.6316  TrainAcc: 64.93   Top1: 57.1500    Top5: 86.5333	lr:0.014813
Checkpoint saved!!!
Ep: 58   EpTime: 38.1947  Trainloss: 1.2978   Testloss: 1.6530  TrainAcc: 65.03   Top1: 56.4167    Top5: 86.0167	lr:0.014517
Ep: 59   EpTime: 37.6288  Trainloss: 1.2777   Testloss: 1.6330  TrainAcc: 65.28   Top1: 57.4667    Top5: 86.5500	lr:0.014227
Checkpoint saved!!!
Ep: 60   EpTime: 38.1551  Trainloss: 1.2426   Testloss: 1.6741  TrainAcc: 66.20   Top1: 56.4500    Top5: 86.0000	lr:0.013942
Ep: 61   EpTime: 38.0333  Trainloss: 1.2325   Testloss: 1.6056  TrainAcc: 66.85   Top1: 57.5833    Top5: 86.3167	lr:0.013663
Checkpoint saved!!!
Ep: 62   EpTime: 38.1101  Trainloss: 1.2245   Testloss: 1.6703  TrainAcc: 67.02   Top1: 57.0667    Top5: 86.0667	lr:0.013390
Ep: 63   EpTime: 37.7204  Trainloss: 1.1832   Testloss: 1.6528  TrainAcc: 67.95   Top1: 56.8500    Top5: 85.6833	lr:0.013122
Ep: 64   EpTime: 37.6165  Trainloss: 1.1689   Testloss: 1.6012  TrainAcc: 68.41   Top1: 58.6333    Top5: 86.5500	lr:0.012860
Checkpoint saved!!!
Ep: 65   EpTime: 38.2434  Trainloss: 1.1628   Testloss: 1.6475  TrainAcc: 68.54   Top1: 58.0167    Top5: 86.0000	lr:0.012602
Ep: 66   EpTime: 38.2505  Trainloss: 1.1328   Testloss: 1.6166  TrainAcc: 69.37   Top1: 58.5333    Top5: 86.3000	lr:0.012350
Ep: 67   EpTime: 37.7556  Trainloss: 1.1261   Testloss: 1.6072  TrainAcc: 69.74   Top1: 58.7333    Top5: 86.8000	lr:0.012103
Checkpoint saved!!!
Ep: 68   EpTime: 38.6166  Trainloss: 1.0954   Testloss: 1.5919  TrainAcc: 70.25   Top1: 58.7833    Top5: 86.4333	lr:0.011861
Checkpoint saved!!!
Ep: 69   EpTime: 38.2613  Trainloss: 1.1095   Testloss: 1.6231  TrainAcc: 69.92   Top1: 58.6000    Top5: 86.5500	lr:0.011624
Ep: 70   EpTime: 37.9307  Trainloss: 1.1074   Testloss: 1.6475  TrainAcc: 70.14   Top1: 58.2500    Top5: 86.5833	lr:0.011392
Ep: 71   EpTime: 37.6381  Trainloss: 1.0836   Testloss: 1.6300  TrainAcc: 70.89   Top1: 57.6000    Top5: 86.1833	lr:0.011164
Ep: 72   EpTime: 37.8289  Trainloss: 1.0619   Testloss: 1.6049  TrainAcc: 71.25   Top1: 59.1167    Top5: 86.9333	lr:0.010941
Checkpoint saved!!!
Ep: 73   EpTime: 37.6997  Trainloss: 1.0521   Testloss: 1.6219  TrainAcc: 71.74   Top1: 58.8833    Top5: 87.0167	lr:0.010722
Ep: 74   EpTime: 38.0320  Trainloss: 1.0264   Testloss: 1.5878  TrainAcc: 72.67   Top1: 59.9333    Top5: 87.8000	lr:0.010507
Checkpoint saved!!!
Ep: 75   EpTime: 37.8272  Trainloss: 1.0387   Testloss: 1.5723  TrainAcc: 71.97   Top1: 59.9167    Top5: 87.1500	lr:0.010297
Ep: 76   EpTime: 37.8725  Trainloss: 0.9988   Testloss: 1.5971  TrainAcc: 73.05   Top1: 59.6000    Top5: 87.1500	lr:0.010091
Ep: 77   EpTime: 37.9562  Trainloss: 1.0066   Testloss: 1.6133  TrainAcc: 72.78   Top1: 59.4333    Top5: 86.9667	lr:0.009889
Ep: 78   EpTime: 38.0555  Trainloss: 0.9764   Testloss: 1.6128  TrainAcc: 73.49   Top1: 59.4333    Top5: 86.7333	lr:0.009692
Ep: 79   EpTime: 37.9246  Trainloss: 0.9600   Testloss: 1.5737  TrainAcc: 74.05   Top1: 59.9333    Top5: 87.7000	lr:0.009498
Checkpoint saved!!!
Ep: 80   EpTime: 38.0997  Trainloss: 0.9690   Testloss: 1.6231  TrainAcc: 74.17   Top1: 59.2833    Top5: 87.2500	lr:0.009308
Ep: 81   EpTime: 38.0310  Trainloss: 0.9661   Testloss: 1.6199  TrainAcc: 73.95   Top1: 59.5333    Top5: 87.1667	lr:0.009122
Ep: 82   EpTime: 38.1409  Trainloss: 0.9182   Testloss: 1.6108  TrainAcc: 75.49   Top1: 59.2667    Top5: 87.2333	lr:0.008939
Ep: 83   EpTime: 38.0433  Trainloss: 0.9451   Testloss: 1.5932  TrainAcc: 74.82   Top1: 60.0167    Top5: 87.4667	lr:0.008760
Checkpoint saved!!!
Ep: 84   EpTime: 38.2294  Trainloss: 0.9049   Testloss: 1.5859  TrainAcc: 75.80   Top1: 60.1500    Top5: 87.3000	lr:0.008585
Checkpoint saved!!!
Ep: 85   EpTime: 37.9725  Trainloss: 0.9262   Testloss: 1.6136  TrainAcc: 75.33   Top1: 60.1333    Top5: 87.2500	lr:0.008414
Ep: 86   EpTime: 37.9231  Trainloss: 0.9112   Testloss: 1.5873  TrainAcc: 75.72   Top1: 60.1667    Top5: 87.2333	lr:0.008245
Checkpoint saved!!!
Ep: 87   EpTime: 38.2252  Trainloss: 0.9162   Testloss: 1.5925  TrainAcc: 75.49   Top1: 60.3667    Top5: 87.3000	lr:0.008080
Checkpoint saved!!!
Ep: 88   EpTime: 37.9921  Trainloss: 0.8811   Testloss: 1.6119  TrainAcc: 76.85   Top1: 60.0000    Top5: 87.1333	lr:0.007919
Ep: 89   EpTime: 38.4101  Trainloss: 0.8863   Testloss: 1.6097  TrainAcc: 76.42   Top1: 60.7500    Top5: 87.5667	lr:0.007760
Checkpoint saved!!!
Ep: 90   EpTime: 37.8073  Trainloss: 0.8664   Testloss: 1.6424  TrainAcc: 77.24   Top1: 60.3500    Top5: 87.1000	lr:0.007605
Ep: 91   EpTime: 38.1941  Trainloss: 0.8672   Testloss: 1.6213  TrainAcc: 76.89   Top1: 59.8167    Top5: 86.9000	lr:0.007453
Ep: 92   EpTime: 38.0275  Trainloss: 0.8711   Testloss: 1.6035  TrainAcc: 77.21   Top1: 60.3167    Top5: 87.0000	lr:0.007304
Ep: 93   EpTime: 37.8481  Trainloss: 0.8505   Testloss: 1.6128  TrainAcc: 77.62   Top1: 60.5833    Top5: 87.3333	lr:0.007158
Ep: 94   EpTime: 38.0215  Trainloss: 0.8458   Testloss: 1.6019  TrainAcc: 78.05   Top1: 61.0000    Top5: 87.4500	lr:0.007015
Checkpoint saved!!!
Ep: 95   EpTime: 38.3771  Trainloss: 0.8219   Testloss: 1.6168  TrainAcc: 78.40   Top1: 60.8167    Top5: 87.0500	lr:0.006874
Ep: 96   EpTime: 38.0136  Trainloss: 0.8113   Testloss: 1.5931  TrainAcc: 78.72   Top1: 61.0667    Top5: 87.2667	lr:0.006737
Checkpoint saved!!!
Ep: 97   EpTime: 37.9290  Trainloss: 0.7999   Testloss: 1.5833  TrainAcc: 79.12   Top1: 61.2833    Top5: 87.7500	lr:0.006602
Checkpoint saved!!!
Ep: 98   EpTime: 37.7593  Trainloss: 0.8105   Testloss: 1.6515  TrainAcc: 78.63   Top1: 60.6500    Top5: 86.7333	lr:0.006470
Ep: 99   EpTime: 37.8259  Trainloss: 0.8025   Testloss: 1.6129  TrainAcc: 78.76   Top1: 60.6833    Top5: 87.2500	lr:0.006341
Ep: 100   EpTime: 37.9826  Trainloss: 0.7875   Testloss: 1.6251  TrainAcc: 79.48   Top1: 60.2000    Top5: 86.9833	lr:0.006214
Ep: 101   EpTime: 38.1252  Trainloss: 0.7763   Testloss: 1.6377  TrainAcc: 79.70   Top1: 61.1167    Top5: 87.3333	lr:0.006090
Ep: 102   EpTime: 38.1903  Trainloss: 0.7951   Testloss: 1.5977  TrainAcc: 79.14   Top1: 61.4833    Top5: 87.6667	lr:0.005968
Checkpoint saved!!!
Ep: 103   EpTime: 37.8901  Trainloss: 0.7613   Testloss: 1.5789  TrainAcc: 80.00   Top1: 61.4000    Top5: 87.9500	lr:0.005849
Ep: 104   EpTime: 37.9808  Trainloss: 0.7702   Testloss: 1.6120  TrainAcc: 79.75   Top1: 61.4333    Top5: 87.8333	lr:0.005732
Ep: 105   EpTime: 38.0575  Trainloss: 0.7612   Testloss: 1.6145  TrainAcc: 79.85   Top1: 61.2500    Top5: 87.6500	lr:0.005617
Ep: 106   EpTime: 37.5991  Trainloss: 0.7456   Testloss: 1.6266  TrainAcc: 80.83   Top1: 60.8500    Top5: 88.0000	lr:0.005505
Ep: 107   EpTime: 37.8674  Trainloss: 0.7514   Testloss: 1.6225  TrainAcc: 80.84   Top1: 60.9000    Top5: 87.5333	lr:0.005394
Ep: 108   EpTime: 37.9710  Trainloss: 0.7456   Testloss: 1.5977  TrainAcc: 80.68   Top1: 61.2167    Top5: 88.0667	lr:0.005287
Ep: 109   EpTime: 37.8720  Trainloss: 0.7411   Testloss: 1.6038  TrainAcc: 80.58   Top1: 61.6500    Top5: 87.6000	lr:0.005181
Checkpoint saved!!!
Ep: 110   EpTime: 37.8880  Trainloss: 0.7147   Testloss: 1.6222  TrainAcc: 81.36   Top1: 61.4000    Top5: 87.3667	lr:0.005077
Ep: 111   EpTime: 38.1308  Trainloss: 0.7127   Testloss: 1.5984  TrainAcc: 81.72   Top1: 61.5833    Top5: 87.5333	lr:0.004976
Ep: 112   EpTime: 37.9924  Trainloss: 0.7332   Testloss: 1.6118  TrainAcc: 80.97   Top1: 61.4667    Top5: 87.6667	lr:0.004876
Ep: 113   EpTime: 38.4284  Trainloss: 0.7280   Testloss: 1.6260  TrainAcc: 81.14   Top1: 61.5000    Top5: 87.6000	lr:0.004779
Ep: 114   EpTime: 37.6036  Trainloss: 0.6972   Testloss: 1.6055  TrainAcc: 81.64   Top1: 62.5000    Top5: 87.4833	lr:0.004683
Checkpoint saved!!!
Ep: 115   EpTime: 39.3134  Trainloss: 0.6957   Testloss: 1.6045  TrainAcc: 81.89   Top1: 62.0000    Top5: 87.7667	lr:0.004589
Ep: 116   EpTime: 38.7326  Trainloss: 0.7166   Testloss: 1.6183  TrainAcc: 81.67   Top1: 61.9500    Top5: 87.8167	lr:0.004498
Ep: 117   EpTime: 39.2450  Trainloss: 0.7048   Testloss: 1.6367  TrainAcc: 81.77   Top1: 61.2167    Top5: 87.2667	lr:0.004408
Ep: 118   EpTime: 38.7755  Trainloss: 0.6957   Testloss: 1.6244  TrainAcc: 81.91   Top1: 61.7667    Top5: 87.5000	lr:0.004320
Ep: 119   EpTime: 38.6268  Trainloss: 0.6986   Testloss: 1.6125  TrainAcc: 81.87   Top1: 61.4667    Top5: 87.7833	lr:0.004233
Ep: 120   EpTime: 38.9033  Trainloss: 0.6742   Testloss: 1.6340  TrainAcc: 82.26   Top1: 61.2667    Top5: 87.1167	lr:0.004148
Ep: 121   EpTime: 38.4873  Trainloss: 0.6869   Testloss: 1.6164  TrainAcc: 82.19   Top1: 61.8833    Top5: 87.5833	lr:0.004066
Ep: 122   EpTime: 38.4257  Trainloss: 0.6771   Testloss: 1.6312  TrainAcc: 82.69   Top1: 61.5500    Top5: 87.3000	lr:0.003984
Ep: 123   EpTime: 38.5770  Trainloss: 0.6813   Testloss: 1.6461  TrainAcc: 82.63   Top1: 61.8833    Top5: 87.2500	lr:0.003905
Ep: 124   EpTime: 38.7970  Trainloss: 0.6918   Testloss: 1.6193  TrainAcc: 81.98   Top1: 62.2333    Top5: 87.6500	lr:0.003826
Ep: 125   EpTime: 38.3126  Trainloss: 0.6604   Testloss: 1.6323  TrainAcc: 82.89   Top1: 61.9500    Top5: 87.2000	lr:0.003750
Ep: 126   EpTime: 38.9222  Trainloss: 0.6661   Testloss: 1.6244  TrainAcc: 82.80   Top1: 61.4833    Top5: 87.3833	lr:0.003675
Ep: 127   EpTime: 38.8636  Trainloss: 0.6427   Testloss: 1.6278  TrainAcc: 83.13   Top1: 61.6000    Top5: 87.7333	lr:0.003601
Ep: 128   EpTime: 38.5175  Trainloss: 0.6643   Testloss: 1.6452  TrainAcc: 82.91   Top1: 62.0167    Top5: 87.2667	lr:0.003529
Ep: 129   EpTime: 38.9336  Trainloss: 0.6685   Testloss: 1.6123  TrainAcc: 83.09   Top1: 61.9000    Top5: 87.9000	lr:0.003459
Ep: 130   EpTime: 38.3601  Trainloss: 0.6676   Testloss: 1.6287  TrainAcc: 82.81   Top1: 62.0000    Top5: 87.4667	lr:0.003390
Ep: 131   EpTime: 38.1247  Trainloss: 0.6487   Testloss: 1.6444  TrainAcc: 83.30   Top1: 61.5167    Top5: 87.0500	lr:0.003322
Ep: 132   EpTime: 38.1181  Trainloss: 0.6552   Testloss: 1.6392  TrainAcc: 83.29   Top1: 62.0500    Top5: 87.4500	lr:0.003255
Ep: 133   EpTime: 38.2583  Trainloss: 0.6294   Testloss: 1.6419  TrainAcc: 83.79   Top1: 61.5667    Top5: 87.6667	lr:0.003190
Ep: 134   EpTime: 38.4435  Trainloss: 0.6312   Testloss: 1.6383  TrainAcc: 83.57   Top1: 62.2000    Top5: 87.7000	lr:0.003126
Ep: 135   EpTime: 38.4885  Trainloss: 0.6294   Testloss: 1.6339  TrainAcc: 84.12   Top1: 61.9167    Top5: 87.3000	lr:0.003064
Ep: 136   EpTime: 38.5316  Trainloss: 0.6253   Testloss: 1.6388  TrainAcc: 84.21   Top1: 61.7167    Top5: 87.1833	lr:0.003003
Ep: 137   EpTime: 38.5798  Trainloss: 0.6414   Testloss: 1.6488  TrainAcc: 83.75   Top1: 61.9667    Top5: 87.6000	lr:0.002943
Ep: 138   EpTime: 38.0010  Trainloss: 0.6397   Testloss: 1.6592  TrainAcc: 83.48   Top1: 61.6333    Top5: 87.5500	lr:0.002884
Ep: 139   EpTime: 37.9257  Trainloss: 0.6030   Testloss: 1.6457  TrainAcc: 84.40   Top1: 61.8333    Top5: 87.4000	lr:0.002826
Ep: 140   EpTime: 37.9075  Trainloss: 0.6264   Testloss: 1.6403  TrainAcc: 84.13   Top1: 61.8500    Top5: 87.5167	lr:0.002770
Ep: 141   EpTime: 37.8310  Trainloss: 0.6290   Testloss: 1.6575  TrainAcc: 83.88   Top1: 61.8833    Top5: 87.4833	lr:0.002714
Ep: 142   EpTime: 38.0762  Trainloss: 0.6150   Testloss: 1.6529  TrainAcc: 84.32   Top1: 61.8333    Top5: 87.7000	lr:0.002660
Ep: 143   EpTime: 38.0923  Trainloss: 0.6264   Testloss: 1.6536  TrainAcc: 83.71   Top1: 61.8833    Top5: 87.5667	lr:0.002607
Ep: 144   EpTime: 37.9636  Trainloss: 0.6138   Testloss: 1.6560  TrainAcc: 84.09   Top1: 62.1833    Top5: 87.3333	lr:0.002555
Ep: 145   EpTime: 37.9978  Trainloss: 0.5987   Testloss: 1.6448  TrainAcc: 84.79   Top1: 61.8333    Top5: 87.5167	lr:0.002503
Ep: 146   EpTime: 38.1047  Trainloss: 0.5885   Testloss: 1.6510  TrainAcc: 84.90   Top1: 61.9333    Top5: 87.4667	lr:0.002453
Ep: 147   EpTime: 38.1142  Trainloss: 0.6056   Testloss: 1.6604  TrainAcc: 84.38   Top1: 61.9333    Top5: 87.2500	lr:0.002404
Ep: 148   EpTime: 38.1822  Trainloss: 0.6108   Testloss: 1.6560  TrainAcc: 84.36   Top1: 61.9833    Top5: 86.8500	lr:0.002356
Ep: 149   EpTime: 38.1648  Trainloss: 0.6013   Testloss: 1.6738  TrainAcc: 84.38   Top1: 61.6833    Top5: 86.8500	lr:0.002309
Ep: 150   EpTime: 38.0758  Trainloss: 0.5797   Testloss: 1.6664  TrainAcc: 85.09   Top1: 61.8000    Top5: 87.1667	lr:0.002263
Ep: 151   EpTime: 38.0173  Trainloss: 0.5927   Testloss: 1.6592  TrainAcc: 84.72   Top1: 62.0833    Top5: 87.3500	lr:0.002218
Ep: 152   EpTime: 37.9998  Trainloss: 0.6015   Testloss: 1.6640  TrainAcc: 84.78   Top1: 61.7333    Top5: 86.9833	lr:0.002173
Ep: 153   EpTime: 38.1487  Trainloss: 0.5761   Testloss: 1.6577  TrainAcc: 85.01   Top1: 61.3667    Top5: 87.2500	lr:0.002130
Ep: 154   EpTime: 37.9958  Trainloss: 0.5847   Testloss: 1.6461  TrainAcc: 84.84   Top1: 61.4500    Top5: 87.1667	lr:0.002087
Ep: 155   EpTime: 37.9782  Trainloss: 0.5861   Testloss: 1.6414  TrainAcc: 85.19   Top1: 61.5833    Top5: 87.5000	lr:0.002046
Ep: 156   EpTime: 37.9883  Trainloss: 0.5685   Testloss: 1.6464  TrainAcc: 85.08   Top1: 61.5667    Top5: 87.5667	lr:0.002005
Ep: 157   EpTime: 38.0943  Trainloss: 0.5765   Testloss: 1.6544  TrainAcc: 85.19   Top1: 61.4833    Top5: 87.3500	lr:0.001965
Ep: 158   EpTime: 38.0519  Trainloss: 0.5845   Testloss: 1.6588  TrainAcc: 85.12   Top1: 61.7833    Top5: 86.9500	lr:0.001925
Ep: 159   EpTime: 38.1675  Trainloss: 0.5909   Testloss: 1.6672  TrainAcc: 85.23   Top1: 61.6000    Top5: 87.4667	lr:0.001887
Ep: 160   EpTime: 37.6856  Trainloss: 0.5721   Testloss: 1.6875  TrainAcc: 85.21   Top1: 61.4000    Top5: 87.2667	lr:0.001849
Ep: 161   EpTime: 38.2379  Trainloss: 0.5771   Testloss: 1.6527  TrainAcc: 85.14   Top1: 61.8000    Top5: 87.4000	lr:0.001812
Ep: 162   EpTime: 38.1580  Trainloss: 0.5911   Testloss: 1.6560  TrainAcc: 85.14   Top1: 61.8667    Top5: 87.5833	lr:0.001776
Ep: 163   EpTime: 37.7764  Trainloss: 0.5682   Testloss: 1.6555  TrainAcc: 85.60   Top1: 61.8167    Top5: 87.1667	lr:0.001740
Ep: 164   EpTime: 38.1240  Trainloss: 0.5667   Testloss: 1.6775  TrainAcc: 85.27   Top1: 62.0667    Top5: 87.3167	lr:0.001705
Ep: 165   EpTime: 37.9415  Trainloss: 0.5765   Testloss: 1.6712  TrainAcc: 85.27   Top1: 61.9333    Top5: 87.4000	lr:0.001671
Ep: 166   EpTime: 37.9773  Trainloss: 0.5841   Testloss: 1.6646  TrainAcc: 84.94   Top1: 61.3500    Top5: 87.1000	lr:0.001638
Ep: 167   EpTime: 37.7381  Trainloss: 0.5704   Testloss: 1.6626  TrainAcc: 85.61   Top1: 61.8167    Top5: 87.0000	lr:0.001605
Ep: 168   EpTime: 38.0089  Trainloss: 0.5701   Testloss: 1.6707  TrainAcc: 85.63   Top1: 61.6333    Top5: 87.4000	lr:0.001573
Ep: 169   EpTime: 38.0391  Trainloss: 0.5641   Testloss: 1.6708  TrainAcc: 85.22   Top1: 61.6167    Top5: 87.3000	lr:0.001542
Ep: 170   EpTime: 37.9239  Trainloss: 0.5538   Testloss: 1.6680  TrainAcc: 86.01   Top1: 61.8833    Top5: 87.3000	lr:0.001511
Ep: 171   EpTime: 38.4655  Trainloss: 0.5572   Testloss: 1.6547  TrainAcc: 86.19   Top1: 62.1833    Top5: 87.4000	lr:0.001481
Ep: 172   EpTime: 37.9539  Trainloss: 0.5666   Testloss: 1.6608  TrainAcc: 85.71   Top1: 61.6667    Top5: 87.3167	lr:0.001451
Ep: 173   EpTime: 38.7529  Trainloss: 0.5561   Testloss: 1.6643  TrainAcc: 85.80   Top1: 61.9833    Top5: 87.3667	lr:0.001422
Ep: 174   EpTime: 38.2606  Trainloss: 0.5654   Testloss: 1.6636  TrainAcc: 85.69   Top1: 62.1667    Top5: 87.1500	lr:0.001393
Ep: 175   EpTime: 38.3960  Trainloss: 0.5419   Testloss: 1.6490  TrainAcc: 86.28   Top1: 61.8000    Top5: 87.5000	lr:0.001366
Ep: 176   EpTime: 38.4415  Trainloss: 0.5552   Testloss: 1.6637  TrainAcc: 85.69   Top1: 62.0167    Top5: 87.5500	lr:0.001338
Ep: 177   EpTime: 38.8101  Trainloss: 0.5509   Testloss: 1.6643  TrainAcc: 85.64   Top1: 61.9500    Top5: 87.4500	lr:0.001312
Ep: 178   EpTime: 37.9009  Trainloss: 0.5616   Testloss: 1.6608  TrainAcc: 85.63   Top1: 62.4833    Top5: 87.2500	lr:0.001285
Ep: 179   EpTime: 38.7885  Trainloss: 0.5610   Testloss: 1.6608  TrainAcc: 85.48   Top1: 62.0167    Top5: 87.4333	lr:0.001260
Ep: 180   EpTime: 38.2571  Trainloss: 0.5375   Testloss: 1.6667  TrainAcc: 85.92   Top1: 62.1500    Top5: 87.4167	lr:0.001234
Ep: 181   EpTime: 38.0632  Trainloss: 0.5411   Testloss: 1.6649  TrainAcc: 86.28   Top1: 62.1000    Top5: 87.2167	lr:0.001210
Ep: 182   EpTime: 37.9041  Trainloss: 0.5518   Testloss: 1.6711  TrainAcc: 86.23   Top1: 61.9833    Top5: 87.1667	lr:0.001186
Ep: 183   EpTime: 38.2770  Trainloss: 0.5400   Testloss: 1.6669  TrainAcc: 86.67   Top1: 62.0500    Top5: 87.2500	lr:0.001162
Ep: 184   EpTime: 37.9888  Trainloss: 0.5533   Testloss: 1.6612  TrainAcc: 85.85   Top1: 62.4500    Top5: 87.2000	lr:0.001139
Ep: 185   EpTime: 38.0343  Trainloss: 0.5403   Testloss: 1.6651  TrainAcc: 86.41   Top1: 62.3167    Top5: 87.3000	lr:0.001116
Ep: 186   EpTime: 37.7329  Trainloss: 0.5353   Testloss: 1.6627  TrainAcc: 86.55   Top1: 62.4833    Top5: 87.1500	lr:0.001093
Ep: 187   EpTime: 38.1060  Trainloss: 0.5438   Testloss: 1.6555  TrainAcc: 86.29   Top1: 62.7000    Top5: 87.4500	lr:0.001072
Checkpoint saved!!!
Ep: 188   EpTime: 37.7550  Trainloss: 0.5334   Testloss: 1.6591  TrainAcc: 86.32   Top1: 62.0000    Top5: 87.3000	lr:0.001050
Ep: 189   EpTime: 38.1531  Trainloss: 0.5343   Testloss: 1.6604  TrainAcc: 86.27   Top1: 61.9000    Top5: 87.3333	lr:0.001029
Ep: 190   EpTime: 38.3431  Trainloss: 0.5419   Testloss: 1.6671  TrainAcc: 86.19   Top1: 62.0500    Top5: 87.0333	lr:0.001009
Ep: 191   EpTime: 37.7675  Trainloss: 0.5383   Testloss: 1.6657  TrainAcc: 86.18   Top1: 62.0333    Top5: 87.2500	lr:0.000988
Ep: 192   EpTime: 37.6515  Trainloss: 0.5518   Testloss: 1.6725  TrainAcc: 85.80   Top1: 62.0667    Top5: 87.3833	lr:0.000969
Ep: 193   EpTime: 37.7004  Trainloss: 0.5559   Testloss: 1.6759  TrainAcc: 85.86   Top1: 62.2500    Top5: 86.9833	lr:0.000949
Ep: 194   EpTime: 38.0760  Trainloss: 0.5471   Testloss: 1.6726  TrainAcc: 86.24   Top1: 62.2333    Top5: 87.1500	lr:0.000930
Ep: 195   EpTime: 37.9023  Trainloss: 0.5294   Testloss: 1.6613  TrainAcc: 86.69   Top1: 62.3833    Top5: 87.1833	lr:0.000912
Ep: 196   EpTime: 38.2859  Trainloss: 0.5236   Testloss: 1.6605  TrainAcc: 86.96   Top1: 62.4500    Top5: 87.2167	lr:0.000893
Ep: 197   EpTime: 37.8878  Trainloss: 0.5216   Testloss: 1.6710  TrainAcc: 86.82   Top1: 62.4667    Top5: 87.1667	lr:0.000876
Ep: 198   EpTime: 37.8787  Trainloss: 0.5404   Testloss: 1.6656  TrainAcc: 86.29   Top1: 62.9000    Top5: 87.3000	lr:0.000858
Checkpoint saved!!!
Ep: 199   EpTime: 37.9468  Trainloss: 0.5200   Testloss: 1.6640  TrainAcc: 87.05   Top1: 62.2167    Top5: 87.3333	lr:0.000841
Ep: 200   EpTime: 38.2417  Trainloss: 0.5308   Testloss: 1.6776  TrainAcc: 86.53   Top1: 62.1833    Top5: 87.1000	lr:0.000824
