[32, 16, 24, 32, 64, 96, 160, 320]
MobileNet2(
  (activation): ReLU6(inplace)
  (conv1): Conv2d(3, 32, kernel_size=(3, 3), stride=(2, 2), padding=(1, 1), bias=False)
  (bn1): BatchNorm2d(32, eps=1e-05, momentum=0.1, affine=True, track_running_stats=True)
  (bottlenecks): Sequential(
    (Bottlenecks_0): Sequential(
      (LinearBottleneck0_0): LinearBottleneck(
        (conv1): Conv2d(32, 32, kernel_size=(1, 1), stride=(1, 1), bias=False)
        (bn1): BatchNorm2d(32, eps=1e-05, momentum=0.1, affine=True, track_running_stats=True)
        (conv2): Conv2d(32, 32, kernel_size=(3, 3), stride=(1, 1), padding=(1, 1), groups=32, bias=False)
        (bn2): BatchNorm2d(32, eps=1e-05, momentum=0.1, affine=True, track_running_stats=True)
        (conv3): Conv2d(32, 16, kernel_size=(1, 1), stride=(1, 1), bias=False)
        (bn3): BatchNorm2d(16, eps=1e-05, momentum=0.1, affine=True, track_running_stats=True)
        (activation): ReLU6(inplace)
      )
    )
    (Bottlenecks_1): Sequential(
      (LinearBottleneck1_0): LinearBottleneck(
        (conv1): Conv2d(16, 96, kernel_size=(1, 1), stride=(1, 1), bias=False)
        (bn1): BatchNorm2d(96, eps=1e-05, momentum=0.1, affine=True, track_running_stats=True)
        (conv2): Conv2d(96, 96, kernel_size=(3, 3), stride=(2, 2), padding=(1, 1), groups=96, bias=False)
        (bn2): BatchNorm2d(96, eps=1e-05, momentum=0.1, affine=True, track_running_stats=True)
        (conv3): Conv2d(96, 24, kernel_size=(1, 1), stride=(1, 1), bias=False)
        (bn3): BatchNorm2d(24, eps=1e-05, momentum=0.1, affine=True, track_running_stats=True)
        (activation): ReLU6(inplace)
      )
      (LinearBottleneck1_1): LinearBottleneck(
        (conv1): Conv2d(24, 144, kernel_size=(1, 1), stride=(1, 1), bias=False)
        (bn1): BatchNorm2d(144, eps=1e-05, momentum=0.1, affine=True, track_running_stats=True)
        (conv2): Conv2d(144, 144, kernel_size=(3, 3), stride=(1, 1), padding=(1, 1), groups=144, bias=False)
        (bn2): BatchNorm2d(144, eps=1e-05, momentum=0.1, affine=True, track_running_stats=True)
        (conv3): Conv2d(144, 24, kernel_size=(1, 1), stride=(1, 1), bias=False)
        (bn3): BatchNorm2d(24, eps=1e-05, momentum=0.1, affine=True, track_running_stats=True)
        (activation): ReLU6(inplace)
      )
    )
    (Bottlenecks_2): Sequential(
      (LinearBottleneck2_0): LinearBottleneck(
        (conv1): Conv2d(24, 144, kernel_size=(1, 1), stride=(1, 1), bias=False)
        (bn1): BatchNorm2d(144, eps=1e-05, momentum=0.1, affine=True, track_running_stats=True)
        (conv2): Conv2d(144, 144, kernel_size=(3, 3), stride=(2, 2), padding=(1, 1), groups=144, bias=False)
        (bn2): BatchNorm2d(144, eps=1e-05, momentum=0.1, affine=True, track_running_stats=True)
        (conv3): Conv2d(144, 32, kernel_size=(1, 1), stride=(1, 1), bias=False)
        (bn3): BatchNorm2d(32, eps=1e-05, momentum=0.1, affine=True, track_running_stats=True)
        (activation): ReLU6(inplace)
      )
      (LinearBottleneck2_1): LinearBottleneck(
        (conv1): Conv2d(32, 192, kernel_size=(1, 1), stride=(1, 1), bias=False)
        (bn1): BatchNorm2d(192, eps=1e-05, momentum=0.1, affine=True, track_running_stats=True)
        (conv2): Conv2d(192, 192, kernel_size=(3, 3), stride=(1, 1), padding=(1, 1), groups=192, bias=False)
        (bn2): BatchNorm2d(192, eps=1e-05, momentum=0.1, affine=True, track_running_stats=True)
        (conv3): Conv2d(192, 32, kernel_size=(1, 1), stride=(1, 1), bias=False)
        (bn3): BatchNorm2d(32, eps=1e-05, momentum=0.1, affine=True, track_running_stats=True)
        (activation): ReLU6(inplace)
      )
      (LinearBottleneck2_2): LinearBottleneck(
        (conv1): Conv2d(32, 192, kernel_size=(1, 1), stride=(1, 1), bias=False)
        (bn1): BatchNorm2d(192, eps=1e-05, momentum=0.1, affine=True, track_running_stats=True)
        (conv2): Conv2d(192, 192, kernel_size=(3, 3), stride=(1, 1), padding=(1, 1), groups=192, bias=False)
        (bn2): BatchNorm2d(192, eps=1e-05, momentum=0.1, affine=True, track_running_stats=True)
        (conv3): Conv2d(192, 32, kernel_size=(1, 1), stride=(1, 1), bias=False)
        (bn3): BatchNorm2d(32, eps=1e-05, momentum=0.1, affine=True, track_running_stats=True)
        (activation): ReLU6(inplace)
      )
    )
    (Bottlenecks_3): Sequential(
      (LinearBottleneck3_0): LinearBottleneck(
        (conv1): Conv2d(32, 192, kernel_size=(1, 1), stride=(1, 1), bias=False)
        (bn1): BatchNorm2d(192, eps=1e-05, momentum=0.1, affine=True, track_running_stats=True)
        (conv2): Conv2d(192, 192, kernel_size=(3, 3), stride=(2, 2), padding=(1, 1), groups=192, bias=False)
        (bn2): BatchNorm2d(192, eps=1e-05, momentum=0.1, affine=True, track_running_stats=True)
        (conv3): Conv2d(192, 64, kernel_size=(1, 1), stride=(1, 1), bias=False)
        (bn3): BatchNorm2d(64, eps=1e-05, momentum=0.1, affine=True, track_running_stats=True)
        (activation): ReLU6(inplace)
      )
      (LinearBottleneck3AlphaBlock_1): AlphaBlock(
        (arm_1): SplitArm(
          (conv_dws): Conv2d(4, 4, kernel_size=(1, 1), stride=(1, 1), groups=4)
          (bn_dws): BatchNorm2d(4, eps=1e-05, momentum=0.9, affine=True, track_running_stats=True)
          (relu_dws): ReLU(inplace)
          (maxpool): MaxPool2d(kernel_size=3, stride=1, padding=1, dilation=1, ceil_mode=False)
          (conv_point): Conv2d(4, 1, kernel_size=(1, 1), stride=(1, 1))
          (bn_point): BatchNorm2d(1, eps=1e-05, momentum=0.9, affine=True, track_running_stats=True)
          (relu_point): ReLU(inplace)
          (softmax): Softmax()
        )
        (arm_2): SplitArm(
          (conv_dws): Conv2d(4, 4, kernel_size=(1, 1), stride=(1, 1), groups=4)
          (bn_dws): BatchNorm2d(4, eps=1e-05, momentum=0.9, affine=True, track_running_stats=True)
          (relu_dws): ReLU(inplace)
          (maxpool): MaxPool2d(kernel_size=3, stride=1, padding=1, dilation=1, ceil_mode=False)
          (conv_point): Conv2d(4, 1, kernel_size=(1, 1), stride=(1, 1))
          (bn_point): BatchNorm2d(1, eps=1e-05, momentum=0.9, affine=True, track_running_stats=True)
          (relu_point): ReLU(inplace)
          (softmax): Softmax()
        )
        (arm_3): SplitArm(
          (conv_dws): Conv2d(4, 4, kernel_size=(1, 1), stride=(1, 1), groups=4)
          (bn_dws): BatchNorm2d(4, eps=1e-05, momentum=0.9, affine=True, track_running_stats=True)
          (relu_dws): ReLU(inplace)
          (maxpool): MaxPool2d(kernel_size=3, stride=1, padding=1, dilation=1, ceil_mode=False)
          (conv_point): Conv2d(4, 1, kernel_size=(1, 1), stride=(1, 1))
          (bn_point): BatchNorm2d(1, eps=1e-05, momentum=0.9, affine=True, track_running_stats=True)
          (relu_point): ReLU(inplace)
          (softmax): Softmax()
        )
        (arm_4): SplitArm(
          (conv_dws): Conv2d(4, 4, kernel_size=(1, 1), stride=(1, 1), groups=4)
          (bn_dws): BatchNorm2d(4, eps=1e-05, momentum=0.9, affine=True, track_running_stats=True)
          (relu_dws): ReLU(inplace)
          (maxpool): MaxPool2d(kernel_size=3, stride=1, padding=1, dilation=1, ceil_mode=False)
          (conv_point): Conv2d(4, 1, kernel_size=(1, 1), stride=(1, 1))
          (bn_point): BatchNorm2d(1, eps=1e-05, momentum=0.9, affine=True, track_running_stats=True)
          (relu_point): ReLU(inplace)
          (softmax): Softmax()
        )
        (arm_5): SplitArm(
          (conv_dws): Conv2d(4, 4, kernel_size=(1, 1), stride=(1, 1), groups=4)
          (bn_dws): BatchNorm2d(4, eps=1e-05, momentum=0.9, affine=True, track_running_stats=True)
          (relu_dws): ReLU(inplace)
          (maxpool): MaxPool2d(kernel_size=3, stride=1, padding=1, dilation=1, ceil_mode=False)
          (conv_point): Conv2d(4, 1, kernel_size=(1, 1), stride=(1, 1))
          (bn_point): BatchNorm2d(1, eps=1e-05, momentum=0.9, affine=True, track_running_stats=True)
          (relu_point): ReLU(inplace)
          (softmax): Softmax()
        )
        (arm_6): SplitArm(
          (conv_dws): Conv2d(4, 4, kernel_size=(1, 1), stride=(1, 1), groups=4)
          (bn_dws): BatchNorm2d(4, eps=1e-05, momentum=0.9, affine=True, track_running_stats=True)
          (relu_dws): ReLU(inplace)
          (maxpool): MaxPool2d(kernel_size=3, stride=1, padding=1, dilation=1, ceil_mode=False)
          (conv_point): Conv2d(4, 1, kernel_size=(1, 1), stride=(1, 1))
          (bn_point): BatchNorm2d(1, eps=1e-05, momentum=0.9, affine=True, track_running_stats=True)
          (relu_point): ReLU(inplace)
          (softmax): Softmax()
        )
        (arm_7): SplitArm(
          (conv_dws): Conv2d(4, 4, kernel_size=(1, 1), stride=(1, 1), groups=4)
          (bn_dws): BatchNorm2d(4, eps=1e-05, momentum=0.9, affine=True, track_running_stats=True)
          (relu_dws): ReLU(inplace)
          (maxpool): MaxPool2d(kernel_size=3, stride=1, padding=1, dilation=1, ceil_mode=False)
          (conv_point): Conv2d(4, 1, kernel_size=(1, 1), stride=(1, 1))
          (bn_point): BatchNorm2d(1, eps=1e-05, momentum=0.9, affine=True, track_running_stats=True)
          (relu_point): ReLU(inplace)
          (softmax): Softmax()
        )
        (arm_8): SplitArm(
          (conv_dws): Conv2d(4, 4, kernel_size=(1, 1), stride=(1, 1), groups=4)
          (bn_dws): BatchNorm2d(4, eps=1e-05, momentum=0.9, affine=True, track_running_stats=True)
          (relu_dws): ReLU(inplace)
          (maxpool): MaxPool2d(kernel_size=3, stride=1, padding=1, dilation=1, ceil_mode=False)
          (conv_point): Conv2d(4, 1, kernel_size=(1, 1), stride=(1, 1))
          (bn_point): BatchNorm2d(1, eps=1e-05, momentum=0.9, affine=True, track_running_stats=True)
          (relu_point): ReLU(inplace)
          (softmax): Softmax()
        )
        (arm_9): SplitArm(
          (conv_dws): Conv2d(4, 4, kernel_size=(1, 1), stride=(1, 1), groups=4)
          (bn_dws): BatchNorm2d(4, eps=1e-05, momentum=0.9, affine=True, track_running_stats=True)
          (relu_dws): ReLU(inplace)
          (maxpool): MaxPool2d(kernel_size=3, stride=1, padding=1, dilation=1, ceil_mode=False)
          (conv_point): Conv2d(4, 1, kernel_size=(1, 1), stride=(1, 1))
          (bn_point): BatchNorm2d(1, eps=1e-05, momentum=0.9, affine=True, track_running_stats=True)
          (relu_point): ReLU(inplace)
          (softmax): Softmax()
        )
        (arm_10): SplitArm(
          (conv_dws): Conv2d(4, 4, kernel_size=(1, 1), stride=(1, 1), groups=4)
          (bn_dws): BatchNorm2d(4, eps=1e-05, momentum=0.9, affine=True, track_running_stats=True)
          (relu_dws): ReLU(inplace)
          (maxpool): MaxPool2d(kernel_size=3, stride=1, padding=1, dilation=1, ceil_mode=False)
          (conv_point): Conv2d(4, 1, kernel_size=(1, 1), stride=(1, 1))
          (bn_point): BatchNorm2d(1, eps=1e-05, momentum=0.9, affine=True, track_running_stats=True)
          (relu_point): ReLU(inplace)
          (softmax): Softmax()
        )
        (arm_11): SplitArm(
          (conv_dws): Conv2d(4, 4, kernel_size=(1, 1), stride=(1, 1), groups=4)
          (bn_dws): BatchNorm2d(4, eps=1e-05, momentum=0.9, affine=True, track_running_stats=True)
          (relu_dws): ReLU(inplace)
          (maxpool): MaxPool2d(kernel_size=3, stride=1, padding=1, dilation=1, ceil_mode=False)
          (conv_point): Conv2d(4, 1, kernel_size=(1, 1), stride=(1, 1))
          (bn_point): BatchNorm2d(1, eps=1e-05, momentum=0.9, affine=True, track_running_stats=True)
          (relu_point): ReLU(inplace)
          (softmax): Softmax()
        )
        (arm_12): SplitArm(
          (conv_dws): Conv2d(4, 4, kernel_size=(1, 1), stride=(1, 1), groups=4)
          (bn_dws): BatchNorm2d(4, eps=1e-05, momentum=0.9, affine=True, track_running_stats=True)
          (relu_dws): ReLU(inplace)
          (maxpool): MaxPool2d(kernel_size=3, stride=1, padding=1, dilation=1, ceil_mode=False)
          (conv_point): Conv2d(4, 1, kernel_size=(1, 1), stride=(1, 1))
          (bn_point): BatchNorm2d(1, eps=1e-05, momentum=0.9, affine=True, track_running_stats=True)
          (relu_point): ReLU(inplace)
          (softmax): Softmax()
        )
        (arm_13): SplitArm(
          (conv_dws): Conv2d(4, 4, kernel_size=(1, 1), stride=(1, 1), groups=4)
          (bn_dws): BatchNorm2d(4, eps=1e-05, momentum=0.9, affine=True, track_running_stats=True)
          (relu_dws): ReLU(inplace)
          (maxpool): MaxPool2d(kernel_size=3, stride=1, padding=1, dilation=1, ceil_mode=False)
          (conv_point): Conv2d(4, 1, kernel_size=(1, 1), stride=(1, 1))
          (bn_point): BatchNorm2d(1, eps=1e-05, momentum=0.9, affine=True, track_running_stats=True)
          (relu_point): ReLU(inplace)
          (softmax): Softmax()
        )
        (arm_14): SplitArm(
          (conv_dws): Conv2d(4, 4, kernel_size=(1, 1), stride=(1, 1), groups=4)
          (bn_dws): BatchNorm2d(4, eps=1e-05, momentum=0.9, affine=True, track_running_stats=True)
          (relu_dws): ReLU(inplace)
          (maxpool): MaxPool2d(kernel_size=3, stride=1, padding=1, dilation=1, ceil_mode=False)
          (conv_point): Conv2d(4, 1, kernel_size=(1, 1), stride=(1, 1))
          (bn_point): BatchNorm2d(1, eps=1e-05, momentum=0.9, affine=True, track_running_stats=True)
          (relu_point): ReLU(inplace)
          (softmax): Softmax()
        )
        (arm_15): SplitArm(
          (conv_dws): Conv2d(4, 4, kernel_size=(1, 1), stride=(1, 1), groups=4)
          (bn_dws): BatchNorm2d(4, eps=1e-05, momentum=0.9, affine=True, track_running_stats=True)
          (relu_dws): ReLU(inplace)
          (maxpool): MaxPool2d(kernel_size=3, stride=1, padding=1, dilation=1, ceil_mode=False)
          (conv_point): Conv2d(4, 1, kernel_size=(1, 1), stride=(1, 1))
          (bn_point): BatchNorm2d(1, eps=1e-05, momentum=0.9, affine=True, track_running_stats=True)
          (relu_point): ReLU(inplace)
          (softmax): Softmax()
        )
        (arm_16): SplitArm(
          (conv_dws): Conv2d(4, 4, kernel_size=(1, 1), stride=(1, 1), groups=4)
          (bn_dws): BatchNorm2d(4, eps=1e-05, momentum=0.9, affine=True, track_running_stats=True)
          (relu_dws): ReLU(inplace)
          (maxpool): MaxPool2d(kernel_size=3, stride=1, padding=1, dilation=1, ceil_mode=False)
          (conv_point): Conv2d(4, 1, kernel_size=(1, 1), stride=(1, 1))
          (bn_point): BatchNorm2d(1, eps=1e-05, momentum=0.9, affine=True, track_running_stats=True)
          (relu_point): ReLU(inplace)
          (softmax): Softmax()
        )
      )
      (LinearBottleneck3AlphaBlock_2): AlphaBlock(
        (arm_1): SplitArm(
          (conv_dws): Conv2d(4, 4, kernel_size=(1, 1), stride=(1, 1), groups=4)
          (bn_dws): BatchNorm2d(4, eps=1e-05, momentum=0.9, affine=True, track_running_stats=True)
          (relu_dws): ReLU(inplace)
          (maxpool): MaxPool2d(kernel_size=3, stride=1, padding=1, dilation=1, ceil_mode=False)
          (conv_point): Conv2d(4, 1, kernel_size=(1, 1), stride=(1, 1))
          (bn_point): BatchNorm2d(1, eps=1e-05, momentum=0.9, affine=True, track_running_stats=True)
          (relu_point): ReLU(inplace)
          (softmax): Softmax()
        )
        (arm_2): SplitArm(
          (conv_dws): Conv2d(4, 4, kernel_size=(1, 1), stride=(1, 1), groups=4)
          (bn_dws): BatchNorm2d(4, eps=1e-05, momentum=0.9, affine=True, track_running_stats=True)
          (relu_dws): ReLU(inplace)
          (maxpool): MaxPool2d(kernel_size=3, stride=1, padding=1, dilation=1, ceil_mode=False)
          (conv_point): Conv2d(4, 1, kernel_size=(1, 1), stride=(1, 1))
          (bn_point): BatchNorm2d(1, eps=1e-05, momentum=0.9, affine=True, track_running_stats=True)
          (relu_point): ReLU(inplace)
          (softmax): Softmax()
        )
        (arm_3): SplitArm(
          (conv_dws): Conv2d(4, 4, kernel_size=(1, 1), stride=(1, 1), groups=4)
          (bn_dws): BatchNorm2d(4, eps=1e-05, momentum=0.9, affine=True, track_running_stats=True)
          (relu_dws): ReLU(inplace)
          (maxpool): MaxPool2d(kernel_size=3, stride=1, padding=1, dilation=1, ceil_mode=False)
          (conv_point): Conv2d(4, 1, kernel_size=(1, 1), stride=(1, 1))
          (bn_point): BatchNorm2d(1, eps=1e-05, momentum=0.9, affine=True, track_running_stats=True)
          (relu_point): ReLU(inplace)
          (softmax): Softmax()
        )
        (arm_4): SplitArm(
          (conv_dws): Conv2d(4, 4, kernel_size=(1, 1), stride=(1, 1), groups=4)
          (bn_dws): BatchNorm2d(4, eps=1e-05, momentum=0.9, affine=True, track_running_stats=True)
          (relu_dws): ReLU(inplace)
          (maxpool): MaxPool2d(kernel_size=3, stride=1, padding=1, dilation=1, ceil_mode=False)
          (conv_point): Conv2d(4, 1, kernel_size=(1, 1), stride=(1, 1))
          (bn_point): BatchNorm2d(1, eps=1e-05, momentum=0.9, affine=True, track_running_stats=True)
          (relu_point): ReLU(inplace)
          (softmax): Softmax()
        )
        (arm_5): SplitArm(
          (conv_dws): Conv2d(4, 4, kernel_size=(1, 1), stride=(1, 1), groups=4)
          (bn_dws): BatchNorm2d(4, eps=1e-05, momentum=0.9, affine=True, track_running_stats=True)
          (relu_dws): ReLU(inplace)
          (maxpool): MaxPool2d(kernel_size=3, stride=1, padding=1, dilation=1, ceil_mode=False)
          (conv_point): Conv2d(4, 1, kernel_size=(1, 1), stride=(1, 1))
          (bn_point): BatchNorm2d(1, eps=1e-05, momentum=0.9, affine=True, track_running_stats=True)
          (relu_point): ReLU(inplace)
          (softmax): Softmax()
        )
        (arm_6): SplitArm(
          (conv_dws): Conv2d(4, 4, kernel_size=(1, 1), stride=(1, 1), groups=4)
          (bn_dws): BatchNorm2d(4, eps=1e-05, momentum=0.9, affine=True, track_running_stats=True)
          (relu_dws): ReLU(inplace)
          (maxpool): MaxPool2d(kernel_size=3, stride=1, padding=1, dilation=1, ceil_mode=False)
          (conv_point): Conv2d(4, 1, kernel_size=(1, 1), stride=(1, 1))
          (bn_point): BatchNorm2d(1, eps=1e-05, momentum=0.9, affine=True, track_running_stats=True)
          (relu_point): ReLU(inplace)
          (softmax): Softmax()
        )
        (arm_7): SplitArm(
          (conv_dws): Conv2d(4, 4, kernel_size=(1, 1), stride=(1, 1), groups=4)
          (bn_dws): BatchNorm2d(4, eps=1e-05, momentum=0.9, affine=True, track_running_stats=True)
          (relu_dws): ReLU(inplace)
          (maxpool): MaxPool2d(kernel_size=3, stride=1, padding=1, dilation=1, ceil_mode=False)
          (conv_point): Conv2d(4, 1, kernel_size=(1, 1), stride=(1, 1))
          (bn_point): BatchNorm2d(1, eps=1e-05, momentum=0.9, affine=True, track_running_stats=True)
          (relu_point): ReLU(inplace)
          (softmax): Softmax()
        )
        (arm_8): SplitArm(
          (conv_dws): Conv2d(4, 4, kernel_size=(1, 1), stride=(1, 1), groups=4)
          (bn_dws): BatchNorm2d(4, eps=1e-05, momentum=0.9, affine=True, track_running_stats=True)
          (relu_dws): ReLU(inplace)
          (maxpool): MaxPool2d(kernel_size=3, stride=1, padding=1, dilation=1, ceil_mode=False)
          (conv_point): Conv2d(4, 1, kernel_size=(1, 1), stride=(1, 1))
          (bn_point): BatchNorm2d(1, eps=1e-05, momentum=0.9, affine=True, track_running_stats=True)
          (relu_point): ReLU(inplace)
          (softmax): Softmax()
        )
        (arm_9): SplitArm(
          (conv_dws): Conv2d(4, 4, kernel_size=(1, 1), stride=(1, 1), groups=4)
          (bn_dws): BatchNorm2d(4, eps=1e-05, momentum=0.9, affine=True, track_running_stats=True)
          (relu_dws): ReLU(inplace)
          (maxpool): MaxPool2d(kernel_size=3, stride=1, padding=1, dilation=1, ceil_mode=False)
          (conv_point): Conv2d(4, 1, kernel_size=(1, 1), stride=(1, 1))
          (bn_point): BatchNorm2d(1, eps=1e-05, momentum=0.9, affine=True, track_running_stats=True)
          (relu_point): ReLU(inplace)
          (softmax): Softmax()
        )
        (arm_10): SplitArm(
          (conv_dws): Conv2d(4, 4, kernel_size=(1, 1), stride=(1, 1), groups=4)
          (bn_dws): BatchNorm2d(4, eps=1e-05, momentum=0.9, affine=True, track_running_stats=True)
          (relu_dws): ReLU(inplace)
          (maxpool): MaxPool2d(kernel_size=3, stride=1, padding=1, dilation=1, ceil_mode=False)
          (conv_point): Conv2d(4, 1, kernel_size=(1, 1), stride=(1, 1))
          (bn_point): BatchNorm2d(1, eps=1e-05, momentum=0.9, affine=True, track_running_stats=True)
          (relu_point): ReLU(inplace)
          (softmax): Softmax()
        )
        (arm_11): SplitArm(
          (conv_dws): Conv2d(4, 4, kernel_size=(1, 1), stride=(1, 1), groups=4)
          (bn_dws): BatchNorm2d(4, eps=1e-05, momentum=0.9, affine=True, track_running_stats=True)
          (relu_dws): ReLU(inplace)
          (maxpool): MaxPool2d(kernel_size=3, stride=1, padding=1, dilation=1, ceil_mode=False)
          (conv_point): Conv2d(4, 1, kernel_size=(1, 1), stride=(1, 1))
          (bn_point): BatchNorm2d(1, eps=1e-05, momentum=0.9, affine=True, track_running_stats=True)
          (relu_point): ReLU(inplace)
          (softmax): Softmax()
        )
        (arm_12): SplitArm(
          (conv_dws): Conv2d(4, 4, kernel_size=(1, 1), stride=(1, 1), groups=4)
          (bn_dws): BatchNorm2d(4, eps=1e-05, momentum=0.9, affine=True, track_running_stats=True)
          (relu_dws): ReLU(inplace)
          (maxpool): MaxPool2d(kernel_size=3, stride=1, padding=1, dilation=1, ceil_mode=False)
          (conv_point): Conv2d(4, 1, kernel_size=(1, 1), stride=(1, 1))
          (bn_point): BatchNorm2d(1, eps=1e-05, momentum=0.9, affine=True, track_running_stats=True)
          (relu_point): ReLU(inplace)
          (softmax): Softmax()
        )
        (arm_13): SplitArm(
          (conv_dws): Conv2d(4, 4, kernel_size=(1, 1), stride=(1, 1), groups=4)
          (bn_dws): BatchNorm2d(4, eps=1e-05, momentum=0.9, affine=True, track_running_stats=True)
          (relu_dws): ReLU(inplace)
          (maxpool): MaxPool2d(kernel_size=3, stride=1, padding=1, dilation=1, ceil_mode=False)
          (conv_point): Conv2d(4, 1, kernel_size=(1, 1), stride=(1, 1))
          (bn_point): BatchNorm2d(1, eps=1e-05, momentum=0.9, affine=True, track_running_stats=True)
          (relu_point): ReLU(inplace)
          (softmax): Softmax()
        )
        (arm_14): SplitArm(
          (conv_dws): Conv2d(4, 4, kernel_size=(1, 1), stride=(1, 1), groups=4)
          (bn_dws): BatchNorm2d(4, eps=1e-05, momentum=0.9, affine=True, track_running_stats=True)
          (relu_dws): ReLU(inplace)
          (maxpool): MaxPool2d(kernel_size=3, stride=1, padding=1, dilation=1, ceil_mode=False)
          (conv_point): Conv2d(4, 1, kernel_size=(1, 1), stride=(1, 1))
          (bn_point): BatchNorm2d(1, eps=1e-05, momentum=0.9, affine=True, track_running_stats=True)
          (relu_point): ReLU(inplace)
          (softmax): Softmax()
        )
        (arm_15): SplitArm(
          (conv_dws): Conv2d(4, 4, kernel_size=(1, 1), stride=(1, 1), groups=4)
          (bn_dws): BatchNorm2d(4, eps=1e-05, momentum=0.9, affine=True, track_running_stats=True)
          (relu_dws): ReLU(inplace)
          (maxpool): MaxPool2d(kernel_size=3, stride=1, padding=1, dilation=1, ceil_mode=False)
          (conv_point): Conv2d(4, 1, kernel_size=(1, 1), stride=(1, 1))
          (bn_point): BatchNorm2d(1, eps=1e-05, momentum=0.9, affine=True, track_running_stats=True)
          (relu_point): ReLU(inplace)
          (softmax): Softmax()
        )
        (arm_16): SplitArm(
          (conv_dws): Conv2d(4, 4, kernel_size=(1, 1), stride=(1, 1), groups=4)
          (bn_dws): BatchNorm2d(4, eps=1e-05, momentum=0.9, affine=True, track_running_stats=True)
          (relu_dws): ReLU(inplace)
          (maxpool): MaxPool2d(kernel_size=3, stride=1, padding=1, dilation=1, ceil_mode=False)
          (conv_point): Conv2d(4, 1, kernel_size=(1, 1), stride=(1, 1))
          (bn_point): BatchNorm2d(1, eps=1e-05, momentum=0.9, affine=True, track_running_stats=True)
          (relu_point): ReLU(inplace)
          (softmax): Softmax()
        )
      )
      (LinearBottleneck3AlphaBlock_3): AlphaBlock(
        (arm_1): SplitArm(
          (conv_dws): Conv2d(4, 4, kernel_size=(1, 1), stride=(1, 1), groups=4)
          (bn_dws): BatchNorm2d(4, eps=1e-05, momentum=0.9, affine=True, track_running_stats=True)
          (relu_dws): ReLU(inplace)
          (maxpool): MaxPool2d(kernel_size=3, stride=1, padding=1, dilation=1, ceil_mode=False)
          (conv_point): Conv2d(4, 1, kernel_size=(1, 1), stride=(1, 1))
          (bn_point): BatchNorm2d(1, eps=1e-05, momentum=0.9, affine=True, track_running_stats=True)
          (relu_point): ReLU(inplace)
          (softmax): Softmax()
        )
        (arm_2): SplitArm(
          (conv_dws): Conv2d(4, 4, kernel_size=(1, 1), stride=(1, 1), groups=4)
          (bn_dws): BatchNorm2d(4, eps=1e-05, momentum=0.9, affine=True, track_running_stats=True)
          (relu_dws): ReLU(inplace)
          (maxpool): MaxPool2d(kernel_size=3, stride=1, padding=1, dilation=1, ceil_mode=False)
          (conv_point): Conv2d(4, 1, kernel_size=(1, 1), stride=(1, 1))
          (bn_point): BatchNorm2d(1, eps=1e-05, momentum=0.9, affine=True, track_running_stats=True)
          (relu_point): ReLU(inplace)
          (softmax): Softmax()
        )
        (arm_3): SplitArm(
          (conv_dws): Conv2d(4, 4, kernel_size=(1, 1), stride=(1, 1), groups=4)
          (bn_dws): BatchNorm2d(4, eps=1e-05, momentum=0.9, affine=True, track_running_stats=True)
          (relu_dws): ReLU(inplace)
          (maxpool): MaxPool2d(kernel_size=3, stride=1, padding=1, dilation=1, ceil_mode=False)
          (conv_point): Conv2d(4, 1, kernel_size=(1, 1), stride=(1, 1))
          (bn_point): BatchNorm2d(1, eps=1e-05, momentum=0.9, affine=True, track_running_stats=True)
          (relu_point): ReLU(inplace)
          (softmax): Softmax()
        )
        (arm_4): SplitArm(
          (conv_dws): Conv2d(4, 4, kernel_size=(1, 1), stride=(1, 1), groups=4)
          (bn_dws): BatchNorm2d(4, eps=1e-05, momentum=0.9, affine=True, track_running_stats=True)
          (relu_dws): ReLU(inplace)
          (maxpool): MaxPool2d(kernel_size=3, stride=1, padding=1, dilation=1, ceil_mode=False)
          (conv_point): Conv2d(4, 1, kernel_size=(1, 1), stride=(1, 1))
          (bn_point): BatchNorm2d(1, eps=1e-05, momentum=0.9, affine=True, track_running_stats=True)
          (relu_point): ReLU(inplace)
          (softmax): Softmax()
        )
        (arm_5): SplitArm(
          (conv_dws): Conv2d(4, 4, kernel_size=(1, 1), stride=(1, 1), groups=4)
          (bn_dws): BatchNorm2d(4, eps=1e-05, momentum=0.9, affine=True, track_running_stats=True)
          (relu_dws): ReLU(inplace)
          (maxpool): MaxPool2d(kernel_size=3, stride=1, padding=1, dilation=1, ceil_mode=False)
          (conv_point): Conv2d(4, 1, kernel_size=(1, 1), stride=(1, 1))
          (bn_point): BatchNorm2d(1, eps=1e-05, momentum=0.9, affine=True, track_running_stats=True)
          (relu_point): ReLU(inplace)
          (softmax): Softmax()
        )
        (arm_6): SplitArm(
          (conv_dws): Conv2d(4, 4, kernel_size=(1, 1), stride=(1, 1), groups=4)
          (bn_dws): BatchNorm2d(4, eps=1e-05, momentum=0.9, affine=True, track_running_stats=True)
          (relu_dws): ReLU(inplace)
          (maxpool): MaxPool2d(kernel_size=3, stride=1, padding=1, dilation=1, ceil_mode=False)
          (conv_point): Conv2d(4, 1, kernel_size=(1, 1), stride=(1, 1))
          (bn_point): BatchNorm2d(1, eps=1e-05, momentum=0.9, affine=True, track_running_stats=True)
          (relu_point): ReLU(inplace)
          (softmax): Softmax()
        )
        (arm_7): SplitArm(
          (conv_dws): Conv2d(4, 4, kernel_size=(1, 1), stride=(1, 1), groups=4)
          (bn_dws): BatchNorm2d(4, eps=1e-05, momentum=0.9, affine=True, track_running_stats=True)
          (relu_dws): ReLU(inplace)
          (maxpool): MaxPool2d(kernel_size=3, stride=1, padding=1, dilation=1, ceil_mode=False)
          (conv_point): Conv2d(4, 1, kernel_size=(1, 1), stride=(1, 1))
          (bn_point): BatchNorm2d(1, eps=1e-05, momentum=0.9, affine=True, track_running_stats=True)
          (relu_point): ReLU(inplace)
          (softmax): Softmax()
        )
        (arm_8): SplitArm(
          (conv_dws): Conv2d(4, 4, kernel_size=(1, 1), stride=(1, 1), groups=4)
          (bn_dws): BatchNorm2d(4, eps=1e-05, momentum=0.9, affine=True, track_running_stats=True)
          (relu_dws): ReLU(inplace)
          (maxpool): MaxPool2d(kernel_size=3, stride=1, padding=1, dilation=1, ceil_mode=False)
          (conv_point): Conv2d(4, 1, kernel_size=(1, 1), stride=(1, 1))
          (bn_point): BatchNorm2d(1, eps=1e-05, momentum=0.9, affine=True, track_running_stats=True)
          (relu_point): ReLU(inplace)
          (softmax): Softmax()
        )
        (arm_9): SplitArm(
          (conv_dws): Conv2d(4, 4, kernel_size=(1, 1), stride=(1, 1), groups=4)
          (bn_dws): BatchNorm2d(4, eps=1e-05, momentum=0.9, affine=True, track_running_stats=True)
          (relu_dws): ReLU(inplace)
          (maxpool): MaxPool2d(kernel_size=3, stride=1, padding=1, dilation=1, ceil_mode=False)
          (conv_point): Conv2d(4, 1, kernel_size=(1, 1), stride=(1, 1))
          (bn_point): BatchNorm2d(1, eps=1e-05, momentum=0.9, affine=True, track_running_stats=True)
          (relu_point): ReLU(inplace)
          (softmax): Softmax()
        )
        (arm_10): SplitArm(
          (conv_dws): Conv2d(4, 4, kernel_size=(1, 1), stride=(1, 1), groups=4)
          (bn_dws): BatchNorm2d(4, eps=1e-05, momentum=0.9, affine=True, track_running_stats=True)
          (relu_dws): ReLU(inplace)
          (maxpool): MaxPool2d(kernel_size=3, stride=1, padding=1, dilation=1, ceil_mode=False)
          (conv_point): Conv2d(4, 1, kernel_size=(1, 1), stride=(1, 1))
          (bn_point): BatchNorm2d(1, eps=1e-05, momentum=0.9, affine=True, track_running_stats=True)
          (relu_point): ReLU(inplace)
          (softmax): Softmax()
        )
        (arm_11): SplitArm(
          (conv_dws): Conv2d(4, 4, kernel_size=(1, 1), stride=(1, 1), groups=4)
          (bn_dws): BatchNorm2d(4, eps=1e-05, momentum=0.9, affine=True, track_running_stats=True)
          (relu_dws): ReLU(inplace)
          (maxpool): MaxPool2d(kernel_size=3, stride=1, padding=1, dilation=1, ceil_mode=False)
          (conv_point): Conv2d(4, 1, kernel_size=(1, 1), stride=(1, 1))
          (bn_point): BatchNorm2d(1, eps=1e-05, momentum=0.9, affine=True, track_running_stats=True)
          (relu_point): ReLU(inplace)
          (softmax): Softmax()
        )
        (arm_12): SplitArm(
          (conv_dws): Conv2d(4, 4, kernel_size=(1, 1), stride=(1, 1), groups=4)
          (bn_dws): BatchNorm2d(4, eps=1e-05, momentum=0.9, affine=True, track_running_stats=True)
          (relu_dws): ReLU(inplace)
          (maxpool): MaxPool2d(kernel_size=3, stride=1, padding=1, dilation=1, ceil_mode=False)
          (conv_point): Conv2d(4, 1, kernel_size=(1, 1), stride=(1, 1))
          (bn_point): BatchNorm2d(1, eps=1e-05, momentum=0.9, affine=True, track_running_stats=True)
          (relu_point): ReLU(inplace)
          (softmax): Softmax()
        )
        (arm_13): SplitArm(
          (conv_dws): Conv2d(4, 4, kernel_size=(1, 1), stride=(1, 1), groups=4)
          (bn_dws): BatchNorm2d(4, eps=1e-05, momentum=0.9, affine=True, track_running_stats=True)
          (relu_dws): ReLU(inplace)
          (maxpool): MaxPool2d(kernel_size=3, stride=1, padding=1, dilation=1, ceil_mode=False)
          (conv_point): Conv2d(4, 1, kernel_size=(1, 1), stride=(1, 1))
          (bn_point): BatchNorm2d(1, eps=1e-05, momentum=0.9, affine=True, track_running_stats=True)
          (relu_point): ReLU(inplace)
          (softmax): Softmax()
        )
        (arm_14): SplitArm(
          (conv_dws): Conv2d(4, 4, kernel_size=(1, 1), stride=(1, 1), groups=4)
          (bn_dws): BatchNorm2d(4, eps=1e-05, momentum=0.9, affine=True, track_running_stats=True)
          (relu_dws): ReLU(inplace)
          (maxpool): MaxPool2d(kernel_size=3, stride=1, padding=1, dilation=1, ceil_mode=False)
          (conv_point): Conv2d(4, 1, kernel_size=(1, 1), stride=(1, 1))
          (bn_point): BatchNorm2d(1, eps=1e-05, momentum=0.9, affine=True, track_running_stats=True)
          (relu_point): ReLU(inplace)
          (softmax): Softmax()
        )
        (arm_15): SplitArm(
          (conv_dws): Conv2d(4, 4, kernel_size=(1, 1), stride=(1, 1), groups=4)
          (bn_dws): BatchNorm2d(4, eps=1e-05, momentum=0.9, affine=True, track_running_stats=True)
          (relu_dws): ReLU(inplace)
          (maxpool): MaxPool2d(kernel_size=3, stride=1, padding=1, dilation=1, ceil_mode=False)
          (conv_point): Conv2d(4, 1, kernel_size=(1, 1), stride=(1, 1))
          (bn_point): BatchNorm2d(1, eps=1e-05, momentum=0.9, affine=True, track_running_stats=True)
          (relu_point): ReLU(inplace)
          (softmax): Softmax()
        )
        (arm_16): SplitArm(
          (conv_dws): Conv2d(4, 4, kernel_size=(1, 1), stride=(1, 1), groups=4)
          (bn_dws): BatchNorm2d(4, eps=1e-05, momentum=0.9, affine=True, track_running_stats=True)
          (relu_dws): ReLU(inplace)
          (maxpool): MaxPool2d(kernel_size=3, stride=1, padding=1, dilation=1, ceil_mode=False)
          (conv_point): Conv2d(4, 1, kernel_size=(1, 1), stride=(1, 1))
          (bn_point): BatchNorm2d(1, eps=1e-05, momentum=0.9, affine=True, track_running_stats=True)
          (relu_point): ReLU(inplace)
          (softmax): Softmax()
        )
      )
    )
    (Bottlenecks_4): Sequential(
      (LinearBottleneck4_0): LinearBottleneck(
        (conv1): Conv2d(64, 384, kernel_size=(1, 1), stride=(1, 1), bias=False)
        (bn1): BatchNorm2d(384, eps=1e-05, momentum=0.1, affine=True, track_running_stats=True)
        (conv2): Conv2d(384, 384, kernel_size=(3, 3), stride=(1, 1), padding=(1, 1), groups=384, bias=False)
        (bn2): BatchNorm2d(384, eps=1e-05, momentum=0.1, affine=True, track_running_stats=True)
        (conv3): Conv2d(384, 96, kernel_size=(1, 1), stride=(1, 1), bias=False)
        (bn3): BatchNorm2d(96, eps=1e-05, momentum=0.1, affine=True, track_running_stats=True)
        (activation): ReLU6(inplace)
      )
      (LinearBottleneck4_1): LinearBottleneck(
        (conv1): Conv2d(96, 576, kernel_size=(1, 1), stride=(1, 1), bias=False)
        (bn1): BatchNorm2d(576, eps=1e-05, momentum=0.1, affine=True, track_running_stats=True)
        (conv2): Conv2d(576, 576, kernel_size=(3, 3), stride=(1, 1), padding=(1, 1), groups=576, bias=False)
        (bn2): BatchNorm2d(576, eps=1e-05, momentum=0.1, affine=True, track_running_stats=True)
        (conv3): Conv2d(576, 96, kernel_size=(1, 1), stride=(1, 1), bias=False)
        (bn3): BatchNorm2d(96, eps=1e-05, momentum=0.1, affine=True, track_running_stats=True)
        (activation): ReLU6(inplace)
      )
      (LinearBottleneck4_2): LinearBottleneck(
        (conv1): Conv2d(96, 576, kernel_size=(1, 1), stride=(1, 1), bias=False)
        (bn1): BatchNorm2d(576, eps=1e-05, momentum=0.1, affine=True, track_running_stats=True)
        (conv2): Conv2d(576, 576, kernel_size=(3, 3), stride=(1, 1), padding=(1, 1), groups=576, bias=False)
        (bn2): BatchNorm2d(576, eps=1e-05, momentum=0.1, affine=True, track_running_stats=True)
        (conv3): Conv2d(576, 96, kernel_size=(1, 1), stride=(1, 1), bias=False)
        (bn3): BatchNorm2d(96, eps=1e-05, momentum=0.1, affine=True, track_running_stats=True)
        (activation): ReLU6(inplace)
      )
    )
    (Bottlenecks_5): Sequential(
      (LinearBottleneck5_0): LinearBottleneck(
        (conv1): Conv2d(96, 576, kernel_size=(1, 1), stride=(1, 1), bias=False)
        (bn1): BatchNorm2d(576, eps=1e-05, momentum=0.1, affine=True, track_running_stats=True)
        (conv2): Conv2d(576, 576, kernel_size=(3, 3), stride=(2, 2), padding=(1, 1), groups=576, bias=False)
        (bn2): BatchNorm2d(576, eps=1e-05, momentum=0.1, affine=True, track_running_stats=True)
        (conv3): Conv2d(576, 160, kernel_size=(1, 1), stride=(1, 1), bias=False)
        (bn3): BatchNorm2d(160, eps=1e-05, momentum=0.1, affine=True, track_running_stats=True)
        (activation): ReLU6(inplace)
      )
      (LinearBottleneck5_1): LinearBottleneck(
        (conv1): Conv2d(160, 960, kernel_size=(1, 1), stride=(1, 1), bias=False)
        (bn1): BatchNorm2d(960, eps=1e-05, momentum=0.1, affine=True, track_running_stats=True)
        (conv2): Conv2d(960, 960, kernel_size=(3, 3), stride=(1, 1), padding=(1, 1), groups=960, bias=False)
        (bn2): BatchNorm2d(960, eps=1e-05, momentum=0.1, affine=True, track_running_stats=True)
        (conv3): Conv2d(960, 160, kernel_size=(1, 1), stride=(1, 1), bias=False)
        (bn3): BatchNorm2d(160, eps=1e-05, momentum=0.1, affine=True, track_running_stats=True)
        (activation): ReLU6(inplace)
      )
      (LinearBottleneck5_2): LinearBottleneck(
        (conv1): Conv2d(160, 960, kernel_size=(1, 1), stride=(1, 1), bias=False)
        (bn1): BatchNorm2d(960, eps=1e-05, momentum=0.1, affine=True, track_running_stats=True)
        (conv2): Conv2d(960, 960, kernel_size=(3, 3), stride=(1, 1), padding=(1, 1), groups=960, bias=False)
        (bn2): BatchNorm2d(960, eps=1e-05, momentum=0.1, affine=True, track_running_stats=True)
        (conv3): Conv2d(960, 160, kernel_size=(1, 1), stride=(1, 1), bias=False)
        (bn3): BatchNorm2d(160, eps=1e-05, momentum=0.1, affine=True, track_running_stats=True)
        (activation): ReLU6(inplace)
      )
    )
    (Bottlenecks_6): Sequential(
      (LinearBottleneck6_0): LinearBottleneck(
        (conv1): Conv2d(160, 960, kernel_size=(1, 1), stride=(1, 1), bias=False)
        (bn1): BatchNorm2d(960, eps=1e-05, momentum=0.1, affine=True, track_running_stats=True)
        (conv2): Conv2d(960, 960, kernel_size=(3, 3), stride=(1, 1), padding=(1, 1), groups=960, bias=False)
        (bn2): BatchNorm2d(960, eps=1e-05, momentum=0.1, affine=True, track_running_stats=True)
        (conv3): Conv2d(960, 320, kernel_size=(1, 1), stride=(1, 1), bias=False)
        (bn3): BatchNorm2d(320, eps=1e-05, momentum=0.1, affine=True, track_running_stats=True)
        (activation): ReLU6(inplace)
      )
    )
  )
  (conv_last): Conv2d(320, 1280, kernel_size=(1, 1), stride=(1, 1), bias=False)
  (bn_last): BatchNorm2d(1280, eps=1e-05, momentum=0.1, affine=True, track_running_stats=True)
  (avgpool): AdaptiveAvgPool2d(output_size=1)
  (dropout): Dropout(p=0.2, inplace)
  (fc): Linear(in_features=1280, out_features=120, bias=True)
)
Ep: 1   EpTime: 43.6606  Trainloss: 4.8438   Testloss: 4.6610  TrainAcc: 2.07   Top1: 2.7667    Top5: 11.7333	lr:0.045000
Checkpoint saved!!!
Ep: 2   EpTime: 41.9578  Trainloss: 4.4723   Testloss: 4.4688  TrainAcc: 4.28   Top1: 3.8500    Top5: 14.9333	lr:0.045000
Checkpoint saved!!!
Ep: 3   EpTime: 41.8817  Trainloss: 4.2786   Testloss: 4.1409  TrainAcc: 5.29   Top1: 6.4667    Top5: 23.7833	lr:0.044100
Checkpoint saved!!!
Ep: 4   EpTime: 41.6058  Trainloss: 4.1418   Testloss: 4.4697  TrainAcc: 7.06   Top1: 4.1500    Top5: 16.4167	lr:0.043218
Ep: 5   EpTime: 42.1285  Trainloss: 4.0219   Testloss: 4.0013  TrainAcc: 7.99   Top1: 8.6000    Top5: 29.6333	lr:0.042354
Checkpoint saved!!!
Ep: 6   EpTime: 42.3815  Trainloss: 3.9168   Testloss: 3.8122  TrainAcc: 9.84   Top1: 10.5500    Top5: 34.2667	lr:0.041507
Checkpoint saved!!!
Ep: 7   EpTime: 42.8027  Trainloss: 3.8102   Testloss: 3.7411  TrainAcc: 11.13   Top1: 12.4667    Top5: 36.2500	lr:0.040676
Checkpoint saved!!!
Ep: 8   EpTime: 42.3558  Trainloss: 3.7185   Testloss: 3.6613  TrainAcc: 12.72   Top1: 13.4000    Top5: 38.2667	lr:0.039863
Checkpoint saved!!!
Ep: 9   EpTime: 42.8158  Trainloss: 3.5909   Testloss: 3.5276  TrainAcc: 14.87   Top1: 15.1000    Top5: 42.5833	lr:0.039066
Checkpoint saved!!!
Ep: 10   EpTime: 42.6899  Trainloss: 3.4880   Testloss: 3.6530  TrainAcc: 16.45   Top1: 14.2500    Top5: 40.4667	lr:0.038284
Ep: 11   EpTime: 42.3420  Trainloss: 3.3780   Testloss: 3.4104  TrainAcc: 18.45   Top1: 17.9500    Top5: 46.2167	lr:0.037519
Checkpoint saved!!!
Ep: 12   EpTime: 43.5217  Trainloss: 3.2887   Testloss: 3.0571  TrainAcc: 20.00   Top1: 22.9833    Top5: 55.4000	lr:0.036768
Checkpoint saved!!!
Ep: 13   EpTime: 43.7564  Trainloss: 3.1635   Testloss: 3.3213  TrainAcc: 22.59   Top1: 19.9167    Top5: 51.3333	lr:0.036033
Ep: 14   EpTime: 43.2467  Trainloss: 3.0881   Testloss: 2.9477  TrainAcc: 23.70   Top1: 24.7333    Top5: 59.2333	lr:0.035312
Checkpoint saved!!!
Ep: 15   EpTime: 43.0152  Trainloss: 2.9873   Testloss: 3.0759  TrainAcc: 25.58   Top1: 24.4167    Top5: 57.1833	lr:0.034606
Ep: 16   EpTime: 42.3432  Trainloss: 2.8984   Testloss: 2.6910  TrainAcc: 27.37   Top1: 30.6000    Top5: 64.4167	lr:0.033914
Checkpoint saved!!!
Ep: 17   EpTime: 42.8153  Trainloss: 2.8170   Testloss: 2.6876  TrainAcc: 29.52   Top1: 31.2667    Top5: 64.9000	lr:0.033236
Checkpoint saved!!!
Ep: 18   EpTime: 42.1365  Trainloss: 2.7354   Testloss: 2.7497  TrainAcc: 30.74   Top1: 31.2167    Top5: 64.5333	lr:0.032571
Ep: 19   EpTime: 42.5152  Trainloss: 2.6686   Testloss: 2.5383  TrainAcc: 32.00   Top1: 34.2833    Top5: 68.8333	lr:0.031919
Checkpoint saved!!!
Ep: 20   EpTime: 42.3308  Trainloss: 2.5766   Testloss: 2.4033  TrainAcc: 34.48   Top1: 37.3000    Top5: 71.8833	lr:0.031281
Checkpoint saved!!!
Ep: 21   EpTime: 42.8442  Trainloss: 2.4817   Testloss: 2.3775  TrainAcc: 36.01   Top1: 37.2333    Top5: 71.2500	lr:0.030655
Ep: 22   EpTime: 42.9774  Trainloss: 2.4334   Testloss: 2.3434  TrainAcc: 36.97   Top1: 38.9333    Top5: 72.6833	lr:0.030042
Checkpoint saved!!!
Ep: 23   EpTime: 42.9599  Trainloss: 2.3786   Testloss: 2.2912  TrainAcc: 38.42   Top1: 40.3667    Top5: 74.6167	lr:0.029442
Checkpoint saved!!!
Ep: 24   EpTime: 42.3663  Trainloss: 2.3062   Testloss: 2.2554  TrainAcc: 40.11   Top1: 40.7167    Top5: 74.1167	lr:0.028853
Checkpoint saved!!!
Ep: 25   EpTime: 42.2251  Trainloss: 2.2250   Testloss: 2.3583  TrainAcc: 41.65   Top1: 39.6000    Top5: 73.1333	lr:0.028276
Ep: 26   EpTime: 42.5769  Trainloss: 2.2146   Testloss: 2.1687  TrainAcc: 41.95   Top1: 42.3500    Top5: 76.0667	lr:0.027710
Checkpoint saved!!!
Ep: 27   EpTime: 43.0260  Trainloss: 2.1256   Testloss: 2.1953  TrainAcc: 44.27   Top1: 42.2333    Top5: 75.6667	lr:0.027156
Ep: 28   EpTime: 42.3893  Trainloss: 2.0804   Testloss: 2.0518  TrainAcc: 45.03   Top1: 45.5667    Top5: 77.6333	lr:0.026613
Checkpoint saved!!!
Ep: 29   EpTime: 41.8316  Trainloss: 2.0482   Testloss: 1.9636  TrainAcc: 45.59   Top1: 46.9833    Top5: 79.6833	lr:0.026081
Checkpoint saved!!!
Ep: 30   EpTime: 42.6614  Trainloss: 1.9818   Testloss: 2.0461  TrainAcc: 47.15   Top1: 44.8167    Top5: 78.4667	lr:0.025559
Ep: 31   EpTime: 42.3490  Trainloss: 1.9497   Testloss: 2.0148  TrainAcc: 48.05   Top1: 45.8333    Top5: 77.9500	lr:0.025048
Ep: 32   EpTime: 42.4258  Trainloss: 1.9019   Testloss: 1.8646  TrainAcc: 49.25   Top1: 48.8833    Top5: 80.9333	lr:0.024547
Checkpoint saved!!!
Ep: 33   EpTime: 42.8008  Trainloss: 1.8744   Testloss: 1.9779  TrainAcc: 50.44   Top1: 46.6667    Top5: 79.7167	lr:0.024056
Ep: 34   EpTime: 42.2198  Trainloss: 1.8452   Testloss: 1.9583  TrainAcc: 50.97   Top1: 47.0667    Top5: 80.2167	lr:0.023575
Ep: 35   EpTime: 42.2997  Trainloss: 1.7861   Testloss: 1.8301  TrainAcc: 51.91   Top1: 50.1000    Top5: 81.9000	lr:0.023103
Checkpoint saved!!!
Ep: 36   EpTime: 42.3894  Trainloss: 1.7456   Testloss: 1.8166  TrainAcc: 52.79   Top1: 50.5000    Top5: 82.6667	lr:0.022641
Checkpoint saved!!!
Ep: 37   EpTime: 42.1114  Trainloss: 1.7370   Testloss: 1.8242  TrainAcc: 52.76   Top1: 51.7167    Top5: 82.5000	lr:0.022188
Checkpoint saved!!!
Ep: 38   EpTime: 42.0823  Trainloss: 1.6999   Testloss: 1.8153  TrainAcc: 54.24   Top1: 50.5500    Top5: 82.8667	lr:0.021745
Ep: 39   EpTime: 42.7377  Trainloss: 1.6628   Testloss: 1.7228  TrainAcc: 55.62   Top1: 52.9333    Top5: 83.6833	lr:0.021310
Checkpoint saved!!!
Ep: 40   EpTime: 42.1263  Trainloss: 1.6225   Testloss: 1.7468  TrainAcc: 56.41   Top1: 51.9000    Top5: 84.0667	lr:0.020884
Ep: 41   EpTime: 42.2798  Trainloss: 1.6315   Testloss: 1.7162  TrainAcc: 55.88   Top1: 53.3500    Top5: 84.7167	lr:0.020466
Checkpoint saved!!!
Ep: 42   EpTime: 42.4353  Trainloss: 1.5753   Testloss: 1.6778  TrainAcc: 57.10   Top1: 54.4833    Top5: 84.7000	lr:0.020057
Checkpoint saved!!!
Ep: 43   EpTime: 43.6471  Trainloss: 1.5525   Testloss: 1.7682  TrainAcc: 57.88   Top1: 52.9833    Top5: 83.6667	lr:0.019655
Ep: 44   EpTime: 43.2268  Trainloss: 1.5068   Testloss: 1.7628  TrainAcc: 59.27   Top1: 53.2500    Top5: 83.6500	lr:0.019262
Ep: 45   EpTime: 43.6788  Trainloss: 1.4884   Testloss: 1.7097  TrainAcc: 59.69   Top1: 54.1167    Top5: 84.6500	lr:0.018877
Ep: 46   EpTime: 42.4976  Trainloss: 1.4465   Testloss: 1.6707  TrainAcc: 60.87   Top1: 54.5167    Top5: 85.6500	lr:0.018499
Checkpoint saved!!!
Ep: 47   EpTime: 42.4299  Trainloss: 1.4569   Testloss: 1.7011  TrainAcc: 60.61   Top1: 55.5167    Top5: 84.9500	lr:0.018130
Checkpoint saved!!!
Ep: 48   EpTime: 42.2489  Trainloss: 1.4086   Testloss: 1.6393  TrainAcc: 61.52   Top1: 55.9000    Top5: 85.5667	lr:0.017767
Checkpoint saved!!!
Ep: 49   EpTime: 42.2320  Trainloss: 1.3960   Testloss: 1.6733  TrainAcc: 62.12   Top1: 55.2500    Top5: 84.9667	lr:0.017412
Ep: 50   EpTime: 42.7360  Trainloss: 1.3693   Testloss: 1.6811  TrainAcc: 62.59   Top1: 54.8833    Top5: 84.7667	lr:0.017063
Ep: 51   EpTime: 42.1640  Trainloss: 1.3498   Testloss: 1.7755  TrainAcc: 63.61   Top1: 53.5500    Top5: 84.2167	lr:0.016722
Ep: 52   EpTime: 42.1589  Trainloss: 1.3384   Testloss: 1.6926  TrainAcc: 63.68   Top1: 55.7167    Top5: 84.1500	lr:0.016388
Ep: 53   EpTime: 42.0495  Trainloss: 1.3000   Testloss: 1.6496  TrainAcc: 64.73   Top1: 56.6167    Top5: 85.9833	lr:0.016060
Checkpoint saved!!!
Ep: 54   EpTime: 42.4555  Trainloss: 1.2541   Testloss: 1.6797  TrainAcc: 65.82   Top1: 56.4833    Top5: 85.3333	lr:0.015739
Ep: 55   EpTime: 42.9592  Trainloss: 1.2716   Testloss: 1.6761  TrainAcc: 65.46   Top1: 57.1167    Top5: 86.1667	lr:0.015424
Checkpoint saved!!!
Ep: 56   EpTime: 42.8018  Trainloss: 1.2472   Testloss: 1.5994  TrainAcc: 66.19   Top1: 57.3500    Top5: 86.6333	lr:0.015115
Checkpoint saved!!!
Ep: 57   EpTime: 42.1145  Trainloss: 1.2289   Testloss: 1.6744  TrainAcc: 66.81   Top1: 56.5167    Top5: 85.7833	lr:0.014813
Ep: 58   EpTime: 41.6054  Trainloss: 1.2163   Testloss: 1.6200  TrainAcc: 67.06   Top1: 57.4000    Top5: 85.9000	lr:0.014517
Checkpoint saved!!!
Ep: 59   EpTime: 42.2927  Trainloss: 1.1714   Testloss: 1.6018  TrainAcc: 68.21   Top1: 58.6500    Top5: 86.5833	lr:0.014227
Checkpoint saved!!!
Ep: 60   EpTime: 42.2403  Trainloss: 1.1650   Testloss: 1.5952  TrainAcc: 68.59   Top1: 57.8000    Top5: 86.8333	lr:0.013942
Ep: 61   EpTime: 42.3902  Trainloss: 1.1503   Testloss: 1.6402  TrainAcc: 69.08   Top1: 57.1833    Top5: 85.9833	lr:0.013663
Ep: 62   EpTime: 42.8870  Trainloss: 1.1336   Testloss: 1.6262  TrainAcc: 69.40   Top1: 58.1333    Top5: 86.0833	lr:0.013390
Ep: 63   EpTime: 42.1552  Trainloss: 1.1128   Testloss: 1.6449  TrainAcc: 70.33   Top1: 57.9000    Top5: 86.3333	lr:0.013122
Ep: 64   EpTime: 42.2768  Trainloss: 1.1092   Testloss: 1.6409  TrainAcc: 70.07   Top1: 57.9333    Top5: 85.9833	lr:0.012860
Ep: 65   EpTime: 42.3742  Trainloss: 1.0977   Testloss: 1.6551  TrainAcc: 70.32   Top1: 57.5333    Top5: 86.2000	lr:0.012602
Ep: 66   EpTime: 41.9431  Trainloss: 1.0781   Testloss: 1.6221  TrainAcc: 70.88   Top1: 58.8833    Top5: 86.7333	lr:0.012350
Checkpoint saved!!!
Ep: 67   EpTime: 42.0373  Trainloss: 1.0367   Testloss: 1.6612  TrainAcc: 71.68   Top1: 57.9000    Top5: 86.2000	lr:0.012103
Ep: 68   EpTime: 42.5980  Trainloss: 1.0465   Testloss: 1.5874  TrainAcc: 72.11   Top1: 59.8167    Top5: 87.2333	lr:0.011861
Checkpoint saved!!!
Ep: 69   EpTime: 42.1783  Trainloss: 1.0161   Testloss: 1.6468  TrainAcc: 72.61   Top1: 58.4333    Top5: 85.9333	lr:0.011624
Ep: 70   EpTime: 42.1103  Trainloss: 0.9976   Testloss: 1.6336  TrainAcc: 72.87   Top1: 58.8333    Top5: 86.3333	lr:0.011392
Ep: 71   EpTime: 42.4839  Trainloss: 0.9906   Testloss: 1.6143  TrainAcc: 73.35   Top1: 58.9667    Top5: 87.1167	lr:0.011164
Ep: 72   EpTime: 42.0284  Trainloss: 0.9818   Testloss: 1.6356  TrainAcc: 73.79   Top1: 58.3667    Top5: 86.8333	lr:0.010941
Ep: 73   EpTime: 41.9377  Trainloss: 0.9701   Testloss: 1.6532  TrainAcc: 73.62   Top1: 59.1167    Top5: 86.4167	lr:0.010722
Ep: 74   EpTime: 42.1962  Trainloss: 0.9607   Testloss: 1.6209  TrainAcc: 74.30   Top1: 58.9833    Top5: 87.1000	lr:0.010507
Ep: 75   EpTime: 42.7485  Trainloss: 0.9478   Testloss: 1.6097  TrainAcc: 74.45   Top1: 59.8667    Top5: 86.9500	lr:0.010297
Checkpoint saved!!!
Ep: 76   EpTime: 42.7078  Trainloss: 0.9460   Testloss: 1.6494  TrainAcc: 74.80   Top1: 59.4000    Top5: 87.0667	lr:0.010091
Ep: 77   EpTime: 42.8521  Trainloss: 0.9258   Testloss: 1.6675  TrainAcc: 75.34   Top1: 59.3000    Top5: 86.2833	lr:0.009889
Ep: 78   EpTime: 42.0659  Trainloss: 0.9113   Testloss: 1.6354  TrainAcc: 75.70   Top1: 59.5000    Top5: 86.2833	lr:0.009692
Ep: 79   EpTime: 42.6912  Trainloss: 0.9151   Testloss: 1.6576  TrainAcc: 75.60   Top1: 59.2000    Top5: 86.8833	lr:0.009498
Ep: 80   EpTime: 43.1716  Trainloss: 0.8930   Testloss: 1.6496  TrainAcc: 75.96   Top1: 59.4833    Top5: 86.8167	lr:0.009308
Ep: 81   EpTime: 43.3255  Trainloss: 0.8933   Testloss: 1.6546  TrainAcc: 76.02   Top1: 59.4167    Top5: 86.4333	lr:0.009122
Ep: 82   EpTime: 43.5461  Trainloss: 0.8760   Testloss: 1.6577  TrainAcc: 76.55   Top1: 58.5833    Top5: 86.2333	lr:0.008939
Ep: 83   EpTime: 42.4775  Trainloss: 0.8631   Testloss: 1.6816  TrainAcc: 77.51   Top1: 57.9167    Top5: 86.4833	lr:0.008760
Ep: 84   EpTime: 42.2828  Trainloss: 0.8530   Testloss: 1.7035  TrainAcc: 77.24   Top1: 59.2500    Top5: 86.3833	lr:0.008585
Ep: 85   EpTime: 42.4103  Trainloss: 0.8434   Testloss: 1.6673  TrainAcc: 77.78   Top1: 59.4167    Top5: 87.0667	lr:0.008414
Ep: 86   EpTime: 42.6128  Trainloss: 0.8348   Testloss: 1.6932  TrainAcc: 78.22   Top1: 59.2167    Top5: 86.9167	lr:0.008245
Ep: 87   EpTime: 42.3653  Trainloss: 0.8543   Testloss: 1.6905  TrainAcc: 77.37   Top1: 58.8333    Top5: 86.6000	lr:0.008080
Ep: 88   EpTime: 42.4494  Trainloss: 0.8076   Testloss: 1.6570  TrainAcc: 78.92   Top1: 59.7167    Top5: 86.9500	lr:0.007919
Ep: 89   EpTime: 41.9045  Trainloss: 0.8155   Testloss: 1.7058  TrainAcc: 78.44   Top1: 58.6167    Top5: 86.5333	lr:0.007760
Ep: 90   EpTime: 42.2262  Trainloss: 0.7969   Testloss: 1.6474  TrainAcc: 78.78   Top1: 59.9667    Top5: 86.8000	lr:0.007605
Checkpoint saved!!!
Ep: 91   EpTime: 42.7924  Trainloss: 0.8102   Testloss: 1.6732  TrainAcc: 78.77   Top1: 59.3667    Top5: 86.7000	lr:0.007453
Ep: 92   EpTime: 42.4706  Trainloss: 0.7883   Testloss: 1.6808  TrainAcc: 79.29   Top1: 59.2667    Top5: 86.7500	lr:0.007304
Ep: 93   EpTime: 43.0110  Trainloss: 0.7771   Testloss: 1.6596  TrainAcc: 79.73   Top1: 59.9667    Top5: 87.3333	lr:0.007158
Checkpoint saved!!!
Ep: 94   EpTime: 42.6732  Trainloss: 0.7826   Testloss: 1.6680  TrainAcc: 79.57   Top1: 60.5000    Top5: 86.5833	lr:0.007015
Checkpoint saved!!!
Ep: 95   EpTime: 42.2580  Trainloss: 0.7808   Testloss: 1.6687  TrainAcc: 79.71   Top1: 60.2667    Top5: 86.8333	lr:0.006874
Ep: 96   EpTime: 41.7039  Trainloss: 0.7740   Testloss: 1.6865  TrainAcc: 80.10   Top1: 59.2167    Top5: 86.7333	lr:0.006737
Ep: 97   EpTime: 42.4469  Trainloss: 0.7560   Testloss: 1.6616  TrainAcc: 80.43   Top1: 59.5500    Top5: 87.0667	lr:0.006602
Ep: 98   EpTime: 43.0873  Trainloss: 0.7518   Testloss: 1.6290  TrainAcc: 80.07   Top1: 60.2667    Top5: 87.2000	lr:0.006470
Ep: 99   EpTime: 42.7927  Trainloss: 0.7330   Testloss: 1.6865  TrainAcc: 80.78   Top1: 60.1667    Top5: 86.4833	lr:0.006341
Ep: 100   EpTime: 42.3045  Trainloss: 0.7265   Testloss: 1.6662  TrainAcc: 81.19   Top1: 60.4500    Top5: 87.1167	lr:0.006214
Ep: 101   EpTime: 42.4711  Trainloss: 0.7354   Testloss: 1.6692  TrainAcc: 80.96   Top1: 59.7000    Top5: 86.7667	lr:0.006090
Ep: 102   EpTime: 42.2549  Trainloss: 0.7178   Testloss: 1.6997  TrainAcc: 81.23   Top1: 59.2000    Top5: 86.5167	lr:0.005968
Ep: 103   EpTime: 42.1030  Trainloss: 0.6903   Testloss: 1.7060  TrainAcc: 82.13   Top1: 59.7500    Top5: 87.0000	lr:0.005849
Ep: 104   EpTime: 42.1129  Trainloss: 0.6987   Testloss: 1.6785  TrainAcc: 81.96   Top1: 60.3000    Top5: 86.8167	lr:0.005732
Ep: 105   EpTime: 42.2214  Trainloss: 0.6994   Testloss: 1.7008  TrainAcc: 81.96   Top1: 59.3833    Top5: 87.0333	lr:0.005617
Ep: 106   EpTime: 41.7725  Trainloss: 0.6959   Testloss: 1.6720  TrainAcc: 81.83   Top1: 59.9333    Top5: 86.3500	lr:0.005505
Ep: 107   EpTime: 42.0867  Trainloss: 0.6994   Testloss: 1.6674  TrainAcc: 81.82   Top1: 60.0833    Top5: 86.8000	lr:0.005394
Ep: 108   EpTime: 42.9435  Trainloss: 0.6873   Testloss: 1.6765  TrainAcc: 82.02   Top1: 60.2000    Top5: 86.9500	lr:0.005287
Ep: 109   EpTime: 43.3160  Trainloss: 0.6913   Testloss: 1.7373  TrainAcc: 82.11   Top1: 59.7833    Top5: 86.4667	lr:0.005181
Ep: 110   EpTime: 42.6281  Trainloss: 0.6549   Testloss: 1.6840  TrainAcc: 82.95   Top1: 60.5833    Top5: 86.9333	lr:0.005077
Checkpoint saved!!!
Ep: 111   EpTime: 42.3163  Trainloss: 0.6786   Testloss: 1.6735  TrainAcc: 82.72   Top1: 60.4667    Top5: 87.1167	lr:0.004976
Ep: 112   EpTime: 42.4272  Trainloss: 0.6752   Testloss: 1.7015  TrainAcc: 82.14   Top1: 60.0833    Top5: 86.6833	lr:0.004876
Ep: 113   EpTime: 42.6462  Trainloss: 0.6816   Testloss: 1.7373  TrainAcc: 82.38   Top1: 59.6167    Top5: 86.4000	lr:0.004779
Ep: 114   EpTime: 42.6956  Trainloss: 0.6681   Testloss: 1.7111  TrainAcc: 82.54   Top1: 60.0667    Top5: 86.5167	lr:0.004683
Ep: 115   EpTime: 42.7652  Trainloss: 0.6895   Testloss: 1.7120  TrainAcc: 82.48   Top1: 59.9667    Top5: 86.8000	lr:0.004589
Ep: 116   EpTime: 42.5443  Trainloss: 0.6736   Testloss: 1.7167  TrainAcc: 82.89   Top1: 60.0333    Top5: 86.5333	lr:0.004498
Ep: 117   EpTime: 42.8706  Trainloss: 0.6356   Testloss: 1.6831  TrainAcc: 83.41   Top1: 60.5833    Top5: 87.0500	lr:0.004408
Ep: 118   EpTime: 42.5891  Trainloss: 0.6447   Testloss: 1.6877  TrainAcc: 83.23   Top1: 60.3333    Top5: 86.9167	lr:0.004320
Ep: 119   EpTime: 42.2005  Trainloss: 0.6364   Testloss: 1.7267  TrainAcc: 83.55   Top1: 60.1667    Top5: 86.9167	lr:0.004233
Ep: 120   EpTime: 42.3850  Trainloss: 0.6415   Testloss: 1.7267  TrainAcc: 83.40   Top1: 60.5000    Top5: 86.7667	lr:0.004148
Ep: 121   EpTime: 42.3042  Trainloss: 0.6215   Testloss: 1.7449  TrainAcc: 84.03   Top1: 59.5500    Top5: 86.3500	lr:0.004066
Ep: 122   EpTime: 42.0467  Trainloss: 0.6260   Testloss: 1.7057  TrainAcc: 84.09   Top1: 59.8333    Top5: 86.2500	lr:0.003984
Ep: 123   EpTime: 42.2948  Trainloss: 0.6122   Testloss: 1.7225  TrainAcc: 84.20   Top1: 59.9667    Top5: 86.5500	lr:0.003905
Ep: 124   EpTime: 42.1429  Trainloss: 0.6332   Testloss: 1.7096  TrainAcc: 83.39   Top1: 60.4667    Top5: 86.8333	lr:0.003826
Ep: 125   EpTime: 42.4708  Trainloss: 0.6211   Testloss: 1.7164  TrainAcc: 83.99   Top1: 60.6167    Top5: 86.8000	lr:0.003750
Checkpoint saved!!!
Ep: 126   EpTime: 42.2227  Trainloss: 0.6037   Testloss: 1.7164  TrainAcc: 84.40   Top1: 60.1833    Top5: 86.6000	lr:0.003675
Ep: 127   EpTime: 42.6142  Trainloss: 0.6157   Testloss: 1.7207  TrainAcc: 84.17   Top1: 60.6000    Top5: 86.7833	lr:0.003601
Ep: 128   EpTime: 42.2736  Trainloss: 0.6161   Testloss: 1.6897  TrainAcc: 84.01   Top1: 60.4333    Top5: 87.0667	lr:0.003529
Ep: 129   EpTime: 42.6329  Trainloss: 0.6218   Testloss: 1.6889  TrainAcc: 83.93   Top1: 60.6500    Top5: 86.9833	lr:0.003459
Checkpoint saved!!!
Ep: 130   EpTime: 42.3106  Trainloss: 0.5965   Testloss: 1.7208  TrainAcc: 84.77   Top1: 60.2000    Top5: 86.7333	lr:0.003390
Ep: 131   EpTime: 42.2571  Trainloss: 0.6027   Testloss: 1.7244  TrainAcc: 84.49   Top1: 60.0667    Top5: 86.6333	lr:0.003322
Ep: 132   EpTime: 42.3239  Trainloss: 0.5943   Testloss: 1.7039  TrainAcc: 84.77   Top1: 60.6667    Top5: 86.8000	lr:0.003255
Checkpoint saved!!!
Ep: 133   EpTime: 42.0947  Trainloss: 0.5893   Testloss: 1.7095  TrainAcc: 84.90   Top1: 60.8000    Top5: 86.6667	lr:0.003190
Checkpoint saved!!!
Ep: 134   EpTime: 41.9007  Trainloss: 0.5651   Testloss: 1.6992  TrainAcc: 85.21   Top1: 60.9500    Top5: 86.7500	lr:0.003126
Checkpoint saved!!!
Ep: 135   EpTime: 42.3139  Trainloss: 0.5908   Testloss: 1.7290  TrainAcc: 84.89   Top1: 59.9833    Top5: 86.6000	lr:0.003064
Ep: 136   EpTime: 43.1604  Trainloss: 0.5981   Testloss: 1.7285  TrainAcc: 84.95   Top1: 60.6667    Top5: 86.6167	lr:0.003003
Ep: 137   EpTime: 42.5104  Trainloss: 0.5817   Testloss: 1.7024  TrainAcc: 85.13   Top1: 60.5000    Top5: 86.8500	lr:0.002943
Ep: 138   EpTime: 42.1237  Trainloss: 0.5796   Testloss: 1.7351  TrainAcc: 84.99   Top1: 60.2833    Top5: 86.6333	lr:0.002884
Ep: 139   EpTime: 42.5509  Trainloss: 0.5646   Testloss: 1.7281  TrainAcc: 85.65   Top1: 60.4500    Top5: 86.5667	lr:0.002826
Ep: 140   EpTime: 42.0728  Trainloss: 0.5958   Testloss: 1.7214  TrainAcc: 84.55   Top1: 60.6167    Top5: 86.6167	lr:0.002770
Ep: 141   EpTime: 41.9056  Trainloss: 0.5786   Testloss: 1.7317  TrainAcc: 85.12   Top1: 60.4500    Top5: 86.2167	lr:0.002714
Ep: 142   EpTime: 42.0339  Trainloss: 0.5665   Testloss: 1.7272  TrainAcc: 85.47   Top1: 60.0833    Top5: 86.7167	lr:0.002660
Ep: 143   EpTime: 42.0278  Trainloss: 0.5676   Testloss: 1.7380  TrainAcc: 85.45   Top1: 60.5500    Top5: 86.5167	lr:0.002607
Ep: 144   EpTime: 42.6890  Trainloss: 0.5476   Testloss: 1.7287  TrainAcc: 85.82   Top1: 60.8000    Top5: 86.7500	lr:0.002555
Ep: 145   EpTime: 42.6703  Trainloss: 0.5634   Testloss: 1.7208  TrainAcc: 85.64   Top1: 60.6833    Top5: 86.6167	lr:0.002503
Ep: 146   EpTime: 42.7833  Trainloss: 0.5571   Testloss: 1.7318  TrainAcc: 85.40   Top1: 60.7167    Top5: 86.6333	lr:0.002453
Ep: 147   EpTime: 43.1834  Trainloss: 0.5357   Testloss: 1.7288  TrainAcc: 86.15   Top1: 60.8167    Top5: 86.2000	lr:0.002404
Ep: 148   EpTime: 42.5012  Trainloss: 0.5678   Testloss: 1.7226  TrainAcc: 85.67   Top1: 60.6667    Top5: 86.5500	lr:0.002356
Ep: 149   EpTime: 42.4527  Trainloss: 0.5310   Testloss: 1.7280  TrainAcc: 86.31   Top1: 60.3500    Top5: 86.4000	lr:0.002309
Ep: 150   EpTime: 42.5696  Trainloss: 0.5492   Testloss: 1.7281  TrainAcc: 85.95   Top1: 61.0000    Top5: 87.0333	lr:0.002263
Checkpoint saved!!!
Ep: 151   EpTime: 42.5583  Trainloss: 0.5527   Testloss: 1.7272  TrainAcc: 85.81   Top1: 61.0167    Top5: 86.5333	lr:0.002218
Checkpoint saved!!!
Ep: 152   EpTime: 46.0224  Trainloss: 0.5374   Testloss: 1.7234  TrainAcc: 86.21   Top1: 60.7167    Top5: 86.7667	lr:0.002173
Ep: 153   EpTime: 42.8625  Trainloss: 0.5499   Testloss: 1.7385  TrainAcc: 86.28   Top1: 60.2333    Top5: 86.4667	lr:0.002130
Ep: 154   EpTime: 43.2157  Trainloss: 0.5455   Testloss: 1.7264  TrainAcc: 85.93   Top1: 60.3333    Top5: 86.4500	lr:0.002087
Ep: 155   EpTime: 42.7561  Trainloss: 0.5504   Testloss: 1.7369  TrainAcc: 85.88   Top1: 60.3500    Top5: 86.8333	lr:0.002046
Ep: 156   EpTime: 41.9808  Trainloss: 0.5182   Testloss: 1.7325  TrainAcc: 86.76   Top1: 60.4000    Top5: 86.7333	lr:0.002005
Ep: 157   EpTime: 41.8681  Trainloss: 0.5455   Testloss: 1.7340  TrainAcc: 86.23   Top1: 60.4833    Top5: 86.6833	lr:0.001965
Ep: 158   EpTime: 42.6991  Trainloss: 0.5201   Testloss: 1.7314  TrainAcc: 86.67   Top1: 60.3667    Top5: 86.7500	lr:0.001925
Ep: 159   EpTime: 46.4135  Trainloss: 0.5314   Testloss: 1.7517  TrainAcc: 85.99   Top1: 60.1333    Top5: 86.6000	lr:0.001887
Ep: 160   EpTime: 46.6637  Trainloss: 0.5344   Testloss: 1.7366  TrainAcc: 86.16   Top1: 60.5833    Top5: 86.4500	lr:0.001849
Ep: 161   EpTime: 46.4280  Trainloss: 0.5053   Testloss: 1.7183  TrainAcc: 86.80   Top1: 61.0667    Top5: 86.8500	lr:0.001812
Checkpoint saved!!!
Ep: 162   EpTime: 46.7656  Trainloss: 0.5235   Testloss: 1.7160  TrainAcc: 86.56   Top1: 60.6500    Top5: 86.7500	lr:0.001776
Ep: 163   EpTime: 46.1192  Trainloss: 0.5132   Testloss: 1.7295  TrainAcc: 86.89   Top1: 60.9833    Top5: 86.7833	lr:0.001740
Ep: 164   EpTime: 46.6395  Trainloss: 0.5325   Testloss: 1.7296  TrainAcc: 86.30   Top1: 60.3833    Top5: 86.8333	lr:0.001705
Ep: 165   EpTime: 45.6283  Trainloss: 0.5201   Testloss: 1.7212  TrainAcc: 86.45   Top1: 60.8500    Top5: 86.8167	lr:0.001671
Ep: 166   EpTime: 45.0924  Trainloss: 0.5253   Testloss: 1.7313  TrainAcc: 86.61   Top1: 60.5000    Top5: 86.9000	lr:0.001638
Ep: 167   EpTime: 45.2592  Trainloss: 0.5251   Testloss: 1.7366  TrainAcc: 86.56   Top1: 60.5333    Top5: 86.8000	lr:0.001605
Ep: 168   EpTime: 45.6056  Trainloss: 0.5101   Testloss: 1.7276  TrainAcc: 87.22   Top1: 60.3167    Top5: 86.7667	lr:0.001573
Ep: 169   EpTime: 45.6066  Trainloss: 0.5054   Testloss: 1.7341  TrainAcc: 86.95   Top1: 60.1833    Top5: 86.6500	lr:0.001542
Ep: 170   EpTime: 46.1709  Trainloss: 0.5159   Testloss: 1.7427  TrainAcc: 86.82   Top1: 60.3333    Top5: 86.6833	lr:0.001511
Ep: 171   EpTime: 46.7205  Trainloss: 0.5097   Testloss: 1.7441  TrainAcc: 86.93   Top1: 60.1500    Top5: 86.3667	lr:0.001481
Ep: 172   EpTime: 45.8794  Trainloss: 0.5292   Testloss: 1.7508  TrainAcc: 86.93   Top1: 60.1500    Top5: 86.3833	lr:0.001451
Ep: 173   EpTime: 46.1377  Trainloss: 0.5081   Testloss: 1.7461  TrainAcc: 87.17   Top1: 60.3000    Top5: 86.4333	lr:0.001422
Ep: 174   EpTime: 45.8846  Trainloss: 0.5145   Testloss: 1.7505  TrainAcc: 86.66   Top1: 60.2167    Top5: 86.4000	lr:0.001393
Ep: 175   EpTime: 45.5494  Trainloss: 0.4853   Testloss: 1.7393  TrainAcc: 87.46   Top1: 60.8000    Top5: 86.3167	lr:0.001366
Ep: 176   EpTime: 46.0166  Trainloss: 0.5147   Testloss: 1.7430  TrainAcc: 86.78   Top1: 60.4500    Top5: 86.6333	lr:0.001338
Ep: 177   EpTime: 45.9342  Trainloss: 0.4985   Testloss: 1.7471  TrainAcc: 87.27   Top1: 60.1167    Top5: 86.3167	lr:0.001312
Ep: 178   EpTime: 44.1528  Trainloss: 0.5096   Testloss: 1.7352  TrainAcc: 86.84   Top1: 60.5833    Top5: 86.3833	lr:0.001285
Ep: 179   EpTime: 42.5083  Trainloss: 0.5204   Testloss: 1.7586  TrainAcc: 86.81   Top1: 60.2500    Top5: 86.4167	lr:0.001260
Ep: 180   EpTime: 42.4233  Trainloss: 0.5122   Testloss: 1.7313  TrainAcc: 87.04   Top1: 60.3167    Top5: 86.5833	lr:0.001234
Ep: 181   EpTime: 42.4554  Trainloss: 0.5128   Testloss: 1.7327  TrainAcc: 86.86   Top1: 60.6000    Top5: 86.4333	lr:0.001210
Ep: 182   EpTime: 42.4673  Trainloss: 0.4975   Testloss: 1.7345  TrainAcc: 87.25   Top1: 60.4333    Top5: 86.5167	lr:0.001186
Ep: 183   EpTime: 42.2356  Trainloss: 0.5089   Testloss: 1.7259  TrainAcc: 86.93   Top1: 60.6667    Top5: 86.5833	lr:0.001162
Ep: 184   EpTime: 43.1032  Trainloss: 0.4916   Testloss: 1.7362  TrainAcc: 87.47   Top1: 60.4833    Top5: 86.3667	lr:0.001139
Ep: 185   EpTime: 43.7156  Trainloss: 0.4972   Testloss: 1.7389  TrainAcc: 87.45   Top1: 60.1667    Top5: 86.4667	lr:0.001116
Ep: 186   EpTime: 43.1022  Trainloss: 0.5093   Testloss: 1.7370  TrainAcc: 87.20   Top1: 60.4333    Top5: 86.5333	lr:0.001093
Ep: 187   EpTime: 42.7910  Trainloss: 0.5119   Testloss: 1.7496  TrainAcc: 87.03   Top1: 60.4667    Top5: 86.3667	lr:0.001072
Ep: 188   EpTime: 42.7519  Trainloss: 0.4862   Testloss: 1.7384  TrainAcc: 87.61   Top1: 60.3000    Top5: 86.5500	lr:0.001050
Ep: 189   EpTime: 42.2499  Trainloss: 0.5043   Testloss: 1.7354  TrainAcc: 87.32   Top1: 60.4167    Top5: 86.4833	lr:0.001029
Ep: 190   EpTime: 42.0306  Trainloss: 0.5015   Testloss: 1.7302  TrainAcc: 87.37   Top1: 60.5833    Top5: 86.4000	lr:0.001009
Ep: 191   EpTime: 41.2481  Trainloss: 0.5030   Testloss: 1.7453  TrainAcc: 87.32   Top1: 60.5000    Top5: 86.4833	lr:0.000988
Ep: 192   EpTime: 41.0504  Trainloss: 0.4857   Testloss: 1.7417  TrainAcc: 87.76   Top1: 60.6667    Top5: 86.5500	lr:0.000969
Ep: 193   EpTime: 40.8139  Trainloss: 0.4965   Testloss: 1.7310  TrainAcc: 87.13   Top1: 60.3333    Top5: 86.4333	lr:0.000949
Ep: 194   EpTime: 40.5979  Trainloss: 0.4938   Testloss: 1.7363  TrainAcc: 87.70   Top1: 60.6833    Top5: 86.7500	lr:0.000930
Ep: 195   EpTime: 40.7329  Trainloss: 0.4905   Testloss: 1.7515  TrainAcc: 87.23   Top1: 60.7167    Top5: 86.5167	lr:0.000912
Ep: 196   EpTime: 40.9407  Trainloss: 0.4914   Testloss: 1.7432  TrainAcc: 87.62   Top1: 60.3000    Top5: 86.4833	lr:0.000893
Ep: 197   EpTime: 40.5979  Trainloss: 0.4974   Testloss: 1.7353  TrainAcc: 87.39   Top1: 60.6333    Top5: 86.7000	lr:0.000876
Ep: 198   EpTime: 40.8630  Trainloss: 0.5071   Testloss: 1.7420  TrainAcc: 87.46   Top1: 60.6167    Top5: 86.3833	lr:0.000858
Ep: 199   EpTime: 41.6836  Trainloss: 0.4913   Testloss: 1.7452  TrainAcc: 87.19   Top1: 60.4500    Top5: 86.2333	lr:0.000841
Ep: 200   EpTime: 41.8214  Trainloss: 0.4917   Testloss: 1.7406  TrainAcc: 87.63   Top1: 60.5333    Top5: 86.4167	lr:0.000824
