[32, 16, 24, 32, 64, 96, 160, 320]
MobileNet2(
  (activation): ReLU6(inplace)
  (conv1): Conv2d(3, 32, kernel_size=(3, 3), stride=(2, 2), padding=(1, 1), bias=False)
  (bn1): BatchNorm2d(32, eps=1e-05, momentum=0.1, affine=True, track_running_stats=True)
  (bottlenecks): Sequential(
    (Bottlenecks_0): Sequential(
      (LinearBottleneck0_0): LinearBottleneck(
        (conv1): Conv2d(32, 32, kernel_size=(1, 1), stride=(1, 1), bias=False)
        (bn1): BatchNorm2d(32, eps=1e-05, momentum=0.1, affine=True, track_running_stats=True)
        (conv2): Conv2d(32, 32, kernel_size=(3, 3), stride=(1, 1), padding=(1, 1), groups=32, bias=False)
        (bn2): BatchNorm2d(32, eps=1e-05, momentum=0.1, affine=True, track_running_stats=True)
        (conv3): Conv2d(32, 16, kernel_size=(1, 1), stride=(1, 1), bias=False)
        (bn3): BatchNorm2d(16, eps=1e-05, momentum=0.1, affine=True, track_running_stats=True)
        (activation): ReLU6(inplace)
      )
    )
    (Bottlenecks_1): Sequential(
      (LinearBottleneck1_0): LinearBottleneck(
        (conv1): Conv2d(16, 96, kernel_size=(1, 1), stride=(1, 1), bias=False)
        (bn1): BatchNorm2d(96, eps=1e-05, momentum=0.1, affine=True, track_running_stats=True)
        (conv2): Conv2d(96, 96, kernel_size=(3, 3), stride=(2, 2), padding=(1, 1), groups=96, bias=False)
        (bn2): BatchNorm2d(96, eps=1e-05, momentum=0.1, affine=True, track_running_stats=True)
        (conv3): Conv2d(96, 24, kernel_size=(1, 1), stride=(1, 1), bias=False)
        (bn3): BatchNorm2d(24, eps=1e-05, momentum=0.1, affine=True, track_running_stats=True)
        (activation): ReLU6(inplace)
      )
      (LinearBottleneck1_1): LinearBottleneck(
        (conv1): Conv2d(24, 144, kernel_size=(1, 1), stride=(1, 1), bias=False)
        (bn1): BatchNorm2d(144, eps=1e-05, momentum=0.1, affine=True, track_running_stats=True)
        (conv2): Conv2d(144, 144, kernel_size=(3, 3), stride=(1, 1), padding=(1, 1), groups=144, bias=False)
        (bn2): BatchNorm2d(144, eps=1e-05, momentum=0.1, affine=True, track_running_stats=True)
        (conv3): Conv2d(144, 24, kernel_size=(1, 1), stride=(1, 1), bias=False)
        (bn3): BatchNorm2d(24, eps=1e-05, momentum=0.1, affine=True, track_running_stats=True)
        (activation): ReLU6(inplace)
      )
    )
    (Bottlenecks_2): Sequential(
      (LinearBottleneck2_0): LinearBottleneck(
        (conv1): Conv2d(24, 144, kernel_size=(1, 1), stride=(1, 1), bias=False)
        (bn1): BatchNorm2d(144, eps=1e-05, momentum=0.1, affine=True, track_running_stats=True)
        (conv2): Conv2d(144, 144, kernel_size=(3, 3), stride=(2, 2), padding=(1, 1), groups=144, bias=False)
        (bn2): BatchNorm2d(144, eps=1e-05, momentum=0.1, affine=True, track_running_stats=True)
        (conv3): Conv2d(144, 32, kernel_size=(1, 1), stride=(1, 1), bias=False)
        (bn3): BatchNorm2d(32, eps=1e-05, momentum=0.1, affine=True, track_running_stats=True)
        (activation): ReLU6(inplace)
      )
      (LinearBottleneck2_1): LinearBottleneck(
        (conv1): Conv2d(32, 192, kernel_size=(1, 1), stride=(1, 1), bias=False)
        (bn1): BatchNorm2d(192, eps=1e-05, momentum=0.1, affine=True, track_running_stats=True)
        (conv2): Conv2d(192, 192, kernel_size=(3, 3), stride=(1, 1), padding=(1, 1), groups=192, bias=False)
        (bn2): BatchNorm2d(192, eps=1e-05, momentum=0.1, affine=True, track_running_stats=True)
        (conv3): Conv2d(192, 32, kernel_size=(1, 1), stride=(1, 1), bias=False)
        (bn3): BatchNorm2d(32, eps=1e-05, momentum=0.1, affine=True, track_running_stats=True)
        (activation): ReLU6(inplace)
      )
      (LinearBottleneck2_2): LinearBottleneck(
        (conv1): Conv2d(32, 192, kernel_size=(1, 1), stride=(1, 1), bias=False)
        (bn1): BatchNorm2d(192, eps=1e-05, momentum=0.1, affine=True, track_running_stats=True)
        (conv2): Conv2d(192, 192, kernel_size=(3, 3), stride=(1, 1), padding=(1, 1), groups=192, bias=False)
        (bn2): BatchNorm2d(192, eps=1e-05, momentum=0.1, affine=True, track_running_stats=True)
        (conv3): Conv2d(192, 32, kernel_size=(1, 1), stride=(1, 1), bias=False)
        (bn3): BatchNorm2d(32, eps=1e-05, momentum=0.1, affine=True, track_running_stats=True)
        (activation): ReLU6(inplace)
      )
    )
    (Bottlenecks_3): Sequential(
      (LinearBottleneck3_0): LinearBottleneck(
        (conv1): Conv2d(32, 192, kernel_size=(1, 1), stride=(1, 1), bias=False)
        (bn1): BatchNorm2d(192, eps=1e-05, momentum=0.1, affine=True, track_running_stats=True)
        (conv2): Conv2d(192, 192, kernel_size=(3, 3), stride=(2, 2), padding=(1, 1), groups=192, bias=False)
        (bn2): BatchNorm2d(192, eps=1e-05, momentum=0.1, affine=True, track_running_stats=True)
        (conv3): Conv2d(192, 64, kernel_size=(1, 1), stride=(1, 1), bias=False)
        (bn3): BatchNorm2d(64, eps=1e-05, momentum=0.1, affine=True, track_running_stats=True)
        (activation): ReLU6(inplace)
      )
      (LinearBottleneck3AlphaBlock_1): AlphaBlock(
        (arm_1): SplitArm(
          (conv_dws): Conv2d(16, 16, kernel_size=(1, 1), stride=(1, 1), groups=16)
          (bn_dws): BatchNorm2d(16, eps=1e-05, momentum=0.9, affine=True, track_running_stats=True)
          (relu_dws): ReLU(inplace)
          (maxpool): MaxPool2d(kernel_size=3, stride=1, padding=1, dilation=1, ceil_mode=False)
          (conv_point): Conv2d(16, 1, kernel_size=(1, 1), stride=(1, 1))
          (bn_point): BatchNorm2d(1, eps=1e-05, momentum=0.9, affine=True, track_running_stats=True)
          (relu_point): ReLU(inplace)
          (softmax): Softmax()
        )
        (arm_2): SplitArm(
          (conv_dws): Conv2d(16, 16, kernel_size=(1, 1), stride=(1, 1), groups=16)
          (bn_dws): BatchNorm2d(16, eps=1e-05, momentum=0.9, affine=True, track_running_stats=True)
          (relu_dws): ReLU(inplace)
          (maxpool): MaxPool2d(kernel_size=3, stride=1, padding=1, dilation=1, ceil_mode=False)
          (conv_point): Conv2d(16, 1, kernel_size=(1, 1), stride=(1, 1))
          (bn_point): BatchNorm2d(1, eps=1e-05, momentum=0.9, affine=True, track_running_stats=True)
          (relu_point): ReLU(inplace)
          (softmax): Softmax()
        )
        (arm_3): SplitArm(
          (conv_dws): Conv2d(16, 16, kernel_size=(1, 1), stride=(1, 1), groups=16)
          (bn_dws): BatchNorm2d(16, eps=1e-05, momentum=0.9, affine=True, track_running_stats=True)
          (relu_dws): ReLU(inplace)
          (maxpool): MaxPool2d(kernel_size=3, stride=1, padding=1, dilation=1, ceil_mode=False)
          (conv_point): Conv2d(16, 1, kernel_size=(1, 1), stride=(1, 1))
          (bn_point): BatchNorm2d(1, eps=1e-05, momentum=0.9, affine=True, track_running_stats=True)
          (relu_point): ReLU(inplace)
          (softmax): Softmax()
        )
        (arm_4): SplitArm(
          (conv_dws): Conv2d(16, 16, kernel_size=(1, 1), stride=(1, 1), groups=16)
          (bn_dws): BatchNorm2d(16, eps=1e-05, momentum=0.9, affine=True, track_running_stats=True)
          (relu_dws): ReLU(inplace)
          (maxpool): MaxPool2d(kernel_size=3, stride=1, padding=1, dilation=1, ceil_mode=False)
          (conv_point): Conv2d(16, 1, kernel_size=(1, 1), stride=(1, 1))
          (bn_point): BatchNorm2d(1, eps=1e-05, momentum=0.9, affine=True, track_running_stats=True)
          (relu_point): ReLU(inplace)
          (softmax): Softmax()
        )
      )
      (LinearBottleneck3_2): LinearBottleneck(
        (conv1): Conv2d(64, 384, kernel_size=(1, 1), stride=(1, 1), bias=False)
        (bn1): BatchNorm2d(384, eps=1e-05, momentum=0.1, affine=True, track_running_stats=True)
        (conv2): Conv2d(384, 384, kernel_size=(3, 3), stride=(1, 1), padding=(1, 1), groups=384, bias=False)
        (bn2): BatchNorm2d(384, eps=1e-05, momentum=0.1, affine=True, track_running_stats=True)
        (conv3): Conv2d(384, 64, kernel_size=(1, 1), stride=(1, 1), bias=False)
        (bn3): BatchNorm2d(64, eps=1e-05, momentum=0.1, affine=True, track_running_stats=True)
        (activation): ReLU6(inplace)
      )
      (LinearBottleneck3_3): LinearBottleneck(
        (conv1): Conv2d(64, 384, kernel_size=(1, 1), stride=(1, 1), bias=False)
        (bn1): BatchNorm2d(384, eps=1e-05, momentum=0.1, affine=True, track_running_stats=True)
        (conv2): Conv2d(384, 384, kernel_size=(3, 3), stride=(1, 1), padding=(1, 1), groups=384, bias=False)
        (bn2): BatchNorm2d(384, eps=1e-05, momentum=0.1, affine=True, track_running_stats=True)
        (conv3): Conv2d(384, 64, kernel_size=(1, 1), stride=(1, 1), bias=False)
        (bn3): BatchNorm2d(64, eps=1e-05, momentum=0.1, affine=True, track_running_stats=True)
        (activation): ReLU6(inplace)
      )
    )
    (Bottlenecks_4): Sequential(
      (LinearBottleneck4_0): LinearBottleneck(
        (conv1): Conv2d(64, 384, kernel_size=(1, 1), stride=(1, 1), bias=False)
        (bn1): BatchNorm2d(384, eps=1e-05, momentum=0.1, affine=True, track_running_stats=True)
        (conv2): Conv2d(384, 384, kernel_size=(3, 3), stride=(1, 1), padding=(1, 1), groups=384, bias=False)
        (bn2): BatchNorm2d(384, eps=1e-05, momentum=0.1, affine=True, track_running_stats=True)
        (conv3): Conv2d(384, 96, kernel_size=(1, 1), stride=(1, 1), bias=False)
        (bn3): BatchNorm2d(96, eps=1e-05, momentum=0.1, affine=True, track_running_stats=True)
        (activation): ReLU6(inplace)
      )
      (LinearBottleneck4AlphaBlock_1): AlphaBlock(
        (arm_1): SplitArm(
          (conv_dws): Conv2d(24, 24, kernel_size=(1, 1), stride=(1, 1), groups=24)
          (bn_dws): BatchNorm2d(24, eps=1e-05, momentum=0.9, affine=True, track_running_stats=True)
          (relu_dws): ReLU(inplace)
          (maxpool): MaxPool2d(kernel_size=3, stride=1, padding=1, dilation=1, ceil_mode=False)
          (conv_point): Conv2d(24, 1, kernel_size=(1, 1), stride=(1, 1))
          (bn_point): BatchNorm2d(1, eps=1e-05, momentum=0.9, affine=True, track_running_stats=True)
          (relu_point): ReLU(inplace)
          (softmax): Softmax()
        )
        (arm_2): SplitArm(
          (conv_dws): Conv2d(24, 24, kernel_size=(1, 1), stride=(1, 1), groups=24)
          (bn_dws): BatchNorm2d(24, eps=1e-05, momentum=0.9, affine=True, track_running_stats=True)
          (relu_dws): ReLU(inplace)
          (maxpool): MaxPool2d(kernel_size=3, stride=1, padding=1, dilation=1, ceil_mode=False)
          (conv_point): Conv2d(24, 1, kernel_size=(1, 1), stride=(1, 1))
          (bn_point): BatchNorm2d(1, eps=1e-05, momentum=0.9, affine=True, track_running_stats=True)
          (relu_point): ReLU(inplace)
          (softmax): Softmax()
        )
        (arm_3): SplitArm(
          (conv_dws): Conv2d(24, 24, kernel_size=(1, 1), stride=(1, 1), groups=24)
          (bn_dws): BatchNorm2d(24, eps=1e-05, momentum=0.9, affine=True, track_running_stats=True)
          (relu_dws): ReLU(inplace)
          (maxpool): MaxPool2d(kernel_size=3, stride=1, padding=1, dilation=1, ceil_mode=False)
          (conv_point): Conv2d(24, 1, kernel_size=(1, 1), stride=(1, 1))
          (bn_point): BatchNorm2d(1, eps=1e-05, momentum=0.9, affine=True, track_running_stats=True)
          (relu_point): ReLU(inplace)
          (softmax): Softmax()
        )
        (arm_4): SplitArm(
          (conv_dws): Conv2d(24, 24, kernel_size=(1, 1), stride=(1, 1), groups=24)
          (bn_dws): BatchNorm2d(24, eps=1e-05, momentum=0.9, affine=True, track_running_stats=True)
          (relu_dws): ReLU(inplace)
          (maxpool): MaxPool2d(kernel_size=3, stride=1, padding=1, dilation=1, ceil_mode=False)
          (conv_point): Conv2d(24, 1, kernel_size=(1, 1), stride=(1, 1))
          (bn_point): BatchNorm2d(1, eps=1e-05, momentum=0.9, affine=True, track_running_stats=True)
          (relu_point): ReLU(inplace)
          (softmax): Softmax()
        )
      )
      (LinearBottleneck4_2): LinearBottleneck(
        (conv1): Conv2d(96, 576, kernel_size=(1, 1), stride=(1, 1), bias=False)
        (bn1): BatchNorm2d(576, eps=1e-05, momentum=0.1, affine=True, track_running_stats=True)
        (conv2): Conv2d(576, 576, kernel_size=(3, 3), stride=(1, 1), padding=(1, 1), groups=576, bias=False)
        (bn2): BatchNorm2d(576, eps=1e-05, momentum=0.1, affine=True, track_running_stats=True)
        (conv3): Conv2d(576, 96, kernel_size=(1, 1), stride=(1, 1), bias=False)
        (bn3): BatchNorm2d(96, eps=1e-05, momentum=0.1, affine=True, track_running_stats=True)
        (activation): ReLU6(inplace)
      )
    )
    (Bottlenecks_5): Sequential(
      (LinearBottleneck5_0): LinearBottleneck(
        (conv1): Conv2d(96, 576, kernel_size=(1, 1), stride=(1, 1), bias=False)
        (bn1): BatchNorm2d(576, eps=1e-05, momentum=0.1, affine=True, track_running_stats=True)
        (conv2): Conv2d(576, 576, kernel_size=(3, 3), stride=(2, 2), padding=(1, 1), groups=576, bias=False)
        (bn2): BatchNorm2d(576, eps=1e-05, momentum=0.1, affine=True, track_running_stats=True)
        (conv3): Conv2d(576, 160, kernel_size=(1, 1), stride=(1, 1), bias=False)
        (bn3): BatchNorm2d(160, eps=1e-05, momentum=0.1, affine=True, track_running_stats=True)
        (activation): ReLU6(inplace)
      )
      (LinearBottleneck5_1): LinearBottleneck(
        (conv1): Conv2d(160, 960, kernel_size=(1, 1), stride=(1, 1), bias=False)
        (bn1): BatchNorm2d(960, eps=1e-05, momentum=0.1, affine=True, track_running_stats=True)
        (conv2): Conv2d(960, 960, kernel_size=(3, 3), stride=(1, 1), padding=(1, 1), groups=960, bias=False)
        (bn2): BatchNorm2d(960, eps=1e-05, momentum=0.1, affine=True, track_running_stats=True)
        (conv3): Conv2d(960, 160, kernel_size=(1, 1), stride=(1, 1), bias=False)
        (bn3): BatchNorm2d(160, eps=1e-05, momentum=0.1, affine=True, track_running_stats=True)
        (activation): ReLU6(inplace)
      )
      (LinearBottleneck5_2): LinearBottleneck(
        (conv1): Conv2d(160, 960, kernel_size=(1, 1), stride=(1, 1), bias=False)
        (bn1): BatchNorm2d(960, eps=1e-05, momentum=0.1, affine=True, track_running_stats=True)
        (conv2): Conv2d(960, 960, kernel_size=(3, 3), stride=(1, 1), padding=(1, 1), groups=960, bias=False)
        (bn2): BatchNorm2d(960, eps=1e-05, momentum=0.1, affine=True, track_running_stats=True)
        (conv3): Conv2d(960, 160, kernel_size=(1, 1), stride=(1, 1), bias=False)
        (bn3): BatchNorm2d(160, eps=1e-05, momentum=0.1, affine=True, track_running_stats=True)
        (activation): ReLU6(inplace)
      )
    )
    (Bottlenecks_6): Sequential(
      (LinearBottleneck6_0): LinearBottleneck(
        (conv1): Conv2d(160, 960, kernel_size=(1, 1), stride=(1, 1), bias=False)
        (bn1): BatchNorm2d(960, eps=1e-05, momentum=0.1, affine=True, track_running_stats=True)
        (conv2): Conv2d(960, 960, kernel_size=(3, 3), stride=(1, 1), padding=(1, 1), groups=960, bias=False)
        (bn2): BatchNorm2d(960, eps=1e-05, momentum=0.1, affine=True, track_running_stats=True)
        (conv3): Conv2d(960, 320, kernel_size=(1, 1), stride=(1, 1), bias=False)
        (bn3): BatchNorm2d(320, eps=1e-05, momentum=0.1, affine=True, track_running_stats=True)
        (activation): ReLU6(inplace)
      )
    )
  )
  (conv_last): Conv2d(320, 1280, kernel_size=(1, 1), stride=(1, 1), bias=False)
  (bn_last): BatchNorm2d(1280, eps=1e-05, momentum=0.1, affine=True, track_running_stats=True)
  (avgpool): AdaptiveAvgPool2d(output_size=1)
  (dropout): Dropout(p=0.2, inplace)
  (fc): Linear(in_features=1280, out_features=120, bias=True)
)
Ep: 1   EpTime: 39.9269  Trainloss: 4.8643   Testloss: 4.7041  TrainAcc: 1.70   Top1: 2.6500    Top5: 11.5500	lr:0.045000
Checkpoint saved!!!
Ep: 2   EpTime: 37.1993  Trainloss: 4.5025   Testloss: 4.5512  TrainAcc: 3.90   Top1: 3.6000    Top5: 13.6833	lr:0.045000
Checkpoint saved!!!
Ep: 3   EpTime: 37.4993  Trainloss: 4.3080   Testloss: 4.2534  TrainAcc: 5.61   Top1: 5.5500    Top5: 20.9000	lr:0.044100
Checkpoint saved!!!
Ep: 4   EpTime: 37.4334  Trainloss: 4.1688   Testloss: 3.9841  TrainAcc: 6.64   Top1: 8.5333    Top5: 28.3667	lr:0.043218
Checkpoint saved!!!
Ep: 5   EpTime: 37.7694  Trainloss: 4.0528   Testloss: 4.0915  TrainAcc: 7.96   Top1: 7.7000    Top5: 25.2667	lr:0.042354
Ep: 6   EpTime: 37.2866  Trainloss: 3.9283   Testloss: 4.1431  TrainAcc: 9.69   Top1: 7.1333    Top5: 25.3833	lr:0.041507
Ep: 7   EpTime: 37.6334  Trainloss: 3.8447   Testloss: 3.7775  TrainAcc: 10.20   Top1: 11.5667    Top5: 35.3667	lr:0.040676
Checkpoint saved!!!
Ep: 8   EpTime: 37.5593  Trainloss: 3.7304   Testloss: 3.9019  TrainAcc: 12.37   Top1: 11.5167    Top5: 35.9000	lr:0.039863
Ep: 9   EpTime: 37.7207  Trainloss: 3.6512   Testloss: 3.4277  TrainAcc: 14.12   Top1: 16.4500    Top5: 44.0167	lr:0.039066
Checkpoint saved!!!
Ep: 10   EpTime: 37.7932  Trainloss: 3.5302   Testloss: 3.5031  TrainAcc: 15.99   Top1: 15.6667    Top5: 43.6000	lr:0.038284
Ep: 11   EpTime: 37.8835  Trainloss: 3.4707   Testloss: 3.3085  TrainAcc: 16.86   Top1: 17.5333    Top5: 48.4000	lr:0.037519
Checkpoint saved!!!
Ep: 12   EpTime: 37.7378  Trainloss: 3.3411   Testloss: 3.4422  TrainAcc: 19.01   Top1: 17.3000    Top5: 45.9333	lr:0.036768
Ep: 13   EpTime: 37.7389  Trainloss: 3.2528   Testloss: 3.2910  TrainAcc: 21.06   Top1: 20.6333    Top5: 51.1167	lr:0.036033
Checkpoint saved!!!
Ep: 14   EpTime: 37.7555  Trainloss: 3.1582   Testloss: 3.0268  TrainAcc: 22.96   Top1: 24.7000    Top5: 55.7333	lr:0.035312
Checkpoint saved!!!
Ep: 15   EpTime: 37.7121  Trainloss: 3.0387   Testloss: 3.2062  TrainAcc: 24.01   Top1: 21.8333    Top5: 51.6500	lr:0.034606
Ep: 16   EpTime: 37.9441  Trainloss: 2.9771   Testloss: 2.8823  TrainAcc: 25.93   Top1: 25.8000    Top5: 59.3000	lr:0.033914
Checkpoint saved!!!
Ep: 17   EpTime: 37.5746  Trainloss: 2.8958   Testloss: 2.7870  TrainAcc: 27.45   Top1: 28.9667    Top5: 64.7333	lr:0.033236
Checkpoint saved!!!
Ep: 18   EpTime: 37.6393  Trainloss: 2.8025   Testloss: 2.6514  TrainAcc: 29.43   Top1: 31.4833    Top5: 65.2667	lr:0.032571
Checkpoint saved!!!
Ep: 19   EpTime: 37.4591  Trainloss: 2.7035   Testloss: 2.5715  TrainAcc: 31.49   Top1: 33.2000    Top5: 67.2000	lr:0.031919
Checkpoint saved!!!
Ep: 20   EpTime: 37.8000  Trainloss: 2.6454   Testloss: 2.4233  TrainAcc: 32.52   Top1: 36.1833    Top5: 70.5333	lr:0.031281
Checkpoint saved!!!
Ep: 21   EpTime: 37.4924  Trainloss: 2.5368   Testloss: 2.3233  TrainAcc: 35.19   Top1: 37.5833    Top5: 72.3667	lr:0.030655
Checkpoint saved!!!
Ep: 22   EpTime: 37.5859  Trainloss: 2.4980   Testloss: 2.5283  TrainAcc: 36.41   Top1: 35.1167    Top5: 69.3500	lr:0.030042
Ep: 23   EpTime: 37.4836  Trainloss: 2.4007   Testloss: 2.3821  TrainAcc: 38.05   Top1: 36.7000    Top5: 70.8667	lr:0.029442
Ep: 24   EpTime: 37.5194  Trainloss: 2.3486   Testloss: 2.3108  TrainAcc: 38.83   Top1: 38.8500    Top5: 73.3333	lr:0.028853
Checkpoint saved!!!
Ep: 25   EpTime: 37.9394  Trainloss: 2.3257   Testloss: 2.2023  TrainAcc: 39.33   Top1: 41.6500    Top5: 75.0833	lr:0.028276
Checkpoint saved!!!
Ep: 26   EpTime: 37.5721  Trainloss: 2.2321   Testloss: 2.1088  TrainAcc: 41.07   Top1: 43.0000    Top5: 77.2833	lr:0.027710
Checkpoint saved!!!
Ep: 27   EpTime: 37.7047  Trainloss: 2.1869   Testloss: 2.0382  TrainAcc: 42.75   Top1: 45.2500    Top5: 77.8667	lr:0.027156
Checkpoint saved!!!
Ep: 28   EpTime: 37.8652  Trainloss: 2.1217   Testloss: 2.0476  TrainAcc: 43.55   Top1: 45.2500    Top5: 78.2667	lr:0.026613
Checkpoint saved!!!
Ep: 29   EpTime: 37.5857  Trainloss: 2.0837   Testloss: 2.0294  TrainAcc: 44.97   Top1: 44.8667    Top5: 78.7833	lr:0.026081
Ep: 30   EpTime: 37.8759  Trainloss: 2.0544   Testloss: 1.9916  TrainAcc: 45.99   Top1: 46.8500    Top5: 79.6833	lr:0.025559
Checkpoint saved!!!
Ep: 31   EpTime: 37.6859  Trainloss: 1.9836   Testloss: 1.8870  TrainAcc: 47.48   Top1: 48.8000    Top5: 80.6500	lr:0.025048
Checkpoint saved!!!
Ep: 32   EpTime: 37.3830  Trainloss: 1.9544   Testloss: 1.8766  TrainAcc: 47.79   Top1: 49.5333    Top5: 81.5833	lr:0.024547
Checkpoint saved!!!
Ep: 33   EpTime: 37.2748  Trainloss: 1.9286   Testloss: 1.8163  TrainAcc: 48.57   Top1: 50.9000    Top5: 82.1500	lr:0.024056
Checkpoint saved!!!
Ep: 34   EpTime: 37.7422  Trainloss: 1.8734   Testloss: 1.8722  TrainAcc: 49.99   Top1: 49.5500    Top5: 81.6333	lr:0.023575
Ep: 35   EpTime: 37.6410  Trainloss: 1.8339   Testloss: 1.8137  TrainAcc: 50.87   Top1: 50.3833    Top5: 82.6667	lr:0.023103
Ep: 36   EpTime: 37.4464  Trainloss: 1.7967   Testloss: 1.8247  TrainAcc: 52.33   Top1: 50.5000    Top5: 82.2333	lr:0.022641
Ep: 37   EpTime: 37.2402  Trainloss: 1.7625   Testloss: 1.7966  TrainAcc: 52.92   Top1: 51.1333    Top5: 82.7167	lr:0.022188
Checkpoint saved!!!
Ep: 38   EpTime: 37.5667  Trainloss: 1.7490   Testloss: 1.7981  TrainAcc: 53.44   Top1: 51.8500    Top5: 83.0000	lr:0.021745
Checkpoint saved!!!
Ep: 39   EpTime: 37.8374  Trainloss: 1.6930   Testloss: 1.7868  TrainAcc: 54.03   Top1: 52.1833    Top5: 83.2667	lr:0.021310
Checkpoint saved!!!
Ep: 40   EpTime: 37.5534  Trainloss: 1.6779   Testloss: 1.7572  TrainAcc: 54.79   Top1: 52.2833    Top5: 83.6167	lr:0.020884
Checkpoint saved!!!
Ep: 41   EpTime: 37.8048  Trainloss: 1.6472   Testloss: 1.7734  TrainAcc: 55.01   Top1: 52.4500    Top5: 82.6667	lr:0.020466
Checkpoint saved!!!
Ep: 42   EpTime: 37.7621  Trainloss: 1.6140   Testloss: 1.7839  TrainAcc: 56.50   Top1: 53.1500    Top5: 83.3333	lr:0.020057
Checkpoint saved!!!
Ep: 43   EpTime: 37.7502  Trainloss: 1.5952   Testloss: 1.6844  TrainAcc: 56.71   Top1: 54.0167    Top5: 85.0500	lr:0.019655
Checkpoint saved!!!
Ep: 44   EpTime: 37.7152  Trainloss: 1.5756   Testloss: 1.6532  TrainAcc: 57.48   Top1: 55.0833    Top5: 85.9000	lr:0.019262
Checkpoint saved!!!
Ep: 45   EpTime: 37.3420  Trainloss: 1.5290   Testloss: 1.7442  TrainAcc: 58.66   Top1: 54.6167    Top5: 84.2667	lr:0.018877
Ep: 46   EpTime: 37.7020  Trainloss: 1.4969   Testloss: 1.6099  TrainAcc: 59.83   Top1: 55.5333    Top5: 85.8833	lr:0.018499
Checkpoint saved!!!
Ep: 47   EpTime: 37.6913  Trainloss: 1.4747   Testloss: 1.6871  TrainAcc: 59.88   Top1: 55.2667    Top5: 85.1333	lr:0.018130
Ep: 48   EpTime: 37.5262  Trainloss: 1.4571   Testloss: 1.6811  TrainAcc: 60.34   Top1: 54.9667    Top5: 84.5833	lr:0.017767
Ep: 49   EpTime: 37.1482  Trainloss: 1.4241   Testloss: 1.6678  TrainAcc: 61.31   Top1: 55.8833    Top5: 85.7167	lr:0.017412
Checkpoint saved!!!
Ep: 50   EpTime: 37.7830  Trainloss: 1.4196   Testloss: 1.6360  TrainAcc: 61.58   Top1: 56.5000    Top5: 85.8167	lr:0.017063
Checkpoint saved!!!
Ep: 51   EpTime: 37.5367  Trainloss: 1.3999   Testloss: 1.6282  TrainAcc: 62.31   Top1: 57.1500    Top5: 86.2000	lr:0.016722
Checkpoint saved!!!
Ep: 52   EpTime: 37.5546  Trainloss: 1.3728   Testloss: 1.6970  TrainAcc: 63.33   Top1: 55.8000    Top5: 85.3167	lr:0.016388
Ep: 53   EpTime: 37.4477  Trainloss: 1.3312   Testloss: 1.6446  TrainAcc: 64.16   Top1: 56.2833    Top5: 85.4167	lr:0.016060
Ep: 54   EpTime: 37.4710  Trainloss: 1.3271   Testloss: 1.6466  TrainAcc: 63.96   Top1: 57.1333    Top5: 85.8667	lr:0.015739
Ep: 55   EpTime: 38.1168  Trainloss: 1.3127   Testloss: 1.6481  TrainAcc: 64.41   Top1: 56.4667    Top5: 86.2500	lr:0.015424
Ep: 56   EpTime: 37.8901  Trainloss: 1.2894   Testloss: 1.6860  TrainAcc: 65.02   Top1: 56.2500    Top5: 85.1167	lr:0.015115
Ep: 57   EpTime: 37.6185  Trainloss: 1.2534   Testloss: 1.6831  TrainAcc: 66.04   Top1: 56.0167    Top5: 85.4333	lr:0.014813
Ep: 58   EpTime: 37.9948  Trainloss: 1.2623   Testloss: 1.6781  TrainAcc: 65.77   Top1: 57.0333    Top5: 85.8333	lr:0.014517
Ep: 59   EpTime: 37.6322  Trainloss: 1.2399   Testloss: 1.6745  TrainAcc: 66.56   Top1: 56.4500    Top5: 85.9333	lr:0.014227
Ep: 60   EpTime: 37.7106  Trainloss: 1.2132   Testloss: 1.6327  TrainAcc: 67.05   Top1: 58.0000    Top5: 86.1333	lr:0.013942
Checkpoint saved!!!
Ep: 61   EpTime: 37.6848  Trainloss: 1.1892   Testloss: 1.6849  TrainAcc: 68.11   Top1: 57.2833    Top5: 85.8500	lr:0.013663
Ep: 62   EpTime: 37.7048  Trainloss: 1.1944   Testloss: 1.6431  TrainAcc: 67.74   Top1: 58.0000    Top5: 85.9667	lr:0.013390
Checkpoint saved!!!
Ep: 63   EpTime: 37.5328  Trainloss: 1.1489   Testloss: 1.6252  TrainAcc: 68.79   Top1: 57.6167    Top5: 86.1167	lr:0.013122
Ep: 64   EpTime: 37.9523  Trainloss: 1.1757   Testloss: 1.6471  TrainAcc: 68.35   Top1: 57.9000    Top5: 86.3500	lr:0.012860
Ep: 65   EpTime: 37.6710  Trainloss: 1.1470   Testloss: 1.6388  TrainAcc: 69.25   Top1: 58.3333    Top5: 86.3500	lr:0.012602
Checkpoint saved!!!
Ep: 66   EpTime: 37.5197  Trainloss: 1.0851   Testloss: 1.5948  TrainAcc: 70.52   Top1: 59.2500    Top5: 86.6667	lr:0.012350
Checkpoint saved!!!
Ep: 67   EpTime: 37.6753  Trainloss: 1.0897   Testloss: 1.6069  TrainAcc: 71.08   Top1: 58.5833    Top5: 86.8500	lr:0.012103
Ep: 68   EpTime: 37.6879  Trainloss: 1.0653   Testloss: 1.6090  TrainAcc: 71.41   Top1: 59.2000    Top5: 86.8000	lr:0.011861
Ep: 69   EpTime: 37.5759  Trainloss: 1.0694   Testloss: 1.6102  TrainAcc: 71.80   Top1: 59.3000    Top5: 86.9167	lr:0.011624
Checkpoint saved!!!
Ep: 70   EpTime: 37.6117  Trainloss: 1.0507   Testloss: 1.6064  TrainAcc: 71.80   Top1: 59.6333    Top5: 86.3000	lr:0.011392
Checkpoint saved!!!
Ep: 71   EpTime: 37.6959  Trainloss: 1.0485   Testloss: 1.5879  TrainAcc: 71.83   Top1: 59.6000    Top5: 87.1833	lr:0.011164
Ep: 72   EpTime: 37.8126  Trainloss: 1.0378   Testloss: 1.6109  TrainAcc: 72.32   Top1: 59.9667    Top5: 87.1833	lr:0.010941
Checkpoint saved!!!
Ep: 73   EpTime: 37.3021  Trainloss: 1.0188   Testloss: 1.6222  TrainAcc: 72.78   Top1: 58.9000    Top5: 87.0500	lr:0.010722
Ep: 74   EpTime: 38.3032  Trainloss: 0.9899   Testloss: 1.6030  TrainAcc: 73.25   Top1: 59.3167    Top5: 87.4667	lr:0.010507
Ep: 75   EpTime: 37.3585  Trainloss: 0.9802   Testloss: 1.6142  TrainAcc: 73.47   Top1: 59.7833    Top5: 86.8500	lr:0.010297
Ep: 76   EpTime: 37.9822  Trainloss: 0.9729   Testloss: 1.6191  TrainAcc: 74.11   Top1: 59.2167    Top5: 87.1667	lr:0.010091
Ep: 77   EpTime: 37.4050  Trainloss: 0.9713   Testloss: 1.6712  TrainAcc: 73.99   Top1: 58.5167    Top5: 86.6833	lr:0.009889
Ep: 78   EpTime: 37.9136  Trainloss: 0.9575   Testloss: 1.6625  TrainAcc: 74.38   Top1: 59.1500    Top5: 86.6333	lr:0.009692
Ep: 79   EpTime: 37.5807  Trainloss: 0.9333   Testloss: 1.6162  TrainAcc: 75.21   Top1: 59.0833    Top5: 86.9667	lr:0.009498
Ep: 80   EpTime: 37.7692  Trainloss: 0.9273   Testloss: 1.6595  TrainAcc: 75.64   Top1: 59.2500    Top5: 86.5167	lr:0.009308
Ep: 81   EpTime: 37.5811  Trainloss: 0.9215   Testloss: 1.6432  TrainAcc: 75.35   Top1: 59.5667    Top5: 87.2333	lr:0.009122
Ep: 82   EpTime: 38.0514  Trainloss: 0.9298   Testloss: 1.6648  TrainAcc: 74.98   Top1: 59.1833    Top5: 86.7333	lr:0.008939
Ep: 83   EpTime: 37.8386  Trainloss: 0.8767   Testloss: 1.6121  TrainAcc: 76.83   Top1: 60.3000    Top5: 87.2833	lr:0.008760
Checkpoint saved!!!
Ep: 84   EpTime: 37.5167  Trainloss: 0.8966   Testloss: 1.6694  TrainAcc: 75.97   Top1: 59.0500    Top5: 86.4500	lr:0.008585
Ep: 85   EpTime: 37.5366  Trainloss: 0.8763   Testloss: 1.6541  TrainAcc: 76.74   Top1: 59.4833    Top5: 86.6333	lr:0.008414
Ep: 86   EpTime: 37.5391  Trainloss: 0.8880   Testloss: 1.6499  TrainAcc: 76.20   Top1: 59.3333    Top5: 86.3500	lr:0.008245
Ep: 87   EpTime: 37.6614  Trainloss: 0.8740   Testloss: 1.6866  TrainAcc: 76.61   Top1: 58.9167    Top5: 86.6500	lr:0.008080
Ep: 88   EpTime: 37.9550  Trainloss: 0.8538   Testloss: 1.6453  TrainAcc: 77.27   Top1: 59.7500    Top5: 86.8000	lr:0.007919
Ep: 89   EpTime: 38.0136  Trainloss: 0.8410   Testloss: 1.6541  TrainAcc: 77.99   Top1: 60.0833    Top5: 86.6167	lr:0.007760
Ep: 90   EpTime: 37.8978  Trainloss: 0.8180   Testloss: 1.6452  TrainAcc: 78.33   Top1: 60.2833    Top5: 87.1667	lr:0.007605
Ep: 91   EpTime: 37.9818  Trainloss: 0.8110   Testloss: 1.6644  TrainAcc: 78.20   Top1: 59.5000    Top5: 86.9500	lr:0.007453
Ep: 92   EpTime: 37.7289  Trainloss: 0.8199   Testloss: 1.6511  TrainAcc: 78.13   Top1: 59.7833    Top5: 86.9333	lr:0.007304
Ep: 93   EpTime: 37.2300  Trainloss: 0.8001   Testloss: 1.6566  TrainAcc: 79.34   Top1: 60.0833    Top5: 87.3500	lr:0.007158
Ep: 94   EpTime: 37.3848  Trainloss: 0.8149   Testloss: 1.6736  TrainAcc: 78.48   Top1: 60.5333    Top5: 86.8500	lr:0.007015
Checkpoint saved!!!
Ep: 95   EpTime: 37.4721  Trainloss: 0.7804   Testloss: 1.6722  TrainAcc: 79.59   Top1: 60.0833    Top5: 86.8833	lr:0.006874
Ep: 96   EpTime: 37.5211  Trainloss: 0.7841   Testloss: 1.6785  TrainAcc: 79.48   Top1: 60.2000    Top5: 86.6667	lr:0.006737
Ep: 97   EpTime: 38.1116  Trainloss: 0.7637   Testloss: 1.6555  TrainAcc: 79.90   Top1: 60.3833    Top5: 87.0333	lr:0.006602
Ep: 98   EpTime: 38.2522  Trainloss: 0.7745   Testloss: 1.6366  TrainAcc: 79.81   Top1: 60.9000    Top5: 86.9000	lr:0.006470
Checkpoint saved!!!
Ep: 99   EpTime: 37.8460  Trainloss: 0.7746   Testloss: 1.6655  TrainAcc: 79.64   Top1: 60.8333    Top5: 87.1000	lr:0.006341
Ep: 100   EpTime: 38.3031  Trainloss: 0.7480   Testloss: 1.6812  TrainAcc: 80.49   Top1: 61.3167    Top5: 86.7833	lr:0.006214
Checkpoint saved!!!
Ep: 101   EpTime: 37.7276  Trainloss: 0.7592   Testloss: 1.6892  TrainAcc: 80.32   Top1: 59.9000    Top5: 86.7333	lr:0.006090
Ep: 102   EpTime: 38.2129  Trainloss: 0.7459   Testloss: 1.6518  TrainAcc: 80.58   Top1: 61.1833    Top5: 87.1000	lr:0.005968
Ep: 103   EpTime: 38.3054  Trainloss: 0.7605   Testloss: 1.6674  TrainAcc: 80.23   Top1: 61.5333    Top5: 86.9833	lr:0.005849
Checkpoint saved!!!
Ep: 104   EpTime: 38.8703  Trainloss: 0.7446   Testloss: 1.6765  TrainAcc: 80.78   Top1: 60.2667    Top5: 86.7667	lr:0.005732
Ep: 105   EpTime: 39.1998  Trainloss: 0.7358   Testloss: 1.6748  TrainAcc: 80.95   Top1: 60.6167    Top5: 87.3833	lr:0.005617
Ep: 106   EpTime: 38.6413  Trainloss: 0.7341   Testloss: 1.6592  TrainAcc: 80.84   Top1: 60.7500    Top5: 87.0833	lr:0.005505
Ep: 107   EpTime: 38.2071  Trainloss: 0.7026   Testloss: 1.6648  TrainAcc: 81.73   Top1: 60.8667    Top5: 87.3000	lr:0.005394
Ep: 108   EpTime: 38.0727  Trainloss: 0.7274   Testloss: 1.6809  TrainAcc: 80.91   Top1: 60.4500    Top5: 87.1167	lr:0.005287
Ep: 109   EpTime: 38.5911  Trainloss: 0.7408   Testloss: 1.6671  TrainAcc: 80.42   Top1: 61.4167    Top5: 87.1167	lr:0.005181
Ep: 110   EpTime: 38.2726  Trainloss: 0.6914   Testloss: 1.6718  TrainAcc: 81.98   Top1: 60.8500    Top5: 87.4167	lr:0.005077
Ep: 111   EpTime: 38.1254  Trainloss: 0.6840   Testloss: 1.6791  TrainAcc: 81.96   Top1: 60.5667    Top5: 86.9500	lr:0.004976
Ep: 112   EpTime: 37.7258  Trainloss: 0.6867   Testloss: 1.7049  TrainAcc: 82.36   Top1: 60.6333    Top5: 86.9667	lr:0.004876
Ep: 113   EpTime: 38.2516  Trainloss: 0.6913   Testloss: 1.6884  TrainAcc: 81.95   Top1: 60.4333    Top5: 87.2167	lr:0.004779
Ep: 114   EpTime: 38.2980  Trainloss: 0.6738   Testloss: 1.6978  TrainAcc: 82.19   Top1: 60.5333    Top5: 87.2667	lr:0.004683
Ep: 115   EpTime: 37.9927  Trainloss: 0.6748   Testloss: 1.6630  TrainAcc: 82.34   Top1: 61.1000    Top5: 87.2000	lr:0.004589
Ep: 116   EpTime: 37.9285  Trainloss: 0.6926   Testloss: 1.6991  TrainAcc: 82.17   Top1: 61.0333    Top5: 86.5667	lr:0.004498
Ep: 117   EpTime: 37.4910  Trainloss: 0.6821   Testloss: 1.6875  TrainAcc: 82.10   Top1: 60.4167    Top5: 87.0500	lr:0.004408
Ep: 118   EpTime: 37.6777  Trainloss: 0.6630   Testloss: 1.6720  TrainAcc: 83.05   Top1: 60.7500    Top5: 87.2333	lr:0.004320
Ep: 119   EpTime: 38.3014  Trainloss: 0.6708   Testloss: 1.6918  TrainAcc: 82.57   Top1: 60.6667    Top5: 87.1000	lr:0.004233
Ep: 120   EpTime: 38.3624  Trainloss: 0.6297   Testloss: 1.6951  TrainAcc: 83.95   Top1: 60.8500    Top5: 86.9167	lr:0.004148
Ep: 121   EpTime: 38.3494  Trainloss: 0.6726   Testloss: 1.6871  TrainAcc: 82.63   Top1: 60.9167    Top5: 87.2833	lr:0.004066
Ep: 122   EpTime: 38.0823  Trainloss: 0.6473   Testloss: 1.6831  TrainAcc: 83.16   Top1: 60.6000    Top5: 86.9000	lr:0.003984
Ep: 123   EpTime: 38.7041  Trainloss: 0.6285   Testloss: 1.6904  TrainAcc: 83.53   Top1: 61.0000    Top5: 87.5167	lr:0.003905
Ep: 124   EpTime: 38.0903  Trainloss: 0.6333   Testloss: 1.6787  TrainAcc: 83.53   Top1: 60.7167    Top5: 86.9333	lr:0.003826
Ep: 125   EpTime: 38.0580  Trainloss: 0.6342   Testloss: 1.6992  TrainAcc: 83.69   Top1: 60.8833    Top5: 86.4667	lr:0.003750
Ep: 126   EpTime: 37.9762  Trainloss: 0.6418   Testloss: 1.6821  TrainAcc: 83.32   Top1: 60.7833    Top5: 86.7167	lr:0.003675
Ep: 127   EpTime: 37.4086  Trainloss: 0.6359   Testloss: 1.6690  TrainAcc: 83.52   Top1: 61.2000    Top5: 87.1833	lr:0.003601
Ep: 128   EpTime: 38.1531  Trainloss: 0.6284   Testloss: 1.6784  TrainAcc: 83.59   Top1: 61.1333    Top5: 87.0000	lr:0.003529
Ep: 129   EpTime: 37.8747  Trainloss: 0.6329   Testloss: 1.6805  TrainAcc: 83.67   Top1: 61.6167    Top5: 87.0667	lr:0.003459
Checkpoint saved!!!
Ep: 130   EpTime: 37.9426  Trainloss: 0.6204   Testloss: 1.6884  TrainAcc: 83.96   Top1: 60.8833    Top5: 86.9500	lr:0.003390
Ep: 131   EpTime: 37.6644  Trainloss: 0.6223   Testloss: 1.6805  TrainAcc: 83.73   Top1: 61.3167    Top5: 86.8500	lr:0.003322
Ep: 132   EpTime: 38.0667  Trainloss: 0.6289   Testloss: 1.6946  TrainAcc: 83.70   Top1: 61.3000    Top5: 86.5833	lr:0.003255
Ep: 133   EpTime: 38.0611  Trainloss: 0.6017   Testloss: 1.7202  TrainAcc: 84.40   Top1: 60.7167    Top5: 87.0000	lr:0.003190
Ep: 134   EpTime: 37.8090  Trainloss: 0.6221   Testloss: 1.6956  TrainAcc: 83.91   Top1: 60.7333    Top5: 86.7833	lr:0.003126
Ep: 135   EpTime: 38.2093  Trainloss: 0.6039   Testloss: 1.7087  TrainAcc: 84.43   Top1: 61.0500    Top5: 86.7000	lr:0.003064
Ep: 136   EpTime: 38.1972  Trainloss: 0.6031   Testloss: 1.6844  TrainAcc: 84.49   Top1: 61.4667    Top5: 87.0333	lr:0.003003
Ep: 137   EpTime: 38.4568  Trainloss: 0.6219   Testloss: 1.6948  TrainAcc: 84.03   Top1: 61.3667    Top5: 86.7333	lr:0.002943
Ep: 138   EpTime: 38.0714  Trainloss: 0.5864   Testloss: 1.7099  TrainAcc: 85.08   Top1: 60.3833    Top5: 86.9500	lr:0.002884
Ep: 139   EpTime: 38.2285  Trainloss: 0.5968   Testloss: 1.7098  TrainAcc: 84.74   Top1: 61.2000    Top5: 86.8333	lr:0.002826
Ep: 140   EpTime: 37.9051  Trainloss: 0.5867   Testloss: 1.7299  TrainAcc: 84.79   Top1: 60.7333    Top5: 86.7500	lr:0.002770
Ep: 141   EpTime: 37.9289  Trainloss: 0.5993   Testloss: 1.7202  TrainAcc: 84.51   Top1: 60.6500    Top5: 86.6833	lr:0.002714
Ep: 142   EpTime: 37.8314  Trainloss: 0.5785   Testloss: 1.7087  TrainAcc: 84.99   Top1: 60.8333    Top5: 86.4167	lr:0.002660
Ep: 143   EpTime: 37.7660  Trainloss: 0.5883   Testloss: 1.7185  TrainAcc: 84.79   Top1: 60.9667    Top5: 86.6167	lr:0.002607
Ep: 144   EpTime: 38.0572  Trainloss: 0.5890   Testloss: 1.7108  TrainAcc: 85.17   Top1: 61.1333    Top5: 86.9667	lr:0.002555
Ep: 145   EpTime: 37.9252  Trainloss: 0.5808   Testloss: 1.7056  TrainAcc: 85.32   Top1: 61.3333    Top5: 86.8000	lr:0.002503
Ep: 146   EpTime: 37.6033  Trainloss: 0.5867   Testloss: 1.7244  TrainAcc: 85.08   Top1: 61.2167    Top5: 86.6500	lr:0.002453
Ep: 147   EpTime: 37.8601  Trainloss: 0.5756   Testloss: 1.7147  TrainAcc: 85.19   Top1: 61.3167    Top5: 86.8167	lr:0.002404
Ep: 148   EpTime: 38.0712  Trainloss: 0.5675   Testloss: 1.7138  TrainAcc: 85.25   Top1: 60.9833    Top5: 86.5833	lr:0.002356
Ep: 149   EpTime: 37.7776  Trainloss: 0.5751   Testloss: 1.7058  TrainAcc: 85.10   Top1: 61.2167    Top5: 86.6667	lr:0.002309
Ep: 150   EpTime: 37.7445  Trainloss: 0.5635   Testloss: 1.7158  TrainAcc: 85.69   Top1: 61.0500    Top5: 86.8333	lr:0.002263
Ep: 151   EpTime: 38.5654  Trainloss: 0.5746   Testloss: 1.7057  TrainAcc: 85.22   Top1: 61.2667    Top5: 86.5333	lr:0.002218
Ep: 152   EpTime: 39.1390  Trainloss: 0.5720   Testloss: 1.6994  TrainAcc: 85.35   Top1: 61.1667    Top5: 86.7167	lr:0.002173
Ep: 153   EpTime: 38.4873  Trainloss: 0.5591   Testloss: 1.7174  TrainAcc: 85.55   Top1: 60.9833    Top5: 86.5500	lr:0.002130
Ep: 154   EpTime: 38.4361  Trainloss: 0.5664   Testloss: 1.7239  TrainAcc: 85.69   Top1: 61.0167    Top5: 86.7000	lr:0.002087
Ep: 155   EpTime: 38.7524  Trainloss: 0.5676   Testloss: 1.7234  TrainAcc: 85.62   Top1: 61.7333    Top5: 86.8667	lr:0.002046
Checkpoint saved!!!
Ep: 156   EpTime: 38.5631  Trainloss: 0.5746   Testloss: 1.7236  TrainAcc: 85.40   Top1: 61.0000    Top5: 86.8000	lr:0.002005
Ep: 157   EpTime: 37.5092  Trainloss: 0.5534   Testloss: 1.7307  TrainAcc: 86.00   Top1: 61.2667    Top5: 86.7500	lr:0.001965
Ep: 158   EpTime: 37.4886  Trainloss: 0.5703   Testloss: 1.7308  TrainAcc: 85.49   Top1: 60.8500    Top5: 86.7667	lr:0.001925
Ep: 159   EpTime: 37.4038  Trainloss: 0.5548   Testloss: 1.7202  TrainAcc: 85.71   Top1: 60.9000    Top5: 87.0167	lr:0.001887
Ep: 160   EpTime: 37.2186  Trainloss: 0.5324   Testloss: 1.7224  TrainAcc: 86.65   Top1: 61.0833    Top5: 86.6167	lr:0.001849
Ep: 161   EpTime: 36.9323  Trainloss: 0.5465   Testloss: 1.7264  TrainAcc: 86.00   Top1: 60.8167    Top5: 86.6833	lr:0.001812
Ep: 162   EpTime: 37.1992  Trainloss: 0.5525   Testloss: 1.7182  TrainAcc: 86.08   Top1: 61.1000    Top5: 86.8833	lr:0.001776
Ep: 163   EpTime: 37.2315  Trainloss: 0.5287   Testloss: 1.7259  TrainAcc: 86.30   Top1: 60.8667    Top5: 86.7833	lr:0.001740
Ep: 164   EpTime: 37.3744  Trainloss: 0.5447   Testloss: 1.7308  TrainAcc: 86.06   Top1: 60.9833    Top5: 86.7667	lr:0.001705
Ep: 165   EpTime: 36.9230  Trainloss: 0.5484   Testloss: 1.7257  TrainAcc: 86.06   Top1: 61.1333    Top5: 86.9333	lr:0.001671
Ep: 166   EpTime: 37.3622  Trainloss: 0.5503   Testloss: 1.7355  TrainAcc: 85.74   Top1: 60.8000    Top5: 86.5167	lr:0.001638
Ep: 167   EpTime: 37.1760  Trainloss: 0.5386   Testloss: 1.7321  TrainAcc: 86.41   Top1: 61.0167    Top5: 86.4833	lr:0.001605
Ep: 168   EpTime: 36.8273  Trainloss: 0.5328   Testloss: 1.7367  TrainAcc: 86.28   Top1: 61.0000    Top5: 86.4333	lr:0.001573
Ep: 169   EpTime: 37.3007  Trainloss: 0.5438   Testloss: 1.7270  TrainAcc: 86.20   Top1: 61.1167    Top5: 86.8333	lr:0.001542
Ep: 170   EpTime: 37.2530  Trainloss: 0.5371   Testloss: 1.7190  TrainAcc: 86.39   Top1: 61.0833    Top5: 86.9667	lr:0.001511
Ep: 171   EpTime: 37.3286  Trainloss: 0.5412   Testloss: 1.7245  TrainAcc: 86.30   Top1: 61.4833    Top5: 86.9833	lr:0.001481
Ep: 172   EpTime: 37.2112  Trainloss: 0.5381   Testloss: 1.7184  TrainAcc: 86.47   Top1: 61.2667    Top5: 86.6333	lr:0.001451
Ep: 173   EpTime: 37.2926  Trainloss: 0.5529   Testloss: 1.7242  TrainAcc: 85.89   Top1: 61.1500    Top5: 86.7833	lr:0.001422
Ep: 174   EpTime: 37.1278  Trainloss: 0.5401   Testloss: 1.7283  TrainAcc: 86.23   Top1: 61.0833    Top5: 86.9333	lr:0.001393
Ep: 175   EpTime: 37.1717  Trainloss: 0.5244   Testloss: 1.7255  TrainAcc: 86.43   Top1: 60.9500    Top5: 86.6833	lr:0.001366
Ep: 176   EpTime: 37.2221  Trainloss: 0.5361   Testloss: 1.7316  TrainAcc: 86.17   Top1: 61.5833    Top5: 86.6667	lr:0.001338
Ep: 177   EpTime: 36.9958  Trainloss: 0.5317   Testloss: 1.7447  TrainAcc: 86.39   Top1: 60.8000    Top5: 86.4833	lr:0.001312
Ep: 178   EpTime: 37.1936  Trainloss: 0.5312   Testloss: 1.7368  TrainAcc: 86.47   Top1: 61.0833    Top5: 86.7500	lr:0.001285
Ep: 179   EpTime: 36.8969  Trainloss: 0.5362   Testloss: 1.7308  TrainAcc: 86.37   Top1: 61.0500    Top5: 86.6333	lr:0.001260
Ep: 180   EpTime: 37.0220  Trainloss: 0.5170   Testloss: 1.7305  TrainAcc: 86.82   Top1: 61.2000    Top5: 86.3667	lr:0.001234
Ep: 181   EpTime: 37.0663  Trainloss: 0.5268   Testloss: 1.7238  TrainAcc: 86.54   Top1: 61.0833    Top5: 86.6167	lr:0.001210
Ep: 182   EpTime: 37.3378  Trainloss: 0.5145   Testloss: 1.7381  TrainAcc: 86.82   Top1: 60.7333    Top5: 86.5333	lr:0.001186
Ep: 183   EpTime: 37.1689  Trainloss: 0.5070   Testloss: 1.7270  TrainAcc: 86.98   Top1: 60.9167    Top5: 86.4167	lr:0.001162
Ep: 184   EpTime: 37.3637  Trainloss: 0.5123   Testloss: 1.7277  TrainAcc: 87.04   Top1: 60.8667    Top5: 86.4500	lr:0.001139
Ep: 185   EpTime: 37.6392  Trainloss: 0.5092   Testloss: 1.7223  TrainAcc: 86.94   Top1: 61.2333    Top5: 86.6833	lr:0.001116
Ep: 186   EpTime: 37.2497  Trainloss: 0.5144   Testloss: 1.7361  TrainAcc: 87.06   Top1: 60.9500    Top5: 86.5667	lr:0.001093
Ep: 187   EpTime: 37.5180  Trainloss: 0.5265   Testloss: 1.7406  TrainAcc: 86.52   Top1: 61.0333    Top5: 86.8000	lr:0.001072
Ep: 188   EpTime: 37.2267  Trainloss: 0.5139   Testloss: 1.7295  TrainAcc: 86.94   Top1: 61.0667    Top5: 86.7167	lr:0.001050
Ep: 189   EpTime: 37.3538  Trainloss: 0.5173   Testloss: 1.7290  TrainAcc: 86.60   Top1: 61.4333    Top5: 86.7500	lr:0.001029
Ep: 190   EpTime: 37.3074  Trainloss: 0.5003   Testloss: 1.7270  TrainAcc: 87.23   Top1: 61.0333    Top5: 86.7333	lr:0.001009
Ep: 191   EpTime: 36.8836  Trainloss: 0.5094   Testloss: 1.7212  TrainAcc: 86.94   Top1: 61.2833    Top5: 86.7167	lr:0.000988
Ep: 192   EpTime: 37.1334  Trainloss: 0.5031   Testloss: 1.7283  TrainAcc: 87.22   Top1: 61.0000    Top5: 86.6000	lr:0.000969
Ep: 193   EpTime: 37.4648  Trainloss: 0.5074   Testloss: 1.7255  TrainAcc: 86.91   Top1: 61.1333    Top5: 86.5667	lr:0.000949
Ep: 194   EpTime: 37.1278  Trainloss: 0.5145   Testloss: 1.7342  TrainAcc: 86.96   Top1: 60.9667    Top5: 86.5667	lr:0.000930
Ep: 195   EpTime: 36.7815  Trainloss: 0.5124   Testloss: 1.7369  TrainAcc: 86.86   Top1: 61.4833    Top5: 86.6667	lr:0.000912
Ep: 196   EpTime: 37.0598  Trainloss: 0.5069   Testloss: 1.7364  TrainAcc: 87.13   Top1: 61.3667    Top5: 86.5833	lr:0.000893
Ep: 197   EpTime: 37.7606  Trainloss: 0.5048   Testloss: 1.7289  TrainAcc: 86.91   Top1: 61.3833    Top5: 86.7000	lr:0.000876
Ep: 198   EpTime: 38.0130  Trainloss: 0.4956   Testloss: 1.7329  TrainAcc: 87.29   Top1: 61.2167    Top5: 86.4333	lr:0.000858
Ep: 199   EpTime: 38.1902  Trainloss: 0.5019   Testloss: 1.7395  TrainAcc: 87.33   Top1: 61.4167    Top5: 86.3500	lr:0.000841
Ep: 200   EpTime: 37.7647  Trainloss: 0.4987   Testloss: 1.7234  TrainAcc: 87.36   Top1: 61.3167    Top5: 86.3167	lr:0.000824
