[32, 16, 24, 32, 64, 96, 160, 320]
MobileNet2(
  (activation): ReLU6(inplace)
  (conv1): Conv2d(3, 32, kernel_size=(3, 3), stride=(2, 2), padding=(1, 1), bias=False)
  (bn1): BatchNorm2d(32, eps=1e-05, momentum=0.1, affine=True, track_running_stats=True)
  (bottlenecks): Sequential(
    (Bottlenecks_0): Sequential(
      (LinearBottleneck0_0): LinearBottleneck(
        (conv1): Conv2d(32, 32, kernel_size=(1, 1), stride=(1, 1), bias=False)
        (bn1): BatchNorm2d(32, eps=1e-05, momentum=0.1, affine=True, track_running_stats=True)
        (conv2): Conv2d(32, 32, kernel_size=(3, 3), stride=(1, 1), padding=(1, 1), groups=32, bias=False)
        (bn2): BatchNorm2d(32, eps=1e-05, momentum=0.1, affine=True, track_running_stats=True)
        (conv3): Conv2d(32, 16, kernel_size=(1, 1), stride=(1, 1), bias=False)
        (bn3): BatchNorm2d(16, eps=1e-05, momentum=0.1, affine=True, track_running_stats=True)
        (activation): ReLU6(inplace)
      )
    )
    (Bottlenecks_1): Sequential(
      (LinearBottleneck1_0): LinearBottleneck(
        (conv1): Conv2d(16, 96, kernel_size=(1, 1), stride=(1, 1), bias=False)
        (bn1): BatchNorm2d(96, eps=1e-05, momentum=0.1, affine=True, track_running_stats=True)
        (conv2): Conv2d(96, 96, kernel_size=(3, 3), stride=(2, 2), padding=(1, 1), groups=96, bias=False)
        (bn2): BatchNorm2d(96, eps=1e-05, momentum=0.1, affine=True, track_running_stats=True)
        (conv3): Conv2d(96, 24, kernel_size=(1, 1), stride=(1, 1), bias=False)
        (bn3): BatchNorm2d(24, eps=1e-05, momentum=0.1, affine=True, track_running_stats=True)
        (activation): ReLU6(inplace)
      )
      (LinearBottleneck1_1): LinearBottleneck(
        (conv1): Conv2d(24, 144, kernel_size=(1, 1), stride=(1, 1), bias=False)
        (bn1): BatchNorm2d(144, eps=1e-05, momentum=0.1, affine=True, track_running_stats=True)
        (conv2): Conv2d(144, 144, kernel_size=(3, 3), stride=(1, 1), padding=(1, 1), groups=144, bias=False)
        (bn2): BatchNorm2d(144, eps=1e-05, momentum=0.1, affine=True, track_running_stats=True)
        (conv3): Conv2d(144, 24, kernel_size=(1, 1), stride=(1, 1), bias=False)
        (bn3): BatchNorm2d(24, eps=1e-05, momentum=0.1, affine=True, track_running_stats=True)
        (activation): ReLU6(inplace)
      )
    )
    (Bottlenecks_2): Sequential(
      (LinearBottleneck2_0): LinearBottleneck(
        (conv1): Conv2d(24, 144, kernel_size=(1, 1), stride=(1, 1), bias=False)
        (bn1): BatchNorm2d(144, eps=1e-05, momentum=0.1, affine=True, track_running_stats=True)
        (conv2): Conv2d(144, 144, kernel_size=(3, 3), stride=(2, 2), padding=(1, 1), groups=144, bias=False)
        (bn2): BatchNorm2d(144, eps=1e-05, momentum=0.1, affine=True, track_running_stats=True)
        (conv3): Conv2d(144, 32, kernel_size=(1, 1), stride=(1, 1), bias=False)
        (bn3): BatchNorm2d(32, eps=1e-05, momentum=0.1, affine=True, track_running_stats=True)
        (activation): ReLU6(inplace)
      )
      (LinearBottleneck2_1): LinearBottleneck(
        (conv1): Conv2d(32, 192, kernel_size=(1, 1), stride=(1, 1), bias=False)
        (bn1): BatchNorm2d(192, eps=1e-05, momentum=0.1, affine=True, track_running_stats=True)
        (conv2): Conv2d(192, 192, kernel_size=(3, 3), stride=(1, 1), padding=(1, 1), groups=192, bias=False)
        (bn2): BatchNorm2d(192, eps=1e-05, momentum=0.1, affine=True, track_running_stats=True)
        (conv3): Conv2d(192, 32, kernel_size=(1, 1), stride=(1, 1), bias=False)
        (bn3): BatchNorm2d(32, eps=1e-05, momentum=0.1, affine=True, track_running_stats=True)
        (activation): ReLU6(inplace)
      )
      (LinearBottleneck2_2): LinearBottleneck(
        (conv1): Conv2d(32, 192, kernel_size=(1, 1), stride=(1, 1), bias=False)
        (bn1): BatchNorm2d(192, eps=1e-05, momentum=0.1, affine=True, track_running_stats=True)
        (conv2): Conv2d(192, 192, kernel_size=(3, 3), stride=(1, 1), padding=(1, 1), groups=192, bias=False)
        (bn2): BatchNorm2d(192, eps=1e-05, momentum=0.1, affine=True, track_running_stats=True)
        (conv3): Conv2d(192, 32, kernel_size=(1, 1), stride=(1, 1), bias=False)
        (bn3): BatchNorm2d(32, eps=1e-05, momentum=0.1, affine=True, track_running_stats=True)
        (activation): ReLU6(inplace)
      )
    )
    (Bottlenecks_3): Sequential(
      (LinearBottleneck3_0): LinearBottleneck(
        (conv1): Conv2d(32, 192, kernel_size=(1, 1), stride=(1, 1), bias=False)
        (bn1): BatchNorm2d(192, eps=1e-05, momentum=0.1, affine=True, track_running_stats=True)
        (conv2): Conv2d(192, 192, kernel_size=(3, 3), stride=(2, 2), padding=(1, 1), groups=192, bias=False)
        (bn2): BatchNorm2d(192, eps=1e-05, momentum=0.1, affine=True, track_running_stats=True)
        (conv3): Conv2d(192, 64, kernel_size=(1, 1), stride=(1, 1), bias=False)
        (bn3): BatchNorm2d(64, eps=1e-05, momentum=0.1, affine=True, track_running_stats=True)
        (activation): ReLU6(inplace)
      )
      (LinearBottleneck3_1): LinearBottleneck(
        (conv1): Conv2d(64, 384, kernel_size=(1, 1), stride=(1, 1), bias=False)
        (bn1): BatchNorm2d(384, eps=1e-05, momentum=0.1, affine=True, track_running_stats=True)
        (conv2): Conv2d(384, 384, kernel_size=(3, 3), stride=(1, 1), padding=(1, 1), groups=384, bias=False)
        (bn2): BatchNorm2d(384, eps=1e-05, momentum=0.1, affine=True, track_running_stats=True)
        (conv3): Conv2d(384, 64, kernel_size=(1, 1), stride=(1, 1), bias=False)
        (bn3): BatchNorm2d(64, eps=1e-05, momentum=0.1, affine=True, track_running_stats=True)
        (activation): ReLU6(inplace)
      )
      (LinearBottleneck3_2): LinearBottleneck(
        (conv1): Conv2d(64, 384, kernel_size=(1, 1), stride=(1, 1), bias=False)
        (bn1): BatchNorm2d(384, eps=1e-05, momentum=0.1, affine=True, track_running_stats=True)
        (conv2): Conv2d(384, 384, kernel_size=(3, 3), stride=(1, 1), padding=(1, 1), groups=384, bias=False)
        (bn2): BatchNorm2d(384, eps=1e-05, momentum=0.1, affine=True, track_running_stats=True)
        (conv3): Conv2d(384, 64, kernel_size=(1, 1), stride=(1, 1), bias=False)
        (bn3): BatchNorm2d(64, eps=1e-05, momentum=0.1, affine=True, track_running_stats=True)
        (activation): ReLU6(inplace)
      )
      (LinearBottleneck3_3): LinearBottleneck(
        (conv1): Conv2d(64, 384, kernel_size=(1, 1), stride=(1, 1), bias=False)
        (bn1): BatchNorm2d(384, eps=1e-05, momentum=0.1, affine=True, track_running_stats=True)
        (conv2): Conv2d(384, 384, kernel_size=(3, 3), stride=(1, 1), padding=(1, 1), groups=384, bias=False)
        (bn2): BatchNorm2d(384, eps=1e-05, momentum=0.1, affine=True, track_running_stats=True)
        (conv3): Conv2d(384, 64, kernel_size=(1, 1), stride=(1, 1), bias=False)
        (bn3): BatchNorm2d(64, eps=1e-05, momentum=0.1, affine=True, track_running_stats=True)
        (activation): ReLU6(inplace)
      )
    )
    (Bottlenecks_4): Sequential(
      (LinearBottleneck4_0): LinearBottleneck(
        (conv1): Conv2d(64, 384, kernel_size=(1, 1), stride=(1, 1), bias=False)
        (bn1): BatchNorm2d(384, eps=1e-05, momentum=0.1, affine=True, track_running_stats=True)
        (conv2): Conv2d(384, 384, kernel_size=(3, 3), stride=(1, 1), padding=(1, 1), groups=384, bias=False)
        (bn2): BatchNorm2d(384, eps=1e-05, momentum=0.1, affine=True, track_running_stats=True)
        (conv3): Conv2d(384, 96, kernel_size=(1, 1), stride=(1, 1), bias=False)
        (bn3): BatchNorm2d(96, eps=1e-05, momentum=0.1, affine=True, track_running_stats=True)
        (activation): ReLU6(inplace)
      )
      (LinearBottleneck4AlphaBlock_1): AlphaBlock(
        (arm_1): SplitArm(
          (conv_dws): Conv2d(24, 24, kernel_size=(1, 1), stride=(1, 1), groups=24)
          (bn_dws): BatchNorm2d(24, eps=1e-05, momentum=0.9, affine=True, track_running_stats=True)
          (relu_dws): ReLU(inplace)
          (maxpool): MaxPool2d(kernel_size=3, stride=1, padding=1, dilation=1, ceil_mode=False)
          (conv_point): Conv2d(24, 1, kernel_size=(1, 1), stride=(1, 1))
          (bn_point): BatchNorm2d(1, eps=1e-05, momentum=0.9, affine=True, track_running_stats=True)
          (relu_point): ReLU(inplace)
          (softmax): Softmax()
        )
        (arm_2): SplitArm(
          (conv_dws): Conv2d(24, 24, kernel_size=(1, 1), stride=(1, 1), groups=24)
          (bn_dws): BatchNorm2d(24, eps=1e-05, momentum=0.9, affine=True, track_running_stats=True)
          (relu_dws): ReLU(inplace)
          (maxpool): MaxPool2d(kernel_size=3, stride=1, padding=1, dilation=1, ceil_mode=False)
          (conv_point): Conv2d(24, 1, kernel_size=(1, 1), stride=(1, 1))
          (bn_point): BatchNorm2d(1, eps=1e-05, momentum=0.9, affine=True, track_running_stats=True)
          (relu_point): ReLU(inplace)
          (softmax): Softmax()
        )
        (arm_3): SplitArm(
          (conv_dws): Conv2d(24, 24, kernel_size=(1, 1), stride=(1, 1), groups=24)
          (bn_dws): BatchNorm2d(24, eps=1e-05, momentum=0.9, affine=True, track_running_stats=True)
          (relu_dws): ReLU(inplace)
          (maxpool): MaxPool2d(kernel_size=3, stride=1, padding=1, dilation=1, ceil_mode=False)
          (conv_point): Conv2d(24, 1, kernel_size=(1, 1), stride=(1, 1))
          (bn_point): BatchNorm2d(1, eps=1e-05, momentum=0.9, affine=True, track_running_stats=True)
          (relu_point): ReLU(inplace)
          (softmax): Softmax()
        )
        (arm_4): SplitArm(
          (conv_dws): Conv2d(24, 24, kernel_size=(1, 1), stride=(1, 1), groups=24)
          (bn_dws): BatchNorm2d(24, eps=1e-05, momentum=0.9, affine=True, track_running_stats=True)
          (relu_dws): ReLU(inplace)
          (maxpool): MaxPool2d(kernel_size=3, stride=1, padding=1, dilation=1, ceil_mode=False)
          (conv_point): Conv2d(24, 1, kernel_size=(1, 1), stride=(1, 1))
          (bn_point): BatchNorm2d(1, eps=1e-05, momentum=0.9, affine=True, track_running_stats=True)
          (relu_point): ReLU(inplace)
          (softmax): Softmax()
        )
      )
      (LinearBottleneck4AlphaBlock_2): AlphaBlock(
        (arm_1): SplitArm(
          (conv_dws): Conv2d(24, 24, kernel_size=(1, 1), stride=(1, 1), groups=24)
          (bn_dws): BatchNorm2d(24, eps=1e-05, momentum=0.9, affine=True, track_running_stats=True)
          (relu_dws): ReLU(inplace)
          (maxpool): MaxPool2d(kernel_size=3, stride=1, padding=1, dilation=1, ceil_mode=False)
          (conv_point): Conv2d(24, 1, kernel_size=(1, 1), stride=(1, 1))
          (bn_point): BatchNorm2d(1, eps=1e-05, momentum=0.9, affine=True, track_running_stats=True)
          (relu_point): ReLU(inplace)
          (softmax): Softmax()
        )
        (arm_2): SplitArm(
          (conv_dws): Conv2d(24, 24, kernel_size=(1, 1), stride=(1, 1), groups=24)
          (bn_dws): BatchNorm2d(24, eps=1e-05, momentum=0.9, affine=True, track_running_stats=True)
          (relu_dws): ReLU(inplace)
          (maxpool): MaxPool2d(kernel_size=3, stride=1, padding=1, dilation=1, ceil_mode=False)
          (conv_point): Conv2d(24, 1, kernel_size=(1, 1), stride=(1, 1))
          (bn_point): BatchNorm2d(1, eps=1e-05, momentum=0.9, affine=True, track_running_stats=True)
          (relu_point): ReLU(inplace)
          (softmax): Softmax()
        )
        (arm_3): SplitArm(
          (conv_dws): Conv2d(24, 24, kernel_size=(1, 1), stride=(1, 1), groups=24)
          (bn_dws): BatchNorm2d(24, eps=1e-05, momentum=0.9, affine=True, track_running_stats=True)
          (relu_dws): ReLU(inplace)
          (maxpool): MaxPool2d(kernel_size=3, stride=1, padding=1, dilation=1, ceil_mode=False)
          (conv_point): Conv2d(24, 1, kernel_size=(1, 1), stride=(1, 1))
          (bn_point): BatchNorm2d(1, eps=1e-05, momentum=0.9, affine=True, track_running_stats=True)
          (relu_point): ReLU(inplace)
          (softmax): Softmax()
        )
        (arm_4): SplitArm(
          (conv_dws): Conv2d(24, 24, kernel_size=(1, 1), stride=(1, 1), groups=24)
          (bn_dws): BatchNorm2d(24, eps=1e-05, momentum=0.9, affine=True, track_running_stats=True)
          (relu_dws): ReLU(inplace)
          (maxpool): MaxPool2d(kernel_size=3, stride=1, padding=1, dilation=1, ceil_mode=False)
          (conv_point): Conv2d(24, 1, kernel_size=(1, 1), stride=(1, 1))
          (bn_point): BatchNorm2d(1, eps=1e-05, momentum=0.9, affine=True, track_running_stats=True)
          (relu_point): ReLU(inplace)
          (softmax): Softmax()
        )
      )
    )
    (Bottlenecks_5): Sequential(
      (LinearBottleneck5_0): LinearBottleneck(
        (conv1): Conv2d(96, 576, kernel_size=(1, 1), stride=(1, 1), bias=False)
        (bn1): BatchNorm2d(576, eps=1e-05, momentum=0.1, affine=True, track_running_stats=True)
        (conv2): Conv2d(576, 576, kernel_size=(3, 3), stride=(2, 2), padding=(1, 1), groups=576, bias=False)
        (bn2): BatchNorm2d(576, eps=1e-05, momentum=0.1, affine=True, track_running_stats=True)
        (conv3): Conv2d(576, 160, kernel_size=(1, 1), stride=(1, 1), bias=False)
        (bn3): BatchNorm2d(160, eps=1e-05, momentum=0.1, affine=True, track_running_stats=True)
        (activation): ReLU6(inplace)
      )
      (LinearBottleneck5_1): LinearBottleneck(
        (conv1): Conv2d(160, 960, kernel_size=(1, 1), stride=(1, 1), bias=False)
        (bn1): BatchNorm2d(960, eps=1e-05, momentum=0.1, affine=True, track_running_stats=True)
        (conv2): Conv2d(960, 960, kernel_size=(3, 3), stride=(1, 1), padding=(1, 1), groups=960, bias=False)
        (bn2): BatchNorm2d(960, eps=1e-05, momentum=0.1, affine=True, track_running_stats=True)
        (conv3): Conv2d(960, 160, kernel_size=(1, 1), stride=(1, 1), bias=False)
        (bn3): BatchNorm2d(160, eps=1e-05, momentum=0.1, affine=True, track_running_stats=True)
        (activation): ReLU6(inplace)
      )
      (LinearBottleneck5_2): LinearBottleneck(
        (conv1): Conv2d(160, 960, kernel_size=(1, 1), stride=(1, 1), bias=False)
        (bn1): BatchNorm2d(960, eps=1e-05, momentum=0.1, affine=True, track_running_stats=True)
        (conv2): Conv2d(960, 960, kernel_size=(3, 3), stride=(1, 1), padding=(1, 1), groups=960, bias=False)
        (bn2): BatchNorm2d(960, eps=1e-05, momentum=0.1, affine=True, track_running_stats=True)
        (conv3): Conv2d(960, 160, kernel_size=(1, 1), stride=(1, 1), bias=False)
        (bn3): BatchNorm2d(160, eps=1e-05, momentum=0.1, affine=True, track_running_stats=True)
        (activation): ReLU6(inplace)
      )
    )
    (Bottlenecks_6): Sequential(
      (LinearBottleneck6_0): LinearBottleneck(
        (conv1): Conv2d(160, 960, kernel_size=(1, 1), stride=(1, 1), bias=False)
        (bn1): BatchNorm2d(960, eps=1e-05, momentum=0.1, affine=True, track_running_stats=True)
        (conv2): Conv2d(960, 960, kernel_size=(3, 3), stride=(1, 1), padding=(1, 1), groups=960, bias=False)
        (bn2): BatchNorm2d(960, eps=1e-05, momentum=0.1, affine=True, track_running_stats=True)
        (conv3): Conv2d(960, 320, kernel_size=(1, 1), stride=(1, 1), bias=False)
        (bn3): BatchNorm2d(320, eps=1e-05, momentum=0.1, affine=True, track_running_stats=True)
        (activation): ReLU6(inplace)
      )
    )
  )
  (conv_last): Conv2d(320, 1280, kernel_size=(1, 1), stride=(1, 1), bias=False)
  (bn_last): BatchNorm2d(1280, eps=1e-05, momentum=0.1, affine=True, track_running_stats=True)
  (avgpool): AdaptiveAvgPool2d(output_size=1)
  (dropout): Dropout(p=0.2, inplace)
  (fc): Linear(in_features=1280, out_features=120, bias=True)
)
Ep: 1   EpTime: 39.8051  Trainloss: 4.8514   Testloss: 4.8643  TrainAcc: 1.69   Top1: 2.4500    Top5: 10.8667	lr:0.045000
Checkpoint saved!!!
Ep: 2   EpTime: 37.1453  Trainloss: 4.5013   Testloss: 4.6819  TrainAcc: 4.15   Top1: 3.2667    Top5: 13.8500	lr:0.045000
Checkpoint saved!!!
Ep: 3   EpTime: 36.8895  Trainloss: 4.2895   Testloss: 4.3430  TrainAcc: 5.73   Top1: 5.1500    Top5: 19.8000	lr:0.044100
Checkpoint saved!!!
Ep: 4   EpTime: 36.9627  Trainloss: 4.1515   Testloss: 4.2013  TrainAcc: 6.71   Top1: 6.5000    Top5: 24.5833	lr:0.043218
Checkpoint saved!!!
Ep: 5   EpTime: 36.7365  Trainloss: 4.0014   Testloss: 3.8645  TrainAcc: 8.37   Top1: 9.3667    Top5: 30.5833	lr:0.042354
Checkpoint saved!!!
Ep: 6   EpTime: 36.8626  Trainloss: 3.9049   Testloss: 4.0887  TrainAcc: 10.08   Top1: 8.4667    Top5: 29.1500	lr:0.041507
Ep: 7   EpTime: 37.1678  Trainloss: 3.8029   Testloss: 3.7501  TrainAcc: 11.22   Top1: 11.3500    Top5: 36.7667	lr:0.040676
Checkpoint saved!!!
Ep: 8   EpTime: 37.1803  Trainloss: 3.6866   Testloss: 3.5431  TrainAcc: 12.70   Top1: 14.7000    Top5: 43.2000	lr:0.039863
Checkpoint saved!!!
Ep: 9   EpTime: 37.3778  Trainloss: 3.5910   Testloss: 3.9564  TrainAcc: 14.79   Top1: 12.0833    Top5: 36.4333	lr:0.039066
Ep: 10   EpTime: 37.1046  Trainloss: 3.4594   Testloss: 3.7195  TrainAcc: 17.07   Top1: 14.6167    Top5: 40.7667	lr:0.038284
Ep: 11   EpTime: 37.2608  Trainloss: 3.3871   Testloss: 3.4273  TrainAcc: 17.79   Top1: 18.4167    Top5: 46.7333	lr:0.037519
Checkpoint saved!!!
Ep: 12   EpTime: 37.5085  Trainloss: 3.2579   Testloss: 3.1870  TrainAcc: 20.79   Top1: 20.8833    Top5: 52.6167	lr:0.036768
Checkpoint saved!!!
Ep: 13   EpTime: 36.8142  Trainloss: 3.1533   Testloss: 3.2983  TrainAcc: 22.89   Top1: 20.0500    Top5: 50.0000	lr:0.036033
Ep: 14   EpTime: 37.1701  Trainloss: 3.0840   Testloss: 3.1183  TrainAcc: 24.07   Top1: 22.8833    Top5: 54.1667	lr:0.035312
Checkpoint saved!!!
Ep: 15   EpTime: 37.3342  Trainloss: 2.9614   Testloss: 2.8259  TrainAcc: 26.52   Top1: 28.7000    Top5: 62.3167	lr:0.034606
Checkpoint saved!!!
Ep: 16   EpTime: 37.3117  Trainloss: 2.9040   Testloss: 2.7477  TrainAcc: 27.76   Top1: 29.4167    Top5: 63.0000	lr:0.033914
Checkpoint saved!!!
Ep: 17   EpTime: 37.3232  Trainloss: 2.8047   Testloss: 2.7747  TrainAcc: 29.27   Top1: 29.1000    Top5: 63.3333	lr:0.033236
Ep: 18   EpTime: 37.5990  Trainloss: 2.7399   Testloss: 2.7223  TrainAcc: 30.70   Top1: 31.6333    Top5: 63.1833	lr:0.032571
Checkpoint saved!!!
Ep: 19   EpTime: 37.2434  Trainloss: 2.6255   Testloss: 2.4272  TrainAcc: 33.25   Top1: 35.9667    Top5: 70.6833	lr:0.031919
Checkpoint saved!!!
Ep: 20   EpTime: 36.8774  Trainloss: 2.5557   Testloss: 2.4718  TrainAcc: 34.64   Top1: 37.2667    Top5: 69.6833	lr:0.031281
Checkpoint saved!!!
Ep: 21   EpTime: 37.0999  Trainloss: 2.4698   Testloss: 2.3481  TrainAcc: 36.36   Top1: 39.6833    Top5: 72.5333	lr:0.030655
Checkpoint saved!!!
Ep: 22   EpTime: 36.9974  Trainloss: 2.4138   Testloss: 2.3540  TrainAcc: 37.43   Top1: 38.1667    Top5: 73.4000	lr:0.030042
Ep: 23   EpTime: 37.3415  Trainloss: 2.3716   Testloss: 2.2224  TrainAcc: 38.84   Top1: 40.5167    Top5: 74.6000	lr:0.029442
Checkpoint saved!!!
Ep: 24   EpTime: 37.2211  Trainloss: 2.2876   Testloss: 2.1247  TrainAcc: 40.24   Top1: 42.9667    Top5: 76.7000	lr:0.028853
Checkpoint saved!!!
Ep: 25   EpTime: 37.0352  Trainloss: 2.2276   Testloss: 2.1046  TrainAcc: 42.24   Top1: 43.1833    Top5: 76.9333	lr:0.028276
Checkpoint saved!!!
Ep: 26   EpTime: 37.1627  Trainloss: 2.1742   Testloss: 2.2084  TrainAcc: 43.31   Top1: 42.2333    Top5: 75.9833	lr:0.027710
Ep: 27   EpTime: 37.4855  Trainloss: 2.1018   Testloss: 2.0415  TrainAcc: 45.30   Top1: 45.4833    Top5: 78.3333	lr:0.027156
Checkpoint saved!!!
Ep: 28   EpTime: 37.2974  Trainloss: 2.0608   Testloss: 2.0527  TrainAcc: 45.27   Top1: 44.1500    Top5: 78.0000	lr:0.026613
Ep: 29   EpTime: 37.5097  Trainloss: 2.0265   Testloss: 2.0632  TrainAcc: 46.27   Top1: 45.7167    Top5: 78.3667	lr:0.026081
Checkpoint saved!!!
Ep: 30   EpTime: 37.1028  Trainloss: 1.9565   Testloss: 1.9024  TrainAcc: 48.22   Top1: 48.6833    Top5: 80.8167	lr:0.025559
Checkpoint saved!!!
Ep: 31   EpTime: 37.3275  Trainloss: 1.9396   Testloss: 1.8093  TrainAcc: 48.53   Top1: 50.3333    Top5: 82.3333	lr:0.025048
Checkpoint saved!!!
Ep: 32   EpTime: 37.3556  Trainloss: 1.9083   Testloss: 1.9134  TrainAcc: 49.44   Top1: 49.1833    Top5: 81.3167	lr:0.024547
Ep: 33   EpTime: 37.1584  Trainloss: 1.8566   Testloss: 1.9479  TrainAcc: 49.92   Top1: 48.6333    Top5: 79.7833	lr:0.024056
Ep: 34   EpTime: 37.0921  Trainloss: 1.8069   Testloss: 1.9264  TrainAcc: 51.69   Top1: 48.6500    Top5: 80.7500	lr:0.023575
Ep: 35   EpTime: 37.1531  Trainloss: 1.7836   Testloss: 1.9064  TrainAcc: 52.00   Top1: 48.5500    Top5: 80.9833	lr:0.023103
Ep: 36   EpTime: 37.2695  Trainloss: 1.7536   Testloss: 1.7824  TrainAcc: 52.85   Top1: 52.6000    Top5: 83.1000	lr:0.022641
Checkpoint saved!!!
Ep: 37   EpTime: 37.5105  Trainloss: 1.7180   Testloss: 1.8455  TrainAcc: 53.68   Top1: 50.0000    Top5: 82.2333	lr:0.022188
Ep: 38   EpTime: 37.3534  Trainloss: 1.6739   Testloss: 1.7487  TrainAcc: 55.13   Top1: 52.6167    Top5: 83.3167	lr:0.021745
Checkpoint saved!!!
Ep: 39   EpTime: 37.2394  Trainloss: 1.6675   Testloss: 1.8318  TrainAcc: 54.92   Top1: 51.0000    Top5: 82.8167	lr:0.021310
Ep: 40   EpTime: 37.5410  Trainloss: 1.6174   Testloss: 1.7109  TrainAcc: 56.21   Top1: 52.8500    Top5: 84.3667	lr:0.020884
Checkpoint saved!!!
Ep: 41   EpTime: 37.1880  Trainloss: 1.5731   Testloss: 1.6634  TrainAcc: 57.91   Top1: 55.0667    Top5: 84.7000	lr:0.020466
Checkpoint saved!!!
Ep: 42   EpTime: 37.4313  Trainloss: 1.5566   Testloss: 1.6965  TrainAcc: 58.33   Top1: 54.8500    Top5: 84.6167	lr:0.020057
Ep: 43   EpTime: 37.3687  Trainloss: 1.5224   Testloss: 1.7185  TrainAcc: 58.31   Top1: 53.5667    Top5: 83.6667	lr:0.019655
Ep: 44   EpTime: 37.5283  Trainloss: 1.5127   Testloss: 1.6395  TrainAcc: 58.82   Top1: 55.5167    Top5: 84.6833	lr:0.019262
Checkpoint saved!!!
Ep: 45   EpTime: 37.5719  Trainloss: 1.4741   Testloss: 1.7465  TrainAcc: 60.19   Top1: 53.7833    Top5: 84.3333	lr:0.018877
Ep: 46   EpTime: 37.5058  Trainloss: 1.4625   Testloss: 1.6872  TrainAcc: 60.10   Top1: 54.7833    Top5: 85.0833	lr:0.018499
Ep: 47   EpTime: 37.5214  Trainloss: 1.4299   Testloss: 1.6339  TrainAcc: 61.79   Top1: 55.8833    Top5: 85.2167	lr:0.018130
Checkpoint saved!!!
Ep: 48   EpTime: 37.3764  Trainloss: 1.4165   Testloss: 1.6470  TrainAcc: 61.40   Top1: 55.5667    Top5: 85.6667	lr:0.017767
Ep: 49   EpTime: 37.0260  Trainloss: 1.3773   Testloss: 1.6059  TrainAcc: 62.80   Top1: 57.4000    Top5: 86.0833	lr:0.017412
Checkpoint saved!!!
Ep: 50   EpTime: 36.8341  Trainloss: 1.3597   Testloss: 1.6333  TrainAcc: 63.51   Top1: 56.7667    Top5: 85.5000	lr:0.017063
Ep: 51   EpTime: 37.3736  Trainloss: 1.3340   Testloss: 1.6994  TrainAcc: 63.70   Top1: 56.1500    Top5: 85.0167	lr:0.016722
Ep: 52   EpTime: 36.5744  Trainloss: 1.2982   Testloss: 1.6086  TrainAcc: 64.79   Top1: 57.2000    Top5: 85.8667	lr:0.016388
Ep: 53   EpTime: 37.2219  Trainloss: 1.3009   Testloss: 1.6211  TrainAcc: 64.35   Top1: 57.3500    Top5: 86.2333	lr:0.016060
Ep: 54   EpTime: 37.5958  Trainloss: 1.2746   Testloss: 1.5883  TrainAcc: 65.10   Top1: 57.8667    Top5: 86.5833	lr:0.015739
Checkpoint saved!!!
Ep: 55   EpTime: 37.5464  Trainloss: 1.2633   Testloss: 1.6559  TrainAcc: 65.63   Top1: 56.4000    Top5: 86.0167	lr:0.015424
Ep: 56   EpTime: 37.3533  Trainloss: 1.2241   Testloss: 1.5746  TrainAcc: 66.71   Top1: 57.9500    Top5: 86.5500	lr:0.015115
Checkpoint saved!!!
Ep: 57   EpTime: 37.2600  Trainloss: 1.2193   Testloss: 1.6194  TrainAcc: 67.14   Top1: 57.7500    Top5: 85.9000	lr:0.014813
Ep: 58   EpTime: 37.3090  Trainloss: 1.2025   Testloss: 1.6390  TrainAcc: 68.01   Top1: 57.0500    Top5: 85.8500	lr:0.014517
Ep: 59   EpTime: 37.7185  Trainloss: 1.1776   Testloss: 1.6406  TrainAcc: 68.20   Top1: 57.8167    Top5: 86.1167	lr:0.014227
Ep: 60   EpTime: 37.0896  Trainloss: 1.1699   Testloss: 1.5760  TrainAcc: 68.72   Top1: 58.7667    Top5: 87.0167	lr:0.013942
Checkpoint saved!!!
Ep: 61   EpTime: 38.1848  Trainloss: 1.1530   Testloss: 1.5924  TrainAcc: 68.95   Top1: 58.7333    Top5: 86.6500	lr:0.013663
Ep: 62   EpTime: 37.9495  Trainloss: 1.1416   Testloss: 1.6120  TrainAcc: 69.34   Top1: 58.2333    Top5: 86.1833	lr:0.013390
Ep: 63   EpTime: 38.4287  Trainloss: 1.1176   Testloss: 1.5918  TrainAcc: 69.59   Top1: 58.7000    Top5: 86.5500	lr:0.013122
Ep: 64   EpTime: 37.4726  Trainloss: 1.0788   Testloss: 1.6028  TrainAcc: 71.06   Top1: 58.5000    Top5: 86.9500	lr:0.012860
Ep: 65   EpTime: 37.1316  Trainloss: 1.0634   Testloss: 1.6167  TrainAcc: 71.00   Top1: 59.0500    Top5: 86.9000	lr:0.012602
Checkpoint saved!!!
Ep: 66   EpTime: 37.1118  Trainloss: 1.0761   Testloss: 1.6353  TrainAcc: 71.00   Top1: 58.6333    Top5: 86.6167	lr:0.012350
Ep: 67   EpTime: 36.8808  Trainloss: 1.0577   Testloss: 1.5979  TrainAcc: 71.18   Top1: 59.3167    Top5: 86.8000	lr:0.012103
Checkpoint saved!!!
Ep: 68   EpTime: 37.8141  Trainloss: 1.0360   Testloss: 1.6294  TrainAcc: 71.91   Top1: 58.2500    Top5: 86.7833	lr:0.011861
Ep: 69   EpTime: 36.8558  Trainloss: 1.0310   Testloss: 1.6010  TrainAcc: 72.12   Top1: 58.6667    Top5: 87.1833	lr:0.011624
Ep: 70   EpTime: 37.3929  Trainloss: 0.9951   Testloss: 1.6333  TrainAcc: 73.27   Top1: 59.4500    Top5: 87.2167	lr:0.011392
Checkpoint saved!!!
Ep: 71   EpTime: 37.2875  Trainloss: 0.9996   Testloss: 1.5825  TrainAcc: 73.05   Top1: 60.4833    Top5: 86.5167	lr:0.011164
Checkpoint saved!!!
Ep: 72   EpTime: 36.9967  Trainloss: 0.9787   Testloss: 1.6039  TrainAcc: 73.88   Top1: 60.0167    Top5: 86.9667	lr:0.010941
Ep: 73   EpTime: 36.8216  Trainloss: 0.9707   Testloss: 1.5638  TrainAcc: 74.16   Top1: 59.5833    Top5: 87.4500	lr:0.010722
Ep: 74   EpTime: 36.6506  Trainloss: 0.9673   Testloss: 1.5905  TrainAcc: 73.96   Top1: 60.1667    Top5: 87.0000	lr:0.010507
Ep: 75   EpTime: 37.0029  Trainloss: 0.9152   Testloss: 1.6145  TrainAcc: 75.80   Top1: 58.8833    Top5: 86.6333	lr:0.010297
Ep: 76   EpTime: 37.1745  Trainloss: 0.9245   Testloss: 1.6115  TrainAcc: 75.03   Top1: 59.8000    Top5: 87.0000	lr:0.010091
Ep: 77   EpTime: 37.1312  Trainloss: 0.9209   Testloss: 1.6159  TrainAcc: 75.43   Top1: 60.1833    Top5: 86.8500	lr:0.009889
Ep: 78   EpTime: 37.8221  Trainloss: 0.9195   Testloss: 1.6146  TrainAcc: 75.71   Top1: 59.5833    Top5: 86.9167	lr:0.009692
Ep: 79   EpTime: 37.7551  Trainloss: 0.9144   Testloss: 1.5777  TrainAcc: 75.64   Top1: 60.3500    Top5: 87.0833	lr:0.009498
Ep: 80   EpTime: 37.3437  Trainloss: 0.8838   Testloss: 1.6125  TrainAcc: 76.23   Top1: 60.8167    Top5: 86.9333	lr:0.009308
Checkpoint saved!!!
Ep: 81   EpTime: 37.4974  Trainloss: 0.9034   Testloss: 1.6639  TrainAcc: 76.03   Top1: 59.3667    Top5: 86.6833	lr:0.009122
Ep: 82   EpTime: 36.9988  Trainloss: 0.8874   Testloss: 1.6097  TrainAcc: 76.57   Top1: 59.5333    Top5: 86.6667	lr:0.008939
Ep: 83   EpTime: 37.1846  Trainloss: 0.8629   Testloss: 1.6197  TrainAcc: 77.09   Top1: 59.9167    Top5: 87.1500	lr:0.008760
Ep: 84   EpTime: 37.5365  Trainloss: 0.8597   Testloss: 1.6172  TrainAcc: 77.00   Top1: 59.7333    Top5: 87.2000	lr:0.008585
Ep: 85   EpTime: 37.2325  Trainloss: 0.8461   Testloss: 1.6262  TrainAcc: 77.78   Top1: 60.4500    Top5: 87.3500	lr:0.008414
Ep: 86   EpTime: 37.4187  Trainloss: 0.8345   Testloss: 1.5872  TrainAcc: 78.05   Top1: 60.4333    Top5: 87.6000	lr:0.008245
Ep: 87   EpTime: 37.4501  Trainloss: 0.8410   Testloss: 1.6143  TrainAcc: 78.26   Top1: 60.0667    Top5: 87.0667	lr:0.008080
Ep: 88   EpTime: 37.8485  Trainloss: 0.8208   Testloss: 1.6600  TrainAcc: 78.26   Top1: 59.7667    Top5: 86.7000	lr:0.007919
Ep: 89   EpTime: 37.4579  Trainloss: 0.8206   Testloss: 1.6276  TrainAcc: 78.77   Top1: 60.3667    Top5: 86.8833	lr:0.007760
Ep: 90   EpTime: 37.4930  Trainloss: 0.8173   Testloss: 1.6177  TrainAcc: 78.13   Top1: 60.3500    Top5: 87.4667	lr:0.007605
Ep: 91   EpTime: 37.7489  Trainloss: 0.7916   Testloss: 1.6456  TrainAcc: 79.40   Top1: 59.7667    Top5: 87.2333	lr:0.007453
Ep: 92   EpTime: 37.4285  Trainloss: 0.7966   Testloss: 1.6516  TrainAcc: 78.88   Top1: 60.1167    Top5: 87.0833	lr:0.007304
Ep: 93   EpTime: 37.5529  Trainloss: 0.7838   Testloss: 1.6229  TrainAcc: 79.47   Top1: 60.9167    Top5: 87.2333	lr:0.007158
Checkpoint saved!!!
Ep: 94   EpTime: 37.2140  Trainloss: 0.7691   Testloss: 1.6335  TrainAcc: 79.97   Top1: 60.8833    Top5: 87.4000	lr:0.007015
Ep: 95   EpTime: 36.5882  Trainloss: 0.7637   Testloss: 1.6053  TrainAcc: 80.14   Top1: 60.9000    Top5: 87.2333	lr:0.006874
Ep: 96   EpTime: 37.0147  Trainloss: 0.7559   Testloss: 1.6364  TrainAcc: 80.08   Top1: 60.3167    Top5: 87.5000	lr:0.006737
Ep: 97   EpTime: 36.8033  Trainloss: 0.7578   Testloss: 1.6211  TrainAcc: 80.51   Top1: 60.9500    Top5: 87.9167	lr:0.006602
Checkpoint saved!!!
Ep: 98   EpTime: 36.7319  Trainloss: 0.7433   Testloss: 1.6752  TrainAcc: 80.72   Top1: 60.4667    Top5: 86.6500	lr:0.006470
Ep: 99   EpTime: 36.3829  Trainloss: 0.7410   Testloss: 1.6226  TrainAcc: 80.72   Top1: 60.3667    Top5: 86.9333	lr:0.006341
Ep: 100   EpTime: 36.5337  Trainloss: 0.7412   Testloss: 1.6482  TrainAcc: 80.73   Top1: 60.5333    Top5: 86.8833	lr:0.006214
Ep: 101   EpTime: 36.8408  Trainloss: 0.7199   Testloss: 1.6392  TrainAcc: 80.86   Top1: 60.4833    Top5: 87.4333	lr:0.006090
Ep: 102   EpTime: 36.7578  Trainloss: 0.7183   Testloss: 1.6314  TrainAcc: 81.34   Top1: 61.1333    Top5: 87.8333	lr:0.005968
Checkpoint saved!!!
Ep: 103   EpTime: 36.5319  Trainloss: 0.7320   Testloss: 1.6261  TrainAcc: 81.01   Top1: 60.8500    Top5: 87.5500	lr:0.005849
Ep: 104   EpTime: 36.5787  Trainloss: 0.7065   Testloss: 1.6444  TrainAcc: 81.98   Top1: 60.9333    Top5: 87.2833	lr:0.005732
Ep: 105   EpTime: 36.5368  Trainloss: 0.6916   Testloss: 1.6185  TrainAcc: 81.52   Top1: 61.4667    Top5: 87.7500	lr:0.005617
Checkpoint saved!!!
Ep: 106   EpTime: 36.5827  Trainloss: 0.7003   Testloss: 1.6598  TrainAcc: 81.75   Top1: 60.3000    Top5: 87.5000	lr:0.005505
Ep: 107   EpTime: 37.2888  Trainloss: 0.7198   Testloss: 1.6249  TrainAcc: 81.28   Top1: 60.7000    Top5: 87.4667	lr:0.005394
Ep: 108   EpTime: 36.7184  Trainloss: 0.6772   Testloss: 1.6526  TrainAcc: 82.37   Top1: 60.4500    Top5: 87.1833	lr:0.005287
Ep: 109   EpTime: 36.4237  Trainloss: 0.6782   Testloss: 1.6494  TrainAcc: 82.77   Top1: 60.7333    Top5: 87.5833	lr:0.005181
Ep: 110   EpTime: 36.5176  Trainloss: 0.7086   Testloss: 1.6584  TrainAcc: 81.47   Top1: 60.6833    Top5: 87.1833	lr:0.005077
Ep: 111   EpTime: 36.9929  Trainloss: 0.6758   Testloss: 1.6795  TrainAcc: 82.36   Top1: 60.5000    Top5: 87.0667	lr:0.004976
Ep: 112   EpTime: 36.9613  Trainloss: 0.6767   Testloss: 1.6710  TrainAcc: 82.67   Top1: 60.4000    Top5: 86.9000	lr:0.004876
Ep: 113   EpTime: 36.8805  Trainloss: 0.6632   Testloss: 1.6446  TrainAcc: 82.85   Top1: 60.5833    Top5: 87.6167	lr:0.004779
Ep: 114   EpTime: 36.3749  Trainloss: 0.6675   Testloss: 1.6435  TrainAcc: 82.71   Top1: 61.0000    Top5: 87.3667	lr:0.004683
Ep: 115   EpTime: 36.2652  Trainloss: 0.6665   Testloss: 1.6345  TrainAcc: 82.97   Top1: 60.5667    Top5: 87.3500	lr:0.004589
Ep: 116   EpTime: 36.7403  Trainloss: 0.6541   Testloss: 1.6676  TrainAcc: 83.04   Top1: 61.1500    Top5: 87.3500	lr:0.004498
Ep: 117   EpTime: 36.1335  Trainloss: 0.6519   Testloss: 1.6561  TrainAcc: 83.61   Top1: 60.9833    Top5: 87.4833	lr:0.004408
Ep: 118   EpTime: 36.7735  Trainloss: 0.6500   Testloss: 1.6470  TrainAcc: 83.04   Top1: 61.1833    Top5: 87.3000	lr:0.004320
Ep: 119   EpTime: 36.4813  Trainloss: 0.6369   Testloss: 1.6447  TrainAcc: 83.58   Top1: 60.5833    Top5: 87.4333	lr:0.004233
Ep: 120   EpTime: 36.2574  Trainloss: 0.6487   Testloss: 1.6623  TrainAcc: 83.35   Top1: 61.0333    Top5: 87.4667	lr:0.004148
Ep: 121   EpTime: 36.5628  Trainloss: 0.6294   Testloss: 1.6343  TrainAcc: 83.84   Top1: 61.2167    Top5: 87.4833	lr:0.004066
Ep: 122   EpTime: 36.7377  Trainloss: 0.6382   Testloss: 1.6547  TrainAcc: 83.36   Top1: 60.9667    Top5: 87.5667	lr:0.003984
Ep: 123   EpTime: 36.5494  Trainloss: 0.6243   Testloss: 1.6597  TrainAcc: 83.57   Top1: 61.6000    Top5: 87.3667	lr:0.003905
Checkpoint saved!!!
Ep: 124   EpTime: 36.8839  Trainloss: 0.6238   Testloss: 1.6547  TrainAcc: 83.91   Top1: 60.9500    Top5: 87.2000	lr:0.003826
Ep: 125   EpTime: 36.8637  Trainloss: 0.6138   Testloss: 1.6641  TrainAcc: 83.89   Top1: 61.0500    Top5: 87.0667	lr:0.003750
Ep: 126   EpTime: 36.7620  Trainloss: 0.6398   Testloss: 1.6669  TrainAcc: 83.39   Top1: 61.2667    Top5: 87.2833	lr:0.003675
Ep: 127   EpTime: 36.6425  Trainloss: 0.6319   Testloss: 1.6683  TrainAcc: 84.01   Top1: 60.9000    Top5: 87.0500	lr:0.003601
Ep: 128   EpTime: 36.7311  Trainloss: 0.6288   Testloss: 1.6609  TrainAcc: 83.78   Top1: 61.3833    Top5: 87.2667	lr:0.003529
Ep: 129   EpTime: 36.7007  Trainloss: 0.6016   Testloss: 1.6506  TrainAcc: 84.68   Top1: 61.5333    Top5: 87.6000	lr:0.003459
Ep: 130   EpTime: 36.5018  Trainloss: 0.6189   Testloss: 1.6614  TrainAcc: 83.96   Top1: 61.4000    Top5: 87.4833	lr:0.003390
Ep: 131   EpTime: 37.0483  Trainloss: 0.6170   Testloss: 1.6670  TrainAcc: 84.48   Top1: 60.8833    Top5: 87.2667	lr:0.003322
Ep: 132   EpTime: 36.6298  Trainloss: 0.6048   Testloss: 1.6657  TrainAcc: 84.24   Top1: 61.3500    Top5: 86.9833	lr:0.003255
Ep: 133   EpTime: 37.1177  Trainloss: 0.5834   Testloss: 1.6697  TrainAcc: 85.07   Top1: 61.4667    Top5: 87.1333	lr:0.003190
Ep: 134   EpTime: 37.0214  Trainloss: 0.6049   Testloss: 1.6882  TrainAcc: 84.53   Top1: 60.6500    Top5: 87.0333	lr:0.003126
Ep: 135   EpTime: 37.2117  Trainloss: 0.5903   Testloss: 1.6852  TrainAcc: 84.92   Top1: 60.7000    Top5: 87.3000	lr:0.003064
Ep: 136   EpTime: 37.1016  Trainloss: 0.6089   Testloss: 1.6763  TrainAcc: 84.48   Top1: 61.5167    Top5: 86.7667	lr:0.003003
Ep: 137   EpTime: 37.2802  Trainloss: 0.5902   Testloss: 1.6744  TrainAcc: 84.93   Top1: 60.8667    Top5: 87.1000	lr:0.002943
Ep: 138   EpTime: 36.9558  Trainloss: 0.5856   Testloss: 1.6698  TrainAcc: 84.86   Top1: 60.9333    Top5: 87.0500	lr:0.002884
Ep: 139   EpTime: 36.5248  Trainloss: 0.5801   Testloss: 1.6798  TrainAcc: 85.10   Top1: 61.4833    Top5: 87.1833	lr:0.002826
Ep: 140   EpTime: 36.6344  Trainloss: 0.5729   Testloss: 1.6693  TrainAcc: 85.42   Top1: 61.5000    Top5: 86.7667	lr:0.002770
Ep: 141   EpTime: 37.2702  Trainloss: 0.5758   Testloss: 1.6888  TrainAcc: 85.04   Top1: 61.0667    Top5: 86.9667	lr:0.002714
Ep: 142   EpTime: 37.0535  Trainloss: 0.5805   Testloss: 1.6826  TrainAcc: 85.22   Top1: 60.8667    Top5: 87.1333	lr:0.002660
Ep: 143   EpTime: 37.1588  Trainloss: 0.5618   Testloss: 1.6791  TrainAcc: 85.86   Top1: 60.8333    Top5: 86.9667	lr:0.002607
Ep: 144   EpTime: 37.2330  Trainloss: 0.5531   Testloss: 1.6895  TrainAcc: 85.81   Top1: 60.8333    Top5: 87.0833	lr:0.002555
Ep: 145   EpTime: 36.5438  Trainloss: 0.5677   Testloss: 1.6766  TrainAcc: 85.60   Top1: 61.4333    Top5: 86.9667	lr:0.002503
Ep: 146   EpTime: 36.6954  Trainloss: 0.5653   Testloss: 1.6734  TrainAcc: 85.51   Top1: 61.1833    Top5: 87.0833	lr:0.002453
Ep: 147   EpTime: 37.1895  Trainloss: 0.5510   Testloss: 1.6946  TrainAcc: 85.99   Top1: 61.1500    Top5: 86.9833	lr:0.002404
Ep: 148   EpTime: 36.5610  Trainloss: 0.5631   Testloss: 1.6786  TrainAcc: 85.49   Top1: 60.9667    Top5: 87.1667	lr:0.002356
Ep: 149   EpTime: 36.3088  Trainloss: 0.5570   Testloss: 1.6723  TrainAcc: 86.00   Top1: 61.5333    Top5: 86.9500	lr:0.002309
Ep: 150   EpTime: 37.1049  Trainloss: 0.5552   Testloss: 1.6951  TrainAcc: 85.88   Top1: 61.5500    Top5: 86.7000	lr:0.002263
Ep: 151   EpTime: 36.1683  Trainloss: 0.5751   Testloss: 1.6830  TrainAcc: 85.26   Top1: 61.5167    Top5: 87.3167	lr:0.002218
Ep: 152   EpTime: 36.3698  Trainloss: 0.5484   Testloss: 1.6973  TrainAcc: 85.88   Top1: 61.3667    Top5: 87.1167	lr:0.002173
Ep: 153   EpTime: 36.6053  Trainloss: 0.5321   Testloss: 1.6895  TrainAcc: 86.30   Top1: 61.0000    Top5: 87.0833	lr:0.002130
Ep: 154   EpTime: 36.9239  Trainloss: 0.5523   Testloss: 1.6785  TrainAcc: 85.69   Top1: 61.4500    Top5: 86.9833	lr:0.002087
Ep: 155   EpTime: 36.7008  Trainloss: 0.5374   Testloss: 1.6794  TrainAcc: 86.24   Top1: 61.1167    Top5: 86.9000	lr:0.002046
Ep: 156   EpTime: 36.9351  Trainloss: 0.5191   Testloss: 1.6769  TrainAcc: 86.77   Top1: 61.4667    Top5: 87.0667	lr:0.002005
Ep: 157   EpTime: 36.6582  Trainloss: 0.5446   Testloss: 1.6993  TrainAcc: 86.10   Top1: 61.0333    Top5: 87.0167	lr:0.001965
Ep: 158   EpTime: 36.9595  Trainloss: 0.5478   Testloss: 1.6792  TrainAcc: 85.93   Top1: 61.2833    Top5: 86.9500	lr:0.001925
Ep: 159   EpTime: 36.4067  Trainloss: 0.5481   Testloss: 1.7002  TrainAcc: 86.12   Top1: 61.2500    Top5: 87.1000	lr:0.001887
Ep: 160   EpTime: 36.7019  Trainloss: 0.5482   Testloss: 1.6868  TrainAcc: 86.12   Top1: 61.4000    Top5: 86.8167	lr:0.001849
Ep: 161   EpTime: 36.7061  Trainloss: 0.5245   Testloss: 1.6899  TrainAcc: 86.36   Top1: 61.0167    Top5: 86.9667	lr:0.001812
Ep: 162   EpTime: 36.8325  Trainloss: 0.5228   Testloss: 1.6997  TrainAcc: 86.85   Top1: 61.2000    Top5: 87.0500	lr:0.001776
Ep: 163   EpTime: 36.8808  Trainloss: 0.5302   Testloss: 1.6861  TrainAcc: 86.52   Top1: 61.1333    Top5: 87.1000	lr:0.001740
Ep: 164   EpTime: 36.3698  Trainloss: 0.5342   Testloss: 1.6930  TrainAcc: 86.43   Top1: 61.1500    Top5: 87.1000	lr:0.001705
Ep: 165   EpTime: 36.4767  Trainloss: 0.5252   Testloss: 1.6913  TrainAcc: 86.47   Top1: 61.3833    Top5: 86.8833	lr:0.001671
Ep: 166   EpTime: 36.7638  Trainloss: 0.5224   Testloss: 1.6876  TrainAcc: 86.48   Top1: 61.2333    Top5: 87.0333	lr:0.001638
Ep: 167   EpTime: 36.8760  Trainloss: 0.5409   Testloss: 1.6980  TrainAcc: 86.36   Top1: 61.3833    Top5: 87.1167	lr:0.001605
Ep: 168   EpTime: 36.4659  Trainloss: 0.5264   Testloss: 1.6932  TrainAcc: 86.27   Top1: 61.2167    Top5: 86.9000	lr:0.001573
Ep: 169   EpTime: 36.3330  Trainloss: 0.5234   Testloss: 1.6974  TrainAcc: 86.63   Top1: 61.0167    Top5: 86.7500	lr:0.001542
Ep: 170   EpTime: 36.4154  Trainloss: 0.5177   Testloss: 1.7040  TrainAcc: 86.74   Top1: 61.0833    Top5: 86.7167	lr:0.001511
Ep: 171   EpTime: 36.8610  Trainloss: 0.5320   Testloss: 1.6991  TrainAcc: 86.43   Top1: 61.4500    Top5: 86.9333	lr:0.001481
Ep: 172   EpTime: 37.0204  Trainloss: 0.5225   Testloss: 1.7043  TrainAcc: 86.67   Top1: 61.0333    Top5: 86.9500	lr:0.001451
Ep: 173   EpTime: 37.1247  Trainloss: 0.5205   Testloss: 1.7131  TrainAcc: 86.91   Top1: 60.8333    Top5: 86.6333	lr:0.001422
Ep: 174   EpTime: 36.7771  Trainloss: 0.5156   Testloss: 1.6887  TrainAcc: 86.75   Top1: 61.2333    Top5: 86.9500	lr:0.001393
Ep: 175   EpTime: 37.1817  Trainloss: 0.5186   Testloss: 1.6778  TrainAcc: 86.80   Top1: 60.9500    Top5: 86.7333	lr:0.001366
Ep: 176   EpTime: 36.6233  Trainloss: 0.5150   Testloss: 1.6899  TrainAcc: 86.87   Top1: 61.1667    Top5: 86.9167	lr:0.001338
Ep: 177   EpTime: 36.9271  Trainloss: 0.4945   Testloss: 1.6953  TrainAcc: 87.54   Top1: 61.2000    Top5: 86.7333	lr:0.001312
Ep: 178   EpTime: 37.2302  Trainloss: 0.5173   Testloss: 1.6980  TrainAcc: 87.00   Top1: 61.2000    Top5: 86.9333	lr:0.001285
Ep: 179   EpTime: 37.1654  Trainloss: 0.5045   Testloss: 1.7029  TrainAcc: 86.90   Top1: 60.9000    Top5: 86.8667	lr:0.001260
Ep: 180   EpTime: 37.2269  Trainloss: 0.5048   Testloss: 1.7012  TrainAcc: 87.23   Top1: 60.7667    Top5: 86.7167	lr:0.001234
Ep: 181   EpTime: 37.0516  Trainloss: 0.4954   Testloss: 1.6997  TrainAcc: 87.40   Top1: 61.1500    Top5: 86.5833	lr:0.001210
Ep: 182   EpTime: 36.8791  Trainloss: 0.5030   Testloss: 1.7096  TrainAcc: 87.22   Top1: 61.2833    Top5: 86.3167	lr:0.001186
Ep: 183   EpTime: 36.7667  Trainloss: 0.5106   Testloss: 1.7035  TrainAcc: 87.16   Top1: 61.0833    Top5: 86.3667	lr:0.001162
Ep: 184   EpTime: 37.2991  Trainloss: 0.5083   Testloss: 1.7042  TrainAcc: 87.10   Top1: 61.2167    Top5: 86.8500	lr:0.001139
Ep: 185   EpTime: 36.9016  Trainloss: 0.5171   Testloss: 1.7099  TrainAcc: 86.67   Top1: 61.3667    Top5: 86.5833	lr:0.001116
Ep: 186   EpTime: 36.7940  Trainloss: 0.4943   Testloss: 1.7196  TrainAcc: 87.51   Top1: 60.8333    Top5: 86.6333	lr:0.001093
Ep: 187   EpTime: 36.5628  Trainloss: 0.5016   Testloss: 1.6947  TrainAcc: 87.24   Top1: 60.9500    Top5: 86.6333	lr:0.001072
Ep: 188   EpTime: 36.9396  Trainloss: 0.5031   Testloss: 1.6972  TrainAcc: 87.24   Top1: 60.8000    Top5: 86.6500	lr:0.001050
Ep: 189   EpTime: 37.1344  Trainloss: 0.4864   Testloss: 1.7114  TrainAcc: 87.67   Top1: 61.0667    Top5: 86.5167	lr:0.001029
Ep: 190   EpTime: 37.0050  Trainloss: 0.4930   Testloss: 1.6989  TrainAcc: 87.33   Top1: 61.2167    Top5: 86.5500	lr:0.001009
Ep: 191   EpTime: 36.7365  Trainloss: 0.4967   Testloss: 1.7034  TrainAcc: 87.56   Top1: 60.9833    Top5: 86.7167	lr:0.000988
Ep: 192   EpTime: 36.9204  Trainloss: 0.4887   Testloss: 1.7039  TrainAcc: 87.48   Top1: 61.1000    Top5: 86.6667	lr:0.000969
Ep: 193   EpTime: 36.5997  Trainloss: 0.4942   Testloss: 1.7009  TrainAcc: 87.57   Top1: 61.3000    Top5: 86.8833	lr:0.000949
Ep: 194   EpTime: 37.5738  Trainloss: 0.4850   Testloss: 1.7022  TrainAcc: 87.72   Top1: 61.1500    Top5: 86.9833	lr:0.000930
Ep: 195   EpTime: 36.9778  Trainloss: 0.4967   Testloss: 1.7074  TrainAcc: 87.24   Top1: 61.0833    Top5: 86.6833	lr:0.000912
Ep: 196   EpTime: 37.0750  Trainloss: 0.4821   Testloss: 1.6869  TrainAcc: 87.47   Top1: 61.2333    Top5: 86.8667	lr:0.000893
Ep: 197   EpTime: 36.8497  Trainloss: 0.4901   Testloss: 1.6914  TrainAcc: 87.74   Top1: 61.3333    Top5: 86.6667	lr:0.000876
Ep: 198   EpTime: 37.0743  Trainloss: 0.4996   Testloss: 1.7015  TrainAcc: 87.57   Top1: 61.1000    Top5: 86.8167	lr:0.000858
Ep: 199   EpTime: 36.9466  Trainloss: 0.5037   Testloss: 1.7013  TrainAcc: 87.46   Top1: 61.2000    Top5: 87.0667	lr:0.000841
Ep: 200   EpTime: 36.7934  Trainloss: 0.5114   Testloss: 1.7105  TrainAcc: 86.88   Top1: 61.0833    Top5: 86.9667	lr:0.000824
