[32, 16, 24, 32, 64, 96, 160, 320]
MobileNet2(
  (activation): ReLU6(inplace)
  (conv1): Conv2d(3, 32, kernel_size=(3, 3), stride=(2, 2), padding=(1, 1), bias=False)
  (bn1): BatchNorm2d(32, eps=1e-05, momentum=0.1, affine=True, track_running_stats=True)
  (bottlenecks): Sequential(
    (Bottlenecks_0): Sequential(
      (LinearBottleneck0_0): LinearBottleneck(
        (conv1): Conv2d(32, 32, kernel_size=(1, 1), stride=(1, 1), bias=False)
        (bn1): BatchNorm2d(32, eps=1e-05, momentum=0.1, affine=True, track_running_stats=True)
        (conv2): Conv2d(32, 32, kernel_size=(3, 3), stride=(1, 1), padding=(1, 1), groups=32, bias=False)
        (bn2): BatchNorm2d(32, eps=1e-05, momentum=0.1, affine=True, track_running_stats=True)
        (conv3): Conv2d(32, 16, kernel_size=(1, 1), stride=(1, 1), bias=False)
        (bn3): BatchNorm2d(16, eps=1e-05, momentum=0.1, affine=True, track_running_stats=True)
        (activation): ReLU6(inplace)
      )
    )
    (Bottlenecks_1): Sequential(
      (LinearBottleneck1_0): LinearBottleneck(
        (conv1): Conv2d(16, 96, kernel_size=(1, 1), stride=(1, 1), bias=False)
        (bn1): BatchNorm2d(96, eps=1e-05, momentum=0.1, affine=True, track_running_stats=True)
        (conv2): Conv2d(96, 96, kernel_size=(3, 3), stride=(2, 2), padding=(1, 1), groups=96, bias=False)
        (bn2): BatchNorm2d(96, eps=1e-05, momentum=0.1, affine=True, track_running_stats=True)
        (conv3): Conv2d(96, 24, kernel_size=(1, 1), stride=(1, 1), bias=False)
        (bn3): BatchNorm2d(24, eps=1e-05, momentum=0.1, affine=True, track_running_stats=True)
        (activation): ReLU6(inplace)
      )
      (LinearBottleneck1_1): LinearBottleneck(
        (conv1): Conv2d(24, 144, kernel_size=(1, 1), stride=(1, 1), bias=False)
        (bn1): BatchNorm2d(144, eps=1e-05, momentum=0.1, affine=True, track_running_stats=True)
        (conv2): Conv2d(144, 144, kernel_size=(3, 3), stride=(1, 1), padding=(1, 1), groups=144, bias=False)
        (bn2): BatchNorm2d(144, eps=1e-05, momentum=0.1, affine=True, track_running_stats=True)
        (conv3): Conv2d(144, 24, kernel_size=(1, 1), stride=(1, 1), bias=False)
        (bn3): BatchNorm2d(24, eps=1e-05, momentum=0.1, affine=True, track_running_stats=True)
        (activation): ReLU6(inplace)
      )
    )
    (Bottlenecks_2): Sequential(
      (LinearBottleneck2_0): LinearBottleneck(
        (conv1): Conv2d(24, 144, kernel_size=(1, 1), stride=(1, 1), bias=False)
        (bn1): BatchNorm2d(144, eps=1e-05, momentum=0.1, affine=True, track_running_stats=True)
        (conv2): Conv2d(144, 144, kernel_size=(3, 3), stride=(2, 2), padding=(1, 1), groups=144, bias=False)
        (bn2): BatchNorm2d(144, eps=1e-05, momentum=0.1, affine=True, track_running_stats=True)
        (conv3): Conv2d(144, 32, kernel_size=(1, 1), stride=(1, 1), bias=False)
        (bn3): BatchNorm2d(32, eps=1e-05, momentum=0.1, affine=True, track_running_stats=True)
        (activation): ReLU6(inplace)
      )
      (LinearBottleneck2_1): LinearBottleneck(
        (conv1): Conv2d(32, 192, kernel_size=(1, 1), stride=(1, 1), bias=False)
        (bn1): BatchNorm2d(192, eps=1e-05, momentum=0.1, affine=True, track_running_stats=True)
        (conv2): Conv2d(192, 192, kernel_size=(3, 3), stride=(1, 1), padding=(1, 1), groups=192, bias=False)
        (bn2): BatchNorm2d(192, eps=1e-05, momentum=0.1, affine=True, track_running_stats=True)
        (conv3): Conv2d(192, 32, kernel_size=(1, 1), stride=(1, 1), bias=False)
        (bn3): BatchNorm2d(32, eps=1e-05, momentum=0.1, affine=True, track_running_stats=True)
        (activation): ReLU6(inplace)
      )
      (LinearBottleneck2_2): LinearBottleneck(
        (conv1): Conv2d(32, 192, kernel_size=(1, 1), stride=(1, 1), bias=False)
        (bn1): BatchNorm2d(192, eps=1e-05, momentum=0.1, affine=True, track_running_stats=True)
        (conv2): Conv2d(192, 192, kernel_size=(3, 3), stride=(1, 1), padding=(1, 1), groups=192, bias=False)
        (bn2): BatchNorm2d(192, eps=1e-05, momentum=0.1, affine=True, track_running_stats=True)
        (conv3): Conv2d(192, 32, kernel_size=(1, 1), stride=(1, 1), bias=False)
        (bn3): BatchNorm2d(32, eps=1e-05, momentum=0.1, affine=True, track_running_stats=True)
        (activation): ReLU6(inplace)
      )
    )
    (Bottlenecks_3): Sequential(
      (LinearBottleneck3_0): LinearBottleneck(
        (conv1): Conv2d(32, 192, kernel_size=(1, 1), stride=(1, 1), bias=False)
        (bn1): BatchNorm2d(192, eps=1e-05, momentum=0.1, affine=True, track_running_stats=True)
        (conv2): Conv2d(192, 192, kernel_size=(3, 3), stride=(2, 2), padding=(1, 1), groups=192, bias=False)
        (bn2): BatchNorm2d(192, eps=1e-05, momentum=0.1, affine=True, track_running_stats=True)
        (conv3): Conv2d(192, 64, kernel_size=(1, 1), stride=(1, 1), bias=False)
        (bn3): BatchNorm2d(64, eps=1e-05, momentum=0.1, affine=True, track_running_stats=True)
        (activation): ReLU6(inplace)
      )
      (LinearBottleneck3AlphaBlock_1): AlphaBlock(
        (arm_1): SplitArm(
          (conv_dws): Conv2d(64, 64, kernel_size=(1, 1), stride=(1, 1), groups=64)
          (bn_dws): BatchNorm2d(64, eps=1e-05, momentum=0.9, affine=True, track_running_stats=True)
          (relu_dws): ReLU(inplace)
          (maxpool): MaxPool2d(kernel_size=3, stride=1, padding=1, dilation=1, ceil_mode=False)
          (conv_point): Conv2d(64, 1, kernel_size=(1, 1), stride=(1, 1))
          (bn_point): BatchNorm2d(1, eps=1e-05, momentum=0.9, affine=True, track_running_stats=True)
          (relu_point): ReLU(inplace)
          (softmax): Softmax()
        )
      )
      (LinearBottleneck3_2): LinearBottleneck(
        (conv1): Conv2d(64, 384, kernel_size=(1, 1), stride=(1, 1), bias=False)
        (bn1): BatchNorm2d(384, eps=1e-05, momentum=0.1, affine=True, track_running_stats=True)
        (conv2): Conv2d(384, 384, kernel_size=(3, 3), stride=(1, 1), padding=(1, 1), groups=384, bias=False)
        (bn2): BatchNorm2d(384, eps=1e-05, momentum=0.1, affine=True, track_running_stats=True)
        (conv3): Conv2d(384, 64, kernel_size=(1, 1), stride=(1, 1), bias=False)
        (bn3): BatchNorm2d(64, eps=1e-05, momentum=0.1, affine=True, track_running_stats=True)
        (activation): ReLU6(inplace)
      )
      (LinearBottleneck3_3): LinearBottleneck(
        (conv1): Conv2d(64, 384, kernel_size=(1, 1), stride=(1, 1), bias=False)
        (bn1): BatchNorm2d(384, eps=1e-05, momentum=0.1, affine=True, track_running_stats=True)
        (conv2): Conv2d(384, 384, kernel_size=(3, 3), stride=(1, 1), padding=(1, 1), groups=384, bias=False)
        (bn2): BatchNorm2d(384, eps=1e-05, momentum=0.1, affine=True, track_running_stats=True)
        (conv3): Conv2d(384, 64, kernel_size=(1, 1), stride=(1, 1), bias=False)
        (bn3): BatchNorm2d(64, eps=1e-05, momentum=0.1, affine=True, track_running_stats=True)
        (activation): ReLU6(inplace)
      )
    )
    (Bottlenecks_4): Sequential(
      (LinearBottleneck4_0): LinearBottleneck(
        (conv1): Conv2d(64, 384, kernel_size=(1, 1), stride=(1, 1), bias=False)
        (bn1): BatchNorm2d(384, eps=1e-05, momentum=0.1, affine=True, track_running_stats=True)
        (conv2): Conv2d(384, 384, kernel_size=(3, 3), stride=(1, 1), padding=(1, 1), groups=384, bias=False)
        (bn2): BatchNorm2d(384, eps=1e-05, momentum=0.1, affine=True, track_running_stats=True)
        (conv3): Conv2d(384, 96, kernel_size=(1, 1), stride=(1, 1), bias=False)
        (bn3): BatchNorm2d(96, eps=1e-05, momentum=0.1, affine=True, track_running_stats=True)
        (activation): ReLU6(inplace)
      )
      (LinearBottleneck4AlphaBlock_1): AlphaBlock(
        (arm_1): SplitArm(
          (conv_dws): Conv2d(96, 96, kernel_size=(1, 1), stride=(1, 1), groups=96)
          (bn_dws): BatchNorm2d(96, eps=1e-05, momentum=0.9, affine=True, track_running_stats=True)
          (relu_dws): ReLU(inplace)
          (maxpool): MaxPool2d(kernel_size=3, stride=1, padding=1, dilation=1, ceil_mode=False)
          (conv_point): Conv2d(96, 1, kernel_size=(1, 1), stride=(1, 1))
          (bn_point): BatchNorm2d(1, eps=1e-05, momentum=0.9, affine=True, track_running_stats=True)
          (relu_point): ReLU(inplace)
          (softmax): Softmax()
        )
      )
      (LinearBottleneck4_2): LinearBottleneck(
        (conv1): Conv2d(96, 576, kernel_size=(1, 1), stride=(1, 1), bias=False)
        (bn1): BatchNorm2d(576, eps=1e-05, momentum=0.1, affine=True, track_running_stats=True)
        (conv2): Conv2d(576, 576, kernel_size=(3, 3), stride=(1, 1), padding=(1, 1), groups=576, bias=False)
        (bn2): BatchNorm2d(576, eps=1e-05, momentum=0.1, affine=True, track_running_stats=True)
        (conv3): Conv2d(576, 96, kernel_size=(1, 1), stride=(1, 1), bias=False)
        (bn3): BatchNorm2d(96, eps=1e-05, momentum=0.1, affine=True, track_running_stats=True)
        (activation): ReLU6(inplace)
      )
    )
    (Bottlenecks_5): Sequential(
      (LinearBottleneck5_0): LinearBottleneck(
        (conv1): Conv2d(96, 576, kernel_size=(1, 1), stride=(1, 1), bias=False)
        (bn1): BatchNorm2d(576, eps=1e-05, momentum=0.1, affine=True, track_running_stats=True)
        (conv2): Conv2d(576, 576, kernel_size=(3, 3), stride=(2, 2), padding=(1, 1), groups=576, bias=False)
        (bn2): BatchNorm2d(576, eps=1e-05, momentum=0.1, affine=True, track_running_stats=True)
        (conv3): Conv2d(576, 160, kernel_size=(1, 1), stride=(1, 1), bias=False)
        (bn3): BatchNorm2d(160, eps=1e-05, momentum=0.1, affine=True, track_running_stats=True)
        (activation): ReLU6(inplace)
      )
      (LinearBottleneck5_1): LinearBottleneck(
        (conv1): Conv2d(160, 960, kernel_size=(1, 1), stride=(1, 1), bias=False)
        (bn1): BatchNorm2d(960, eps=1e-05, momentum=0.1, affine=True, track_running_stats=True)
        (conv2): Conv2d(960, 960, kernel_size=(3, 3), stride=(1, 1), padding=(1, 1), groups=960, bias=False)
        (bn2): BatchNorm2d(960, eps=1e-05, momentum=0.1, affine=True, track_running_stats=True)
        (conv3): Conv2d(960, 160, kernel_size=(1, 1), stride=(1, 1), bias=False)
        (bn3): BatchNorm2d(160, eps=1e-05, momentum=0.1, affine=True, track_running_stats=True)
        (activation): ReLU6(inplace)
      )
      (LinearBottleneck5_2): LinearBottleneck(
        (conv1): Conv2d(160, 960, kernel_size=(1, 1), stride=(1, 1), bias=False)
        (bn1): BatchNorm2d(960, eps=1e-05, momentum=0.1, affine=True, track_running_stats=True)
        (conv2): Conv2d(960, 960, kernel_size=(3, 3), stride=(1, 1), padding=(1, 1), groups=960, bias=False)
        (bn2): BatchNorm2d(960, eps=1e-05, momentum=0.1, affine=True, track_running_stats=True)
        (conv3): Conv2d(960, 160, kernel_size=(1, 1), stride=(1, 1), bias=False)
        (bn3): BatchNorm2d(160, eps=1e-05, momentum=0.1, affine=True, track_running_stats=True)
        (activation): ReLU6(inplace)
      )
    )
    (Bottlenecks_6): Sequential(
      (LinearBottleneck6_0): LinearBottleneck(
        (conv1): Conv2d(160, 960, kernel_size=(1, 1), stride=(1, 1), bias=False)
        (bn1): BatchNorm2d(960, eps=1e-05, momentum=0.1, affine=True, track_running_stats=True)
        (conv2): Conv2d(960, 960, kernel_size=(3, 3), stride=(1, 1), padding=(1, 1), groups=960, bias=False)
        (bn2): BatchNorm2d(960, eps=1e-05, momentum=0.1, affine=True, track_running_stats=True)
        (conv3): Conv2d(960, 320, kernel_size=(1, 1), stride=(1, 1), bias=False)
        (bn3): BatchNorm2d(320, eps=1e-05, momentum=0.1, affine=True, track_running_stats=True)
        (activation): ReLU6(inplace)
      )
    )
  )
  (conv_last): Conv2d(320, 1280, kernel_size=(1, 1), stride=(1, 1), bias=False)
  (bn_last): BatchNorm2d(1280, eps=1e-05, momentum=0.1, affine=True, track_running_stats=True)
  (avgpool): AdaptiveAvgPool2d(output_size=1)
  (dropout): Dropout(p=0.2, inplace)
  (fc): Linear(in_features=1280, out_features=120, bias=True)
)
Ep: 1   EpTime: 40.6056  Trainloss: 4.8592   Testloss: 4.8891  TrainAcc: 1.68   Top1: 1.9833    Top5: 7.6167	lr:0.045000
Checkpoint saved!!!
Ep: 2   EpTime: 38.4114  Trainloss: 4.5167   Testloss: 4.3976  TrainAcc: 3.96   Top1: 4.5500    Top5: 17.9000	lr:0.045000
Checkpoint saved!!!
Ep: 3   EpTime: 38.1262  Trainloss: 4.3074   Testloss: 4.2220  TrainAcc: 5.45   Top1: 5.4833    Top5: 22.0833	lr:0.044100
Checkpoint saved!!!
Ep: 4   EpTime: 38.5603  Trainloss: 4.1566   Testloss: 4.9281  TrainAcc: 7.10   Top1: 2.8667    Top5: 12.3500	lr:0.043218
Ep: 5   EpTime: 38.3508  Trainloss: 4.0272   Testloss: 3.9731  TrainAcc: 8.24   Top1: 8.7000    Top5: 29.7500	lr:0.042354
Checkpoint saved!!!
Ep: 6   EpTime: 37.6468  Trainloss: 3.9188   Testloss: 3.8312  TrainAcc: 10.14   Top1: 10.6500    Top5: 34.5167	lr:0.041507
Checkpoint saved!!!
Ep: 7   EpTime: 38.2945  Trainloss: 3.8400   Testloss: 3.9483  TrainAcc: 10.95   Top1: 9.9000    Top5: 31.0667	lr:0.040676
Ep: 8   EpTime: 38.9852  Trainloss: 3.7397   Testloss: 3.9397  TrainAcc: 12.37   Top1: 11.4667    Top5: 35.0833	lr:0.039863
Checkpoint saved!!!
Ep: 9   EpTime: 37.6853  Trainloss: 3.6248   Testloss: 3.5736  TrainAcc: 14.47   Top1: 14.1667    Top5: 41.1000	lr:0.039066
Checkpoint saved!!!
Ep: 10   EpTime: 38.1850  Trainloss: 3.5380   Testloss: 3.5824  TrainAcc: 15.36   Top1: 14.8667    Top5: 41.9667	lr:0.038284
Checkpoint saved!!!
Ep: 11   EpTime: 38.2681  Trainloss: 3.4555   Testloss: 3.4642  TrainAcc: 17.11   Top1: 16.8500    Top5: 44.6667	lr:0.037519
Checkpoint saved!!!
Ep: 12   EpTime: 38.0735  Trainloss: 3.3414   Testloss: 3.2572  TrainAcc: 18.77   Top1: 19.5167    Top5: 51.7333	lr:0.036768
Checkpoint saved!!!
Ep: 13   EpTime: 38.0697  Trainloss: 3.2490   Testloss: 3.3404  TrainAcc: 20.80   Top1: 19.5667    Top5: 49.8833	lr:0.036033
Checkpoint saved!!!
Ep: 14   EpTime: 37.6736  Trainloss: 3.1708   Testloss: 3.0009  TrainAcc: 22.68   Top1: 25.0167    Top5: 57.6833	lr:0.035312
Checkpoint saved!!!
Ep: 15   EpTime: 37.2842  Trainloss: 3.0616   Testloss: 2.8494  TrainAcc: 24.30   Top1: 27.9333    Top5: 61.5500	lr:0.034606
Checkpoint saved!!!
Ep: 16   EpTime: 37.8261  Trainloss: 2.9821   Testloss: 2.7833  TrainAcc: 25.94   Top1: 29.1333    Top5: 63.6500	lr:0.033914
Checkpoint saved!!!
Ep: 17   EpTime: 38.3638  Trainloss: 2.8889   Testloss: 2.9438  TrainAcc: 27.75   Top1: 26.3000    Top5: 58.6333	lr:0.033236
Ep: 18   EpTime: 38.5810  Trainloss: 2.8064   Testloss: 2.9040  TrainAcc: 29.38   Top1: 26.9167    Top5: 61.3833	lr:0.032571
Ep: 19   EpTime: 37.8847  Trainloss: 2.7127   Testloss: 2.5623  TrainAcc: 31.31   Top1: 33.4667    Top5: 68.1000	lr:0.031919
Checkpoint saved!!!
Ep: 20   EpTime: 37.7039  Trainloss: 2.6356   Testloss: 2.6136  TrainAcc: 32.58   Top1: 33.7167    Top5: 66.9500	lr:0.031281
Checkpoint saved!!!
Ep: 21   EpTime: 37.8692  Trainloss: 2.5756   Testloss: 2.5512  TrainAcc: 34.62   Top1: 35.0333    Top5: 69.2500	lr:0.030655
Checkpoint saved!!!
Ep: 22   EpTime: 37.8316  Trainloss: 2.4810   Testloss: 2.4376  TrainAcc: 36.00   Top1: 36.0500    Top5: 70.5000	lr:0.030042
Checkpoint saved!!!
Ep: 23   EpTime: 38.0884  Trainloss: 2.4198   Testloss: 2.3261  TrainAcc: 37.93   Top1: 38.0333    Top5: 73.0833	lr:0.029442
Checkpoint saved!!!
Ep: 24   EpTime: 37.8601  Trainloss: 2.3668   Testloss: 2.2551  TrainAcc: 38.54   Top1: 40.3333    Top5: 74.5167	lr:0.028853
Checkpoint saved!!!
Ep: 25   EpTime: 37.4479  Trainloss: 2.3202   Testloss: 2.1351  TrainAcc: 40.10   Top1: 42.5667    Top5: 76.1667	lr:0.028276
Checkpoint saved!!!
Ep: 26   EpTime: 38.3462  Trainloss: 2.2285   Testloss: 2.0787  TrainAcc: 41.15   Top1: 44.0167    Top5: 76.6667	lr:0.027710
Checkpoint saved!!!
Ep: 27   EpTime: 38.6672  Trainloss: 2.1961   Testloss: 2.0944  TrainAcc: 42.30   Top1: 44.4667    Top5: 76.8000	lr:0.027156
Checkpoint saved!!!
Ep: 28   EpTime: 37.9349  Trainloss: 2.1202   Testloss: 1.9718  TrainAcc: 44.04   Top1: 46.5667    Top5: 79.1333	lr:0.026613
Checkpoint saved!!!
Ep: 29   EpTime: 37.6990  Trainloss: 2.0736   Testloss: 1.9245  TrainAcc: 45.27   Top1: 47.2667    Top5: 79.9000	lr:0.026081
Checkpoint saved!!!
Ep: 30   EpTime: 37.5770  Trainloss: 2.0273   Testloss: 1.9771  TrainAcc: 46.47   Top1: 45.9833    Top5: 79.4000	lr:0.025559
Ep: 31   EpTime: 37.7764  Trainloss: 2.0177   Testloss: 2.0364  TrainAcc: 46.34   Top1: 45.0500    Top5: 78.0333	lr:0.025048
Ep: 32   EpTime: 37.8643  Trainloss: 1.9532   Testloss: 1.9738  TrainAcc: 48.00   Top1: 46.7333    Top5: 79.6333	lr:0.024547
Ep: 33   EpTime: 37.8808  Trainloss: 1.9146   Testloss: 1.9852  TrainAcc: 48.72   Top1: 46.6833    Top5: 79.8000	lr:0.024056
Ep: 34   EpTime: 37.4082  Trainloss: 1.8771   Testloss: 1.8547  TrainAcc: 49.69   Top1: 49.8333    Top5: 81.5333	lr:0.023575
Checkpoint saved!!!
Ep: 35   EpTime: 38.2168  Trainloss: 1.8126   Testloss: 1.8147  TrainAcc: 51.20   Top1: 50.7667    Top5: 82.1333	lr:0.023103
Checkpoint saved!!!
Ep: 36   EpTime: 37.8668  Trainloss: 1.8064   Testloss: 1.8261  TrainAcc: 50.71   Top1: 50.6667    Top5: 82.4167	lr:0.022641
Ep: 37   EpTime: 37.3136  Trainloss: 1.7470   Testloss: 1.7485  TrainAcc: 52.95   Top1: 52.2167    Top5: 83.6833	lr:0.022188
Checkpoint saved!!!
Ep: 38   EpTime: 37.5074  Trainloss: 1.7027   Testloss: 1.8008  TrainAcc: 54.05   Top1: 51.4833    Top5: 83.5000	lr:0.021745
Ep: 39   EpTime: 37.4645  Trainloss: 1.7242   Testloss: 1.8689  TrainAcc: 53.83   Top1: 49.8667    Top5: 82.3000	lr:0.021310
Ep: 40   EpTime: 37.6777  Trainloss: 1.6508   Testloss: 1.7454  TrainAcc: 55.53   Top1: 52.1167    Top5: 84.3833	lr:0.020884
Ep: 41   EpTime: 37.1453  Trainloss: 1.6338   Testloss: 1.7170  TrainAcc: 56.12   Top1: 53.0333    Top5: 83.9500	lr:0.020466
Checkpoint saved!!!
Ep: 42   EpTime: 37.5655  Trainloss: 1.5860   Testloss: 1.7093  TrainAcc: 57.30   Top1: 53.8167    Top5: 83.8667	lr:0.020057
Checkpoint saved!!!
Ep: 43   EpTime: 37.7426  Trainloss: 1.5941   Testloss: 1.7384  TrainAcc: 57.04   Top1: 53.6333    Top5: 84.8667	lr:0.019655
Ep: 44   EpTime: 38.1423  Trainloss: 1.5490   Testloss: 1.8280  TrainAcc: 58.37   Top1: 51.8333    Top5: 82.4333	lr:0.019262
Ep: 45   EpTime: 38.1901  Trainloss: 1.5104   Testloss: 1.6967  TrainAcc: 59.09   Top1: 54.7000    Top5: 85.4500	lr:0.018877
Checkpoint saved!!!
Ep: 46   EpTime: 38.1723  Trainloss: 1.4905   Testloss: 1.7243  TrainAcc: 59.84   Top1: 54.1000    Top5: 84.4500	lr:0.018499
Ep: 47   EpTime: 37.6908  Trainloss: 1.4686   Testloss: 1.6564  TrainAcc: 60.74   Top1: 55.7833    Top5: 85.2167	lr:0.018130
Checkpoint saved!!!
Ep: 48   EpTime: 37.8674  Trainloss: 1.4378   Testloss: 1.6809  TrainAcc: 60.88   Top1: 55.4167    Top5: 85.3667	lr:0.017767
Ep: 49   EpTime: 38.2661  Trainloss: 1.4222   Testloss: 1.6392  TrainAcc: 61.61   Top1: 55.9833    Top5: 85.7333	lr:0.017412
Checkpoint saved!!!
Ep: 50   EpTime: 38.0010  Trainloss: 1.3855   Testloss: 1.6234  TrainAcc: 62.62   Top1: 56.4500    Top5: 85.5000	lr:0.017063
Checkpoint saved!!!
Ep: 51   EpTime: 38.0685  Trainloss: 1.3559   Testloss: 1.7720  TrainAcc: 62.96   Top1: 53.1833    Top5: 83.3333	lr:0.016722
Ep: 52   EpTime: 38.1541  Trainloss: 1.3320   Testloss: 1.6372  TrainAcc: 63.95   Top1: 56.8000    Top5: 85.6667	lr:0.016388
Checkpoint saved!!!
Ep: 53   EpTime: 38.0915  Trainloss: 1.3429   Testloss: 1.6745  TrainAcc: 63.48   Top1: 55.6333    Top5: 85.4667	lr:0.016060
Ep: 54   EpTime: 39.3421  Trainloss: 1.3057   Testloss: 1.6932  TrainAcc: 64.54   Top1: 55.7333    Top5: 84.4500	lr:0.015739
Ep: 55   EpTime: 38.5360  Trainloss: 1.3040   Testloss: 1.6298  TrainAcc: 64.86   Top1: 57.5500    Top5: 85.9667	lr:0.015424
Checkpoint saved!!!
Ep: 56   EpTime: 38.4588  Trainloss: 1.2811   Testloss: 1.6103  TrainAcc: 65.12   Top1: 57.6667    Top5: 86.1500	lr:0.015115
Checkpoint saved!!!
Ep: 57   EpTime: 38.5741  Trainloss: 1.2360   Testloss: 1.6360  TrainAcc: 66.56   Top1: 57.3167    Top5: 85.9833	lr:0.014813
Ep: 58   EpTime: 38.5233  Trainloss: 1.2220   Testloss: 1.6239  TrainAcc: 66.50   Top1: 57.8333    Top5: 86.0167	lr:0.014517
Checkpoint saved!!!
Ep: 59   EpTime: 39.0819  Trainloss: 1.2100   Testloss: 1.6046  TrainAcc: 67.30   Top1: 57.4000    Top5: 86.5167	lr:0.014227
Ep: 60   EpTime: 37.7472  Trainloss: 1.1887   Testloss: 1.6946  TrainAcc: 67.61   Top1: 56.7000    Top5: 85.0000	lr:0.013942
Ep: 61   EpTime: 38.6630  Trainloss: 1.1794   Testloss: 1.5753  TrainAcc: 68.17   Top1: 58.0500    Top5: 86.3333	lr:0.013663
Checkpoint saved!!!
Ep: 62   EpTime: 39.3062  Trainloss: 1.1561   Testloss: 1.6221  TrainAcc: 68.41   Top1: 58.9167    Top5: 85.9500	lr:0.013390
Checkpoint saved!!!
Ep: 63   EpTime: 39.1998  Trainloss: 1.1522   Testloss: 1.5792  TrainAcc: 68.83   Top1: 59.0000    Top5: 87.0500	lr:0.013122
Checkpoint saved!!!
Ep: 64   EpTime: 37.9708  Trainloss: 1.1093   Testloss: 1.5292  TrainAcc: 70.09   Top1: 59.6000    Top5: 87.0500	lr:0.012860
Checkpoint saved!!!
Ep: 65   EpTime: 37.3808  Trainloss: 1.0932   Testloss: 1.6139  TrainAcc: 70.27   Top1: 58.2167    Top5: 87.2333	lr:0.012602
Ep: 66   EpTime: 38.1119  Trainloss: 1.0693   Testloss: 1.5893  TrainAcc: 70.71   Top1: 59.2333    Top5: 86.6667	lr:0.012350
Ep: 67   EpTime: 37.8787  Trainloss: 1.0799   Testloss: 1.5874  TrainAcc: 71.09   Top1: 59.2500    Top5: 86.3500	lr:0.012103
Ep: 68   EpTime: 37.7479  Trainloss: 1.0598   Testloss: 1.6532  TrainAcc: 71.50   Top1: 58.0667    Top5: 86.4000	lr:0.011861
Ep: 69   EpTime: 38.1043  Trainloss: 1.0501   Testloss: 1.6157  TrainAcc: 71.54   Top1: 58.6333    Top5: 86.4333	lr:0.011624
Ep: 70   EpTime: 39.1002  Trainloss: 1.0139   Testloss: 1.6126  TrainAcc: 72.92   Top1: 58.8500    Top5: 86.8167	lr:0.011392
Ep: 71   EpTime: 37.9303  Trainloss: 1.0153   Testloss: 1.6434  TrainAcc: 73.10   Top1: 58.2500    Top5: 86.5667	lr:0.011164
Ep: 72   EpTime: 37.7556  Trainloss: 0.9919   Testloss: 1.6058  TrainAcc: 73.20   Top1: 58.6333    Top5: 86.8500	lr:0.010941
Ep: 73   EpTime: 38.1472  Trainloss: 0.9807   Testloss: 1.6514  TrainAcc: 73.47   Top1: 57.5000    Top5: 86.6667	lr:0.010722
Ep: 74   EpTime: 38.2186  Trainloss: 0.9730   Testloss: 1.6709  TrainAcc: 74.07   Top1: 58.1667    Top5: 86.6000	lr:0.010507
Ep: 75   EpTime: 38.3488  Trainloss: 0.9659   Testloss: 1.5993  TrainAcc: 74.21   Top1: 59.9167    Top5: 87.0500	lr:0.010297
Checkpoint saved!!!
Ep: 76   EpTime: 37.6746  Trainloss: 0.9311   Testloss: 1.6447  TrainAcc: 75.12   Top1: 59.3000    Top5: 86.7667	lr:0.010091
Ep: 77   EpTime: 37.3777  Trainloss: 0.9396   Testloss: 1.6568  TrainAcc: 74.84   Top1: 58.7000    Top5: 86.4833	lr:0.009889
Ep: 78   EpTime: 39.2536  Trainloss: 0.9340   Testloss: 1.6690  TrainAcc: 74.96   Top1: 58.5000    Top5: 86.1167	lr:0.009692
Ep: 79   EpTime: 38.5526  Trainloss: 0.9288   Testloss: 1.6035  TrainAcc: 75.64   Top1: 59.2333    Top5: 86.7667	lr:0.009498
Ep: 80   EpTime: 38.2495  Trainloss: 0.9124   Testloss: 1.6210  TrainAcc: 75.74   Top1: 59.6833    Top5: 86.4667	lr:0.009308
Ep: 81   EpTime: 38.2060  Trainloss: 0.8969   Testloss: 1.6008  TrainAcc: 76.50   Top1: 60.2500    Top5: 86.7833	lr:0.009122
Checkpoint saved!!!
Ep: 82   EpTime: 37.6033  Trainloss: 0.8831   Testloss: 1.6498  TrainAcc: 76.47   Top1: 59.1333    Top5: 86.6667	lr:0.008939
Ep: 83   EpTime: 38.1183  Trainloss: 0.8871   Testloss: 1.6553  TrainAcc: 76.26   Top1: 59.3167    Top5: 86.5000	lr:0.008760
Ep: 84   EpTime: 37.7556  Trainloss: 0.8678   Testloss: 1.6500  TrainAcc: 76.75   Top1: 60.0333    Top5: 86.9333	lr:0.008585
Ep: 85   EpTime: 37.4336  Trainloss: 0.8618   Testloss: 1.6324  TrainAcc: 77.46   Top1: 59.5333    Top5: 86.6333	lr:0.008414
Ep: 86   EpTime: 38.2500  Trainloss: 0.8808   Testloss: 1.6222  TrainAcc: 76.87   Top1: 59.9167    Top5: 87.1833	lr:0.008245
Ep: 87   EpTime: 38.0266  Trainloss: 0.8271   Testloss: 1.6081  TrainAcc: 77.96   Top1: 60.4833    Top5: 87.3000	lr:0.008080
Checkpoint saved!!!
Ep: 88   EpTime: 38.3336  Trainloss: 0.8311   Testloss: 1.6229  TrainAcc: 78.15   Top1: 60.5333    Top5: 86.9667	lr:0.007919
Checkpoint saved!!!
Ep: 89   EpTime: 37.8915  Trainloss: 0.8307   Testloss: 1.6704  TrainAcc: 78.26   Top1: 59.5500    Top5: 86.6333	lr:0.007760
Ep: 90   EpTime: 37.5743  Trainloss: 0.8266   Testloss: 1.6464  TrainAcc: 78.31   Top1: 60.5667    Top5: 87.2000	lr:0.007605
Checkpoint saved!!!
Ep: 91   EpTime: 37.7070  Trainloss: 0.8071   Testloss: 1.6733  TrainAcc: 78.29   Top1: 59.4333    Top5: 86.5500	lr:0.007453
Ep: 92   EpTime: 37.3710  Trainloss: 0.7956   Testloss: 1.6662  TrainAcc: 79.27   Top1: 59.9000    Top5: 87.1000	lr:0.007304
Ep: 93   EpTime: 36.7930  Trainloss: 0.7945   Testloss: 1.6582  TrainAcc: 79.29   Top1: 59.7667    Top5: 86.8833	lr:0.007158
Ep: 94   EpTime: 38.2636  Trainloss: 0.7938   Testloss: 1.6583  TrainAcc: 79.20   Top1: 60.6167    Top5: 86.9500	lr:0.007015
Checkpoint saved!!!
Ep: 95   EpTime: 38.6541  Trainloss: 0.7940   Testloss: 1.6429  TrainAcc: 79.09   Top1: 59.7833    Top5: 86.8500	lr:0.006874
Ep: 96   EpTime: 38.6329  Trainloss: 0.7649   Testloss: 1.6234  TrainAcc: 80.20   Top1: 60.0333    Top5: 86.9333	lr:0.006737
Ep: 97   EpTime: 38.3478  Trainloss: 0.7772   Testloss: 1.6520  TrainAcc: 79.65   Top1: 59.7167    Top5: 86.6167	lr:0.006602
Ep: 98   EpTime: 38.6992  Trainloss: 0.7508   Testloss: 1.6524  TrainAcc: 80.34   Top1: 60.6500    Top5: 86.5500	lr:0.006470
Checkpoint saved!!!
Ep: 99   EpTime: 38.5840  Trainloss: 0.7497   Testloss: 1.6458  TrainAcc: 80.35   Top1: 60.2000    Top5: 87.1667	lr:0.006341
Ep: 100   EpTime: 38.4931  Trainloss: 0.7493   Testloss: 1.6116  TrainAcc: 80.73   Top1: 61.1500    Top5: 87.1333	lr:0.006214
Checkpoint saved!!!
Ep: 101   EpTime: 39.2567  Trainloss: 0.7435   Testloss: 1.6528  TrainAcc: 80.67   Top1: 60.6667    Top5: 87.2667	lr:0.006090
Ep: 102   EpTime: 38.5325  Trainloss: 0.7277   Testloss: 1.6706  TrainAcc: 80.95   Top1: 60.6667    Top5: 86.7000	lr:0.005968
Ep: 103   EpTime: 39.0156  Trainloss: 0.7378   Testloss: 1.6322  TrainAcc: 80.74   Top1: 60.6667    Top5: 87.4000	lr:0.005849
Ep: 104   EpTime: 39.1059  Trainloss: 0.7219   Testloss: 1.6734  TrainAcc: 80.82   Top1: 60.6833    Top5: 86.9500	lr:0.005732
Ep: 105   EpTime: 38.6335  Trainloss: 0.7171   Testloss: 1.6680  TrainAcc: 81.28   Top1: 60.8833    Top5: 86.9833	lr:0.005617
Ep: 106   EpTime: 38.2454  Trainloss: 0.7155   Testloss: 1.6517  TrainAcc: 81.23   Top1: 60.0833    Top5: 87.0333	lr:0.005505
Ep: 107   EpTime: 38.9095  Trainloss: 0.7100   Testloss: 1.6474  TrainAcc: 81.52   Top1: 60.7167    Top5: 87.3333	lr:0.005394
Ep: 108   EpTime: 37.4532  Trainloss: 0.6774   Testloss: 1.6733  TrainAcc: 82.33   Top1: 59.8833    Top5: 86.8333	lr:0.005287
Ep: 109   EpTime: 38.1194  Trainloss: 0.6976   Testloss: 1.6511  TrainAcc: 82.06   Top1: 60.1000    Top5: 87.1833	lr:0.005181
Ep: 110   EpTime: 37.7476  Trainloss: 0.6768   Testloss: 1.6721  TrainAcc: 82.58   Top1: 60.3833    Top5: 86.9500	lr:0.005077
Ep: 111   EpTime: 38.6745  Trainloss: 0.6810   Testloss: 1.6657  TrainAcc: 82.53   Top1: 60.8333    Top5: 86.4500	lr:0.004976
Ep: 112   EpTime: 38.3494  Trainloss: 0.6739   Testloss: 1.6716  TrainAcc: 82.41   Top1: 60.6500    Top5: 87.2000	lr:0.004876
Ep: 113   EpTime: 38.3903  Trainloss: 0.6780   Testloss: 1.6834  TrainAcc: 82.37   Top1: 60.7667    Top5: 86.7667	lr:0.004779
Ep: 114   EpTime: 38.4767  Trainloss: 0.6766   Testloss: 1.6844  TrainAcc: 82.28   Top1: 60.2000    Top5: 86.6667	lr:0.004683
Ep: 115   EpTime: 38.1226  Trainloss: 0.6658   Testloss: 1.7098  TrainAcc: 82.68   Top1: 60.3667    Top5: 86.4167	lr:0.004589
Ep: 116   EpTime: 38.0907  Trainloss: 0.6557   Testloss: 1.6669  TrainAcc: 82.75   Top1: 61.2500    Top5: 86.8167	lr:0.004498
Checkpoint saved!!!
Ep: 117   EpTime: 38.0030  Trainloss: 0.6480   Testloss: 1.6670  TrainAcc: 83.54   Top1: 60.7667    Top5: 86.9500	lr:0.004408
Ep: 118   EpTime: 37.6074  Trainloss: 0.6721   Testloss: 1.6675  TrainAcc: 82.33   Top1: 60.9667    Top5: 86.8833	lr:0.004320
Ep: 119   EpTime: 38.2103  Trainloss: 0.6324   Testloss: 1.6610  TrainAcc: 83.77   Top1: 60.8833    Top5: 87.0333	lr:0.004233
Ep: 120   EpTime: 37.2003  Trainloss: 0.6529   Testloss: 1.6728  TrainAcc: 83.22   Top1: 60.6000    Top5: 86.5500	lr:0.004148
Ep: 121   EpTime: 38.4414  Trainloss: 0.6104   Testloss: 1.6825  TrainAcc: 84.27   Top1: 60.3000    Top5: 86.8333	lr:0.004066
Ep: 122   EpTime: 38.3478  Trainloss: 0.6333   Testloss: 1.6564  TrainAcc: 83.68   Top1: 60.6167    Top5: 87.1333	lr:0.003984
Ep: 123   EpTime: 37.8224  Trainloss: 0.6249   Testloss: 1.6674  TrainAcc: 84.05   Top1: 60.8833    Top5: 87.0833	lr:0.003905
Ep: 124   EpTime: 38.7401  Trainloss: 0.6286   Testloss: 1.6559  TrainAcc: 84.14   Top1: 60.7667    Top5: 87.3500	lr:0.003826
Ep: 125   EpTime: 38.0676  Trainloss: 0.6369   Testloss: 1.6653  TrainAcc: 83.32   Top1: 60.5333    Top5: 87.1667	lr:0.003750
Ep: 126   EpTime: 37.2697  Trainloss: 0.6229   Testloss: 1.6839  TrainAcc: 83.90   Top1: 60.5833    Top5: 86.9167	lr:0.003675
Ep: 127   EpTime: 37.9025  Trainloss: 0.6238   Testloss: 1.6686  TrainAcc: 83.89   Top1: 60.7000    Top5: 87.0333	lr:0.003601
Ep: 128   EpTime: 39.1005  Trainloss: 0.6154   Testloss: 1.6957  TrainAcc: 84.17   Top1: 60.4333    Top5: 87.0333	lr:0.003529
Ep: 129   EpTime: 38.5351  Trainloss: 0.6018   Testloss: 1.6683  TrainAcc: 84.40   Top1: 60.9500    Top5: 87.1000	lr:0.003459
Ep: 130   EpTime: 38.0890  Trainloss: 0.6164   Testloss: 1.6676  TrainAcc: 84.23   Top1: 61.1833    Top5: 87.3167	lr:0.003390
Ep: 131   EpTime: 38.0062  Trainloss: 0.6051   Testloss: 1.6765  TrainAcc: 84.30   Top1: 60.7000    Top5: 86.9833	lr:0.003322
Ep: 132   EpTime: 37.9828  Trainloss: 0.6166   Testloss: 1.6774  TrainAcc: 84.03   Top1: 60.5333    Top5: 87.1833	lr:0.003255
Ep: 133   EpTime: 37.9543  Trainloss: 0.5994   Testloss: 1.6903  TrainAcc: 84.66   Top1: 60.6000    Top5: 86.8167	lr:0.003190
Ep: 134   EpTime: 37.4930  Trainloss: 0.5939   Testloss: 1.6791  TrainAcc: 84.82   Top1: 61.1000    Top5: 87.2167	lr:0.003126
Ep: 135   EpTime: 37.9537  Trainloss: 0.5955   Testloss: 1.6653  TrainAcc: 84.31   Top1: 61.2500    Top5: 86.9667	lr:0.003064
Ep: 136   EpTime: 38.7263  Trainloss: 0.5835   Testloss: 1.6894  TrainAcc: 84.81   Top1: 61.0167    Top5: 86.6333	lr:0.003003
Ep: 137   EpTime: 38.4420  Trainloss: 0.5842   Testloss: 1.6876  TrainAcc: 85.03   Top1: 61.1000    Top5: 86.9667	lr:0.002943
Ep: 138   EpTime: 38.8413  Trainloss: 0.5749   Testloss: 1.6934  TrainAcc: 85.01   Top1: 60.7000    Top5: 86.7833	lr:0.002884
Ep: 139   EpTime: 38.0117  Trainloss: 0.5995   Testloss: 1.6616  TrainAcc: 84.42   Top1: 61.0333    Top5: 86.8000	lr:0.002826
Ep: 140   EpTime: 38.1758  Trainloss: 0.5768   Testloss: 1.6876  TrainAcc: 85.21   Top1: 60.9667    Top5: 87.0500	lr:0.002770
Ep: 141   EpTime: 38.6802  Trainloss: 0.5724   Testloss: 1.6727  TrainAcc: 85.21   Top1: 60.6500    Top5: 86.8333	lr:0.002714
Ep: 142   EpTime: 38.6419  Trainloss: 0.5733   Testloss: 1.6691  TrainAcc: 85.38   Top1: 60.8000    Top5: 87.0833	lr:0.002660
Ep: 143   EpTime: 38.5086  Trainloss: 0.5742   Testloss: 1.6945  TrainAcc: 85.16   Top1: 60.8667    Top5: 86.8500	lr:0.002607
Ep: 144   EpTime: 38.6387  Trainloss: 0.5795   Testloss: 1.6794  TrainAcc: 85.30   Top1: 60.8833    Top5: 86.9833	lr:0.002555
Ep: 145   EpTime: 38.5609  Trainloss: 0.5787   Testloss: 1.6893  TrainAcc: 84.96   Top1: 60.8500    Top5: 86.9833	lr:0.002503
Ep: 146   EpTime: 36.9076  Trainloss: 0.5769   Testloss: 1.6890  TrainAcc: 85.23   Top1: 60.5833    Top5: 86.5333	lr:0.002453
Ep: 147   EpTime: 37.4461  Trainloss: 0.5528   Testloss: 1.6884  TrainAcc: 85.74   Top1: 60.8833    Top5: 87.0833	lr:0.002404
Ep: 148   EpTime: 37.9973  Trainloss: 0.5432   Testloss: 1.6667  TrainAcc: 86.21   Top1: 61.5000    Top5: 87.2167	lr:0.002356
Checkpoint saved!!!
Ep: 149   EpTime: 38.5983  Trainloss: 0.5567   Testloss: 1.6852  TrainAcc: 85.99   Top1: 61.3167    Top5: 86.9667	lr:0.002309
Ep: 150   EpTime: 37.8716  Trainloss: 0.5450   Testloss: 1.6975  TrainAcc: 85.98   Top1: 61.3000    Top5: 86.8000	lr:0.002263
Ep: 151   EpTime: 38.3874  Trainloss: 0.5583   Testloss: 1.6766  TrainAcc: 85.62   Top1: 60.8167    Top5: 86.9167	lr:0.002218
Ep: 152   EpTime: 37.1188  Trainloss: 0.5678   Testloss: 1.7005  TrainAcc: 85.67   Top1: 61.4333    Top5: 87.2000	lr:0.002173
Ep: 153   EpTime: 37.2590  Trainloss: 0.5499   Testloss: 1.6971  TrainAcc: 86.13   Top1: 61.6000    Top5: 87.2000	lr:0.002130
Checkpoint saved!!!
Ep: 154   EpTime: 37.4288  Trainloss: 0.5380   Testloss: 1.6840  TrainAcc: 86.19   Top1: 61.2000    Top5: 86.8833	lr:0.002087
Ep: 155   EpTime: 40.4233  Trainloss: 0.5476   Testloss: 1.6882  TrainAcc: 85.91   Top1: 60.7833    Top5: 86.8667	lr:0.002046
Ep: 156   EpTime: 38.8899  Trainloss: 0.5391   Testloss: 1.7064  TrainAcc: 86.67   Top1: 60.9167    Top5: 86.5833	lr:0.002005
Ep: 157   EpTime: 38.6425  Trainloss: 0.5329   Testloss: 1.6875  TrainAcc: 86.50   Top1: 61.2500    Top5: 87.1000	lr:0.001965
Ep: 158   EpTime: 36.9340  Trainloss: 0.5343   Testloss: 1.6906  TrainAcc: 86.43   Top1: 60.9000    Top5: 86.9333	lr:0.001925
Ep: 159   EpTime: 37.3151  Trainloss: 0.5345   Testloss: 1.6834  TrainAcc: 86.45   Top1: 60.6333    Top5: 87.1000	lr:0.001887
Ep: 160   EpTime: 37.5936  Trainloss: 0.5235   Testloss: 1.6980  TrainAcc: 86.58   Top1: 61.2500    Top5: 87.0500	lr:0.001849
Ep: 161   EpTime: 37.8111  Trainloss: 0.5422   Testloss: 1.6987  TrainAcc: 86.01   Top1: 61.0833    Top5: 87.2333	lr:0.001812
Ep: 162   EpTime: 37.4859  Trainloss: 0.5499   Testloss: 1.6846  TrainAcc: 86.08   Top1: 61.1500    Top5: 86.9667	lr:0.001776
Ep: 163   EpTime: 37.4363  Trainloss: 0.5302   Testloss: 1.6835  TrainAcc: 86.52   Top1: 61.2333    Top5: 86.8667	lr:0.001740
Ep: 164   EpTime: 37.5304  Trainloss: 0.5362   Testloss: 1.6955  TrainAcc: 86.51   Top1: 60.9667    Top5: 86.9500	lr:0.001705
Ep: 165   EpTime: 37.3739  Trainloss: 0.5251   Testloss: 1.6777  TrainAcc: 86.80   Top1: 61.7333    Top5: 87.0833	lr:0.001671
Checkpoint saved!!!
Ep: 166   EpTime: 38.4788  Trainloss: 0.5399   Testloss: 1.6921  TrainAcc: 86.32   Top1: 60.9333    Top5: 87.0500	lr:0.001638
Ep: 167   EpTime: 38.2683  Trainloss: 0.5142   Testloss: 1.6898  TrainAcc: 86.79   Top1: 61.3000    Top5: 86.9667	lr:0.001605
Ep: 168   EpTime: 37.7189  Trainloss: 0.5060   Testloss: 1.6868  TrainAcc: 86.95   Top1: 61.1167    Top5: 87.0500	lr:0.001573
Ep: 169   EpTime: 37.9297  Trainloss: 0.5187   Testloss: 1.6946  TrainAcc: 86.59   Top1: 61.6833    Top5: 86.6833	lr:0.001542
Ep: 170   EpTime: 37.9592  Trainloss: 0.5322   Testloss: 1.6947  TrainAcc: 86.38   Top1: 61.3667    Top5: 86.7667	lr:0.001511
Ep: 171   EpTime: 37.6486  Trainloss: 0.5168   Testloss: 1.6988  TrainAcc: 86.94   Top1: 61.2667    Top5: 86.8833	lr:0.001481
Ep: 172   EpTime: 37.2177  Trainloss: 0.5237   Testloss: 1.6892  TrainAcc: 87.09   Top1: 61.7333    Top5: 87.0500	lr:0.001451
Ep: 173   EpTime: 37.2331  Trainloss: 0.5150   Testloss: 1.6956  TrainAcc: 87.02   Top1: 61.7167    Top5: 87.1500	lr:0.001422
Ep: 174   EpTime: 36.8509  Trainloss: 0.5248   Testloss: 1.7035  TrainAcc: 86.45   Top1: 61.2333    Top5: 87.0500	lr:0.001393
Ep: 175   EpTime: 37.7403  Trainloss: 0.5218   Testloss: 1.6764  TrainAcc: 86.65   Top1: 61.1833    Top5: 87.0167	lr:0.001366
Ep: 176   EpTime: 37.7324  Trainloss: 0.5132   Testloss: 1.6911  TrainAcc: 87.06   Top1: 61.0500    Top5: 86.6667	lr:0.001338
Ep: 177   EpTime: 37.1864  Trainloss: 0.4984   Testloss: 1.7000  TrainAcc: 87.29   Top1: 61.0000    Top5: 86.7500	lr:0.001312
Ep: 178   EpTime: 37.2412  Trainloss: 0.5162   Testloss: 1.7051  TrainAcc: 86.92   Top1: 61.4000    Top5: 86.7833	lr:0.001285
Ep: 179   EpTime: 38.0856  Trainloss: 0.5132   Testloss: 1.6945  TrainAcc: 86.87   Top1: 61.3667    Top5: 87.0667	lr:0.001260
Ep: 180   EpTime: 37.5040  Trainloss: 0.5158   Testloss: 1.6998  TrainAcc: 87.12   Top1: 61.2333    Top5: 86.8833	lr:0.001234
Ep: 181   EpTime: 36.6079  Trainloss: 0.5176   Testloss: 1.7056  TrainAcc: 87.03   Top1: 61.5333    Top5: 86.8833	lr:0.001210
Ep: 182   EpTime: 36.6838  Trainloss: 0.5172   Testloss: 1.7067  TrainAcc: 87.00   Top1: 60.5667    Top5: 86.7833	lr:0.001186
Ep: 183   EpTime: 36.7698  Trainloss: 0.5163   Testloss: 1.7006  TrainAcc: 87.10   Top1: 60.7000    Top5: 86.9667	lr:0.001162
Ep: 184   EpTime: 36.6184  Trainloss: 0.4984   Testloss: 1.6973  TrainAcc: 87.61   Top1: 61.0333    Top5: 86.8167	lr:0.001139
Ep: 185   EpTime: 36.5561  Trainloss: 0.5111   Testloss: 1.7015  TrainAcc: 86.78   Top1: 60.8333    Top5: 86.9333	lr:0.001116
Ep: 186   EpTime: 36.5649  Trainloss: 0.5092   Testloss: 1.7125  TrainAcc: 87.02   Top1: 61.1667    Top5: 86.8333	lr:0.001093
Ep: 187   EpTime: 36.7036  Trainloss: 0.5006   Testloss: 1.7076  TrainAcc: 87.43   Top1: 60.7667    Top5: 86.6833	lr:0.001072
Ep: 188   EpTime: 37.0902  Trainloss: 0.5025   Testloss: 1.6931  TrainAcc: 87.25   Top1: 61.0667    Top5: 86.8333	lr:0.001050
Ep: 189   EpTime: 37.4770  Trainloss: 0.5054   Testloss: 1.6964  TrainAcc: 87.57   Top1: 61.3667    Top5: 87.0000	lr:0.001029
Ep: 190   EpTime: 37.7374  Trainloss: 0.5084   Testloss: 1.7028  TrainAcc: 87.06   Top1: 61.3167    Top5: 86.8167	lr:0.001009
Ep: 191   EpTime: 37.3141  Trainloss: 0.4936   Testloss: 1.7036  TrainAcc: 87.59   Top1: 61.1167    Top5: 86.8333	lr:0.000988
Ep: 192   EpTime: 37.3509  Trainloss: 0.5073   Testloss: 1.7023  TrainAcc: 87.22   Top1: 61.0667    Top5: 86.7833	lr:0.000969
Ep: 193   EpTime: 37.1932  Trainloss: 0.4953   Testloss: 1.7116  TrainAcc: 87.34   Top1: 61.0167    Top5: 86.7333	lr:0.000949
Ep: 194   EpTime: 36.8319  Trainloss: 0.4984   Testloss: 1.7158  TrainAcc: 87.00   Top1: 60.5167    Top5: 86.7167	lr:0.000930
Ep: 195   EpTime: 36.5738  Trainloss: 0.4966   Testloss: 1.7129  TrainAcc: 87.31   Top1: 60.8167    Top5: 86.8500	lr:0.000912
Ep: 196   EpTime: 36.7902  Trainloss: 0.4948   Testloss: 1.7043  TrainAcc: 87.48   Top1: 60.7500    Top5: 86.9167	lr:0.000893
Ep: 197   EpTime: 37.1263  Trainloss: 0.4895   Testloss: 1.7044  TrainAcc: 87.72   Top1: 61.2500    Top5: 86.6000	lr:0.000876
Ep: 198   EpTime: 36.2238  Trainloss: 0.5007   Testloss: 1.7016  TrainAcc: 87.46   Top1: 60.9000    Top5: 86.7333	lr:0.000858
Ep: 199   EpTime: 36.6431  Trainloss: 0.4869   Testloss: 1.7004  TrainAcc: 87.54   Top1: 61.1833    Top5: 86.5167	lr:0.000841
Ep: 200   EpTime: 36.5065  Trainloss: 0.4871   Testloss: 1.7043  TrainAcc: 87.57   Top1: 61.1167    Top5: 86.4833	lr:0.000824
